MPI_insiderank_optimisedserial
Process 0: 52.379300, 27.249460, 25.581899, 26.640297, 26.473851, 28.986988, 26.830792, 26.845975, 26.769144, 24.131493, 26.797637, 26.629035, 25.735314, 26.810092, 26.779117, 24.118581, 26.845152, 26.713734, 24.112807, 28.061813, 26.828448, 24.164576, 50.008493, 26.815045, 101.560997, 24.284511, 24.433035, 24.480349, 24.388000, 24.311860
Process 1: 42.039607, 17.310491, 15.633616, 16.269993, 16.412370, 17.973602, 16.867912, 16.758014, 16.860945, 14.164382, 16.703279, 16.684991, 14.714245, 16.785540, 16.750593, 14.178547, 16.807838, 16.762347, 14.179164, 17.238210, 16.829675, 14.147674, 39.922861, 16.830790, 82.690173, 14.303501, 14.379204, 14.438737, 14.413876, 14.324073
Process 2: 42.144230, 17.428315, 15.735958, 16.374094, 16.510737, 18.079898, 16.953733, 16.856779, 16.954498, 14.278570, 16.799585, 16.783740, 14.821060, 16.886315, 16.849558, 14.295650, 16.904835, 16.880477, 14.278761, 17.343665, 16.933213, 14.244524, 40.026985, 16.931782, 82.797387, 14.418356, 14.477285, 14.520852, 14.514660, 14.433328
Process 3: 42.262277, 17.518144, 15.864755, 16.486086, 16.629341, 18.192425, 17.053120, 16.963723, 17.076394, 14.371227, 16.910395, 16.888190, 14.932917, 17.002862, 16.967385, 14.394187, 17.029286, 16.970350, 14.407770, 17.459605, 17.059236, 14.350289, 40.148356, 17.049936, 82.922182, 14.520004, 14.593495, 14.633467, 14.622680, 14.533490
Process 4: 42.347524, 17.604454, 15.942522, 16.577688, 16.714346, 18.283016, 17.136692, 17.050393, 17.150211, 14.463808, 17.003722, 16.983480, 15.021810, 17.092382, 17.034974, 14.483569, 17.106301, 17.060661, 14.485644, 17.544865, 17.135910, 14.439090, 40.229438, 17.153758, 83.024008, 14.613612, 14.680684, 14.724508, 14.713354, 14.624411
Process 5: 42.450180, 17.659991, 16.038799, 16.678988, 16.813474, 18.383549, 17.236531, 17.116929, 17.241161, 14.513161, 17.099606, 17.080442, 15.124426, 17.161570, 17.125844, 14.548696, 17.199340, 17.120356, 14.579218, 17.647895, 17.230443, 14.536294, 40.325965, 17.243318, 83.110989, 14.698068, 14.777789, 14.787065, 14.774239, 14.687392
Process 6: 42.523842, 17.717585, 16.109732, 16.755174, 16.884274, 18.457509, 17.307103, 17.175252, 17.314375, 14.570968, 17.171714, 17.152908, 15.198847, 17.213047, 17.194226, 14.594052, 17.270236, 17.166604, 14.650262, 17.725275, 17.302120, 14.610065, 40.397760, 17.304946, 83.171161, 14.756115, 14.848139, 14.835983, 14.826956, 14.731281
Process 7: 42.634114, 17.807484, 16.214008, 16.865847, 16.988047, 18.565699, 17.411468, 17.279180, 17.414632, 14.660687, 17.274895, 17.256968, 15.309825, 17.295297, 17.300797, 14.665483, 17.375643, 17.247287, 14.754958, 17.828452, 17.408439, 14.714506, 40.502003, 17.379973, 83.254485, 14.829210, 14.955712, 14.920947, 14.914381, 14.810098
Process 8: 42.713303, 17.884523, 16.287107, 16.940667, 17.060506, 18.645596, 17.487663, 17.354665, 17.492330, 14.739688, 17.348832, 17.331536, 15.385979, 17.375540, 17.376471, 14.740886, 17.447474, 17.323644, 14.828426, 17.908486, 17.482121, 14.789880, 40.575170, 17.453754, 83.340828, 14.897770, 15.028696, 14.998981, 14.992623, 14.887439
Process 9: 42.809359, 17.972337, 16.373495, 17.032493, 17.149375, 18.732918, 17.575770, 17.457806, 17.577991, 14.827533, 17.436846, 17.416767, 15.479609, 17.464490, 17.466074, 14.832030, 17.536201, 17.412596, 14.916225, 17.997656, 17.572584, 14.875388, 40.662117, 17.542689, 83.435026, 14.984426, 15.117173, 15.087327, 15.083155, 14.977991
Process 10: 42.895948, 18.051062, 16.450356, 17.109349, 17.224454, 18.815618, 17.650713, 17.536747, 17.655009, 14.907232, 17.512636, 17.492851, 15.559570, 17.544375, 17.541139, 14.910461, 17.610716, 17.491285, 14.991728, 18.077920, 17.647100, 14.953336, 40.737453, 17.608973, 83.503044, 15.053116, 15.191371, 15.169039, 15.159561, 15.057546
Process 11: 43.003380, 18.137380, 16.534464, 17.204548, 17.309247, 18.910133, 17.733326, 17.620912, 17.737053, 14.992512, 17.595697, 17.576323, 15.658312, 17.630283, 17.624523, 14.996311, 17.694367, 17.576380, 15.075013, 18.175861, 17.731184, 15.036512, 40.821617, 17.698684, 83.595289, 15.142333, 15.275339, 15.253388, 15.247049, 15.143008
Process 12: 43.067206, 18.208874, 16.605967, 17.295897, 17.381303, 19.001184, 17.804337, 17.692377, 17.810565, 15.065759, 17.668727, 17.649698, 15.746507, 17.704228, 17.697306, 15.068741, 17.766834, 17.657754, 15.147776, 18.262871, 17.802945, 15.107814, 40.893475, 17.770519, 83.675723, 15.216157, 15.345010, 15.334394, 15.319072, 15.216695
Process 13: 43.154205, 18.283382, 16.681238, 17.383078, 17.456499, 19.096941, 17.880616, 17.767034, 17.886680, 15.151524, 17.743508, 17.724714, 15.844681, 17.780391, 17.772705, 15.143658, 17.840754, 17.747123, 15.223692, 18.360643, 17.878777, 15.182764, 40.970341, 17.854959, 83.773705, 15.298873, 15.418985, 15.415905, 15.394652, 15.290811
Process 14: 43.239337, 18.368653, 16.750794, 17.477896, 17.525537, 19.192153, 17.951498, 17.836025, 17.955747, 15.238363, 17.813462, 17.795352, 15.941335, 17.855338, 17.847918, 15.220349, 17.909199, 17.832636, 15.292707, 18.459952, 17.948257, 15.253674, 41.041349, 17.912292, 83.851684, 15.378377, 15.487686, 15.498432, 15.465413, 15.379445
Process 15: 43.338909, 18.475177, 16.823423, 17.573285, 17.599599, 19.297411, 18.046404, 17.911141, 18.030915, 15.334772, 17.887237, 17.868142, 16.050803, 17.952503, 17.942084, 15.312049, 17.986058, 17.935545, 15.366855, 18.563323, 18.021866, 15.326592, 41.118501, 17.996645, 83.951306, 15.476619, 15.560266, 15.589332, 15.557412, 15.470520
Process 16: 43.431378, 18.575089, 16.886156, 17.670365, 17.677306, 19.393978, 18.128610, 18.000103, 18.096807, 15.427850, 17.979846, 17.941100, 16.150463, 18.037599, 18.029646, 15.395425, 18.073183, 18.034719, 15.430639, 18.664381, 18.093675, 15.406637, 41.194303, 18.085021, 84.039300, 15.565254, 15.645664, 15.684723, 15.641719, 15.561867
Process 17: 43.525581, 18.668316, 16.982180, 17.774298, 17.769531, 19.499773, 18.220781, 18.097800, 18.186914, 15.516981, 18.079296, 18.030886, 16.253042, 18.127108, 18.127395, 15.496326, 18.167479, 18.125799, 15.527600, 18.767830, 18.187149, 15.495703, 41.297139, 18.183602, 84.138441, 15.664291, 15.755390, 15.774503, 15.737450, 15.654984
Process 18: 43.622670, 18.743793, 17.071623, 17.873447, 17.865119, 19.599296, 18.319155, 18.185865, 18.282617, 15.613410, 18.169743, 18.126902, 16.352426, 18.214341, 18.210188, 15.582554, 18.263456, 18.215751, 15.614500, 18.873782, 18.284784, 15.590866, 41.383283, 18.264963, 84.223893, 15.742671, 15.844417, 15.864248, 15.833002, 15.746346
Process 19: 43.725374, 18.840069, 17.169360, 17.976766, 17.967352, 19.706046, 18.414486, 18.288089, 18.380720, 15.706737, 18.268460, 18.225171, 16.459431, 18.310193, 18.301130, 15.684336, 18.364458, 18.307462, 15.717533, 18.979430, 18.378433, 15.683282, 41.480196, 18.374512, 84.334194, 15.848744, 15.945675, 15.963022, 15.928215, 15.846999
Process 20: 43.823381, 18.932700, 17.273565, 18.073682, 18.058989, 19.808313, 18.510168, 18.388160, 18.473913, 15.802758, 18.356779, 18.311983, 16.557259, 18.395744, 18.395065, 15.775601, 18.458778, 18.399628, 15.809234, 19.081595, 18.471657, 15.772351, 41.572155, 18.465506, 84.429415, 15.941213, 16.040280, 16.059642, 16.019645, 15.943828
Process 21: 43.933039, 19.026432, 17.370352, 18.181428, 18.157125, 19.917373, 18.608905, 18.497746, 18.569847, 15.895730, 18.457612, 18.410375, 16.665095, 18.496489, 18.495480, 15.869799, 18.563206, 18.492167, 15.913489, 19.188502, 18.575397, 15.868735, 41.671719, 18.567125, 84.526597, 16.044662, 16.141829, 16.160736, 16.119940, 16.044803
Process 22: 44.031717, 19.125253, 17.458982, 18.283141, 18.254596, 20.022021, 18.711123, 18.601897, 18.669015, 15.992081, 18.549290, 18.502957, 16.765654, 18.590909, 18.595294, 15.964110, 18.660715, 18.587548, 16.007550, 19.291435, 18.675951, 15.964067, 41.770713, 18.667379, 84.621374, 16.136067, 16.241696, 16.254903, 16.220763, 16.146916
Process 23: 44.135475, 19.222832, 17.561556, 18.389876, 18.360566, 20.127743, 18.816562, 18.707859, 18.774511, 16.092456, 18.654861, 18.612160, 16.873051, 18.690768, 18.695763, 16.063295, 18.767815, 18.690298, 16.109774, 19.402660, 18.777718, 16.065167, 41.876213, 18.773154, 84.722771, 16.238114, 16.346771, 16.354166, 16.319144, 16.250432
Process 24: 44.235483, 19.319675, 17.653254, 18.485768, 18.457340, 20.224547, 18.912754, 18.806338, 18.868837, 16.189356, 18.751388, 18.710283, 16.974389, 18.786569, 18.789913, 16.162538, 18.862375, 18.787470, 16.205422, 19.505205, 18.872253, 16.162013, 41.974109, 18.868938, 84.818897, 16.336579, 16.440573, 16.450134, 16.418671, 16.352192
Process 25: 44.342726, 19.424335, 17.749633, 18.587603, 18.565243, 20.334776, 19.017772, 18.913243, 18.972668, 16.290232, 18.856639, 18.812602, 17.086769, 18.892185, 18.892754, 16.265155, 18.970634, 18.894276, 16.310077, 19.618366, 18.974958, 16.266560, 42.079740, 18.974535, 84.929940, 16.439769, 16.547799, 16.555798, 16.537017, 16.460225
Process 26: 44.443415, 19.524117, 17.852234, 18.695513, 18.663187, 20.439130, 19.116862, 19.016088, 19.075219, 16.390153, 18.953079, 18.916727, 17.195031, 18.990879, 18.997004, 16.362558, 19.071965, 18.995332, 16.408619, 19.725023, 19.076915, 16.370034, 42.180609, 19.075959, 85.031228, 16.542574, 16.649885, 16.655893, 16.640682, 16.564171
Process 27: 44.550313, 19.628187, 17.958663, 18.802402, 18.762128, 20.543818, 19.221844, 19.121673, 19.182574, 16.491646, 19.053773, 19.016477, 17.305020, 19.094730, 19.103157, 16.465866, 19.176074, 19.101741, 16.514978, 19.834174, 19.184181, 16.476930, 42.287236, 19.180172, 85.136171, 16.645626, 16.755725, 16.761577, 16.744934, 16.668533
Process 28: 44.652132, 19.730843, 18.061415, 18.908840, 18.862316, 20.647386, 19.322380, 19.224862, 19.286794, 16.593217, 19.153732, 19.120211, 17.412018, 19.198328, 19.206551, 16.567863, 19.280957, 19.198251, 16.614191, 19.945486, 19.288203, 16.578080, 42.383287, 19.281644, 85.233843, 16.748193, 16.857965, 16.862495, 16.848545, 16.771870
Process 29: 44.762667, 19.839141, 18.169206, 19.018445, 18.965714, 20.759198, 19.434285, 19.330415, 19.395181, 16.700780, 19.262747, 19.227184, 17.526278, 19.308461, 19.316893, 16.676383, 19.393751, 19.305742, 16.719675, 20.058148, 19.396251, 16.687771, 42.487281, 19.395073, 85.343488, 16.859248, 16.967888, 16.971928, 16.959511, 16.879424
Process 30: 44.865654, 19.945434, 18.276992, 19.115803, 19.075714, 20.867484, 19.541081, 19.432825, 19.500014, 16.803916, 19.370831, 19.330087, 17.638600, 19.411653, 19.421500, 16.780960, 19.496545, 19.411325, 16.826143, 20.168861, 19.502493, 16.791652, 42.594079, 19.501978, 85.452570, 16.963557, 17.074263, 17.075199, 17.062241, 16.985225
Process 31: 44.975961, 20.053729, 18.385088, 19.216430, 19.184028, 20.980427, 19.646418, 19.541609, 19.609802, 16.914341, 19.480153, 19.440005, 17.752430, 19.520044, 19.532243, 16.891448, 19.608621, 19.524301, 16.936619, 20.280266, 19.613295, 16.897192, 42.703146, 19.599404, 85.577189, 17.074321, 17.185497, 17.185967, 17.173350, 17.096131
Process 32: 45.098669, 20.169960, 18.503541, 19.335014, 19.303491, 21.100730, 19.765672, 19.656490, 19.731042, 17.027455, 19.600474, 19.559012, 17.874378, 19.639945, 19.648093, 17.007609, 19.730036, 19.644227, 17.059697, 20.405112, 19.736501, 17.018801, 42.822431, 19.720077, 85.707811, 17.192026, 17.306342, 17.304765, 17.293024, 17.218333
Process 33: 45.193570, 20.269390, 18.601328, 19.440629, 19.419626, 21.201920, 19.866008, 19.759654, 19.826677, 17.126912, 19.701036, 19.657395, 17.963538, 19.743453, 19.748779, 17.106832, 19.827801, 19.738869, 17.162485, 20.506635, 19.836401, 17.120444, 42.924254, 19.820447, 85.823303, 17.299200, 17.407782, 17.409222, 17.397378, 17.317866
Process 34: 45.285202, 20.360531, 18.693537, 19.529140, 19.503993, 21.285615, 19.953227, 19.848604, 19.914397, 17.215687, 19.789694, 19.746410, 18.047707, 19.832940, 19.834289, 17.189616, 19.913582, 19.823300, 17.250009, 20.592117, 19.924257, 17.203997, 43.014530, 19.902456, 85.890230, 17.372392, 17.493754, 17.495297, 17.473855, 17.401104
Process 35: 45.387032, 20.461556, 18.793286, 19.634917, 19.596515, 21.381808, 20.053579, 19.955798, 20.014025, 17.319462, 19.892973, 19.847717, 18.149026, 19.929317, 19.940904, 17.294485, 20.016543, 19.923502, 17.352232, 20.687345, 20.025093, 17.302355, 43.116325, 20.004886, 86.007955, 17.465274, 17.599221, 17.612435, 17.574406, 17.498845
Process 36: 45.471749, 20.545275, 18.876437, 19.717891, 19.678995, 21.462691, 20.137073, 20.040339, 20.098835, 17.402035, 19.990617, 19.930098, 18.225212, 20.013366, 20.023959, 17.377180, 20.085237, 20.007423, 17.436669, 20.752869, 20.102979, 17.386435, 43.204556, 20.075793, 86.092958, 17.543392, 17.683853, 17.688415, 17.659985, 17.567563
Process 37: 45.559436, 20.637564, 18.967930, 19.807537, 19.767715, 21.572893, 20.228227, 20.131544, 20.184578, 17.490634, 20.070258, 20.021119, 18.317589, 20.101704, 20.114320, 17.465571, 20.172623, 20.096930, 17.526876, 20.844954, 20.193656, 17.476645, 43.293485, 20.165394, 86.176954, 17.632889, 17.775163, 17.776602, 17.759041, 17.656969
Process 38: 45.631309, 20.710500, 19.042995, 19.881045, 19.842366, 21.627524, 20.298671, 20.204111, 20.254389, 17.564140, 20.136214, 20.092511, 18.388840, 20.179117, 20.186346, 17.537346, 20.243018, 20.168956, 17.598063, 20.918309, 20.267833, 17.552728, 43.367282, 20.238240, 86.237712, 17.704701, 17.848055, 17.849672, 17.822676, 17.728807
Process 39: 45.726328, 20.791442, 19.119473, 19.976894, 19.936891, 21.714804, 20.392015, 20.298372, 20.341770, 17.654643, 20.225246, 20.174837, 18.469082, 20.269800, 20.266321, 17.616124, 20.323376, 20.250723, 17.678505, 20.997279, 20.347694, 17.641895, 43.447570, 20.318388, 86.335465, 17.784991, 17.929244, 17.931614, 17.901506, 17.812489
Process 40: 45.805769, 20.855169, 19.181409, 20.052658, 20.013061, 21.786746, 20.467083, 20.374020, 20.416183, 17.731873, 20.298793, 20.255022, 18.546552, 20.345471, 20.341085, 17.688600, 20.397000, 20.325177, 17.759272, 21.075835, 20.414800, 17.721380, 43.527687, 20.388160, 86.417411, 17.847057, 18.000264, 18.008083, 17.972416, 17.886873
Process 41: 45.889780, 20.937706, 19.262151, 20.139164, 20.096859, 21.861819, 20.550817, 20.460884, 20.496965, 17.814204, 20.379503, 20.338757, 18.632798, 20.431566, 20.425753, 17.771141, 20.479415, 20.411243, 17.844862, 21.160623, 20.498789, 17.802380, 43.611394, 20.468967, 86.475116, 17.930427, 18.081490, 18.090295, 18.064428, 17.967742
Process 42: 45.965175, 21.011704, 19.336334, 20.210430, 20.172234, 21.929132, 20.626429, 20.537776, 20.573574, 17.885719, 20.457293, 20.417405, 18.707847, 20.501249, 20.502649, 17.841313, 20.554005, 20.488376, 17.923101, 21.233543, 20.571865, 17.878083, 43.685029, 20.545750, 86.557288, 18.004026, 18.157925, 18.166218, 18.131425, 18.043236
Process 43: 46.048041, 21.091657, 19.419813, 20.292306, 20.253241, 22.011707, 20.715177, 20.618898, 20.655040, 17.970889, 20.539458, 20.499717, 18.786458, 20.584086, 20.582346, 17.926312, 20.636925, 20.568464, 18.004620, 21.313511, 20.650951, 17.956345, 43.762771, 20.626130, 86.652991, 18.087471, 18.240090, 18.246156, 18.210101, 18.123613
Process 44: 46.114912, 21.160020, 19.484987, 20.357324, 20.321376, 22.076048, 20.788561, 20.688901, 20.725789, 18.036929, 20.610548, 20.570167, 18.854421, 20.648191, 20.650303, 17.990562, 20.706500, 20.634722, 18.073713, 21.376485, 20.718808, 18.021874, 43.832510, 20.694778, 86.731085, 18.153892, 18.309071, 18.311588, 18.279269, 18.191054
Process 45: 46.189425, 21.235417, 19.559872, 20.432934, 20.397946, 22.149762, 20.865453, 20.764652, 20.801151, 18.115311, 20.687240, 20.646623, 18.927758, 20.724305, 20.726585, 18.066660, 20.781774, 20.709221, 18.149114, 21.453114, 20.791325, 18.098297, 43.907614, 20.769992, 86.785573, 18.232371, 18.383901, 18.388909, 18.353300, 18.264863
Process 46: 46.251663, 21.302085, 19.623111, 20.495189, 20.462555, 22.212797, 20.926949, 20.828915, 20.866761, 18.177710, 20.752741, 20.713716, 18.989164, 20.787886, 20.790251, 18.128320, 20.844169, 20.771234, 18.212760, 21.514046, 20.854732, 18.158904, 43.972466, 20.835734, 86.846628, 18.296035, 18.448130, 18.451177, 18.416917, 18.328171
Process 47: 46.323759, 21.373933, 19.693711, 20.567390, 20.535365, 22.281796, 20.990506, 20.901466, 20.939390, 18.251463, 20.826332, 20.786631, 19.058992, 20.861073, 20.862736, 18.201362, 20.916296, 20.842832, 18.284720, 21.585176, 20.926067, 18.231244, 44.046035, 20.907575, 86.934750, 18.369214, 18.520502, 18.524311, 18.488357, 18.401898
Process 48: 46.383068, 21.434833, 19.752466, 20.625773, 20.594103, 22.341391, 21.044575, 20.962888, 21.000458, 18.311069, 20.887222, 20.846419, 19.118995, 20.919346, 20.920921, 18.260779, 20.975797, 20.902258, 18.343027, 21.643995, 20.984926, 18.290861, 44.122375, 20.967059, 87.012055, 18.428501, 18.578516, 18.582886, 18.551246, 18.459847
Process 49: 46.451253, 21.500785, 19.820002, 20.693571, 20.661231, 22.413069, 21.111822, 21.033392, 21.066468, 18.379062, 20.952775, 20.914072, 19.191042, 20.987126, 20.988336, 18.327894, 21.045801, 20.971580, 18.410393, 21.710896, 21.051952, 18.357954, 44.198772, 21.033819, 87.072428, 18.494913, 18.646577, 18.652006, 18.616222, 18.528293
Process 50: 46.506254, 21.558294, 19.875535, 20.748850, 20.716234, 22.517006, 21.166926, 21.097384, 21.120966, 18.433926, 21.007320, 20.972816, 19.292353, 21.042604, 21.043922, 18.383166, 21.100381, 21.026979, 18.465062, 21.775389, 21.108116, 18.414177, 44.251625, 21.090029, 87.148533, 18.551518, 18.702069, 18.707008, 18.674583, 18.582982
Process 51: 46.569963, 21.624188, 19.940615, 20.812275, 20.781124, 22.624946, 21.230351, 21.163838, 21.187170, 18.496962, 21.081319, 21.040218, 19.402007, 21.120441, 21.109008, 18.448881, 21.164542, 21.091151, 18.531144, 21.882746, 21.174834, 18.479270, 44.315502, 21.156214, 87.226595, 18.616244, 18.765295, 18.771150, 18.735944, 18.652551
Process 52: 46.651616, 21.678557, 20.012964, 20.891903, 20.866847, 22.732884, 21.301749, 21.246267, 21.258570, 18.578503, 21.152914, 21.097514, 19.505294, 21.199406, 21.163067, 18.520031, 21.222834, 21.167322, 18.601079, 21.977141, 21.228996, 18.552978, 44.368190, 21.234495, 87.266804, 18.677112, 18.820605, 18.839231, 18.797008, 18.723130
Process 53: 46.740963, 21.758583, 20.101564, 20.977594, 20.951196, 22.842576, 21.382533, 21.325098, 21.349440, 18.668000, 21.243892, 21.187119, 19.617516, 21.283764, 21.238848, 18.608224, 21.301659, 21.248991, 18.682028, 22.086358, 21.302344, 18.647178, 44.436944, 21.324069, 87.327733, 18.760832, 18.908960, 18.919506, 18.877532, 18.816155
Process 54: 46.830063, 21.838415, 20.180547, 21.066963, 21.027935, 22.951706, 21.463271, 21.395292, 21.426027, 18.750306, 21.334199, 21.263259, 19.724613, 21.364353, 21.315222, 18.694677, 21.376010, 21.324204, 18.763331, 22.183425, 21.378148, 18.721978, 44.522198, 21.398989, 87.407530, 18.833342, 18.987175, 18.990236, 18.952913, 18.899437
Process 55: 46.928332, 21.927959, 20.274474, 21.163512, 21.123653, 23.070005, 21.549191, 21.488634, 21.521103, 18.836783, 21.426191, 21.354165, 19.838017, 21.455782, 21.402603, 18.783131, 21.465016, 21.411401, 18.849931, 22.293080, 21.465895, 18.813625, 44.613173, 21.486699, 87.486345, 18.923491, 19.078720, 19.080896, 19.039924, 18.993461
Process 56: 47.014887, 22.015488, 20.358251, 21.258754, 21.204928, 23.178901, 21.625037, 21.571371, 21.619370, 18.922893, 21.512561, 21.444247, 19.943947, 21.533231, 21.488092, 18.865375, 21.545391, 21.489260, 18.935597, 22.393227, 21.544898, 18.897311, 44.691082, 21.572312, 87.539581, 19.003248, 19.174687, 19.160894, 19.126891, 19.075367
Process 57: 47.117384, 22.112774, 20.455053, 21.356415, 21.298080, 23.296509, 21.721787, 21.665077, 21.704842, 19.009308, 21.606177, 21.532978, 20.060392, 21.626259, 21.579089, 18.962245, 21.642124, 21.575140, 19.024189, 22.504508, 21.637967, 18.988886, 44.788455, 21.687927, 87.642179, 19.092779, 19.273422, 19.251031, 19.213981, 19.163748
Process 58: 47.209863, 22.198768, 20.546954, 21.446666, 21.389639, 23.405555, 21.806083, 21.746722, 21.785997, 19.093166, 21.692442, 21.620628, 20.169422, 21.709977, 21.670647, 19.050462, 21.725239, 21.663815, 19.110615, 22.603691, 21.719070, 19.070382, 44.882689, 21.782041, 87.737014, 19.174949, 19.352959, 19.341789, 19.294426, 19.250012
Process 59: 47.314036, 22.296082, 20.648541, 21.554474, 21.485723, 23.525151, 21.898486, 21.844414, 21.886376, 19.193322, 21.787331, 21.715358, 20.286985, 21.805415, 21.765152, 19.143741, 21.822177, 21.754728, 19.209461, 22.715020, 21.816233, 19.163572, 44.979156, 21.874611, 87.842311, 19.279361, 19.459682, 19.439558, 19.397906, 19.341214
Process 60: 47.409791, 22.389055, 20.736742, 21.645437, 21.577066, 23.634910, 21.989938, 21.932988, 21.965081, 19.295108, 21.877367, 21.808447, 20.395652, 21.891247, 21.850033, 19.228871, 21.917156, 21.837542, 19.302207, 22.823350, 21.907788, 19.261302, 45.075350, 21.960780, 87.909109, 19.369412, 19.547661, 19.530212, 19.482547, 19.432518
Process 61: 47.512849, 22.491782, 20.830126, 21.746857, 21.677495, 23.750915, 22.087908, 22.035870, 22.063114, 19.394864, 21.976751, 21.904896, 20.511908, 21.987399, 21.946563, 19.322630, 22.012355, 21.939383, 19.401042, 22.933585, 22.011255, 19.363846, 45.174533, 22.069743, 88.030530, 19.471286, 19.654717, 19.626383, 19.587517, 19.529165
Process 62: 47.610861, 22.590364, 20.919625, 21.844116, 21.771385, 23.861850, 22.186530, 22.139669, 22.151815, 19.489499, 22.065688, 21.991646, 20.624649, 22.079422, 22.055513, 19.420533, 22.107415, 22.027895, 19.494648, 23.036491, 22.105933, 19.460449, 45.265223, 22.159280, 88.136264, 19.558661, 19.740941, 19.730072, 19.675705, 19.629527
Process 63: 47.725077, 22.694564, 21.027348, 21.952689, 21.874903, 23.980621, 22.289184, 22.241597, 22.257404, 19.589401, 22.168300, 22.100771, 20.743341, 22.185169, 22.158807, 19.521273, 22.224057, 22.124096, 19.609388, 23.149283, 22.207924, 19.561448, 45.373624, 22.262659, 88.241681, 19.661133, 19.847162, 19.831628, 19.786461, 19.734612
Process 64: 47.834980, 22.803966, 21.138877, 22.056363, 21.980597, 24.107320, 22.405136, 22.356677, 22.363184, 19.690921, 22.285075, 22.208934, 20.870139, 22.301974, 22.273253, 19.631375, 22.338329, 22.238366, 19.726302, 23.274202, 22.329200, 19.672497, 45.491500, 22.372957, 88.335134, 19.769239, 19.957817, 19.938796, 19.898747, 19.851223
Process 65: 47.932495, 22.902304, 21.233344, 22.147008, 22.073920, 24.186001, 22.496858, 22.454131, 22.454220, 19.786355, 22.376015, 22.302590, 20.957917, 22.397976, 22.367092, 19.723933, 22.453061, 22.338452, 19.818203, 23.366493, 22.418998, 19.770725, 45.583411, 22.465465, 88.443167, 19.864801, 20.048516, 20.039764, 19.980434, 19.945239
Process 66: 48.019682, 22.989717, 21.317474, 22.231947, 22.160451, 24.269153, 22.584320, 22.539124, 22.537176, 19.869159, 22.469292, 22.383235, 21.041315, 22.482179, 22.452232, 19.807000, 22.526973, 22.421440, 19.895672, 23.454793, 22.503138, 19.852687, 45.695855, 22.546888, 88.524833, 19.944322, 20.131791, 20.117699, 20.063898, 20.027512
Process 67: 48.104781, 23.070485, 21.400818, 22.325990, 22.246844, 24.363777, 22.674511, 22.628446, 22.622386, 19.959630, 22.569836, 22.466809, 21.137258, 22.572843, 22.537192, 19.895406, 22.606843, 22.507837, 19.977145, 23.541563, 22.588976, 19.936777, 45.769878, 22.628438, 88.586305, 20.036111, 20.225043, 20.209514, 20.155328, 20.117225
Process 68: 48.185172, 23.143723, 21.488736, 22.410479, 22.329807, 24.425777, 22.753238, 22.711645, 22.693839, 20.037900, 22.647251, 22.552628, 21.211751, 22.657168, 22.607301, 19.974694, 22.689470, 22.588238, 20.048273, 23.614059, 22.676586, 20.019664, 45.850301, 22.707717, 88.679667, 20.116925, 20.303448, 20.286590, 20.231661, 20.203302
Process 69: 48.259515, 23.224583, 21.574218, 22.496797, 22.414521, 24.509989, 22.830115, 22.791960, 22.768141, 20.122345, 22.720731, 22.632718, 21.295835, 22.743944, 22.692599, 20.055565, 22.775114, 22.673951, 20.125811, 23.698541, 22.754533, 20.104742, 45.924000, 22.791116, 88.775623, 20.196161, 20.382129, 20.373324, 20.308198, 20.284645
Process 70: 48.331204, 23.293852, 21.647534, 22.567196, 22.487735, 24.571239, 22.902828, 22.863762, 22.841454, 20.192506, 22.787173, 22.705224, 21.355493, 22.814657, 22.763323, 20.127980, 22.858460, 22.744359, 20.199236, 23.762825, 22.828157, 20.175351, 45.996226, 22.864303, 88.858416, 20.267936, 20.456135, 20.444675, 20.380618, 20.355680
Process 71: 48.407384, 23.365667, 21.722692, 22.644867, 22.560176, 24.642745, 22.974174, 22.940495, 22.916862, 20.264826, 22.853204, 22.780767, 21.425411, 22.890369, 22.837154, 20.202606, 22.944479, 22.820268, 20.270592, 23.836255, 22.902637, 20.248386, 46.097850, 22.939287, 88.913489, 20.344631, 20.533223, 20.519130, 20.453025, 20.431793
Process 72: 48.479271, 23.437812, 21.793529, 22.712760, 22.631416, 24.709149, 23.054393, 23.017469, 22.985659, 20.327372, 22.930567, 22.848203, 21.490710, 22.957506, 22.905621, 20.274883, 23.028343, 22.885014, 20.340338, 23.903418, 22.973871, 20.314546, 46.188842, 23.005658, 89.014813, 20.418479, 20.599170, 20.585496, 20.527041, 20.503172
Process 73: 48.559431, 23.513653, 21.861479, 22.787344, 22.708192, 24.778341, 23.128241, 23.098489, 23.050624, 20.406820, 23.009348, 22.929160, 21.555029, 23.032611, 22.974718, 20.355840, 23.105396, 22.957596, 20.418280, 23.972950, 23.051057, 20.390517, 46.251531, 23.078390, 89.099355, 20.497486, 20.669928, 20.658326, 20.601218, 20.582989
Process 74: 48.632900, 23.583888, 21.931171, 22.863511, 22.779874, 24.852383, 23.197891, 23.169465, 23.115175, 20.473343, 23.083204, 23.002850, 21.631357, 23.103545, 23.040098, 20.429396, 23.176822, 23.027825, 20.489463, 24.048681, 23.122286, 20.457870, 46.344766, 23.147540, 89.180079, 20.564820, 20.741902, 20.729246, 20.674318, 20.655037
Process 75: 48.705150, 23.660046, 22.001979, 22.939062, 22.852025, 24.929024, 23.271518, 23.245769, 23.185143, 20.546021, 23.156337, 23.075402, 21.705626, 23.178790, 23.112401, 20.506644, 23.269660, 23.107081, 20.561881, 24.127334, 23.196917, 20.532338, 46.421290, 23.220727, 90.008018, 20.640224, 20.813445, 20.807093, 20.745698, 20.729237
Process 76: 48.772468, 23.732488, 22.072883, 23.011796, 22.920692, 25.001886, 23.342446, 23.313130, 23.252389, 20.617147, 23.226537, 23.142994, 21.783581, 23.248344, 23.183264, 20.580674, 23.339624, 23.177231, 20.633225, 24.208229, 23.269668, 20.597441, 46.490264, 23.288647, 90.858371, 20.706513, 20.880053, 20.878714, 20.819399, 20.798773
Process 77: 48.845503, 23.805386, 22.142284, 23.083146, 22.991009, 25.074568, 23.410340, 23.384679, 23.320694, 20.686329, 23.295035, 23.206489, 21.863728, 23.321749, 23.254320, 20.654168, 23.408551, 23.250086, 20.703386, 24.293155, 23.343037, 20.667139, 46.564785, 23.360740, 90.910808, 20.777924, 20.947214, 20.949550, 20.893005, 20.869705
Process 78: 48.911501, 23.871718, 22.207012, 23.149582, 23.056004, 25.138991, 23.473983, 23.447604, 23.382751, 20.749480, 23.357325, 23.269542, 21.935795, 23.387974, 23.317917, 20.720718, 23.473400, 23.311812, 20.768744, 24.358177, 23.409710, 20.732825, 46.636409, 23.424169, 91.718251, 20.840020, 21.017527, 21.014987, 20.962856, 20.932367
Process 79: 48.981587, 23.940963, 22.276616, 23.218865, 23.122891, 25.208219, 23.542376, 23.518158, 23.450541, 20.817095, 23.424498, 23.337540, 21.999051, 23.458306, 23.384464, 20.790549, 23.541760, 23.379599, 20.834992, 24.427240, 23.478280, 20.804243, 46.699828, 23.492492, 92.834644, 20.907149, 21.078777, 21.083657, 21.034607, 21.000487
Process 80: 49.043909, 24.003977, 22.340088, 23.283701, 23.185618, 25.269075, 23.602673, 23.581785, 23.511818, 20.878286, 23.485963, 23.398790, 22.060383, 23.521461, 23.446009, 20.854245, 23.604434, 23.440291, 20.896133, 24.489801, 23.540504, 20.866440, 46.761217, 23.552839, 93.888511, 20.970655, 21.140916, 21.145764, 21.100975, 21.061742
Process 81: 49.110754, 24.069043, 22.404454, 23.347908, 23.252129, 25.333541, 23.667985, 23.646248, 23.576514, 20.943405, 23.551014, 23.464909, 22.111351, 23.587626, 23.511138, 20.921528, 23.671773, 23.506942, 20.960638, 24.553039, 23.608300, 20.933549, 46.829382, 23.620213, 95.391219, 21.038033, 21.210592, 21.209009, 21.169362, 21.136920
Process 82: 49.174168, 24.126150, 22.463224, 23.405677, 23.310236, 25.394918, 23.726409, 23.702773, 23.636539, 21.002422, 23.609870, 23.521551, 22.176361, 23.648187, 23.566645, 20.983802, 23.728610, 23.563418, 21.018695, 24.622785, 23.665234, 20.990064, 46.886327, 23.678694, 96.448255, 21.095604, 21.269274, 21.266057, 21.231225, 21.205441
Process 83: 49.254870, 24.187054, 22.525978, 23.468789, 23.372799, 25.489771, 23.787858, 23.765983, 23.699719, 21.065772, 23.673595, 23.585272, 22.272812, 23.726053, 23.628651, 21.050260, 23.810265, 23.625848, 21.082786, 24.684318, 23.727203, 21.052710, 46.946586, 23.740397, 96.488233, 21.157765, 21.329451, 21.326799, 21.296396, 21.265452
Process 84: 49.312453, 24.240301, 22.581060, 23.527834, 23.442586, 25.584947, 23.841777, 23.821133, 23.753667, 21.121268, 23.743473, 23.640711, 22.365194, 23.783498, 23.683538, 21.108461, 23.870557, 23.680212, 21.137742, 24.738442, 23.782241, 21.107724, 47.000219, 23.796291, 96.522113, 21.212164, 21.398607, 21.404150, 21.354889, 21.319772
Process 85: 49.379009, 24.304303, 22.651556, 23.608236, 23.519166, 25.687929, 23.903807, 23.896284, 23.815445, 21.196995, 23.821774, 23.704844, 22.471124, 23.852155, 23.752369, 21.182033, 23.930800, 23.742754, 21.205366, 24.831458, 23.854306, 21.170530, 47.061926, 23.872042, 98.061195, 21.291944, 21.478025, 21.467894, 21.426752, 21.387942
Process 86: 49.462943, 24.381084, 22.721919, 23.683678, 23.588838, 25.788885, 23.969373, 23.963445, 23.888762, 21.262320, 23.890513, 23.772959, 22.563029, 23.934543, 23.825691, 21.249572, 23.986594, 23.809154, 21.274497, 24.925104, 23.927438, 21.224903, 47.129372, 23.940348, 98.101276, 21.368891, 21.554979, 21.530198, 21.491797, 21.453383
Process 87: 49.551306, 24.463660, 22.801012, 23.766648, 23.670604, 25.893163, 24.045660, 24.044937, 23.973326, 21.339123, 23.969509, 23.849709, 22.668315, 24.011476, 23.907902, 21.330858, 24.068531, 23.886458, 21.360004, 25.025438, 24.015032, 21.303052, 47.200916, 24.022694, 99.628794, 21.451031, 21.631346, 21.624758, 21.572099, 21.523485
Process 88: 49.606873, 24.538009, 22.871025, 23.846124, 23.744253, 25.992265, 24.116553, 24.113293, 24.055082, 21.412580, 24.044747, 23.923045, 22.761639, 24.086483, 23.982273, 21.408684, 24.142300, 23.951212, 21.433990, 25.121103, 24.093475, 21.374677, 47.277332, 24.097019, 99.668162, 21.522724, 21.709070, 21.702533, 21.642042, 21.595099
Process 89: 49.711208, 24.618280, 22.947679, 23.935117, 23.825062, 26.096946, 24.191829, 24.196462, 24.138316, 21.492735, 24.130406, 24.003780, 22.869064, 24.169640, 24.068451, 21.493148, 24.219947, 24.034219, 21.510983, 25.223250, 24.180590, 21.456027, 47.356533, 24.182581, 99.707032, 21.609565, 21.788225, 21.785563, 21.727301, 21.673454
Process 90: 49.785598, 24.693804, 23.019113, 24.020357, 23.902441, 26.194282, 24.270163, 24.269980, 24.215141, 21.573832, 24.208284, 24.077335, 22.963855, 24.245317, 24.153218, 21.571442, 24.293677, 24.110691, 21.582107, 25.322174, 24.261544, 21.538386, 47.431541, 24.256839, 99.741248, 21.686050, 21.866407, 21.859025, 21.804013, 21.757129
Process 91: 49.873643, 24.782311, 23.106613, 24.111787, 23.989982, 26.301840, 24.353154, 24.357730, 24.296788, 21.660078, 24.298465, 24.158736, 23.071053, 24.326317, 24.239708, 21.653067, 24.374672, 24.194645, 21.666029, 25.424667, 24.355569, 21.628621, 47.518503, 24.344202, 99.779833, 21.775527, 21.952481, 21.948928, 21.891203, 21.841053
Process 92: 49.946436, 24.860060, 23.187965, 24.197879, 24.071349, 26.403394, 24.436284, 24.436955, 24.379910, 21.740247, 24.376138, 24.244356, 23.166822, 24.406791, 24.326879, 21.733313, 24.457108, 24.273016, 21.748837, 25.523355, 24.442569, 21.716579, 47.601809, 24.430211, 99.819770, 21.854965, 22.033096, 22.029706, 21.972342, 21.926190
Process 93: 50.037913, 24.942002, 23.279344, 24.286484, 24.163740, 26.507467, 24.521111, 24.520654, 24.464754, 21.822321, 24.466019, 24.328860, 23.270564, 24.495618, 24.413333, 21.826784, 24.540137, 24.362622, 21.832910, 25.625210, 24.532818, 21.805681, 47.692213, 24.517454, 99.859839, 21.943871, 22.120343, 22.110969, 22.066383, 22.011389
Process 94: 50.123073, 25.029010, 23.368329, 24.370492, 24.248317, 26.610632, 24.614071, 24.608346, 24.548709, 21.912499, 24.551627, 24.410530, 23.372253, 24.582344, 24.494186, 21.915519, 24.619775, 24.446499, 21.918347, 25.727002, 24.619296, 21.902231, 47.775144, 24.598010, 99.892405, 22.034880, 22.201708, 22.200507, 22.155764, 22.090242
Process 95: 50.222812, 25.122314, 23.457676, 24.465570, 24.337488, 26.716769, 24.709408, 24.701309, 24.638956, 22.005107, 24.641981, 24.505587, 23.483680, 24.671402, 24.586437, 22.009775, 24.715254, 24.542545, 22.014857, 25.832013, 24.709470, 22.012321, 47.862592, 24.687950, 99.932248, 22.131857, 22.297310, 22.294541, 22.255859, 22.185808
Process 96: 50.329912, 25.218999, 23.553803, 24.568084, 24.433119, 26.830854, 24.807316, 24.796890, 24.735277, 22.102751, 24.741934, 24.605930, 23.598474, 24.776326, 24.687241, 22.104463, 24.813285, 24.642799, 22.118694, 25.945536, 24.806644, 22.106560, 47.966255, 24.791795, 99.969617, 22.228396, 22.386410, 22.396444, 22.362485, 22.286220
Process 97: 50.418187, 25.307152, 23.641125, 24.663766, 24.523258, 26.933661, 24.898902, 24.888835, 24.823930, 22.190785, 24.830763, 24.702222, 23.699806, 24.862874, 24.774755, 22.192349, 24.909117, 24.735970, 22.212061, 26.047200, 24.896558, 22.195568, 48.061275, 24.890137, 100.014140, 22.313091, 22.474211, 22.492058, 22.452308, 22.379371
Process 98: 50.499081, 25.386124, 23.717890, 24.746585, 24.599984, 27.022299, 24.975001, 24.968917, 24.904551, 22.266066, 24.904718, 24.786289, 23.789956, 24.939447, 24.869446, 22.259776, 24.989475, 24.817495, 22.281515, 26.137122, 24.976527, 22.270020, 48.147493, 24.965420, 100.047792, 22.380772, 22.543064, 22.573055, 22.528475, 22.453801
Process 99: 50.585526, 25.476016, 23.802193, 24.835582, 24.676887, 27.124210, 25.062459, 25.055782, 24.990720, 22.352133, 24.991132, 24.871246, 23.891060, 25.027456, 24.975082, 22.350408, 25.079747, 24.905099, 22.364935, 26.231717, 25.060205, 22.350683, 48.241019, 25.042838, 100.093431, 22.469928, 22.626668, 22.657945, 22.614738, 22.547505
Process 100: 50.658010, 25.551609, 23.884115, 24.916636, 24.752800, 27.210937, 25.138926, 25.137204, 25.069512, 22.455888, 25.069250, 24.950394, 23.976352, 25.106921, 25.044509, 22.424509, 25.167577, 24.987599, 22.437381, 26.314917, 25.138236, 22.420781, 48.318739, 25.114269, 100.131205, 22.544476, 22.702133, 22.733340, 22.683608, 22.616813
Process 101: 50.748275, 25.637509, 23.965055, 24.998183, 24.839512, 27.294592, 25.225593, 25.219802, 25.150829, 22.539701, 25.153499, 25.029415, 24.066791, 25.190845, 25.120972, 22.512211, 25.239858, 25.069527, 22.516785, 26.405497, 25.223043, 22.505266, 48.395445, 25.201719, 100.168586, 22.628544, 22.785091, 22.816782, 22.764523, 22.692963
Process 102: 50.816246, 25.704743, 24.034699, 25.067422, 24.910495, 27.366792, 25.292098, 25.292346, 25.219115, 22.609517, 25.223065, 25.096552, 24.137187, 25.260542, 25.186260, 22.579524, 25.312291, 25.142741, 22.586129, 26.476139, 25.289816, 22.574918, 48.468919, 25.271102, 100.201989, 22.694498, 22.854698, 22.887158, 22.832173, 22.765273
Process 103: 50.893352, 25.782124, 24.112674, 25.148158, 24.989005, 27.464995, 25.368827, 25.369321, 25.298673, 22.677257, 25.301129, 25.175269, 24.216513, 25.338836, 25.264297, 22.654454, 25.386397, 25.227064, 22.663539, 26.559350, 25.366521, 22.652902, 48.541402, 25.347407, 100.241563, 22.780436, 22.928097, 22.963311, 22.904746, 22.843539
Process 104: 50.952806, 25.839800, 24.174730, 25.208638, 25.060804, 27.541801, 25.431708, 25.429005, 25.356240, 22.747139, 25.373190, 25.236104, 24.288980, 25.396538, 25.322387, 22.713244, 25.437340, 25.297319, 22.723747, 26.629933, 25.427008, 22.713773, 48.601611, 25.406819, 100.280410, 22.850552, 22.986145, 23.023190, 22.971750, 22.904727
Process 105: 51.025863, 25.911397, 24.246157, 25.287144, 25.137026, 27.624948, 25.506129, 25.499641, 25.427489, 22.815776, 25.450357, 25.307934, 24.371395, 25.472478, 25.393596, 22.785622, 25.513698, 25.371851, 22.794966, 26.712212, 25.500074, 22.790999, 48.670845, 25.479292, 100.323059, 22.933181, 23.069114, 23.095239, 23.047013, 22.975434
Process 106: 51.099270, 25.980098, 24.316469, 25.359850, 25.208180, 27.704656, 25.574795, 25.568023, 25.499374, 22.897453, 25.522931, 25.372341, 24.451242, 25.543478, 25.455860, 22.852441, 25.583264, 25.451191, 22.856612, 26.788141, 25.569780, 22.856774, 48.743372, 25.542160, 100.358238, 23.002587, 23.141151, 23.160397, 23.120372, 23.047675
Process 107: 51.171488, 26.049868, 24.386067, 25.432437, 25.279877, 27.780379, 25.643754, 25.641439, 25.569274, 22.958955, 25.592939, 25.439791, 24.528155, 25.613796, 25.523025, 22.923294, 25.648768, 25.523904, 22.926355, 26.861213, 25.636704, 22.924554, 48.811778, 25.615124, 100.400425, 23.073991, 23.212993, 23.228498, 23.192393, 23.116986
Process 108: 51.235891, 26.112730, 24.451100, 25.500607, 25.344429, 27.853476, 25.710551, 25.705626, 25.632309, 23.015551, 25.658504, 25.504129, 24.600237, 25.679476, 25.587131, 22.985187, 25.711468, 25.586988, 22.989073, 26.927701, 25.698495, 22.990707, 48.874630, 25.682810, 100.434258, 23.137744, 23.274576, 23.293372, 23.260900, 23.180670
Process 109: 51.310915, 26.184549, 24.524161, 25.573176, 25.414452, 27.927787, 25.782025, 25.778005, 25.700473, 23.084848, 25.732600, 25.575002, 24.673747, 25.752768, 25.661348, 23.058200, 25.783538, 25.659130, 23.060556, 27.003977, 25.770662, 23.060379, 48.946977, 25.757314, 100.476233, 23.210847, 23.345981, 23.371157, 23.331342, 23.252636
Process 110: 51.373824, 26.246010, 24.585572, 25.635990, 25.475151, 27.992699, 25.841926, 25.841545, 25.760504, 23.146313, 25.793798, 25.634605, 24.737482, 25.816001, 25.724082, 23.120515, 25.847662, 25.714086, 23.129908, 27.066337, 25.830752, 23.122601, 49.013289, 25.819257, 100.509364, 23.273431, 23.405035, 23.451416, 23.390544, 23.318009
Process 111: 51.443021, 26.314445, 24.654869, 25.707316, 25.541902, 28.061863, 25.907154, 25.912537, 25.828019, 23.213695, 25.863114, 25.704256, 24.807406, 25.885494, 25.795136, 23.189083, 25.916603, 25.778649, 23.202462, 27.136173, 25.898996, 23.192021, 49.084966, 25.889806, 100.552602, 23.345699, 23.471787, 23.525697, 23.456642, 23.388649
Process 112: 51.502720, 26.372782, 24.715158, 25.767501, 25.602268, 28.122568, 25.965110, 25.973092, 25.887164, 23.271924, 25.922679, 25.765020, 24.868473, 25.945857, 25.856755, 23.249459, 25.976480, 25.838993, 23.265211, 27.197344, 25.958288, 23.266211, 49.148638, 25.949178, 100.589646, 23.408188, 23.533054, 23.588353, 23.515790, 23.453763
Process 113: 51.568906, 26.438880, 24.780663, 25.833603, 25.670107, 28.188727, 26.028042, 26.041041, 25.955685, 23.335771, 25.988752, 25.831397, 24.936896, 26.013072, 25.924513, 23.313474, 26.044244, 25.907958, 23.329995, 27.266062, 26.023570, 23.340804, 49.214673, 26.016115, 100.634329, 23.478932, 23.605979, 23.670196, 23.582199, 23.521518
Process 114: 51.626450, 26.496703, 24.837020, 25.890587, 25.726056, 28.244210, 26.085376, 26.098730, 26.015976, 23.389770, 26.046018, 25.888169, 24.992297, 26.068806, 25.983332, 23.368230, 26.100140, 25.966397, 23.380348, 27.322243, 26.080840, 23.396395, 49.273321, 26.072247, 100.670607, 23.537521, 23.678966, 23.731489, 23.640345, 23.582499
Process 115: 51.691606, 26.563215, 24.902628, 25.958104, 25.791410, 28.307812, 26.151100, 26.167188, 26.084080, 23.452345, 26.113530, 25.953531, 25.055011, 26.132437, 26.050127, 23.433544, 26.164496, 26.032644, 23.434032, 27.386111, 26.145984, 23.460055, 49.335864, 26.137240, 100.711412, 23.605781, 23.741853, 23.789434, 23.707510, 23.645019
Process 116: 51.747572, 26.617898, 24.956214, 26.013901, 25.846328, 28.361310, 26.205352, 26.220805, 26.140928, 23.504868, 26.168692, 26.006445, 25.108434, 26.186400, 26.117202, 23.487724, 26.219707, 26.086999, 23.486963, 27.441810, 26.199091, 23.512948, 49.395183, 26.191093, 100.745157, 23.658937, 23.795742, 23.845937, 23.763919, 23.703314
Process 117: 51.811275, 26.681446, 25.020118, 26.077285, 25.910030, 28.424249, 26.268738, 26.283278, 26.204334, 23.567289, 26.233837, 26.069053, 25.171695, 26.249467, 26.192988, 23.552298, 26.283410, 26.150331, 23.549670, 27.511665, 26.261586, 23.577626, 49.457834, 26.253906, 100.787315, 23.722085, 23.858509, 23.907612, 23.826983, 23.764591
Process 118: 51.867313, 26.735487, 25.073773, 26.130292, 25.963440, 28.476962, 26.321765, 26.335871, 26.257722, 23.620195, 26.288132, 26.121758, 25.224962, 26.301871, 26.261575, 23.605851, 26.336183, 26.203145, 23.602523, 27.566396, 26.314246, 23.631414, 49.511997, 26.306252, 100.822420, 23.775117, 23.911118, 23.962012, 23.879479, 23.818621
Process 119: 51.930182, 26.798182, 25.135559, 26.191569, 26.026159, 28.538789, 26.383468, 26.397478, 26.319663, 23.682855, 26.350595, 26.182911, 25.287401, 26.363485, 26.324920, 23.668979, 26.399883, 26.265193, 23.664445, 27.631362, 26.375930, 23.696717, 49.565915, 26.368754, 100.881972, 23.837054, 23.973437, 24.027624, 23.940908, 23.883580
Process 120: 51.981713, 26.851086, 25.187136, 26.242665, 26.077063, 28.589834, 26.434628, 26.448554, 26.370704, 23.734407, 26.401839, 26.234108, 25.339261, 26.414385, 26.376827, 23.720428, 26.451411, 26.316406, 23.717046, 27.679792, 26.427396, 23.748621, 49.610192, 26.420315, 100.977619, 23.888062, 24.025970, 24.077173, 23.992526, 23.934765
Process 121: 52.043831, 26.912743, 25.248672, 26.303971, 26.138244, 28.651886, 26.495890, 26.510837, 26.432595, 23.796414, 26.463041, 26.294212, 25.399748, 26.475479, 26.439646, 23.782431, 26.511869, 26.377298, 23.777732, 27.726417, 26.490487, 23.810217, 49.671219, 26.482204, 101.073642, 23.949841, 24.089524, 24.134000, 24.053500, 23.990704
Process 122: 52.097134, 26.966558, 25.301822, 26.357465, 26.191735, 28.705085, 26.548651, 26.563725, 26.485514, 23.849582, 26.516201, 26.347407, 25.454049, 26.528531, 26.492693, 23.835454, 26.565386, 26.430637, 23.831091, 27.779941, 26.542649, 23.863669, 49.725462, 26.534749, 101.170307, 24.002713, 24.143827, 24.190039, 24.106783, 24.047109
Process 123: 52.157979, 27.028377, 25.362999, 26.454884, 26.252854, 28.766412, 26.609972, 26.625565, 26.547189, 23.911205, 26.577476, 26.409385, 25.515364, 26.590182, 26.555076, 23.896863, 26.626431, 26.491898, 23.893172, 27.841128, 26.619028, 23.925085, 49.786720, 26.595718, 101.266830, 24.064530, 24.206611, 24.252743, 24.167890, 24.105354
Process 124: 52.209078, 27.078981, 25.413771, 26.472994, 26.303697, 28.816805, 26.660546, 26.675869, 26.597946, 23.962237, 26.628466, 26.459669, 25.565737, 26.640694, 26.606462, 23.947914, 26.676475, 26.542669, 23.943462, 27.892170, 26.670575, 23.975666, 49.837622, 26.645900, 101.338770, 24.114722, 24.258188, 24.304456, 24.218778, 24.145489
Process 125: 52.270778, 27.141316, 25.474896, 26.528218, 26.366047, 28.879179, 26.722978, 26.738284, 26.660726, 24.023920, 26.690032, 26.521195, 25.627525, 26.702366, 26.670310, 24.010059, 26.738211, 26.604996, 24.005283, 27.954563, 26.733844, 24.038257, 49.900259, 26.709164, 101.407391, 24.176339, 24.322993, 24.365812, 24.280288, 24.215461
Process 126: 52.322680, 27.192785, 25.526095, 26.584724, 26.417419, 28.930763, 26.774676, 26.790179, 26.712595, 24.075131, 26.741356, 26.572627, 25.678648, 26.753608, 26.722424, 24.061864, 26.789342, 26.656785, 24.056559, 28.005813, 26.785380, 24.089757, 49.951884, 26.758965, 101.466671, 24.227726, 24.375691, 24.422728, 24.331442, 24.257755
Process 127: 52.381647, 27.252266, 25.584684, 26.643026, 26.476643, 28.989784, 26.833491, 26.848792, 26.771997, 24.134315, 26.800439, 26.631799, 25.738149, 26.812913, 26.781921, 24.121422, 26.847913, 26.716573, 24.115547, 28.064551, 26.831185, 24.167377, 50.011261, 26.817803, 101.563603, 24.287235, 24.435793, 24.483095, 24.390755, 24.314613
