MPI_insiderank_optimisedserial
Process 0: 4.254869, 4.060999, 4.117258, 4.026794, 4.115123, 4.026714, 4.015000, 4.082880, 4.022263, 4.007109, 4.012667, 4.035534, 4.059300, 4.036920, 4.025474, 4.007659, 4.009154, 4.007662, 4.035674, 4.010142, 4.087505, 4.009868, 4.007240, 4.027466, 4.015330, 4.014295, 4.009486, 4.065775, 4.068867, 4.010026
Process 1: 4.139985, 3.963926, 4.044218, 3.921599, 4.042128, 3.921565, 3.925653, 4.010417, 3.917393, 3.917698, 3.923169, 3.961713, 3.970046, 3.947591, 3.921477, 3.917910, 3.919695, 3.918025, 3.963577, 3.920065, 3.999240, 3.920506, 3.917890, 3.923308, 3.925013, 3.924692, 3.919794, 3.977693, 3.995822, 3.920729
Process 2: 4.199529, 4.013206, 4.073037, 3.977914, 4.070993, 3.978019, 3.970463, 4.039150, 3.973824, 3.962593, 3.968117, 3.991515, 4.014861, 3.992232, 3.977471, 3.962981, 3.964486, 3.962876, 3.992111, 3.965609, 4.042804, 3.965030, 3.962362, 3.979298, 3.970666, 3.969542, 3.964609, 4.021108, 4.024549, 3.965421
Process 3: 4.258219, 4.064377, 4.120398, 4.030053, 4.118220, 4.030112, 4.018087, 4.086541, 4.025601, 4.010422, 4.016032, 4.038737, 4.062633, 4.039946, 4.028780, 4.010861, 4.012578, 4.010799, 4.039531, 4.013304, 4.090815, 4.013164, 4.010354, 4.030745, 4.018385, 4.017679, 4.012661, 4.069092, 4.072303, 4.013319
