MPI_insiderank_openmp
Process 0: 17.281334, 16.862009, 16.702219, 16.663031, 16.672700, 16.679787, 16.694300, 16.696806, 18.002980, 16.675131, 16.671545, 18.002647, 16.673352, 16.680943, 16.668390, 16.690963, 16.888041, 16.688423, 16.687167, 16.722115, 16.718534, 16.686282, 16.921756, 16.674778, 16.682451, 16.669295, 16.636129, 16.687726, 18.006725, 16.650831
Process 1: 10.305502, 9.962074, 9.812917, 9.804590, 9.802889, 9.833896, 9.821493, 9.833134, 11.154977, 9.805623, 9.799049, 11.146386, 9.806038, 9.811245, 9.806139, 9.843001, 10.038542, 9.836100, 9.833141, 9.862676, 9.868657, 9.837146, 10.070696, 9.822121, 9.834440, 9.816526, 9.786569, 9.822971, 11.151812, 9.792636
Process 2: 10.534363, 10.191574, 10.044294, 10.033914, 10.032189, 10.061824, 10.049969, 10.061802, 11.383829, 10.036612, 10.028238, 11.374854, 10.034623, 10.042291, 10.034491, 10.074893, 10.267342, 10.064966, 10.061579, 10.091108, 10.096517, 10.066024, 10.298939, 10.051374, 10.062956, 10.045749, 10.015768, 10.052670, 11.380859, 10.021999
Process 3: 10.768340, 10.421405, 10.279024, 10.264171, 10.263131, 10.294092, 10.281557, 10.295191, 11.613824, 10.269124, 10.257347, 11.605868, 10.265988, 10.272204, 10.267717, 10.304610, 10.498892, 10.296120, 10.291203, 10.323306, 10.327624, 10.295123, 10.528152, 10.281684, 10.293202, 10.276301, 10.247890, 10.283400, 11.613588, 10.253557
Process 4: 10.994221, 10.650955, 10.508679, 10.489086, 10.487022, 10.519169, 10.506987, 10.520832, 11.838472, 10.493901, 10.483208, 11.830842, 10.490385, 10.496899, 10.493740, 10.532875, 10.724976, 10.520620, 10.516134, 10.549732, 10.551857, 10.520307, 10.752930, 10.508609, 10.519190, 10.501015, 10.474754, 10.509130, 11.838958, 10.479437
Process 5: 11.231534, 10.886593, 10.743607, 10.726065, 10.723473, 10.754188, 10.739733, 10.752687, 12.071731, 10.729037, 10.718302, 12.067831, 10.726370, 10.733065, 10.729319, 10.764558, 10.958583, 10.752985, 10.751180, 10.783989, 10.785339, 10.756061, 10.989252, 10.745029, 10.753793, 10.736446, 10.709355, 10.745496, 12.074433, 10.714479
Process 6: 11.462220, 11.114996, 10.973813, 10.950252, 10.948033, 10.980439, 10.965363, 10.978558, 12.297394, 10.954195, 10.945010, 12.292958, 10.951323, 10.958235, 10.955735, 10.992267, 11.184013, 10.978774, 10.976503, 11.011268, 11.011271, 10.983070, 11.217864, 10.970768, 10.980061, 10.962076, 10.935086, 10.970595, 12.299501, 10.940843
Process 7: 11.700123, 11.345686, 11.208133, 11.182304, 11.182002, 11.212229, 11.196734, 11.209986, 12.527394, 11.182701, 11.175459, 12.523494, 11.182107, 11.190799, 11.186877, 11.220188, 11.415621, 11.211368, 11.206646, 11.244871, 11.245824, 11.215874, 11.452496, 11.202750, 11.211771, 11.192443, 11.168399, 11.208033, 12.531531, 11.171203
Process 8: 11.929958, 11.573148, 11.431938, 11.405860, 11.404892, 11.434847, 11.420428, 11.432448, 12.751035, 11.408073, 11.398271, 12.746634, 11.406510, 11.412933, 11.409972, 11.442879, 11.639032, 11.434134, 11.430733, 11.468799, 11.469129, 11.437777, 11.676530, 11.425195, 11.435143, 11.414512, 11.390497, 11.434071, 12.754159, 11.394120
Process 9: 12.163829, 11.807484, 11.663572, 11.636149, 11.635997, 11.664411, 11.649854, 11.660124, 12.983200, 11.637440, 11.627484, 12.976942, 11.637374, 11.640603, 11.641556, 11.672141, 11.868353, 11.663914, 11.660565, 11.699201, 11.697091, 11.667868, 11.907373, 11.652358, 11.662649, 11.642818, 11.619363, 11.667310, 12.985725, 11.624269
Process 10: 12.395135, 12.034361, 11.885925, 11.862244, 11.861201, 11.890005, 11.875728, 11.886678, 13.208804, 11.865097, 11.852234, 13.202124, 11.863451, 11.866180, 11.867300, 11.898230, 12.092369, 11.887749, 11.885148, 11.924094, 11.920360, 11.891522, 12.131500, 11.880789, 11.887974, 11.868007, 11.842890, 11.895789, 13.209757, 11.850250
Process 11: 12.632617, 12.265110, 12.113050, 12.094034, 12.090907, 12.120386, 12.108169, 12.113151, 13.440228, 12.095031, 12.080749, 13.432698, 12.096560, 12.097142, 12.097271, 12.126149, 12.321788, 12.117301, 12.114594, 12.155434, 12.150883, 12.122645, 12.361982, 12.113709, 12.119634, 12.098138, 12.073466, 12.128953, 13.441298, 12.082156
Process 12: 12.862417, 12.488676, 12.337096, 12.317718, 12.314968, 12.343972, 12.331913, 12.343541, 13.663944, 12.319333, 12.304821, 13.656271, 12.320011, 12.321171, 12.320965, 12.350821, 12.547271, 12.341212, 12.340141, 12.379152, 12.374036, 12.345916, 12.584387, 12.338759, 12.343122, 12.321584, 12.296194, 12.353006, 13.665324, 12.305501
Process 13: 13.093890, 12.716837, 12.566585, 12.547784, 12.546893, 12.574752, 12.562981, 12.578503, 13.892359, 12.551724, 12.534808, 13.885254, 12.550127, 12.552966, 12.548308, 12.581319, 12.776679, 12.571327, 12.568648, 12.609371, 12.603879, 12.576572, 12.813453, 12.569687, 12.572713, 12.551200, 12.523890, 12.581800, 13.893339, 12.535802
Process 14: 13.327802, 12.945372, 12.795613, 12.778191, 12.775844, 12.801490, 12.791972, 12.806519, 14.120467, 12.780457, 12.765149, 14.111358, 12.779633, 12.780655, 12.776332, 12.812616, 13.005365, 12.798474, 12.796310, 12.836876, 12.831274, 12.803428, 13.039931, 12.798821, 12.800299, 12.777048, 12.751352, 12.809883, 14.120742, 12.764059
Process 15: 13.562483, 13.178224, 13.025214, 13.011824, 13.004003, 13.034155, 13.024427, 13.036679, 14.352288, 13.012652, 12.994052, 14.343997, 13.012013, 13.010748, 13.006298, 13.044787, 13.235075, 13.029950, 13.026351, 13.070691, 13.060308, 13.033587, 13.269857, 13.032828, 13.033577, 13.009925, 12.981908, 13.038940, 14.353041, 12.997335
Process 16: 13.788824, 13.400098, 13.247347, 13.234940, 13.226412, 13.258007, 13.246372, 13.258638, 14.574971, 13.234694, 13.220498, 14.566826, 13.234601, 13.233502, 13.229436, 13.266622, 13.457617, 13.252301, 13.251268, 13.293013, 13.283074, 13.255756, 13.493829, 13.255349, 13.256547, 13.231788, 13.204779, 13.262050, 14.575512, 13.220551
Process 17: 14.029889, 13.630176, 13.474421, 13.463198, 13.453857, 13.487769, 13.475650, 13.486241, 14.802858, 13.463812, 13.451735, 14.796978, 13.464690, 13.461859, 13.457409, 13.494863, 13.687672, 13.480820, 13.481716, 13.522091, 13.510703, 13.486426, 13.721075, 13.485036, 13.485802, 13.460237, 13.433110, 13.490813, 14.807159, 13.448589
Process 18: 14.264456, 13.856715, 13.699239, 13.690240, 13.678765, 13.714200, 13.703055, 13.710559, 15.027780, 13.689324, 13.680826, 15.022842, 13.690086, 13.686644, 13.683088, 13.719092, 13.911632, 13.704841, 13.706221, 13.747567, 13.734763, 13.713307, 13.945416, 13.711747, 13.710482, 13.685110, 13.659595, 13.714826, 15.032692, 13.674209
Process 19: 14.499988, 14.085490, 13.933184, 13.918626, 13.907679, 13.941952, 13.936077, 13.940825, 15.255008, 13.917098, 13.914356, 15.250864, 13.917829, 13.913564, 13.915816, 13.946137, 14.139735, 13.934555, 13.934672, 13.976172, 13.962658, 13.941049, 14.173699, 13.939805, 13.938893, 13.911719, 13.886459, 13.943002, 15.261953, 13.901539
Process 20: 14.733593, 14.312214, 14.161609, 14.146423, 14.133940, 14.167717, 14.166607, 14.169405, 15.481004, 14.143262, 14.143065, 15.477670, 14.144207, 14.141691, 14.144394, 14.171356, 14.366929, 14.161348, 14.160815, 14.201533, 14.191740, 14.167375, 14.401209, 14.166675, 14.165232, 14.136960, 14.112122, 14.169274, 15.487898, 14.129221
Process 21: 14.969284, 14.546264, 14.402500, 14.374673, 14.369827, 14.396255, 14.399757, 14.402234, 15.710702, 14.375045, 14.375083, 15.707132, 14.374085, 14.376516, 14.377426, 14.404669, 14.600197, 14.395396, 14.391232, 14.434209, 14.424960, 14.400038, 14.634065, 14.393128, 14.395932, 14.369814, 14.343027, 14.399405, 15.721630, 14.358019
Process 22: 15.201331, 14.778504, 14.636932, 14.603374, 14.598636, 14.625282, 14.627795, 14.631618, 15.939616, 14.607245, 14.604136, 15.937364, 14.602457, 14.604373, 14.605803, 14.633600, 14.829332, 14.624558, 14.622512, 14.663680, 14.654283, 14.629159, 14.863500, 14.621315, 14.623935, 14.598288, 14.572208, 14.627893, 15.951155, 14.586894
Process 23: 15.432978, 15.010754, 14.870002, 14.832022, 14.831205, 14.854739, 14.858072, 14.860757, 16.168658, 14.840090, 14.833738, 16.171131, 14.830644, 14.835174, 14.835211, 14.863013, 15.059364, 14.854450, 14.855184, 14.894752, 14.885145, 14.860444, 15.091942, 14.850922, 14.855401, 14.826860, 14.802305, 14.857114, 16.179818, 14.815281
Process 24: 15.656644, 15.234526, 15.097750, 15.055178, 15.053826, 15.079095, 15.080465, 15.085121, 16.392437, 15.062405, 15.057661, 16.397656, 15.054004, 15.063466, 15.058110, 15.086290, 15.283004, 15.077772, 15.077579, 15.118599, 15.108919, 15.083894, 15.315212, 15.075625, 15.078804, 15.050189, 15.026309, 15.080874, 16.402959, 15.038518
Process 25: 15.888394, 15.464813, 15.328831, 15.284794, 15.283617, 15.307778, 15.311297, 15.314709, 16.622600, 15.291517, 15.286976, 16.629330, 15.285811, 15.294489, 15.288387, 15.317303, 15.513390, 15.309422, 15.306517, 15.347686, 15.338192, 15.313107, 15.545012, 15.304723, 15.308059, 15.289028, 15.257815, 15.312402, 16.634243, 15.268281
Process 26: 16.116533, 15.694829, 15.555294, 15.510488, 15.513021, 15.534430, 15.538275, 15.542176, 16.848912, 15.519527, 15.515048, 16.856637, 15.513626, 15.526454, 15.514565, 15.543703, 15.739471, 15.535156, 15.534496, 15.574724, 15.564477, 15.539971, 15.771155, 15.530659, 15.537618, 15.521494, 15.483859, 15.538052, 16.860787, 15.497744
Process 27: 16.351261, 15.927351, 15.786397, 15.744536, 15.748452, 15.762804, 15.769923, 15.777234, 17.083329, 15.751460, 15.749610, 17.086610, 15.745551, 15.757705, 15.748361, 15.773943, 15.968647, 15.767118, 15.764491, 15.805839, 15.797617, 15.769822, 16.002783, 15.759967, 15.766441, 15.755048, 15.717180, 15.768849, 17.090091, 15.729999
Process 28: 16.583891, 16.160359, 16.012693, 15.972691, 15.979452, 15.990324, 15.999077, 16.005962, 17.311457, 15.982276, 15.977746, 17.312863, 15.974644, 15.987868, 15.976677, 16.001210, 16.196484, 15.992833, 15.994501, 16.031524, 16.025680, 15.996712, 16.230757, 15.986511, 15.994567, 15.980427, 15.945318, 15.996657, 17.316310, 15.957873
Process 29: 16.819599, 16.397253, 16.245998, 16.206802, 16.214177, 16.222262, 16.233666, 16.239916, 17.545590, 16.217638, 16.212529, 17.545838, 16.212181, 16.222748, 16.210981, 16.234997, 16.430726, 16.227374, 16.229235, 16.265152, 16.260411, 16.229747, 16.465383, 16.216986, 16.225793, 16.211939, 16.179471, 16.231450, 17.549986, 16.192507
Process 30: 17.051894, 16.628434, 16.474365, 16.435657, 16.442981, 16.451144, 16.466730, 16.468495, 17.774082, 16.446641, 16.441248, 17.774305, 16.441066, 16.451761, 16.439843, 16.463472, 16.659074, 16.457389, 16.458388, 16.494154, 16.490166, 16.458486, 16.694175, 16.445523, 16.454675, 16.440792, 16.407906, 16.459829, 17.778603, 16.421387
Process 31: 17.282594, 16.862003, 16.702211, 16.663035, 16.672698, 16.679785, 16.694296, 16.696799, 18.002975, 16.675130, 16.671536, 18.002643, 16.673352, 16.680938, 16.668386, 16.690941, 16.888051, 16.688423, 16.687166, 16.722117, 16.718532, 16.686269, 16.921775, 16.674774, 16.682447, 16.669297, 16.636134, 16.687713, 18.006727, 16.650830
