slurmstepd: error: *** STEP 4333537.0 ON eu-a2p-199 CANCELLED AT 2022-12-17T07:03:19 DUE TO TIME LIMIT ***
slurmstepd: error: *** JOB 4333537 ON eu-a2p-199 CANCELLED AT 2022-12-17T07:03:19 DUE TO TIME LIMIT ***
srun: Job step aborted: Waiting up to 32 seconds for job step to finish.
