MPI_insiderank_optimisedserial
Process 0: 28.291151, 19.787658, 15.280520, 15.312723, 15.913664, 14.698855, 13.872480, 17.348654, 14.980427, 14.099929, 15.600713, 19.249581, 15.746679, 15.982036, 14.934675, 20.264314, 13.953395, 16.033637, 17.039699, 19.090665, 13.689514, 15.162890, 19.727208, 17.791219, 14.316771, 14.282131, 20.325491, 15.785579, 16.037376, 15.366707
Process 1: 23.030669, 14.788708, 10.361555, 10.290057, 10.881344, 9.766459, 8.891525, 12.367516, 10.018685, 9.111160, 10.588970, 13.998536, 10.798639, 11.102338, 9.902242, 15.339992, 8.904657, 11.112277, 12.030651, 14.137923, 8.763556, 10.244963, 14.691561, 12.786224, 9.382153, 9.289255, 15.434102, 10.762984, 11.052924, 10.434927
Process 2: 23.120840, 14.885341, 10.445262, 10.386277, 10.972636, 9.860851, 8.994529, 12.449048, 10.118107, 9.190260, 10.678644, 14.099008, 10.905434, 11.196736, 10.009009, 15.449736, 9.005424, 11.220941, 12.135706, 14.238284, 8.866620, 10.346766, 14.802070, 12.890430, 9.490939, 9.406204, 15.541791, 10.874869, 11.152929, 10.537959
Process 3: 23.253930, 14.994024, 10.571508, 10.496385, 11.088110, 9.974460, 9.095304, 12.546089, 10.226543, 9.299506, 10.797084, 14.205235, 11.005197, 11.287155, 10.107878, 15.541581, 9.111269, 11.314601, 12.237463, 14.343576, 8.969987, 10.441546, 14.901743, 12.993555, 9.588347, 9.515874, 15.638567, 10.968703, 11.259523, 10.638040
Process 4: 23.331910, 15.088436, 10.656532, 10.589257, 11.179204, 10.052688, 9.197482, 12.659755, 10.324905, 9.397962, 10.886180, 14.306995, 11.111659, 11.397523, 10.214566, 15.652967, 9.211320, 11.426670, 12.342249, 14.443713, 9.070427, 10.548392, 15.012488, 13.095233, 9.697835, 9.617007, 15.748525, 11.079550, 11.361263, 10.746851
Process 5: 23.451907, 15.196006, 10.781126, 10.707707, 11.293594, 10.162161, 9.307000, 12.778616, 10.435178, 9.507424, 11.009218, 14.414599, 11.212328, 11.490161, 10.319714, 15.748544, 9.316997, 11.523680, 12.446026, 14.553001, 9.179918, 10.643961, 15.110855, 13.200113, 9.795923, 9.722533, 15.844468, 11.177849, 11.468257, 10.849061
Process 6: 23.544117, 15.290847, 10.869246, 10.800933, 11.385612, 10.265019, 9.407872, 12.877727, 10.531156, 9.602828, 11.101519, 14.512211, 11.316956, 11.576416, 10.422155, 15.856543, 9.417490, 11.629374, 12.552622, 14.650733, 9.284902, 10.780671, 15.222163, 13.301297, 9.905007, 9.823002, 15.953374, 11.281181, 11.569673, 10.952009
Process 7: 23.662026, 15.400081, 10.991865, 10.918040, 11.500957, 10.370233, 9.514396, 12.959420, 10.642810, 9.717609, 11.217546, 14.624652, 11.423923, 11.677535, 10.531167, 15.956774, 9.522565, 11.726927, 12.653805, 14.762323, 9.391231, 10.894154, 15.324757, 13.409709, 10.001725, 9.930011, 16.051582, 11.383383, 11.676800, 11.044148
Process 8: 23.759041, 15.504134, 11.085099, 11.013668, 11.599907, 10.475577, 9.613621, 13.028149, 10.748518, 9.819114, 11.325974, 14.729159, 11.526563, 11.778677, 10.628589, 16.068406, 9.628381, 11.822285, 12.759287, 14.864706, 9.496342, 11.003511, 15.434588, 13.512607, 10.108744, 10.031584, 16.158558, 11.494271, 11.780674, 11.129762
Process 9: 23.871607, 15.606771, 11.199302, 11.125983, 11.706677, 10.577955, 9.718692, 13.113822, 10.849179, 9.925076, 11.444353, 14.834203, 11.630615, 11.882888, 10.735503, 16.166596, 9.729860, 11.913418, 12.862220, 14.971634, 9.597278, 11.101737, 15.532233, 13.617511, 10.208192, 10.142031, 16.258330, 11.593880, 11.884608, 11.237269
Process 10: 23.987286, 15.719414, 11.317743, 11.237329, 11.820641, 10.695886, 9.844485, 13.201973, 10.967200, 10.041847, 11.557095, 14.951048, 11.747530, 11.995474, 10.847874, 16.280287, 9.841570, 12.029669, 12.978073, 15.089098, 9.713399, 11.204304, 15.647782, 13.731886, 10.319429, 10.256560, 16.368788, 11.710621, 12.000859, 11.346908
Process 11: 24.084793, 15.820569, 11.411539, 11.336658, 11.916887, 10.789951, 9.952240, 13.270631, 11.062463, 10.140461, 11.655510, 15.046151, 11.843284, 12.091171, 10.945296, 16.382398, 9.940612, 12.126615, 13.074199, 15.184558, 9.808247, 11.292443, 15.748916, 13.825257, 10.414919, 10.356204, 16.465511, 11.806535, 12.096167, 11.441514
Process 12: 24.198622, 15.929261, 11.527565, 11.449553, 12.034931, 10.901524, 10.061793, 13.376945, 11.174357, 10.251128, 11.771138, 15.157309, 11.954526, 12.200741, 11.068185, 16.492752, 10.053506, 12.237493, 13.181956, 15.296113, 9.923113, 11.399568, 15.858749, 13.935911, 10.526772, 10.452194, 16.579100, 11.918612, 12.209847, 11.531773
Process 13: 24.320458, 16.032443, 11.628203, 11.553901, 12.138087, 11.006593, 10.164049, 13.474956, 11.281959, 10.356330, 11.911673, 15.262115, 12.060829, 12.304922, 11.182742, 16.594122, 10.156683, 12.343161, 13.284371, 15.400548, 10.028222, 11.503292, 15.961302, 14.040217, 10.633568, 10.566520, 16.683241, 12.025446, 12.313447, 11.615025
Process 14: 24.428959, 16.143123, 11.736454, 11.660441, 12.243591, 11.113469, 10.278811, 13.577797, 11.390530, 10.463213, 12.020678, 15.369709, 12.169177, 12.410764, 11.288539, 16.697795, 10.263578, 12.445112, 13.392945, 15.509159, 10.134458, 11.611562, 16.076358, 14.149127, 10.736574, 10.669120, 16.790029, 12.130667, 12.422044, 11.718050
Process 15: 24.540660, 16.248642, 11.843236, 11.768044, 12.352855, 11.219376, 10.385473, 13.679826, 11.498125, 10.570279, 12.130491, 15.474928, 12.273859, 12.514340, 11.401424, 16.810549, 10.369101, 12.550023, 13.497850, 15.614943, 10.239182, 11.719013, 16.181553, 14.255958, 10.840461, 10.763154, 16.899006, 12.239565, 12.529098, 11.819274
Process 16: 24.644836, 16.352972, 11.949931, 11.873390, 12.456134, 11.327063, 10.489831, 13.777011, 11.606305, 10.676418, 12.234912, 15.581700, 12.383179, 12.621268, 11.508308, 16.915896, 10.480009, 12.658449, 13.608857, 15.720934, 10.344338, 11.826119, 16.282465, 14.363739, 10.946455, 10.867419, 17.005286, 12.345233, 12.634427, 11.915945
Process 17: 24.741200, 16.465444, 12.059812, 11.985517, 12.569424, 11.438104, 10.606101, 13.887647, 11.714786, 10.786291, 12.346384, 15.692639, 12.492752, 12.732178, 11.620563, 17.023999, 10.589112, 12.771746, 13.739174, 15.833783, 10.455286, 11.935755, 16.390880, 14.476783, 11.060482, 10.980901, 17.115429, 12.456951, 12.745819, 12.027734
Process 18: 24.842061, 16.574039, 12.166113, 12.090147, 12.675966, 11.539572, 10.708356, 13.987961, 11.816743, 10.890135, 12.443974, 15.795623, 12.595132, 12.831327, 11.721096, 17.128344, 10.691290, 12.872229, 13.838063, 15.937128, 10.562227, 12.042641, 16.497460, 14.580057, 11.162893, 11.085439, 17.219305, 12.560075, 12.847919, 12.123061
Process 19: 24.951499, 16.678599, 12.274340, 12.198849, 12.784472, 11.651264, 10.822729, 14.092116, 11.929454, 11.002293, 12.541147, 15.909924, 12.709590, 12.943283, 11.835409, 17.237396, 10.804977, 12.983558, 13.953261, 16.052058, 10.675413, 12.151872, 16.608316, 14.694570, 11.272832, 11.200995, 17.331140, 12.675976, 12.960731, 12.220548
Process 20: 25.081920, 16.826708, 12.407205, 12.330470, 12.937841, 11.791430, 10.980802, 14.245324, 12.075512, 11.148549, 12.674934, 16.031782, 12.868849, 13.106417, 12.004637, 17.403475, 10.962103, 13.143700, 14.073984, 16.200523, 10.831113, 12.318316, 16.774621, 14.856623, 11.434001, 11.361080, 17.496645, 12.837436, 13.127753, 12.381049
Process 21: 25.166038, 16.891596, 12.487432, 12.410969, 12.999957, 11.865668, 11.016628, 14.303297, 12.141597, 11.216077, 12.754248, 16.122171, 12.919751, 13.156257, 12.039487, 17.452459, 11.017553, 13.194090, 14.136529, 16.262473, 10.886268, 12.365651, 16.843854, 14.904239, 11.485752, 11.411395, 17.540509, 12.884596, 13.168788, 12.427373
Process 22: 25.294630, 17.037739, 12.617062, 12.538813, 13.140647, 12.009612, 11.162584, 14.454837, 12.286680, 11.358534, 12.884514, 16.241537, 13.064762, 13.310536, 12.184165, 17.616206, 11.174241, 13.347258, 14.262039, 16.406729, 11.035520, 12.520873, 17.002559, 15.062622, 11.640096, 11.564281, 17.696346, 13.047949, 13.327969, 12.583469
Process 23: 25.380102, 17.115661, 12.699809, 12.625603, 13.208836, 12.077938, 11.223813, 14.509552, 12.354786, 11.429676, 12.968194, 16.334599, 13.132056, 13.367192, 12.223313, 17.669800, 11.230573, 13.405186, 14.343153, 16.475157, 11.098533, 12.577744, 17.056774, 15.116663, 11.698252, 11.624078, 17.754967, 13.098469, 13.383067, 12.643199
Process 24: 25.506701, 17.260273, 12.824171, 12.749142, 13.353447, 12.216104, 11.379141, 14.653239, 12.499798, 11.566882, 13.093432, 16.453742, 13.272646, 13.527592, 12.366942, 17.831107, 11.378485, 13.560666, 14.447408, 16.611098, 11.246556, 12.730450, 17.222517, 15.271491, 11.848006, 11.770948, 17.909309, 13.251059, 13.538421, 12.791335
Process 25: 25.594980, 17.324819, 12.914649, 12.840465, 13.424656, 12.291341, 11.433003, 14.721962, 12.572031, 11.643405, 13.183334, 16.551061, 13.348402, 13.585532, 12.438525, 17.885251, 11.445315, 13.620012, 14.529811, 16.692774, 11.315621, 12.794550, 17.272641, 15.334149, 11.914647, 11.839262, 17.987555, 13.313728, 13.598341, 12.859396
Process 26: 25.713767, 17.448751, 13.037455, 12.967811, 13.559399, 12.428890, 11.572559, 14.870420, 12.702376, 11.780861, 13.307517, 16.666924, 13.489660, 13.733605, 12.580733, 18.043865, 11.596013, 13.772910, 14.638825, 16.822493, 11.454952, 12.944330, 17.421297, 15.487686, 12.061408, 11.988396, 18.136592, 13.464742, 13.756351, 13.000855
Process 27: 25.809988, 17.519363, 13.129776, 13.055986, 13.637904, 12.505630, 11.645333, 14.950745, 12.785435, 11.858506, 13.398079, 16.761040, 13.564092, 13.797000, 12.646715, 18.102219, 11.663614, 13.832295, 14.705798, 16.908073, 11.528236, 13.009863, 17.488959, 15.547765, 12.128263, 12.054816, 18.205670, 13.527371, 13.811045, 13.076069
Process 28: 25.925825, 17.639965, 13.247733, 13.176666, 13.768590, 12.636307, 11.788786, 15.092819, 12.921718, 11.985053, 13.518580, 16.877533, 13.698615, 13.940264, 12.786687, 18.245191, 11.803698, 13.976046, 14.811175, 17.038721, 11.665178, 13.149657, 17.642478, 15.692713, 12.268257, 12.194439, 18.354427, 13.674071, 13.958642, 13.216757
Process 29: 26.025627, 17.721609, 13.346148, 13.271395, 13.855369, 12.720316, 11.893753, 15.170552, 13.002936, 12.073219, 13.615132, 16.991967, 13.779741, 14.017899, 12.861387, 18.315288, 11.881573, 14.048676, 14.904516, 17.126206, 11.746261, 13.228207, 17.701812, 15.765703, 12.346609, 12.272261, 18.420359, 13.746364, 14.029477, 13.292954
Process 30: 26.143345, 17.849183, 13.462745, 13.387922, 13.990181, 12.843552, 12.036956, 15.305565, 13.130245, 12.196698, 13.733559, 17.115675, 13.910174, 14.150722, 12.992011, 18.455350, 12.013636, 14.186869, 15.018437, 17.250105, 11.877902, 13.362280, 17.859259, 15.905155, 12.481365, 12.409156, 18.570954, 13.881341, 14.176180, 13.425353
Process 31: 26.242131, 17.933114, 13.562171, 13.487470, 14.076768, 12.938444, 12.118583, 15.410977, 13.215807, 12.288462, 13.830838, 17.215651, 13.994206, 14.234185, 13.070693, 18.529921, 12.093710, 14.262278, 15.113283, 17.340925, 11.961861, 13.442626, 17.921238, 15.981064, 12.560757, 12.490226, 18.638077, 13.961252, 14.243868, 13.510444
Process 32: 26.355826, 18.029152, 13.678936, 13.603109, 14.198510, 13.054786, 12.233576, 15.546003, 13.337428, 12.406680, 13.950714, 17.337838, 14.115472, 14.356955, 13.191554, 18.651746, 12.210616, 14.383892, 15.232256, 17.464128, 12.086551, 13.564876, 18.049687, 16.104797, 12.683776, 12.611811, 18.767151, 14.086408, 14.368613, 13.634389
Process 33: 26.457175, 18.129290, 13.732064, 13.683370, 14.261043, 13.124506, 12.286268, 15.642753, 13.411457, 12.489586, 13.999622, 17.449500, 14.183071, 14.410642, 13.291310, 18.716058, 12.308255, 14.483546, 15.331808, 17.529147, 12.157712, 13.613780, 18.129516, 16.185187, 12.746511, 12.678426, 18.828857, 14.176465, 14.438739, 13.732798
Process 34: 26.552471, 18.218502, 13.842227, 13.775599, 14.359627, 13.217392, 12.373855, 15.725333, 13.496801, 12.584636, 14.089484, 17.534180, 14.269833, 14.497670, 13.375471, 18.813680, 12.390532, 14.570794, 15.417095, 17.616236, 12.243672, 13.690214, 18.200418, 16.274907, 12.830876, 12.762690, 18.915229, 14.265044, 14.524001, 13.822712
Process 35: 26.637300, 18.300288, 13.905256, 13.842738, 14.420278, 13.277671, 12.437880, 15.818452, 13.564504, 12.647641, 14.151817, 17.633115, 14.337536, 14.558864, 13.450480, 18.877346, 12.458841, 14.630811, 15.502457, 17.678234, 12.310655, 13.749595, 18.272688, 16.335848, 12.896005, 12.825593, 18.980900, 14.333803, 14.590809, 13.904054
Process 36: 26.728241, 18.376021, 13.973136, 13.916347, 14.492175, 13.348311, 12.507757, 15.882104, 13.626477, 12.714888, 14.223562, 17.723843, 14.405598, 14.624878, 13.521236, 18.941535, 12.530737, 14.697584, 15.574078, 17.751288, 12.367689, 13.817480, 18.332631, 16.411700, 12.959622, 12.898617, 19.032420, 14.409343, 14.655073, 13.979077
Process 37: 26.823035, 18.456817, 14.034765, 13.979055, 14.549799, 13.410941, 12.577127, 15.966456, 13.703917, 12.784938, 14.292971, 17.819692, 14.474768, 14.700169, 13.601356, 19.017715, 12.609015, 14.765503, 15.651921, 17.821575, 12.450755, 13.894653, 18.412352, 16.476217, 13.035616, 12.964527, 19.106255, 14.471090, 14.733380, 14.042949
Process 38: 26.910635, 18.510032, 14.087588, 14.033641, 14.612276, 13.472799, 12.632729, 16.045185, 13.766177, 12.841483, 14.355153, 17.906305, 14.529817, 14.742754, 13.649345, 19.066073, 12.670820, 14.819241, 15.731369, 17.897257, 12.497237, 13.941497, 18.463454, 16.534527, 13.088643, 13.023844, 19.131972, 14.535218, 14.787320, 14.105781
Process 39: 27.000175, 18.575603, 14.162440, 14.103532, 14.677458, 13.543305, 12.701063, 16.122191, 13.829992, 12.913549, 14.425997, 17.999171, 14.598937, 14.817530, 13.720618, 19.151030, 12.740110, 14.889115, 15.810344, 17.976182, 12.561173, 14.015015, 18.530415, 16.609440, 13.160197, 13.097414, 19.200857, 14.604678, 14.856739, 14.164382
Process 40: 27.079514, 18.637736, 14.198442, 14.147142, 14.726384, 13.588895, 12.745604, 16.172995, 13.878276, 12.961215, 14.467288, 18.075112, 14.646343, 14.863096, 13.775429, 19.196984, 12.797487, 14.936375, 15.881433, 18.017861, 12.605493, 14.058408, 18.577717, 16.679759, 13.207925, 13.140178, 19.247807, 14.645851, 14.901983, 14.216958
Process 41: 27.162413, 18.710562, 14.262633, 14.207784, 14.783968, 13.647215, 12.806396, 16.249134, 13.938210, 13.013958, 14.535481, 18.155310, 14.703742, 14.921084, 13.847204, 19.254251, 12.873211, 14.996418, 15.957708, 18.078419, 12.661751, 14.117528, 18.636760, 16.744437, 13.267056, 13.203279, 19.306255, 14.716051, 14.959271, 14.290425
Process 42: 27.236482, 18.779456, 14.299384, 14.256018, 14.826640, 13.693292, 12.866887, 16.320659, 13.987905, 13.070923, 14.600026, 18.205989, 14.756537, 14.966471, 13.914073, 19.295886, 12.935789, 15.041502, 16.024592, 18.123299, 12.711037, 14.168979, 18.696386, 16.808039, 13.314980, 13.268273, 19.350940, 14.801693, 15.008567, 14.355960
Process 43: 27.313180, 18.850732, 14.361102, 14.319431, 14.892776, 13.765314, 12.934552, 16.391698, 14.054840, 13.138790, 14.670590, 18.282037, 14.820415, 15.022628, 13.985610, 19.360064, 13.007727, 15.101644, 16.095252, 18.195319, 12.763769, 14.232163, 18.771822, 16.879002, 13.369495, 13.334425, 19.405319, 14.874894, 15.080190, 14.426320
Process 44: 27.379380, 18.912876, 14.416145, 14.384186, 14.946010, 13.821965, 12.991981, 16.452166, 14.125986, 13.199317, 14.729026, 18.347433, 14.870989, 15.078901, 14.044465, 19.404405, 13.071020, 15.157918, 16.155641, 18.242273, 12.823352, 14.285655, 18.832203, 16.928639, 13.414935, 13.392377, 19.450884, 14.927565, 15.134793, 14.487851
Process 45: 27.448333, 18.976309, 14.477239, 14.463778, 15.020801, 13.881755, 13.050002, 16.515454, 14.191947, 13.257881, 14.792799, 18.415612, 14.931971, 15.140276, 14.107262, 19.470364, 13.133144, 15.221098, 16.219875, 18.303633, 12.883382, 14.344674, 18.899443, 16.992168, 13.476803, 13.450596, 19.512947, 14.990790, 15.196066, 14.550994
Process 46: 27.508441, 19.030112, 14.529754, 14.536658, 15.064176, 13.935648, 13.105197, 16.574589, 14.241042, 13.315366, 14.847873, 18.475806, 15.010159, 15.193665, 14.160161, 19.497672, 13.190317, 15.274715, 16.276192, 18.352467, 12.933373, 14.396890, 18.958708, 17.044127, 13.529333, 13.503453, 19.566041, 15.041788, 15.250767, 14.605155
Process 47: 27.572833, 19.088700, 14.587157, 14.626497, 15.121157, 13.996196, 13.162347, 16.636108, 14.307536, 13.374790, 14.906599, 18.539811, 15.079439, 15.253326, 14.223362, 19.554471, 13.247068, 15.333040, 16.335565, 18.419766, 12.993637, 14.456576, 19.017003, 17.113253, 13.587151, 13.563658, 19.623972, 15.109544, 15.307910, 14.666205
Process 48: 27.627624, 19.139562, 14.638463, 14.667565, 15.166490, 14.046311, 13.212951, 16.689051, 14.355746, 13.424785, 14.957485, 18.595807, 15.120320, 15.303945, 14.274697, 19.605505, 13.316935, 15.381843, 16.388039, 18.442720, 13.041165, 14.503415, 19.070557, 17.155853, 13.638307, 13.615004, 19.672877, 15.150052, 15.359869, 14.715278
Process 49: 27.684603, 19.197030, 14.691088, 14.730513, 15.221602, 14.098513, 13.265675, 16.746938, 14.403927, 13.479950, 15.010687, 18.651845, 15.175940, 15.357009, 14.327013, 19.658040, 13.376824, 15.435579, 16.443898, 18.492100, 13.095598, 14.556948, 19.124170, 17.207573, 13.691705, 13.668235, 19.726177, 15.207970, 15.411329, 14.769784
Process 50: 27.731442, 19.242298, 14.732616, 14.775718, 15.262159, 14.140029, 13.308046, 16.788019, 14.449530, 13.522284, 15.050620, 18.697304, 15.215249, 15.398987, 14.369785, 19.700280, 13.419705, 15.476565, 16.487032, 18.536273, 13.138863, 14.596977, 19.168269, 17.249642, 13.734014, 13.714641, 19.768535, 15.247894, 15.455170, 14.812846
Process 51: 27.783926, 19.293372, 14.783993, 14.826338, 15.313849, 14.191055, 13.361933, 16.839982, 14.496859, 13.575914, 15.101372, 18.749804, 15.268932, 15.452299, 14.423085, 19.749398, 13.466822, 15.528821, 16.536647, 18.585582, 13.184968, 14.651074, 19.217792, 17.301471, 13.786062, 13.763325, 19.818866, 15.300480, 15.503662, 14.862000
Process 52: 27.825452, 19.328607, 14.823483, 14.864476, 15.359907, 14.231322, 13.400808, 16.880706, 14.541018, 13.614923, 15.140425, 18.791372, 15.308099, 15.491196, 14.460604, 19.791638, 13.511400, 15.571796, 16.576209, 18.626668, 13.242936, 14.690293, 19.259259, 17.328951, 13.827614, 13.810758, 19.858226, 15.338961, 15.547355, 14.901839
Process 53: 27.872823, 19.373814, 14.869620, 14.890975, 15.410695, 14.278458, 13.448913, 16.925968, 14.586853, 13.661266, 15.187277, 18.837438, 15.353850, 15.538182, 14.510920, 19.838573, 13.557319, 15.616957, 16.622349, 18.672819, 13.298307, 14.736713, 19.303721, 17.364400, 13.871741, 13.858612, 19.906528, 15.387931, 15.591071, 14.946143
Process 54: 27.913522, 19.412592, 14.907899, 14.930125, 15.448704, 14.316778, 13.491710, 16.966395, 14.630045, 13.699054, 15.226023, 18.876222, 15.392189, 15.579813, 14.554388, 19.878257, 13.600265, 15.654464, 16.662865, 18.712911, 13.337643, 14.779394, 19.345181, 17.410699, 13.913046, 13.896774, 19.944007, 15.414684, 15.633465, 14.987294
Process 55: 27.959173, 19.458518, 14.953818, 14.977333, 15.511629, 14.364598, 13.538878, 17.011981, 14.673732, 13.747733, 15.271286, 18.923045, 15.436599, 15.626949, 14.600697, 19.926825, 13.643235, 15.700398, 16.707152, 18.757025, 13.380957, 14.822180, 19.391078, 17.451680, 13.958897, 13.944674, 19.993640, 15.451266, 15.681569, 15.035993
Process 56: 28.001672, 19.499477, 14.992597, 15.016952, 15.573065, 14.404834, 13.576764, 17.055052, 14.700604, 13.786017, 15.311264, 18.961977, 15.475386, 15.666776, 14.637346, 19.968649, 13.680335, 15.742024, 16.747775, 18.798862, 13.419284, 14.865569, 19.433604, 17.494367, 14.008949, 13.985280, 20.035077, 15.491977, 15.720557, 15.073792
Process 57: 28.042216, 19.542066, 15.034844, 15.062605, 15.632329, 14.448330, 13.619487, 17.096361, 14.732103, 13.830779, 15.354031, 19.004418, 15.520014, 15.708851, 14.683175, 20.010595, 13.727753, 15.784491, 16.790665, 18.843041, 13.466586, 14.908718, 19.473585, 17.539748, 14.066201, 14.028721, 20.075976, 15.533430, 15.764032, 15.117757
Process 58: 28.083321, 19.580623, 15.073430, 15.102990, 15.690710, 14.487364, 13.663872, 17.138290, 14.775349, 13.867806, 15.392010, 19.043166, 15.552069, 15.754813, 14.725822, 20.051260, 13.767539, 15.825752, 16.830997, 18.882516, 13.507008, 14.948286, 19.513831, 17.578327, 14.105962, 14.072640, 20.116808, 15.574474, 15.811517, 15.160123
Process 59: 28.128100, 19.625427, 15.118968, 15.146892, 15.741436, 14.531600, 13.703462, 17.181529, 14.819349, 13.915520, 15.438425, 19.088502, 15.582272, 15.798464, 14.767764, 20.097578, 13.811857, 15.870035, 16.874052, 18.927329, 13.548702, 14.994083, 19.561305, 17.622512, 14.149629, 14.115976, 20.161852, 15.619666, 15.869797, 15.205589
Process 60: 28.171478, 19.696260, 15.159204, 15.188892, 15.793269, 14.573375, 13.749857, 17.225105, 14.857440, 13.959473, 15.478376, 19.127545, 15.624388, 15.839822, 14.810579, 20.139513, 13.847477, 15.912235, 16.916065, 18.966394, 13.588771, 15.035864, 19.601017, 17.664878, 14.188922, 14.158773, 20.203897, 15.661924, 15.911495, 15.246697
Process 61: 28.209704, 19.714195, 15.201532, 15.232853, 15.839842, 14.615026, 13.791972, 17.267080, 14.900398, 14.019331, 15.521220, 19.170265, 15.665635, 15.880945, 14.852559, 20.181410, 13.872077, 15.956784, 16.958676, 19.011623, 13.632967, 15.076247, 19.644277, 17.708430, 14.234949, 14.203639, 20.244514, 15.703621, 15.954100, 15.286726
Process 62: 28.252930, 19.747618, 15.239703, 15.273804, 15.883745, 14.655876, 13.836035, 17.308894, 14.943870, 14.058623, 15.559705, 19.209264, 15.704751, 15.923979, 14.893280, 20.222496, 13.913424, 15.996635, 16.996318, 19.049554, 13.671220, 15.118230, 19.685155, 17.746573, 14.274106, 14.242267, 20.285172, 15.744636, 15.997214, 15.326689
Process 63: 28.294016, 19.790967, 15.283817, 15.315809, 15.916642, 14.701346, 13.875007, 17.351639, 14.982512, 14.103089, 15.602981, 19.252109, 15.750034, 15.985305, 14.938053, 20.266517, 13.956667, 16.037103, 17.042796, 19.093921, 13.692616, 15.166114, 19.730042, 17.793957, 14.319498, 14.285676, 20.328062, 15.788003, 16.039501, 15.369261
