MPI_insiderank_optimisedserial
Process 0: 65.917050, 25.899585, 26.718188, 27.864479, 27.859936, 27.919060, 25.854748, 29.798172, 25.819159, 29.770899, 27.981856, 24.403998, 37.640343, 34.291390, 81.435510, 81.762142, 40.848712, 23.901646, 41.074296, 60.937208, 100.292114, 24.705974, 24.844742, 23.873844, 23.989577, 25.954287, 23.931586, 24.387091, 23.913690, 23.919585
Process 1: 55.181292, 16.143805, 16.936969, 18.064952, 18.101802, 18.079513, 16.128331, 18.858536, 16.101732, 18.825377, 18.202991, 14.573407, 27.920420, 23.423865, 70.833740, 70.853348, 30.975597, 14.056925, 31.030001, 50.304586, 89.310247, 14.858287, 14.952950, 14.062864, 14.243218, 16.130210, 14.197947, 14.560880, 14.171178, 14.040981
Process 2: 55.274998, 16.235184, 17.022667, 18.148167, 18.193738, 18.168290, 16.219872, 18.951065, 16.188964, 18.928285, 18.289782, 14.671822, 28.010454, 23.524316, 70.937523, 70.957129, 31.075782, 14.153749, 31.130287, 50.406758, 89.411381, 14.962375, 15.039429, 14.143354, 14.327358, 16.216343, 14.296359, 14.650428, 14.254780, 14.136974
Process 3: 55.373194, 16.343897, 17.127179, 18.260679, 18.292847, 18.267758, 16.325294, 19.062524, 16.292979, 19.033278, 18.397173, 14.778039, 28.114612, 23.631390, 71.043909, 71.067798, 31.185789, 14.279503, 31.239056, 50.517220, 89.519434, 15.071669, 15.147196, 14.248327, 14.414729, 16.319814, 14.402971, 14.746111, 14.354288, 14.244968
Process 4: 55.439614, 16.429935, 17.214917, 18.339830, 18.381099, 18.344801, 16.411715, 19.144832, 16.376535, 19.121256, 18.486089, 14.876851, 28.201441, 23.728048, 71.143813, 71.168968, 31.281181, 14.357458, 31.337929, 50.615295, 89.618038, 15.169078, 15.232452, 14.325180, 14.495002, 16.408003, 14.501568, 14.823264, 14.439280, 14.348805
Process 5: 55.524159, 16.529930, 17.313723, 18.437939, 18.477691, 18.440760, 16.509566, 19.242962, 16.474961, 19.220359, 18.583442, 14.968096, 28.298742, 23.821161, 71.233505, 71.256665, 31.371211, 14.440128, 31.427234, 50.705363, 89.708912, 15.255038, 15.333264, 14.422452, 14.566040, 16.505982, 14.586392, 14.920463, 14.537691, 14.433907
Process 6: 55.595540, 16.597914, 17.384790, 18.509923, 18.549915, 18.512048, 16.578278, 19.314022, 16.545023, 19.290659, 18.653738, 15.032727, 28.369068, 23.885860, 71.297349, 71.318435, 31.435758, 14.515911, 31.492056, 50.767367, 89.772528, 15.318759, 15.403150, 14.493229, 14.619878, 16.576494, 14.652193, 14.994329, 14.610531, 14.497726
Process 7: 55.700317, 16.701178, 17.484727, 18.609674, 18.649336, 18.613893, 16.681809, 19.417093, 16.646432, 19.393622, 18.755503, 15.105139, 28.472196, 23.980612, 71.372304, 71.392879, 31.512994, 14.617102, 31.565103, 50.849438, 89.849359, 15.391619, 15.508067, 14.596379, 14.720784, 16.678336, 14.722891, 15.095617, 14.710301, 14.568949
Process 8: 55.780246, 16.779289, 17.562427, 18.689674, 18.729330, 18.694294, 16.758589, 19.494696, 16.723261, 19.471520, 18.832078, 15.185530, 28.548231, 24.062345, 71.459192, 71.478657, 31.591604, 14.697013, 31.649442, 50.935333, 89.937879, 15.471279, 15.588462, 14.673988, 14.797480, 16.756412, 14.794218, 15.174775, 14.787751, 14.646916
Process 9: 55.865360, 16.868816, 17.651635, 18.778645, 18.817481, 18.783798, 16.847126, 19.584241, 16.812003, 19.563168, 18.921728, 15.281419, 28.635619, 24.163650, 71.551628, 71.567692, 31.687148, 14.786429, 31.739185, 51.025573, 90.026881, 15.567597, 15.677731, 14.762874, 14.884021, 16.844975, 14.891799, 15.262064, 14.876007, 14.741611
Process 10: 55.937819, 16.940139, 17.724713, 18.851385, 18.889697, 18.856431, 16.919136, 19.665396, 16.884510, 19.644546, 18.994466, 15.343739, 28.708009, 24.250811, 71.614102, 71.644884, 31.750054, 14.859809, 31.802975, 51.099427, 90.101650, 15.629851, 15.752043, 14.835360, 14.957073, 16.916597, 14.951802, 15.334238, 14.948689, 14.804632
Process 11: 56.021022, 17.029380, 17.811312, 18.939040, 18.977784, 18.945388, 17.006208, 19.777011, 16.971151, 19.749682, 19.081778, 15.435899, 28.794628, 24.365206, 71.716939, 71.756550, 31.840101, 14.949243, 31.891637, 51.207464, 90.205727, 15.721528, 15.840530, 14.923300, 15.043426, 17.004952, 15.041826, 15.422149, 15.034959, 14.900153
Process 12: 56.088904, 17.097715, 17.880211, 19.007962, 19.045190, 19.014276, 17.074941, 19.870200, 17.041045, 19.835845, 19.150865, 15.503626, 28.863731, 24.460902, 71.807935, 71.846661, 31.909221, 15.016354, 31.960653, 51.298843, 90.296933, 15.789910, 15.909730, 14.991824, 15.112649, 17.072883, 15.110318, 15.489265, 15.103726, 14.963082
Process 13: 56.172809, 17.177486, 17.959822, 19.087045, 19.124512, 19.093034, 17.155107, 19.978856, 17.118933, 19.937814, 19.229393, 15.591535, 28.942103, 24.572415, 71.916215, 71.956195, 31.994528, 15.092438, 32.045968, 51.406720, 90.398459, 15.876520, 16.000787, 15.072716, 15.191278, 17.151261, 15.196642, 15.567615, 15.183151, 15.048779
Process 14: 56.263075, 17.242574, 18.026880, 19.151853, 19.190489, 19.170976, 17.220784, 20.086658, 17.185727, 20.026175, 19.295356, 15.636284, 29.008855, 24.662472, 72.002567, 72.039723, 32.047783, 15.159938, 32.099545, 51.489123, 90.481240, 15.928364, 16.078665, 15.136950, 15.263881, 17.214821, 15.242926, 15.633850, 15.247955, 15.099374
Process 15: 56.371018, 17.320548, 18.102828, 19.238709, 19.266532, 19.264418, 17.298143, 20.198385, 17.262188, 20.133824, 19.372009, 15.704001, 29.086305, 24.780622, 72.114156, 72.155330, 32.127609, 15.244520, 32.181132, 51.598751, 90.594744, 16.009416, 16.171942, 15.214972, 15.347159, 17.293109, 15.309289, 15.712995, 15.323073, 15.180671
Process 16: 56.459785, 17.380935, 18.164266, 19.290422, 19.330477, 19.348719, 17.361801, 20.298291, 17.325636, 20.226006, 19.436151, 15.765337, 29.151009, 24.880830, 72.211114, 72.253824, 32.189229, 15.329502, 32.240748, 51.692222, 90.691044, 16.083643, 16.259219, 15.275825, 15.402450, 17.355927, 15.372011, 15.795674, 15.387255, 15.265631
Process 17: 56.562250, 17.477365, 18.243920, 19.379891, 19.404546, 19.450055, 17.433667, 20.413147, 17.393229, 20.336011, 19.506429, 15.860522, 29.217918, 24.991790, 72.316892, 72.363658, 32.275208, 15.432367, 32.311150, 51.799830, 90.796942, 16.181860, 16.356684, 15.374076, 15.505134, 17.453828, 15.464216, 15.892130, 15.463912, 15.366368
Process 18: 56.652033, 17.561952, 18.313928, 19.460166, 19.485887, 19.531647, 17.514050, 20.512100, 17.478478, 20.429605, 19.588879, 15.942821, 29.288234, 25.086972, 72.407884, 72.459059, 32.350125, 15.512460, 32.385807, 51.890149, 90.885964, 16.260204, 16.438333, 15.458404, 15.584259, 17.535442, 15.550296, 15.972796, 15.551725, 15.452228
Process 19: 56.757830, 17.657290, 18.414659, 19.560839, 19.582448, 19.632225, 17.609150, 20.627487, 17.575107, 20.540408, 19.684227, 16.045646, 29.383308, 25.201771, 72.520566, 72.576192, 32.449040, 15.610108, 32.485063, 51.999093, 90.998477, 16.362914, 16.536099, 15.554020, 15.689472, 17.632899, 15.650651, 16.070082, 15.655008, 15.556596
Process 20: 56.851848, 17.747190, 18.501630, 19.647541, 19.664770, 19.722475, 17.697533, 20.731327, 17.658685, 20.639562, 19.772776, 16.130914, 29.469963, 25.300899, 72.619426, 72.674171, 32.536801, 15.699564, 32.570323, 52.096151, 91.097686, 16.450479, 16.627447, 15.644429, 15.774448, 17.718478, 15.736162, 16.159562, 15.733832, 15.642017
Process 21: 56.963275, 17.844532, 18.595168, 19.752340, 19.769198, 19.824929, 17.792981, 20.844772, 17.759052, 20.750724, 19.870677, 16.231258, 29.568619, 25.408929, 72.729095, 72.785191, 32.634393, 15.796656, 32.670519, 52.202263, 91.205995, 16.550907, 16.725188, 15.745811, 15.874835, 17.816267, 15.836169, 16.262993, 15.832192, 15.738320
Process 22: 57.067504, 17.930403, 18.680938, 19.843603, 19.854374, 19.913781, 17.881744, 20.946145, 17.844771, 20.852506, 19.958821, 16.323678, 29.659926, 25.508807, 72.825893, 72.885363, 32.719019, 15.883781, 32.751679, 52.295434, 91.302689, 16.641495, 16.818029, 15.833450, 15.963410, 17.906118, 15.928711, 16.354595, 15.922800, 15.831208
Process 23: 57.189790, 18.033245, 18.784037, 19.944024, 19.955597, 20.017351, 17.983080, 21.057557, 17.948784, 20.962949, 20.060459, 16.420953, 29.759001, 25.620621, 72.937860, 72.997021, 32.821623, 15.987185, 32.852919, 52.401205, 91.412330, 16.742011, 16.918709, 15.936162, 16.066474, 18.008900, 16.028743, 16.451098, 16.026181, 15.930259
Process 24: 57.310985, 18.121925, 18.873134, 20.034864, 20.042657, 20.108435, 18.073356, 21.158873, 18.037071, 21.059869, 20.149816, 16.511379, 29.845402, 25.719882, 73.037622, 73.098231, 32.910585, 16.076044, 32.942984, 52.496633, 91.510366, 16.831144, 17.008895, 16.025450, 16.155862, 18.098121, 16.115253, 16.540863, 16.111431, 16.024625
Process 25: 57.429474, 18.225234, 18.976050, 20.136324, 20.148858, 20.212674, 18.176531, 21.272088, 18.141513, 21.169654, 20.254045, 16.615906, 29.947555, 25.831474, 73.149982, 73.213327, 33.013845, 16.178999, 33.047382, 52.608845, 91.622349, 16.934249, 17.116757, 16.145534, 16.260653, 18.205602, 16.217340, 16.643532, 16.216305, 16.126485
Process 26: 57.525196, 18.322197, 19.069637, 20.231428, 20.244905, 20.311282, 18.269890, 21.376535, 18.237409, 21.271805, 20.348725, 16.712871, 30.042703, 25.939225, 73.254762, 73.319102, 33.112604, 16.277803, 33.141141, 52.714043, 91.724908, 17.037146, 17.216832, 16.227784, 16.353327, 18.300157, 16.316437, 16.742810, 16.313954, 16.222500
Process 27: 57.617208, 18.427123, 19.169486, 20.333772, 20.349606, 20.413750, 18.371944, 21.484397, 18.341720, 21.378146, 20.453793, 16.814707, 30.143751, 26.043004, 73.362457, 73.426979, 33.210201, 16.383302, 33.241476, 52.818919, 91.828531, 17.138923, 17.322390, 16.331556, 16.452540, 18.399730, 16.417691, 16.845537, 16.412802, 16.322643
Process 28: 57.716825, 18.520806, 19.264022, 20.430570, 20.446853, 20.511000, 18.468586, 21.587458, 18.435752, 21.478392, 20.548467, 16.909994, 30.236261, 26.145473, 73.463971, 73.528428, 33.306675, 16.476867, 33.339133, 52.916302, 91.926086, 17.235670, 17.420833, 16.426547, 16.547335, 18.495497, 16.512856, 16.939609, 16.503220, 16.416774
Process 29: 57.828318, 18.629428, 19.370668, 20.537920, 20.553993, 20.617939, 18.573827, 21.703679, 18.544140, 21.588297, 20.659260, 17.032825, 30.344647, 26.263096, 73.578013, 73.645017, 33.416545, 16.585858, 33.449669, 53.031436, 92.040882, 17.347753, 17.530553, 16.536595, 16.657051, 18.600976, 16.618191, 17.047303, 16.608261, 16.530245
Process 30: 57.928965, 18.726707, 19.469697, 20.636720, 20.654341, 20.716132, 18.673601, 21.808773, 18.645108, 21.691052, 20.757391, 17.143862, 30.439051, 26.367005, 73.682348, 73.749830, 33.515699, 16.683960, 33.546548, 53.132367, 92.142768, 17.449944, 17.631859, 16.633311, 16.750107, 18.696088, 16.721045, 17.147505, 16.704009, 16.626085
Process 31: 58.040019, 18.850538, 19.580010, 20.741838, 20.759714, 20.823396, 18.781996, 21.923202, 18.754629, 21.803932, 20.860852, 17.245785, 30.544475, 26.469157, 73.808867, 73.862277, 33.616638, 16.788188, 33.654345, 53.241744, 92.253434, 17.543325, 17.739755, 16.739831, 16.855776, 18.802315, 16.827082, 17.260251, 16.811056, 16.724777
Process 32: 58.159545, 18.960725, 19.696158, 20.851357, 20.871373, 20.938036, 18.897526, 22.041301, 18.870020, 21.921220, 20.975555, 17.355569, 30.658975, 26.582954, 73.944461, 73.979890, 33.730570, 16.903296, 33.767354, 53.360604, 92.370871, 17.649913, 17.857393, 16.855497, 16.971297, 18.917505, 16.938638, 17.377595, 16.925014, 16.833112
Process 33: 58.258626, 19.063792, 19.782461, 20.949460, 20.969559, 21.026026, 18.999035, 22.151989, 18.962012, 22.020085, 21.072180, 17.448395, 30.757121, 26.680950, 74.056968, 74.082845, 33.833441, 17.004950, 33.871731, 53.462022, 92.474207, 17.749211, 17.955853, 16.951208, 17.078017, 19.020017, 17.037303, 17.473992, 17.028635, 16.929586
Process 34: 58.340493, 19.143889, 19.863976, 21.040432, 21.058582, 21.103930, 19.079742, 22.223709, 19.040819, 22.110347, 21.161710, 17.531821, 30.846536, 26.764195, 74.122275, 74.163317, 33.912597, 17.088470, 33.949787, 53.541806, 92.554443, 17.830176, 18.038315, 17.031502, 17.164431, 19.103747, 17.122050, 17.554047, 17.120524, 17.013226
Process 35: 58.440600, 19.233579, 19.966243, 21.141585, 21.160139, 21.207458, 19.176635, 22.323838, 19.143615, 22.214266, 21.264923, 17.630190, 30.946320, 26.865839, 74.239010, 74.260232, 34.004891, 17.189561, 34.045019, 53.636051, 92.647503, 17.928929, 18.134123, 17.133413, 17.262632, 19.207370, 17.219358, 17.657761, 17.224548, 17.117183
Process 36: 58.502750, 19.324892, 20.057861, 21.220827, 21.239948, 21.289864, 19.249060, 22.388544, 19.224376, 22.296357, 21.344124, 17.706037, 31.029232, 26.943012, 74.324734, 74.341294, 34.082702, 17.271753, 34.124106, 53.715198, 92.715541, 18.009244, 18.215842, 17.214820, 17.340914, 19.289585, 17.299526, 17.744211, 17.303616, 17.199463
Process 37: 58.586839, 19.408566, 20.152557, 21.310968, 21.329282, 21.379886, 19.338513, 22.477288, 19.311583, 22.383417, 21.435168, 17.795861, 31.120895, 27.030070, 74.421589, 74.435452, 34.180992, 17.360563, 34.221571, 53.814750, 92.814842, 18.099282, 18.302254, 17.302958, 17.439629, 19.377344, 17.389293, 17.825787, 17.392989, 17.285201
Process 38: 58.656629, 19.472850, 20.212588, 21.383877, 21.398515, 21.452199, 19.407443, 22.547720, 19.380343, 22.463659, 21.504487, 17.868669, 31.188960, 27.103173, 74.535429, 74.519173, 34.243413, 17.432703, 34.286074, 53.880148, 92.876064, 18.171495, 18.372092, 17.378687, 17.501997, 19.450095, 17.458847, 17.903104, 17.462494, 17.358818
Process 39: 58.735678, 19.555038, 20.303527, 21.465037, 21.478859, 21.533662, 19.489267, 22.637213, 19.462337, 22.557690, 21.583721, 17.952845, 31.268328, 27.189292, 74.626467, 74.613875, 34.325082, 17.514119, 34.361966, 53.961836, 92.954307, 18.252029, 18.453437, 17.457893, 17.580507, 19.540129, 17.537719, 17.986765, 17.542912, 17.440289
Process 40: 58.815792, 19.620772, 20.399515, 21.541061, 21.551014, 21.599408, 19.561125, 22.719302, 19.534916, 22.637279, 21.656192, 18.026001, 31.341231, 27.268295, 74.711382, 74.686527, 34.394717, 17.590180, 34.429738, 54.035770, 93.026747, 18.319466, 18.529462, 17.522727, 17.654733, 19.614104, 17.609569, 18.060134, 17.617192, 17.515195
Process 41: 58.901243, 19.702398, 20.513834, 21.623614, 21.635346, 21.681770, 19.644806, 22.801632, 19.617480, 22.721706, 21.738611, 18.110812, 31.427012, 27.353235, 74.774971, 74.794124, 34.488398, 17.671899, 34.517707, 54.128139, 93.124587, 18.406272, 18.611687, 17.606324, 17.745189, 19.699412, 17.692523, 18.156326, 17.700907, 17.602810
Process 42: 58.969102, 19.777147, 20.562749, 21.694488, 21.704614, 21.754765, 19.715455, 22.875049, 19.687071, 22.795760, 21.810202, 18.185375, 31.496856, 27.427829, 74.840810, 74.864314, 34.553164, 17.746390, 34.581776, 54.182539, 93.187575, 18.476125, 18.684075, 17.678345, 17.812013, 19.771260, 17.762036, 18.222635, 17.771268, 17.674165
Process 43: 59.050309, 19.856771, 20.633794, 21.773842, 21.786140, 21.835633, 19.794592, 22.954763, 19.766164, 22.876447, 21.890058, 18.264627, 31.574821, 27.505644, 74.929567, 74.935947, 34.635991, 17.824768, 34.662497, 54.263990, 93.267969, 18.557235, 18.762361, 17.757284, 17.890352, 19.853242, 17.845545, 18.302709, 17.850069, 17.755549
Process 44: 59.115556, 19.923737, 20.695556, 21.840539, 21.851751, 21.902407, 19.859184, 23.021111, 19.832058, 22.944065, 21.958623, 18.330601, 31.642326, 27.573229, 75.014424, 74.997686, 34.698908, 17.891863, 34.728135, 54.333682, 93.334439, 18.624488, 18.828486, 17.825713, 17.955743, 19.918231, 17.909601, 18.368091, 17.914765, 17.822011
Process 45: 59.187115, 19.998202, 20.766817, 21.916332, 21.925882, 21.975969, 19.934894, 23.093269, 19.906246, 23.018091, 22.031556, 18.406556, 31.717850, 27.646805, 75.073005, 75.072775, 34.776901, 17.966507, 34.803519, 54.407274, 93.410042, 18.699010, 18.903945, 17.900983, 18.032813, 19.993942, 17.985367, 18.444945, 17.988884, 17.898747
Process 46: 59.247934, 20.061950, 20.818604, 21.980654, 21.987859, 22.038708, 19.996388, 23.157511, 19.966970, 23.079979, 22.094156, 18.468304, 31.779849, 27.709996, 75.138135, 75.135492, 34.837121, 18.030138, 34.862244, 54.471812, 93.471467, 18.764262, 18.966120, 17.964321, 18.093248, 20.056848, 18.049617, 18.506803, 18.051280, 17.963415
Process 47: 59.320286, 20.134459, 20.892014, 22.055051, 22.061785, 22.112049, 20.070135, 23.240378, 20.041393, 23.152013, 22.165973, 18.540960, 31.853819, 27.783990, 75.230050, 75.205249, 34.908024, 18.103892, 34.933435, 54.544385, 93.542041, 18.836419, 19.039890, 18.038304, 18.164865, 20.130610, 18.123834, 18.579520, 18.124870, 18.034645
Process 48: 59.378639, 20.195623, 20.952397, 22.118862, 22.121949, 22.172890, 20.129587, 23.336835, 20.101678, 23.221287, 22.226974, 18.603117, 31.917043, 27.846077, 75.313539, 75.298808, 34.970428, 18.164308, 34.994858, 54.604525, 93.605328, 18.897052, 19.100468, 18.099323, 18.227912, 20.191520, 18.181008, 18.644266, 18.185733, 18.096583
Process 49: 59.468042, 20.264478, 21.023463, 22.186810, 22.192086, 22.242400, 20.199307, 23.444580, 20.171433, 23.327800, 22.296538, 18.672373, 31.984085, 27.944409, 75.378651, 75.399207, 35.037139, 18.233773, 35.062853, 54.671736, 93.670579, 18.966966, 19.169651, 18.168412, 18.296362, 20.261735, 18.250750, 18.712363, 18.254574, 18.165177
Process 50: 59.555563, 20.322579, 21.078369, 22.257821, 22.248188, 22.300312, 20.255534, 23.540441, 20.228616, 23.423836, 22.353211, 18.729111, 32.039736, 28.030333, 75.459223, 75.491954, 35.092699, 18.291525, 35.119402, 54.727859, 93.744359, 19.024490, 19.226923, 18.226125, 18.340290, 20.319051, 18.306841, 18.768735, 18.311868, 18.223479
Process 51: 59.660338, 20.390773, 21.144370, 22.321566, 22.314704, 22.368357, 20.321786, 23.650119, 20.295332, 23.533373, 22.417874, 18.796630, 32.106672, 28.133586, 75.544163, 75.591374, 35.154757, 18.359409, 35.182789, 54.823002, 93.848589, 19.092067, 19.293739, 18.293884, 18.404453, 20.386800, 18.373311, 18.832133, 18.378482, 18.291209
Process 52: 59.757505, 20.447777, 21.201994, 22.384509, 22.372485, 22.425141, 20.380108, 23.748963, 20.353361, 23.634028, 22.480806, 18.864434, 32.164742, 28.228990, 75.589107, 75.695143, 35.204207, 18.416393, 35.230067, 54.911807, 93.954066, 19.149346, 19.368960, 18.354888, 18.462370, 20.443472, 18.431023, 18.894550, 18.436405, 18.355910
Process 53: 59.863877, 20.520328, 21.263933, 22.450331, 22.442565, 22.503229, 20.442825, 23.856502, 20.421732, 23.742959, 22.566518, 18.950564, 32.230790, 28.333110, 75.702186, 75.796914, 35.264154, 18.485601, 35.293902, 55.007175, 94.070254, 19.213702, 19.457618, 18.435492, 18.535159, 20.507366, 18.505660, 18.958126, 18.505832, 18.444409
Process 54: 59.960662, 20.593832, 21.336572, 22.522292, 22.516215, 22.575406, 20.513446, 23.953228, 20.500148, 23.840792, 22.644015, 19.027022, 32.304699, 28.429557, 75.821169, 75.897115, 35.334658, 18.558725, 35.366506, 55.096788, 94.191797, 19.291207, 19.531860, 18.506974, 18.610804, 20.581791, 18.582397, 19.033752, 18.582848, 18.522233
Process 55: 60.071331, 20.681841, 21.420999, 22.609202, 22.603602, 22.656700, 20.599213, 24.061577, 20.584576, 23.949093, 22.737884, 19.112968, 32.395000, 28.537701, 75.916364, 76.003722, 35.422223, 18.644206, 35.458114, 55.199541, 94.290954, 19.387321, 19.617770, 18.592199, 18.699957, 20.668340, 18.670617, 19.124128, 18.672830, 18.608944
Process 56: 60.169779, 20.754229, 21.501824, 22.671664, 22.680052, 22.730800, 20.671795, 24.157453, 20.663116, 24.046633, 22.812969, 19.187984, 32.471946, 28.632911, 75.978826, 76.099175, 35.499057, 18.723116, 35.533572, 55.295768, 94.353056, 19.468230, 19.698142, 18.675695, 18.776577, 20.746066, 18.744255, 19.202634, 18.752453, 18.683045
Process 57: 60.280450, 20.844669, 21.588164, 22.755225, 22.766874, 22.819057, 20.757442, 24.265652, 20.752734, 24.155477, 22.902055, 19.278336, 32.561299, 28.739716, 76.088162, 76.205711, 35.596219, 18.812305, 35.625016, 55.395462, 94.465304, 19.563649, 19.788134, 18.766798, 18.871504, 20.836469, 18.833520, 19.285864, 18.841555, 18.775823
Process 58: 60.383089, 20.931051, 21.667433, 22.842303, 22.851034, 22.900366, 20.839431, 24.363456, 20.834237, 24.251083, 22.983486, 19.361228, 32.643235, 28.833702, 76.199876, 76.299848, 35.673131, 18.894023, 35.709651, 55.487586, 94.578336, 19.642862, 19.868339, 18.848388, 18.950755, 20.916387, 18.921772, 19.366151, 18.926075, 18.858401
Process 59: 60.491532, 21.024132, 21.752899, 22.933873, 22.942597, 22.988358, 20.929299, 24.468301, 20.927012, 24.352672, 23.072257, 19.451160, 32.734192, 28.940602, 76.298261, 76.405275, 35.761690, 18.987370, 35.799346, 55.594996, 94.681545, 19.735433, 19.964561, 18.941236, 19.043057, 21.012982, 19.016178, 19.460330, 19.021255, 18.951267
Process 60: 60.593101, 21.108374, 21.841479, 23.017315, 23.037515, 23.070750, 21.013314, 24.566666, 21.008138, 24.450851, 23.158643, 19.533696, 32.817311, 29.038673, 76.370375, 76.502873, 35.848881, 19.074149, 35.888409, 55.685867, 94.747372, 19.820605, 20.048825, 19.044455, 19.129548, 21.100592, 19.104477, 19.544797, 19.104840, 19.036364
Process 61: 60.704257, 21.207556, 21.937540, 23.110370, 23.145689, 23.171347, 21.105045, 24.672083, 21.096987, 24.555319, 23.252363, 19.631609, 32.912742, 29.146821, 76.491117, 76.610002, 35.945695, 19.170703, 36.003228, 55.787405, 94.865615, 19.916908, 20.142669, 19.143376, 19.225721, 21.197083, 19.197717, 19.637497, 19.200955, 19.135402
Process 62: 60.804846, 21.298163, 22.030316, 23.197735, 23.233471, 23.257628, 21.197614, 24.771072, 21.193331, 24.652501, 23.344717, 19.716358, 32.999779, 29.246682, 76.603431, 76.705841, 36.032661, 19.258468, 36.117993, 55.883447, 94.978324, 20.003421, 20.230241, 19.230739, 19.318417, 21.284111, 19.283722, 19.725728, 19.292746, 19.222415
Process 63: 60.912945, 21.396717, 22.132424, 23.298714, 23.340575, 23.356190, 21.299515, 24.880848, 21.291495, 24.763714, 23.442058, 19.819566, 33.098954, 29.353416, 76.712613, 76.820376, 36.132155, 19.357497, 36.225516, 55.990442, 95.083783, 20.100712, 20.334527, 19.327656, 19.420873, 21.387103, 19.384350, 19.828751, 19.392087, 19.326630
Process 64: 61.035921, 21.503970, 22.246222, 23.410887, 23.450056, 23.460360, 21.412680, 25.001784, 21.410146, 24.880839, 23.561887, 19.928706, 33.219605, 29.467835, 76.809767, 76.936335, 36.245836, 19.463495, 36.342069, 56.107006, 95.183273, 20.204464, 20.452569, 19.437098, 19.539812, 21.492923, 19.502403, 19.932952, 19.510477, 19.430594
Process 65: 61.131876, 21.593942, 22.338261, 23.503603, 23.535512, 23.553114, 21.500362, 25.099652, 21.497769, 24.975785, 23.648676, 20.021219, 33.298892, 29.561291, 76.917365, 77.031395, 36.333129, 19.557692, 36.419535, 56.195258, 95.290767, 20.296028, 20.537825, 19.534715, 19.628231, 21.585824, 19.588712, 20.022894, 19.598221, 19.523203
Process 66: 61.211979, 21.682080, 22.424376, 23.590818, 23.609836, 23.643055, 21.580912, 25.184453, 21.579583, 25.061910, 23.732164, 20.109604, 33.378836, 29.651282, 76.999044, 77.116211, 36.413666, 19.643260, 36.505114, 56.284035, 95.375054, 20.374617, 20.616655, 19.620178, 19.712966, 21.672266, 19.666665, 20.103368, 19.673058, 19.598063
Process 67: 61.310819, 21.761479, 22.514507, 23.674770, 23.696331, 23.738772, 21.666341, 25.276094, 21.666714, 25.156665, 23.820976, 20.195646, 33.481495, 29.743859, 77.062546, 77.215323, 36.502682, 19.723190, 36.589570, 56.380221, 95.446555, 20.463507, 20.712979, 19.701135, 19.793958, 21.749550, 19.758074, 20.201988, 19.766318, 19.686385
Process 68: 61.385804, 21.841562, 22.593538, 23.762320, 23.771512, 23.819546, 21.747101, 25.359973, 21.743732, 25.233513, 23.895513, 20.281041, 33.559451, 29.832807, 77.140809, 77.294278, 36.579290, 19.801743, 36.659670, 56.464313, 95.534678, 20.545630, 20.783866, 19.777576, 19.870442, 21.833765, 19.830640, 20.276762, 19.845055, 19.770847
Process 69: 61.472827, 21.926609, 22.679111, 23.839382, 23.858160, 23.901449, 21.829357, 25.446379, 21.833677, 25.320612, 23.984359, 20.357165, 33.641540, 29.917116, 77.225366, 77.378977, 36.664139, 19.886724, 36.738322, 56.549226, 95.643342, 20.627535, 20.865648, 19.862216, 19.960207, 21.913370, 19.916244, 20.363751, 19.927466, 19.853197
Process 70: 61.539918, 21.997568, 22.747730, 23.908253, 23.926444, 23.981663, 21.898399, 25.518744, 21.901321, 25.392879, 24.051342, 20.430350, 33.711560, 29.989939, 77.294268, 77.451849, 36.730358, 19.956353, 36.799633, 56.628634, 95.727734, 20.699055, 20.932445, 19.932880, 20.027159, 21.986422, 19.984180, 20.434541, 19.995551, 19.924055
Process 71: 61.619397, 22.075392, 22.824717, 23.985816, 24.004562, 24.065959, 21.973668, 25.596877, 21.979392, 25.469584, 24.126187, 20.501338, 33.789298, 30.067459, 77.360227, 77.540259, 36.809571, 20.047004, 36.872835, 56.700251, 95.788417, 20.775914, 21.012301, 20.008921, 20.103375, 22.059375, 20.061545, 20.512671, 20.074011, 20.001502
Process 72: 61.698902, 22.142295, 22.895693, 24.058578, 24.070806, 24.135988, 22.043413, 25.667486, 22.040836, 25.539280, 24.193137, 20.569917, 33.862130, 30.143332, 77.432970, 77.641690, 36.873538, 20.116011, 36.936999, 56.769784, 95.867194, 20.841787, 21.077965, 20.077765, 20.170398, 22.126834, 20.125368, 20.581767, 20.142309, 20.072083
Process 73: 61.779053, 22.212752, 22.972843, 24.137767, 24.142425, 24.203997, 22.121768, 25.750143, 22.114854, 25.617801, 24.270042, 20.649664, 33.941361, 30.225814, 77.514579, 77.736148, 36.946944, 20.185598, 37.010651, 56.848933, 95.956778, 20.918423, 21.148350, 20.146186, 20.245161, 22.212162, 20.202806, 20.641414, 20.217622, 20.144371
Process 74: 61.848023, 22.274220, 23.037873, 24.206832, 24.209157, 24.268948, 22.191728, 25.822280, 22.178582, 25.689038, 24.339665, 20.720729, 34.013869, 30.296941, 77.585598, 77.821750, 37.004640, 20.262155, 37.067530, 56.920374, 96.038889, 20.986962, 21.221210, 20.208512, 20.314338, 22.285807, 20.269124, 20.711139, 20.284371, 20.214597
Process 75: 61.923093, 22.344795, 23.113812, 24.281058, 24.284568, 24.339680, 22.266542, 25.897416, 22.251635, 25.762232, 24.415407, 20.798680, 34.085854, 30.372104, 77.661772, 77.887060, 37.078220, 20.331571, 37.136189, 56.993975, 96.106840, 21.062299, 21.292842, 20.275496, 20.388994, 22.359336, 20.348419, 20.782412, 20.357955, 20.288297
Process 76: 61.991192, 22.411641, 23.178580, 24.348235, 24.346153, 24.407061, 22.332801, 25.968760, 22.319531, 25.831206, 24.480625, 20.866719, 34.152184, 30.443197, 77.730968, 77.969170, 37.143099, 20.400930, 37.193979, 57.065864, 96.190514, 21.129957, 21.358658, 20.337308, 20.457544, 22.426337, 20.412432, 20.853863, 20.423343, 20.355571
Process 77: 62.063642, 22.481769, 23.254758, 24.417188, 24.422259, 24.464757, 22.405998, 26.036959, 22.391484, 25.899787, 24.552465, 20.935692, 34.224073, 30.511252, 77.804428, 78.051817, 37.215090, 20.466082, 37.263710, 57.133721, 96.278607, 21.198236, 21.432139, 20.406647, 20.530489, 22.496705, 20.486067, 20.922681, 20.494030, 20.428909
Process 78: 62.126636, 22.547682, 23.315764, 24.483090, 24.484098, 24.528172, 22.469775, 26.104903, 22.453507, 25.966713, 24.614106, 21.000350, 34.290588, 30.579070, 77.868329, 78.100107, 37.278365, 20.538350, 37.324726, 57.200875, 96.326877, 21.262629, 21.498680, 20.471188, 20.593770, 22.567794, 20.547348, 20.991097, 20.555387, 20.494921
Process 79: 62.193909, 22.615502, 23.386368, 24.549061, 24.553462, 24.594614, 22.548518, 26.171888, 22.521268, 26.033285, 24.682285, 21.067800, 34.356840, 30.645012, 77.937573, 78.165960, 37.345709, 20.602421, 37.395166, 57.267690, 96.395283, 21.331004, 21.564348, 20.541084, 20.661980, 22.632668, 20.617838, 21.057230, 20.624093, 20.563715
Process 80: 62.254656, 22.678386, 23.446402, 24.612562, 24.614244, 24.657250, 22.612292, 26.235494, 22.581763, 26.097207, 24.743470, 21.130872, 34.417477, 30.709580, 77.998576, 78.252604, 37.406022, 20.664998, 37.454977, 57.331584, 96.480376, 21.394190, 21.625995, 20.601865, 20.724669, 22.696634, 20.678394, 21.122627, 20.684387, 20.626360
Process 81: 62.323326, 22.744668, 23.516376, 24.679849, 24.684767, 24.724196, 22.684005, 26.298942, 22.650334, 26.162014, 24.810838, 21.196837, 34.488552, 30.775393, 78.067635, 78.339651, 37.474491, 20.731903, 37.524170, 57.397456, 96.569069, 21.462169, 21.696827, 20.668483, 20.793516, 22.766534, 20.747505, 21.189698, 20.752287, 20.693883
Process 82: 62.408705, 22.806182, 23.575292, 24.740232, 24.741911, 24.785638, 22.742382, 26.359444, 22.708631, 26.222066, 24.869437, 21.257950, 34.546887, 30.835604, 78.127031, 78.395436, 37.530198, 20.792906, 37.581817, 57.457312, 96.623650, 21.523075, 21.755297, 20.728925, 20.852195, 22.827463, 20.805833, 21.248369, 20.808983, 20.754094
Process 83: 62.501103, 22.868465, 23.637405, 24.803087, 24.804157, 24.848630, 22.802342, 26.426178, 22.771848, 26.317293, 24.932592, 21.320909, 34.607407, 30.897947, 78.190230, 78.454032, 37.594839, 20.853508, 37.642715, 57.530278, 96.681584, 21.586402, 21.815509, 20.791768, 20.916015, 22.888575, 20.869235, 21.310104, 20.872122, 20.816198
Process 84: 62.592104, 22.927147, 23.695134, 24.860823, 24.862346, 24.906447, 22.861731, 26.517546, 22.830681, 26.420764, 24.991352, 21.379068, 34.665702, 30.983960, 78.248637, 78.514692, 37.650580, 20.912914, 37.711851, 57.632388, 96.742285, 21.644267, 21.874812, 20.850849, 20.974594, 22.946437, 20.927460, 21.369310, 20.930256, 20.874048
Process 85: 62.690592, 22.990238, 23.758685, 24.923058, 24.924984, 24.970932, 22.917498, 26.609881, 22.893373, 26.505021, 25.053820, 21.441769, 34.729119, 31.078777, 78.335395, 78.574222, 37.740707, 20.976021, 37.808058, 57.731774, 96.796743, 21.706148, 21.938452, 20.913549, 21.036978, 23.018345, 20.990320, 21.434866, 20.992964, 20.938204
Process 86: 62.783130, 23.049667, 23.827646, 24.981579, 24.982937, 25.042255, 22.977552, 26.701418, 22.957800, 26.597959, 25.111143, 21.504082, 34.796800, 31.170982, 78.422669, 78.697938, 37.823661, 21.039417, 37.899230, 57.824553, 96.899454, 21.763975, 21.997915, 20.971491, 21.106187, 23.087232, 21.052162, 21.506607, 21.050527, 21.011900
Process 87: 62.886721, 23.127911, 23.900951, 25.057837, 25.051880, 25.116301, 23.060351, 26.794406, 23.034147, 26.697774, 25.184251, 21.587062, 34.869949, 31.271087, 78.509489, 78.794145, 37.913272, 21.115380, 38.003325, 57.920893, 96.992849, 21.841956, 22.069813, 21.053157, 21.189582, 23.160320, 21.139470, 21.583487, 21.125309, 21.088733
Process 88: 62.977662, 23.195120, 23.975902, 25.131083, 25.122594, 25.187702, 23.132816, 26.887479, 23.103613, 26.793813, 25.250332, 21.677230, 34.942172, 31.359328, 78.596105, 78.891888, 37.997784, 21.194923, 38.093159, 58.016088, 97.099286, 21.914086, 22.144727, 21.124367, 21.262732, 23.234574, 21.216907, 21.653670, 21.195881, 21.162554
Process 89: 63.079236, 23.279300, 24.056023, 25.210155, 25.200019, 25.272099, 23.221330, 26.987893, 23.177743, 26.896637, 25.328854, 21.757813, 35.024222, 31.454244, 78.687261, 78.987319, 38.095924, 21.272533, 38.196200, 58.115180, 97.191407, 21.996567, 22.224367, 21.201783, 21.338536, 23.312110, 21.295088, 21.732034, 21.272891, 21.245470
Process 90: 63.175878, 23.353630, 24.137158, 25.283162, 25.271600, 25.351119, 23.298620, 27.092120, 23.252954, 26.994597, 25.398490, 21.830406, 35.097115, 31.551707, 78.776575, 79.063908, 38.183405, 21.349830, 38.293862, 58.214316, 97.266716, 22.073691, 22.281427, 21.280041, 21.416725, 23.390337, 21.375624, 21.807715, 21.360253, 21.317992
Process 91: 63.282310, 23.440656, 24.222485, 25.369529, 25.355245, 25.437040, 23.388344, 27.189938, 23.335760, 27.096501, 25.487786, 21.918881, 35.178367, 31.653009, 78.871332, 79.160007, 38.283005, 21.438651, 38.395235, 58.321823, 97.365270, 22.160674, 22.365554, 21.362435, 21.499154, 23.471966, 21.462061, 21.895942, 21.443535, 21.398991
Process 92: 63.383307, 23.520552, 24.309097, 25.450192, 25.451820, 25.517245, 23.464151, 27.284513, 23.411788, 27.195797, 25.565322, 22.000297, 35.257675, 31.749625, 78.958012, 79.248980, 38.374438, 21.519459, 38.495719, 58.423534, 97.451668, 22.244991, 22.449644, 21.441644, 21.575954, 23.559216, 21.545522, 21.974389, 21.526089, 21.481250
Process 93: 63.489562, 23.608744, 24.395001, 25.532706, 25.533486, 25.605480, 23.544589, 27.383070, 23.495546, 27.300371, 25.655417, 22.083889, 35.345061, 31.848496, 79.051224, 79.381641, 38.471716, 21.603205, 38.599652, 58.523870, 97.587588, 22.333256, 22.534614, 21.527848, 21.664317, 23.647230, 21.631583, 22.056567, 21.611573, 21.563901
Process 94: 63.590516, 23.688894, 24.478890, 25.624950, 25.613620, 25.687097, 23.629033, 27.482239, 23.579271, 27.401397, 25.741705, 22.172597, 35.424409, 31.945892, 79.146015, 79.482490, 38.565281, 21.686854, 38.700544, 58.622821, 97.687557, 22.422765, 22.625665, 21.614756, 21.747639, 23.735273, 21.712823, 22.143941, 21.694989, 21.645280
Process 95: 63.696460, 23.770933, 24.580942, 25.717935, 25.717692, 25.779777, 23.726950, 27.584062, 23.667170, 27.504757, 25.830700, 22.263626, 35.517260, 32.045301, 79.247394, 79.580843, 38.665252, 21.779129, 38.808609, 58.729799, 97.791363, 22.513177, 22.714322, 21.725942, 21.837975, 23.826118, 21.801199, 22.231403, 21.788094, 21.744167
Process 96: 63.810264, 23.869231, 24.681005, 25.822529, 25.844348, 25.879196, 23.828957, 27.692414, 23.772375, 27.623803, 25.932498, 22.367485, 35.620288, 32.156466, 79.358863, 79.682102, 38.778018, 21.881548, 38.925649, 58.840087, 97.890040, 22.611151, 22.814335, 21.834385, 21.937595, 23.923996, 21.897871, 22.333832, 21.887991, 21.847522
Process 97: 63.915871, 23.960806, 24.773425, 25.914903, 25.956596, 25.969019, 23.915253, 27.789449, 23.865185, 27.755717, 26.020091, 22.459514, 35.708797, 32.254458, 79.456822, 79.774224, 38.879224, 21.970883, 39.034859, 58.940936, 97.979391, 22.702446, 22.905546, 21.949207, 22.029858, 24.010282, 21.985307, 22.424358, 21.980086, 21.937629
Process 98: 63.998282, 24.038677, 24.849519, 25.993276, 26.034261, 26.048733, 23.993767, 27.864504, 23.950706, 27.838249, 26.096563, 22.534151, 35.782871, 32.337036, 79.539410, 79.852118, 38.965379, 22.051640, 39.120215, 59.025987, 98.059914, 22.772179, 22.979375, 22.023568, 22.107720, 24.086494, 22.061513, 22.502342, 22.056244, 22.015947
Process 99: 64.095244, 24.120149, 24.931846, 26.077182, 26.111610, 26.125007, 24.069663, 27.958051, 24.037366, 27.929821, 26.178775, 22.617040, 35.874445, 32.429856, 79.632164, 79.937834, 39.057425, 22.140557, 39.220324, 59.117920, 98.147094, 22.857485, 23.064272, 22.103252, 22.196169, 24.177360, 22.146284, 22.586769, 22.146452, 22.096257
Process 100: 64.168206, 24.196694, 24.998013, 26.153571, 26.176617, 26.198633, 24.135912, 28.036050, 24.119706, 27.992249, 26.248593, 22.687263, 35.944231, 32.506631, 79.699430, 80.051051, 39.130173, 22.208554, 39.292046, 59.189476, 98.254397, 22.933785, 23.139079, 22.172112, 22.272578, 24.252988, 22.218197, 22.658104, 22.218092, 22.160610
Process 101: 64.259224, 24.276287, 25.079661, 26.233785, 26.257667, 26.285231, 24.218486, 28.126216, 24.195331, 28.076203, 26.333242, 22.774056, 36.022236, 32.592696, 79.787936, 80.134396, 39.217911, 22.284277, 39.385330, 59.279253, 98.338016, 23.015190, 23.217404, 22.248867, 22.349787, 25.064677, 22.298415, 22.746048, 22.291666, 22.247008
Process 102: 64.326549, 24.346198, 25.142443, 26.301637, 26.317151, 26.352687, 24.285128, 28.197498, 24.264579, 28.148801, 26.400821, 22.839168, 36.092915, 32.664106, 79.850433, 80.221084, 39.285203, 22.355332, 39.453102, 59.349255, 98.424555, 23.084774, 23.282201, 22.309440, 22.414427, 25.102384, 22.363380, 22.815743, 22.359432, 22.312169
Process 103: 64.404127, 24.419523, 25.218848, 26.376525, 26.395363, 26.430539, 24.360864, 28.274022, 24.343746, 28.235853, 26.476629, 22.917689, 36.168092, 32.743691, 79.926460, 80.302422, 39.361673, 22.428920, 39.532178, 59.428889, 98.504753, 23.159095, 23.361624, 22.383305, 22.495620, 25.145811, 22.440944, 22.893727, 22.437141, 22.392928
Process 104: 64.467461, 24.479727, 25.278192, 26.438588, 26.455982, 26.493192, 24.424323, 28.341410, 24.408391, 28.308467, 26.541356, 22.978923, 36.233087, 32.807111, 79.989619, 80.367163, 39.423705, 22.493441, 39.607776, 59.492888, 98.597790, 23.218505, 23.422311, 22.443329, 22.557435, 25.184242, 22.500197, 22.956979, 22.499111, 22.455156
Process 105: 64.550262, 24.553876, 25.350152, 26.513362, 26.524529, 26.565899, 24.499608, 28.421461, 24.481655, 28.387310, 26.618956, 23.053251, 36.303105, 32.882888, 80.065036, 80.431417, 39.498341, 22.564123, 39.692253, 59.567966, 98.689369, 23.291509, 23.494764, 22.516839, 22.629798, 25.226022, 22.573192, 23.027030, 22.571864, 22.536088
Process 106: 64.624729, 24.618001, 25.421202, 26.578745, 26.587830, 26.629905, 24.569707, 28.493906, 24.536573, 28.464366, 26.690086, 23.117611, 36.359961, 32.956792, 80.137217, 80.477759, 39.563576, 22.629321, 39.768195, 59.630350, 98.734040, 23.359568, 23.559951, 22.584320, 22.699985, 25.266301, 22.638372, 23.095768, 22.633435, 22.610506
Process 107: 64.696062, 24.687399, 25.493060, 26.644233, 26.652538, 26.697214, 24.635670, 28.568886, 24.596635, 28.537752, 26.756055, 23.181904, 36.417949, 33.033898, 80.208466, 80.580253, 39.629392, 22.698973, 39.838985, 59.701405, 98.816988, 23.449454, 23.626664, 22.663265, 22.768139, 25.308265, 22.709736, 23.164102, 22.704024, 22.684887
Process 108: 64.764983, 24.748732, 25.556443, 26.706098, 26.711590, 26.758658, 24.697080, 28.634317, 24.659304, 28.606479, 26.818074, 23.241781, 36.480043, 33.098907, 80.269759, 80.664904, 39.687748, 22.760835, 39.906023, 59.768653, 98.903697, 23.514121, 23.686557, 22.720609, 22.829801, 25.346564, 22.771426, 23.225747, 22.758056, 22.752680
Process 109: 64.836924, 24.819453, 25.630719, 26.778190, 26.779277, 26.829149, 24.766957, 28.710151, 24.730275, 28.674852, 26.889174, 23.313020, 36.552646, 33.170865, 80.340687, 80.749127, 39.759127, 22.830298, 39.978800, 59.841997, 98.989904, 23.617153, 23.756383, 22.787123, 22.900522, 25.387367, 22.843638, 23.297915, 22.823642, 22.827450
Process 110: 64.898390, 24.878561, 25.691811, 26.838809, 26.834807, 26.888936, 24.826864, 28.771665, 24.789490, 28.745939, 26.948443, 23.375841, 36.612995, 33.235595, 80.402192, 80.826692, 39.819730, 22.891686, 40.040786, 59.903887, 99.069131, 23.677994, 23.815038, 22.849212, 22.959463, 25.424569, 22.903361, 23.357810, 22.884264, 22.891300
Process 111: 64.968365, 24.946712, 25.763681, 26.908880, 26.904019, 26.959228, 24.897613, 28.842203, 24.859193, 28.827702, 27.017915, 23.445417, 36.683344, 33.305053, 80.473587, 80.856381, 39.890011, 22.945859, 40.113699, 59.976324, 99.138434, 23.747615, 23.884531, 22.917915, 23.030757, 25.466049, 22.973927, 23.428268, 22.953719, 22.962881
Process 112: 65.028496, 25.006498, 25.823783, 26.970071, 26.963332, 27.019133, 24.957737, 28.904464, 24.921100, 28.894581, 27.076512, 23.506121, 36.742722, 33.367265, 80.533222, 80.880875, 39.950130, 23.007518, 40.174292, 60.038008, 99.205291, 23.807430, 23.944770, 22.981095, 23.089965, 25.505878, 23.031426, 23.489439, 23.017090, 23.023432
Process 113: 65.096048, 25.074783, 25.892147, 27.037067, 27.030649, 27.086663, 25.025571, 28.972444, 24.988959, 28.958853, 27.143866, 23.571851, 36.810466, 33.439880, 80.603522, 80.933621, 40.020353, 23.073383, 40.243842, 60.108419, 99.290050, 23.874109, 24.012605, 23.044405, 23.158491, 25.573974, 23.101328, 23.556201, 23.083298, 23.091746
Process 114: 65.151844, 25.131604, 25.947043, 27.093526, 27.086014, 27.143117, 25.081550, 29.028776, 25.044621, 29.018534, 27.198478, 23.628040, 36.866275, 33.515385, 80.657130, 80.989911, 40.074637, 23.128742, 40.297938, 60.162761, 99.375150, 23.932023, 24.068028, 23.102631, 23.215258, 25.594367, 23.155852, 23.612926, 23.141053, 23.148390
Process 115: 65.216811, 25.196353, 26.013439, 27.158897, 27.151969, 27.209059, 25.148048, 29.093357, 25.111136, 29.079519, 27.265711, 23.693745, 36.931942, 33.581895, 80.723511, 81.054675, 40.140122, 23.194197, 40.364475, 60.228052, 99.462243, 23.997517, 24.134407, 23.162896, 23.281644, 25.619347, 23.222034, 23.678436, 23.202608, 23.214224
Process 116: 65.271080, 25.250708, 26.067597, 27.214465, 27.206856, 27.265044, 25.202235, 29.147754, 25.166179, 29.136082, 27.319802, 23.749178, 36.986793, 33.636507, 80.777928, 81.109065, 40.193460, 23.249274, 40.418224, 60.282011, 99.546920, 24.052555, 24.188887, 23.220924, 23.335412, 25.639380, 23.276473, 23.733889, 23.259752, 23.270122
Process 117: 65.336690, 25.315173, 26.133838, 27.278817, 27.272397, 27.330381, 25.269325, 29.212239, 25.232370, 29.183550, 27.387204, 23.814463, 37.052370, 33.701788, 80.842169, 81.171535, 40.259193, 23.313408, 40.484478, 60.345888, 99.615151, 24.117166, 24.255355, 23.281991, 23.401574, 25.663300, 23.343269, 23.797085, 23.323117, 23.333557
Process 118: 65.389826, 25.369907, 26.187388, 27.334072, 27.326440, 27.385370, 25.322740, 29.267399, 25.287138, 29.239191, 27.442610, 23.869943, 37.106527, 33.759620, 80.898601, 81.230301, 40.315151, 23.368758, 40.540306, 60.403674, 99.674727, 24.172726, 24.309571, 23.339104, 23.455841, 25.683727, 23.396909, 23.853265, 23.378345, 23.388407
Process 119: 65.452786, 25.434382, 26.252408, 27.397801, 27.390782, 27.449617, 25.387739, 29.330672, 25.351404, 29.303374, 27.507233, 23.934867, 37.171575, 33.823507, 80.963552, 81.293333, 40.379942, 23.432852, 40.605302, 60.466689, 99.733720, 24.236030, 24.375284, 23.405637, 23.520538, 25.707601, 23.461799, 23.917399, 23.446197, 23.451152
Process 120: 65.506393, 25.488295, 26.306888, 27.452720, 27.446592, 27.504615, 25.442288, 29.385107, 25.406556, 29.358289, 27.563466, 23.989514, 37.227378, 33.879220, 81.019152, 81.349271, 40.435108, 23.487644, 40.660865, 60.523096, 99.816554, 24.291528, 24.429601, 23.459731, 23.575033, 25.727456, 23.515825, 23.972676, 23.499879, 23.506989
Process 121: 65.569650, 25.551250, 26.368813, 27.516345, 27.509689, 27.568242, 25.505387, 29.449014, 25.469843, 29.420760, 27.635707, 24.052538, 37.289995, 33.939780, 81.080937, 81.410728, 40.497823, 23.550605, 40.723635, 60.584990, 99.899762, 24.355009, 24.493068, 23.518745, 23.638696, 25.750287, 23.579605, 24.036355, 23.558618, 23.569086
Process 122: 65.624054, 25.607778, 26.424312, 27.572067, 27.565085, 27.624688, 25.559716, 29.505141, 25.525219, 29.477203, 27.695523, 24.108764, 37.345509, 33.996259, 81.135562, 81.465939, 40.551873, 23.608527, 40.777731, 60.640418, 99.987879, 24.411209, 24.548296, 23.578201, 23.694158, 25.770502, 23.634836, 24.092936, 23.617404, 23.624856
Process 123: 65.687149, 25.669116, 26.487381, 27.634138, 27.628467, 27.687229, 25.623073, 29.566477, 25.588451, 29.539335, 27.758309, 24.170401, 37.408784, 34.058480, 81.198259, 81.527417, 40.616363, 23.669437, 40.840245, 60.701668, 100.071614, 24.473315, 24.611634, 23.641744, 23.757229, 25.793414, 23.697516, 24.155058, 23.679932, 23.687655
Process 124: 65.739371, 25.723166, 26.541319, 27.689253, 27.681955, 27.742360, 25.677023, 29.620885, 25.642201, 29.594252, 27.814336, 24.227548, 37.462092, 34.113661, 81.255873, 81.583632, 40.668590, 23.724507, 40.895179, 60.757774, 100.130164, 24.527348, 24.665851, 23.696577, 23.810745, 25.812953, 23.750246, 24.211640, 23.735730, 23.742890
Process 125: 65.804038, 25.786779, 26.605259, 27.752435, 27.746723, 27.806071, 25.740688, 29.684759, 25.706573, 29.657613, 27.875078, 24.288545, 37.526669, 34.176691, 81.320310, 81.646598, 40.732931, 23.787832, 40.958858, 60.821497, 100.179735, 24.591774, 24.730425, 23.756161, 23.875880, 25.840810, 23.814727, 24.273514, 23.796575, 23.806077
Process 126: 65.858228, 25.841857, 26.659801, 27.807396, 27.801642, 27.861662, 25.795837, 29.740489, 25.760523, 29.712864, 27.932411, 24.344314, 37.581440, 34.232139, 81.375072, 81.702762, 40.787672, 23.843870, 41.013955, 60.878179, 100.222541, 24.648015, 24.785847, 23.814600, 23.930556, 25.897720, 23.869742, 24.328731, 23.853908, 23.862040
Process 127: 65.920412, 25.902987, 26.722241, 27.867728, 27.863823, 27.922212, 25.858693, 29.801363, 25.822802, 29.774169, 27.985415, 24.407249, 37.644357, 34.294553, 81.439736, 81.765624, 40.852383, 23.904780, 41.078243, 60.940225, 100.296054, 24.709089, 24.848857, 23.876948, 23.993698, 25.957729, 23.935495, 24.390382, 23.917744, 23.922552
