MPI_insiderank_serial
Process 0: 4.813549, 4.595549, 4.589704, 4.694794, 4.590767, 4.509966, 4.571808, 4.543218, 4.574038, 4.498791, 4.523037, 4.544312, 4.505526, 4.555885, 4.515201, 4.527906, 4.524922, 4.560259, 4.548075, 4.581519, 4.617094, 4.623073, 4.637007, 4.619172, 4.611793, 4.603059, 4.609433, 4.606479, 4.660629, 4.597445
Process 1: 4.443720, 4.222374, 4.254912, 4.221303, 4.234394, 4.157271, 4.174019, 4.172059, 4.225298, 4.154719, 4.128006, 4.178387, 4.134598, 4.200689, 4.138055, 4.175399, 4.150216, 4.154964, 4.187330, 4.208783, 4.243764, 4.250574, 4.275528, 4.246169, 4.238071, 4.252152, 4.238210, 4.233909, 4.260321, 4.226977
Process 2: 4.625596, 4.404957, 4.417057, 4.411871, 4.400570, 4.329560, 4.360521, 4.348019, 4.390699, 4.330323, 4.320302, 4.363944, 4.314499, 4.374999, 4.324112, 4.347792, 4.334935, 4.349738, 4.368288, 4.399992, 4.435895, 4.441359, 4.454238, 4.437499, 4.429785, 4.436467, 4.428101, 4.425100, 4.450244, 4.414244
Process 3: 4.817794, 4.600130, 4.593950, 4.699311, 4.595218, 4.514820, 4.576479, 4.548121, 4.578950, 4.503314, 4.527715, 4.548839, 4.510335, 4.560833, 4.520137, 4.532854, 4.529925, 4.565220, 4.552728, 4.586430, 4.622006, 4.627960, 4.642075, 4.624006, 4.617511, 4.607968, 4.614346, 4.611296, 4.665496, 4.602278
