MPI_insiderank_serial
Process 0: 0.741074, 0.564943, 0.450472, 0.443230, 0.527260, 0.505559, 0.487876, 0.768741, 0.447045, 0.452075, 0.446023, 0.457615, 0.441995, 0.583088, 0.441538, 0.442548, 0.442542, 0.463979, 0.460321, 0.458499, 0.447991, 0.441820, 0.456858, 0.444651, 0.454360, 0.443461, 0.442939, 0.444915, 0.448469, 0.444246
Process 1: 0.595526, 0.432841, 0.337711, 0.330241, 0.356433, 0.353524, 0.347840, 0.655748, 0.328948, 0.339077, 0.333059, 0.344564, 0.328226, 0.470324, 0.328472, 0.329479, 0.329443, 0.346008, 0.334196, 0.344072, 0.335424, 0.329334, 0.344412, 0.332152, 0.341587, 0.330515, 0.330390, 0.332174, 0.335943, 0.331733
Process 2: 0.600479, 0.437561, 0.340927, 0.333551, 0.357680, 0.356553, 0.349176, 0.658902, 0.334156, 0.342276, 0.336248, 0.347834, 0.331390, 0.473478, 0.331675, 0.332684, 0.332665, 0.347056, 0.337343, 0.347308, 0.338626, 0.332538, 0.347583, 0.335094, 0.344806, 0.333653, 0.333466, 0.335267, 0.339039, 0.334801
Process 3: 0.606221, 0.442164, 0.345149, 0.337791, 0.369338, 0.366926, 0.359621, 0.663284, 0.338593, 0.346594, 0.340651, 0.352080, 0.335772, 0.477889, 0.336031, 0.337018, 0.336982, 0.357901, 0.341767, 0.351634, 0.342912, 0.336903, 0.351939, 0.339732, 0.349135, 0.338063, 0.337885, 0.339695, 0.343495, 0.339350
Process 4: 0.611213, 0.446781, 0.348357, 0.340983, 0.370617, 0.368236, 0.360992, 0.666372, 0.341659, 0.349742, 0.343709, 0.355280, 0.339047, 0.480931, 0.339127, 0.340112, 0.340102, 0.358818, 0.344793, 0.354752, 0.346110, 0.339980, 0.355031, 0.342642, 0.352237, 0.341095, 0.340899, 0.342735, 0.346490, 0.342223
Process 5: 0.616722, 0.451460, 0.352656, 0.345288, 0.380932, 0.377587, 0.368738, 0.670856, 0.346087, 0.354098, 0.348132, 0.359618, 0.342989, 0.485400, 0.343559, 0.344545, 0.344510, 0.369558, 0.349282, 0.359092, 0.350439, 0.344419, 0.359471, 0.347151, 0.356644, 0.345553, 0.345428, 0.347171, 0.351036, 0.346747
Process 6: 0.621533, 0.455974, 0.355792, 0.348412, 0.382695, 0.379043, 0.370022, 0.673813, 0.349075, 0.357178, 0.351155, 0.362739, 0.346443, 0.488399, 0.346593, 0.347585, 0.347537, 0.370548, 0.352268, 0.362218, 0.353569, 0.347451, 0.362538, 0.350051, 0.359670, 0.348571, 0.348351, 0.350230, 0.353936, 0.349674
Process 7: 0.626032, 0.460761, 0.360135, 0.352736, 0.389971, 0.388951, 0.377669, 0.678269, 0.353469, 0.361585, 0.355543, 0.367139, 0.350377, 0.492804, 0.350924, 0.351951, 0.351915, 0.372783, 0.356635, 0.366604, 0.357903, 0.351780, 0.366885, 0.354577, 0.364056, 0.352958, 0.352761, 0.354626, 0.358402, 0.354028
Process 8: 0.630718, 0.465064, 0.363178, 0.355811, 0.391000, 0.390129, 0.378519, 0.681208, 0.357495, 0.364593, 0.358525, 0.370128, 0.353840, 0.495838, 0.354022, 0.355018, 0.354987, 0.375819, 0.359665, 0.369613, 0.360971, 0.354856, 0.369939, 0.357431, 0.367095, 0.355961, 0.355761, 0.357622, 0.361365, 0.357094
Process 9: 0.636414, 0.470075, 0.367647, 0.360289, 0.402862, 0.400375, 0.386506, 0.685838, 0.362453, 0.369124, 0.363123, 0.374693, 0.357884, 0.500455, 0.358520, 0.359560, 0.359557, 0.380512, 0.364192, 0.374145, 0.365460, 0.359376, 0.374448, 0.361968, 0.371650, 0.360567, 0.360372, 0.362194, 0.366055, 0.361590
Process 10: 0.640832, 0.474487, 0.370717, 0.363414, 0.403729, 0.401129, 0.387946, 0.688819, 0.365471, 0.372160, 0.366094, 0.377734, 0.361395, 0.503410, 0.361601, 0.362622, 0.362601, 0.383568, 0.367244, 0.377199, 0.368556, 0.362421, 0.377529, 0.364884, 0.374668, 0.363565, 0.363343, 0.365210, 0.368939, 0.364624
Process 11: 0.646796, 0.479393, 0.375170, 0.367825, 0.414872, 0.410858, 0.401284, 0.693259, 0.371045, 0.376667, 0.370622, 0.382182, 0.365321, 0.507961, 0.366037, 0.367068, 0.367049, 0.388173, 0.371684, 0.381595, 0.373007, 0.366874, 0.381921, 0.369614, 0.379150, 0.367974, 0.367752, 0.369642, 0.373423, 0.369004
Process 12: 0.651306, 0.483859, 0.378262, 0.370966, 0.415760, 0.411784, 0.402738, 0.696376, 0.374431, 0.379743, 0.373652, 0.385342, 0.368951, 0.511013, 0.369191, 0.370202, 0.370178, 0.391383, 0.374804, 0.384773, 0.376119, 0.369988, 0.385120, 0.372529, 0.382254, 0.371138, 0.370903, 0.372772, 0.376510, 0.372156
Process 13: 0.657022, 0.488697, 0.382643, 0.375414, 0.422903, 0.420769, 0.410169, 0.700746, 0.378849, 0.384160, 0.378081, 0.389703, 0.372826, 0.515429, 0.373520, 0.374527, 0.374493, 0.395826, 0.379162, 0.389086, 0.380445, 0.374375, 0.389484, 0.377083, 0.386678, 0.375586, 0.375277, 0.377129, 0.380881, 0.376473
Process 14: 0.660610, 0.493105, 0.385695, 0.378395, 0.426978, 0.422810, 0.411449, 0.703778, 0.381850, 0.387168, 0.381060, 0.392737, 0.376325, 0.518422, 0.376636, 0.377608, 0.377604, 0.399032, 0.382214, 0.392181, 0.383560, 0.377414, 0.392545, 0.379940, 0.389649, 0.378561, 0.378318, 0.380205, 0.383893, 0.379564
Process 15: 0.666192, 0.498081, 0.390144, 0.382899, 0.438285, 0.433165, 0.418626, 0.708250, 0.386360, 0.391691, 0.385633, 0.397269, 0.380346, 0.522974, 0.381186, 0.382215, 0.382041, 0.403604, 0.386715, 0.396612, 0.388024, 0.381902, 0.397063, 0.384626, 0.394205, 0.383126, 0.382854, 0.384676, 0.388453, 0.384024
Process 16: 0.670425, 0.502689, 0.393348, 0.386115, 0.439457, 0.434782, 0.420700, 0.711461, 0.389482, 0.394798, 0.388723, 0.400425, 0.383973, 0.526093, 0.384299, 0.385294, 0.385243, 0.406792, 0.389868, 0.399814, 0.391187, 0.385085, 0.400193, 0.387650, 0.397313, 0.386240, 0.385968, 0.387840, 0.391555, 0.387200
Process 17: 0.675583, 0.507532, 0.397650, 0.390368, 0.446008, 0.443570, 0.426838, 0.715727, 0.393822, 0.399108, 0.393017, 0.404787, 0.387837, 0.530416, 0.388612, 0.389632, 0.389513, 0.411048, 0.394153, 0.404123, 0.395485, 0.389371, 0.404518, 0.392065, 0.401701, 0.390683, 0.390316, 0.392206, 0.395904, 0.391468
Process 18: 0.679757, 0.511948, 0.400871, 0.393629, 0.447096, 0.444719, 0.428745, 0.718953, 0.397026, 0.402360, 0.396214, 0.408030, 0.391510, 0.533634, 0.391848, 0.392795, 0.392773, 0.414238, 0.398461, 0.407350, 0.398680, 0.392633, 0.407760, 0.395185, 0.404834, 0.393705, 0.393486, 0.395373, 0.399073, 0.394676
Process 19: 0.684870, 0.516808, 0.405148, 0.397873, 0.457819, 0.453991, 0.435319, 0.723202, 0.401752, 0.406646, 0.400548, 0.412294, 0.395364, 0.537959, 0.396151, 0.397123, 0.397043, 0.418547, 0.406861, 0.411640, 0.402982, 0.396907, 0.412011, 0.399770, 0.409251, 0.398168, 0.397820, 0.399708, 0.403442, 0.398974
Process 20: 0.689146, 0.521271, 0.408381, 0.401140, 0.458993, 0.455078, 0.437083, 0.726499, 0.404893, 0.409829, 0.403767, 0.415485, 0.399040, 0.541114, 0.399372, 0.400312, 0.400295, 0.421738, 0.409243, 0.414850, 0.406255, 0.400128, 0.415240, 0.402693, 0.412357, 0.401311, 0.400992, 0.402899, 0.406598, 0.402221
Process 21: 0.694259, 0.526119, 0.412672, 0.405346, 0.469281, 0.462148, 0.443402, 0.730775, 0.409256, 0.414149, 0.408022, 0.419836, 0.402857, 0.545452, 0.403658, 0.404661, 0.404572, 0.426012, 0.417680, 0.419167, 0.410520, 0.404402, 0.419549, 0.407137, 0.416775, 0.405640, 0.405317, 0.407247, 0.410922, 0.406479
Process 22: 0.698460, 0.530748, 0.415857, 0.408680, 0.470324, 0.463298, 0.445012, 0.733994, 0.412490, 0.417341, 0.411270, 0.423036, 0.407139, 0.548613, 0.406865, 0.407787, 0.407805, 0.429240, 0.418789, 0.422376, 0.413770, 0.407648, 0.422788, 0.410165, 0.419873, 0.408768, 0.408508, 0.410389, 0.414070, 0.409705
Process 23: 0.703637, 0.534519, 0.420174, 0.412834, 0.478454, 0.470750, 0.451539, 0.738314, 0.416739, 0.421641, 0.415552, 0.427372, 0.411015, 0.552863, 0.411185, 0.412126, 0.412083, 0.433503, 0.427359, 0.426692, 0.418023, 0.411885, 0.427126, 0.414646, 0.424256, 0.413113, 0.412844, 0.414770, 0.418422, 0.414026
Process 24: 0.708050, 0.538351, 0.423428, 0.416133, 0.479696, 0.472126, 0.453414, 0.741548, 0.419955, 0.424910, 0.418798, 0.430587, 0.414704, 0.556185, 0.414436, 0.415372, 0.415332, 0.436804, 0.428520, 0.429975, 0.421331, 0.415224, 0.430280, 0.417798, 0.427427, 0.416311, 0.416081, 0.417962, 0.421653, 0.417253
Process 25: 0.713034, 0.541991, 0.427630, 0.420291, 0.486550, 0.478247, 0.460147, 0.745798, 0.424180, 0.429144, 0.423057, 0.434826, 0.418520, 0.560356, 0.418667, 0.419588, 0.419569, 0.440979, 0.435087, 0.434168, 0.425515, 0.419413, 0.434520, 0.422103, 0.431805, 0.420612, 0.420384, 0.422294, 0.425896, 0.421576
Process 26: 0.717359, 0.545771, 0.430949, 0.423650, 0.487604, 0.479218, 0.461904, 0.749085, 0.427475, 0.432410, 0.426329, 0.438112, 0.422077, 0.563681, 0.421970, 0.422898, 0.422858, 0.444313, 0.436069, 0.439001, 0.428852, 0.422712, 0.437757, 0.425203, 0.434956, 0.423848, 0.423618, 0.425494, 0.429177, 0.424755
Process 27: 0.722393, 0.549436, 0.435145, 0.427808, 0.511457, 0.486781, 0.468040, 0.753280, 0.431662, 0.436654, 0.430573, 0.442357, 0.426006, 0.567620, 0.426158, 0.427088, 0.427081, 0.448465, 0.443429, 0.443043, 0.433008, 0.426870, 0.441969, 0.429611, 0.439281, 0.428151, 0.427918, 0.429755, 0.433364, 0.429029
Process 28: 0.726690, 0.553246, 0.438428, 0.431126, 0.512558, 0.487878, 0.470030, 0.756570, 0.434934, 0.439904, 0.433845, 0.445667, 0.429693, 0.571336, 0.429429, 0.430408, 0.430367, 0.451797, 0.444422, 0.446391, 0.436357, 0.430198, 0.445289, 0.432849, 0.442477, 0.431357, 0.431122, 0.433007, 0.436661, 0.432250
Process 29: 0.731799, 0.556887, 0.442620, 0.435297, 0.518807, 0.495468, 0.476181, 0.760795, 0.439191, 0.444132, 0.438080, 0.449575, 0.433510, 0.575104, 0.433646, 0.434615, 0.434578, 0.456048, 0.451551, 0.450555, 0.440511, 0.434405, 0.449448, 0.437064, 0.446714, 0.435651, 0.435416, 0.437297, 0.440939, 0.436519
Process 30: 0.736051, 0.560690, 0.445864, 0.438585, 0.520020, 0.496650, 0.478023, 0.764016, 0.442388, 0.447354, 0.441301, 0.453249, 0.437035, 0.578779, 0.436876, 0.437836, 0.437823, 0.459280, 0.452864, 0.453819, 0.443796, 0.437652, 0.452729, 0.440183, 0.449904, 0.438816, 0.438582, 0.440467, 0.444097, 0.439704
Process 31: 0.741223, 0.564957, 0.450472, 0.443229, 0.527261, 0.505555, 0.487867, 0.768741, 0.447046, 0.452077, 0.446024, 0.457616, 0.441999, 0.583086, 0.441537, 0.442548, 0.442529, 0.463985, 0.460322, 0.458503, 0.447991, 0.441821, 0.456852, 0.444649, 0.454362, 0.443456, 0.442947, 0.444914, 0.448470, 0.444244
