MPI_insiderank_serial
Process 0: 1.769324, 1.392493, 1.356611, 1.369745, 1.357027, 1.347090, 1.352678, 1.344983, 1.350781, 1.348486, 1.346707, 1.348139, 1.351994, 1.345727, 1.346349, 1.347753, 1.350291, 1.343298, 1.352367, 1.348821, 1.376322, 1.365494, 1.368369, 1.381070, 1.373484, 1.373113, 1.373530, 1.365701, 1.353830, 1.355711
Process 1: 1.679350, 1.302323, 1.266309, 1.280214, 1.263726, 1.257451, 1.260776, 1.255340, 1.261434, 1.260295, 1.256766, 1.257934, 1.264031, 1.257925, 1.256307, 1.258057, 1.260334, 1.251594, 1.262372, 1.258703, 1.288185, 1.276170, 1.281642, 1.290176, 1.285945, 1.281530, 1.282865, 1.274418, 1.265080, 1.265870
Process 2: 1.694096, 1.315639, 1.280780, 1.294285, 1.281421, 1.271728, 1.278334, 1.269819, 1.275112, 1.273758, 1.271264, 1.272391, 1.277354, 1.270931, 1.271173, 1.271952, 1.274944, 1.266261, 1.276887, 1.273343, 1.301585, 1.290144, 1.294730, 1.304194, 1.299493, 1.295566, 1.296569, 1.288720, 1.279669, 1.280194
Process 3: 1.708879, 1.330625, 1.295698, 1.309634, 1.296398, 1.286819, 1.292588, 1.284809, 1.290332, 1.288768, 1.286165, 1.287767, 1.292855, 1.285945, 1.286292, 1.287070, 1.289910, 1.281260, 1.291998, 1.288040, 1.316781, 1.304974, 1.308266, 1.319254, 1.315204, 1.310215, 1.311286, 1.303590, 1.294485, 1.297587
Process 4: 1.723560, 1.345128, 1.310611, 1.324101, 1.311285, 1.301727, 1.308595, 1.299686, 1.305182, 1.303319, 1.301077, 1.302805, 1.306843, 1.300501, 1.300923, 1.302019, 1.304505, 1.297648, 1.307728, 1.302897, 1.330930, 1.319811, 1.323155, 1.333928, 1.328728, 1.325422, 1.326131, 1.318203, 1.308786, 1.311049
Process 5: 1.738618, 1.360355, 1.325727, 1.339437, 1.326291, 1.317165, 1.323123, 1.314863, 1.320358, 1.318468, 1.316592, 1.317637, 1.322431, 1.315675, 1.316024, 1.317149, 1.319887, 1.312523, 1.324420, 1.319952, 1.346804, 1.337208, 1.338153, 1.348871, 1.344135, 1.340266, 1.341079, 1.333232, 1.323831, 1.325981
Process 6: 1.755131, 1.375476, 1.341595, 1.355390, 1.342197, 1.332239, 1.338279, 1.330342, 1.335946, 1.333755, 1.332081, 1.333346, 1.337301, 1.330935, 1.331604, 1.333133, 1.335444, 1.328320, 1.337517, 1.335436, 1.363737, 1.350748, 1.353266, 1.365956, 1.358561, 1.355549, 1.359368, 1.348257, 1.338753, 1.340794
Process 7: 1.769740, 1.392492, 1.356613, 1.369740, 1.357029, 1.347089, 1.352675, 1.344942, 1.350781, 1.348485, 1.346707, 1.348138, 1.352003, 1.345727, 1.346349, 1.347752, 1.350291, 1.343297, 1.352367, 1.348819, 1.376321, 1.365494, 1.368369, 1.381070, 1.373487, 1.373107, 1.373532, 1.365701, 1.353829, 1.355711
