MPI_insiderank_serial
Process 0: 0.514684, 0.443919, 0.407105, 0.450183, 0.403098, 0.302712, 0.312945, 0.354809, 0.322492, 0.355124, 0.353251, 0.303600, 0.312578, 0.306745, 0.311946, 0.309793, 0.318234, 0.312924, 0.353493, 0.310967, 0.313491, 0.305905, 0.320216, 0.433345, 0.318739, 0.443018, 0.362572, 0.303728, 0.312997, 0.308457
Process 1: 0.349155, 0.285238, 0.247098, 0.285688, 0.277072, 0.183671, 0.183686, 0.234931, 0.190368, 0.231905, 0.231192, 0.180408, 0.191126, 0.182599, 0.190597, 0.185953, 0.194000, 0.185814, 0.225215, 0.192271, 0.186508, 0.186477, 0.186486, 0.316562, 0.192179, 0.316084, 0.240896, 0.180943, 0.192008, 0.183748
Process 2: 0.350769, 0.287336, 0.249134, 0.286202, 0.278765, 0.184989, 0.184976, 0.236144, 0.191585, 0.233148, 0.232350, 0.181583, 0.192327, 0.183716, 0.191792, 0.187106, 0.195357, 0.186778, 0.226391, 0.193401, 0.187745, 0.187699, 0.187719, 0.316808, 0.193385, 0.316974, 0.242028, 0.181948, 0.193022, 0.184801
Process 3: 0.354206, 0.290281, 0.252292, 0.289535, 0.280959, 0.187510, 0.187564, 0.238770, 0.194376, 0.235858, 0.235063, 0.184284, 0.195010, 0.186507, 0.194488, 0.189784, 0.198101, 0.189345, 0.228788, 0.196100, 0.190456, 0.190367, 0.190476, 0.317648, 0.196148, 0.326742, 0.244344, 0.184278, 0.195377, 0.187202
Process 4: 0.355907, 0.292463, 0.254331, 0.291713, 0.282704, 0.188831, 0.188889, 0.240013, 0.195603, 0.236987, 0.236269, 0.185453, 0.196213, 0.187573, 0.195672, 0.190941, 0.199574, 0.190639, 0.230375, 0.197232, 0.191727, 0.191573, 0.191756, 0.317849, 0.197385, 0.327377, 0.245927, 0.185796, 0.196884, 0.188652
Process 5: 0.358831, 0.295447, 0.257350, 0.295002, 0.284873, 0.191301, 0.191403, 0.242300, 0.197976, 0.239339, 0.238588, 0.187761, 0.198527, 0.189935, 0.198034, 0.193232, 0.201841, 0.193042, 0.232758, 0.199535, 0.194119, 0.193860, 0.194138, 0.319078, 0.199735, 0.328016, 0.248232, 0.188105, 0.199187, 0.190971
Process 6: 0.361091, 0.297673, 0.259520, 0.297181, 0.286685, 0.192694, 0.192870, 0.243849, 0.199582, 0.240850, 0.240152, 0.189286, 0.200098, 0.191395, 0.199571, 0.194766, 0.203435, 0.194631, 0.234369, 0.201061, 0.195697, 0.195406, 0.195783, 0.320451, 0.201315, 0.328216, 0.249806, 0.189638, 0.200760, 0.192463
Process 7: 0.364177, 0.300714, 0.262552, 0.300418, 0.288849, 0.195175, 0.195391, 0.246383, 0.202460, 0.243495, 0.242820, 0.191942, 0.202744, 0.194069, 0.202203, 0.197409, 0.205952, 0.197250, 0.237064, 0.203668, 0.198319, 0.197983, 0.198492, 0.323150, 0.203988, 0.329350, 0.252559, 0.192353, 0.203515, 0.195144
Process 8: 0.366549, 0.302812, 0.264680, 0.302659, 0.290599, 0.196498, 0.196823, 0.247698, 0.203665, 0.244671, 0.244040, 0.193148, 0.203968, 0.195178, 0.203425, 0.198616, 0.207328, 0.198547, 0.238380, 0.204909, 0.199674, 0.199244, 0.199804, 0.324262, 0.205286, 0.329528, 0.253663, 0.193499, 0.204623, 0.196293
Process 9: 0.369387, 0.305998, 0.267908, 0.306146, 0.292896, 0.199162, 0.199604, 0.250407, 0.206672, 0.247475, 0.246815, 0.195860, 0.206716, 0.197944, 0.206179, 0.201344, 0.210412, 0.201338, 0.241151, 0.207659, 0.202499, 0.201942, 0.202671, 0.327037, 0.207729, 0.331671, 0.256027, 0.195843, 0.206993, 0.198965
Process 10: 0.371854, 0.308070, 0.269883, 0.308197, 0.294561, 0.200354, 0.200810, 0.251544, 0.207759, 0.248554, 0.247992, 0.196979, 0.207888, 0.199008, 0.207299, 0.202449, 0.211737, 0.202464, 0.242370, 0.208731, 0.203725, 0.203083, 0.203852, 0.328092, 0.209318, 0.333132, 0.257585, 0.197336, 0.208472, 0.200078
Process 11: 0.374567, 0.311084, 0.273143, 0.311652, 0.296903, 0.202999, 0.203518, 0.254202, 0.210175, 0.250933, 0.250346, 0.199298, 0.210235, 0.201336, 0.209671, 0.204783, 0.214159, 0.204975, 0.244786, 0.211076, 0.206168, 0.205358, 0.206298, 0.330468, 0.211984, 0.335427, 0.259908, 0.199667, 0.210833, 0.202431
Process 12: 0.377067, 0.313196, 0.275096, 0.313597, 0.298584, 0.204218, 0.204810, 0.255414, 0.211827, 0.252463, 0.251922, 0.200855, 0.211800, 0.202836, 0.211222, 0.206325, 0.215748, 0.206341, 0.246431, 0.212617, 0.207776, 0.206934, 0.207937, 0.331971, 0.213322, 0.336965, 0.261492, 0.201174, 0.212405, 0.204034
Process 13: 0.379799, 0.316251, 0.278044, 0.316700, 0.300682, 0.206534, 0.207187, 0.257741, 0.214240, 0.254788, 0.254311, 0.203174, 0.214132, 0.205164, 0.213555, 0.208643, 0.218137, 0.208833, 0.248830, 0.214928, 0.210204, 0.209231, 0.210366, 0.334330, 0.215675, 0.339233, 0.263821, 0.203504, 0.214742, 0.206364
Process 14: 0.381964, 0.318396, 0.280266, 0.318936, 0.302523, 0.208011, 0.208780, 0.259241, 0.215815, 0.256273, 0.255840, 0.204656, 0.215660, 0.206630, 0.215084, 0.210118, 0.219648, 0.210217, 0.250412, 0.216406, 0.211835, 0.210741, 0.211972, 0.335733, 0.217222, 0.340754, 0.265360, 0.204995, 0.216258, 0.207858
Process 15: 0.385104, 0.321485, 0.283585, 0.322383, 0.305620, 0.210705, 0.211605, 0.261698, 0.218252, 0.258618, 0.258347, 0.207001, 0.218064, 0.208992, 0.217472, 0.212465, 0.222125, 0.212734, 0.252881, 0.218741, 0.214240, 0.213048, 0.214428, 0.338185, 0.219659, 0.343068, 0.267777, 0.207355, 0.218645, 0.210261
Process 16: 0.387600, 0.323701, 0.285587, 0.324498, 0.306687, 0.211968, 0.212949, 0.263174, 0.219950, 0.260234, 0.259969, 0.208583, 0.219740, 0.210582, 0.219137, 0.214077, 0.223767, 0.214321, 0.254572, 0.220342, 0.215974, 0.214667, 0.216154, 0.339681, 0.221352, 0.344682, 0.269398, 0.208918, 0.220299, 0.211873
Process 17: 0.390467, 0.326752, 0.288693, 0.327780, 0.308892, 0.214494, 0.215570, 0.265713, 0.222642, 0.262860, 0.262620, 0.211264, 0.222341, 0.213226, 0.221766, 0.216758, 0.226207, 0.216889, 0.257291, 0.222974, 0.218609, 0.217206, 0.218822, 0.342391, 0.223696, 0.346921, 0.271706, 0.211172, 0.222578, 0.214546
Process 18: 0.392573, 0.328886, 0.290804, 0.329998, 0.310664, 0.215887, 0.217040, 0.267117, 0.224083, 0.264138, 0.263940, 0.212512, 0.223600, 0.214485, 0.223027, 0.218012, 0.227745, 0.218310, 0.258647, 0.224193, 0.220057, 0.218509, 0.220221, 0.343558, 0.225345, 0.348492, 0.273331, 0.212746, 0.224178, 0.215787
Process 19: 0.395464, 0.331826, 0.293684, 0.332939, 0.312695, 0.217992, 0.219320, 0.269285, 0.226343, 0.266291, 0.266185, 0.214694, 0.225863, 0.216799, 0.225298, 0.220294, 0.229974, 0.220609, 0.260992, 0.226436, 0.222464, 0.220706, 0.222600, 0.345838, 0.227703, 0.350818, 0.275608, 0.215038, 0.226474, 0.218092
Process 20: 0.397953, 0.334050, 0.296015, 0.335312, 0.314615, 0.219673, 0.221139, 0.270926, 0.228105, 0.267945, 0.267866, 0.216305, 0.227556, 0.218439, 0.226927, 0.222020, 0.232226, 0.222251, 0.262734, 0.228060, 0.224255, 0.222380, 0.224388, 0.347472, 0.229407, 0.352459, 0.277286, 0.216713, 0.228133, 0.219801
Process 21: 0.400607, 0.337104, 0.299070, 0.338607, 0.316623, 0.221848, 0.223480, 0.273111, 0.230413, 0.270178, 0.270083, 0.218623, 0.229874, 0.220761, 0.229263, 0.224310, 0.234552, 0.224586, 0.265084, 0.230271, 0.226603, 0.224566, 0.226746, 0.349676, 0.231724, 0.354671, 0.279552, 0.218942, 0.230417, 0.222047
Process 22: 0.402730, 0.339234, 0.301153, 0.340716, 0.318638, 0.223529, 0.225204, 0.274687, 0.232132, 0.271750, 0.271733, 0.220243, 0.231495, 0.222402, 0.230885, 0.226031, 0.236220, 0.226178, 0.266792, 0.231857, 0.228306, 0.226162, 0.228429, 0.351298, 0.233363, 0.356334, 0.281172, 0.220569, 0.232117, 0.223777
Process 23: 0.405906, 0.342280, 0.304327, 0.343908, 0.320857, 0.226002, 0.227880, 0.277314, 0.234478, 0.273987, 0.274027, 0.222570, 0.233856, 0.224776, 0.233182, 0.228252, 0.238499, 0.228595, 0.269156, 0.234119, 0.230751, 0.228420, 0.230833, 0.353536, 0.235682, 0.358609, 0.283460, 0.222880, 0.234334, 0.226024
Process 24: 0.408319, 0.344421, 0.306337, 0.345877, 0.322624, 0.227336, 0.229276, 0.278571, 0.236235, 0.275664, 0.275777, 0.224272, 0.235528, 0.226434, 0.234907, 0.229972, 0.240164, 0.230259, 0.270916, 0.235713, 0.232457, 0.230067, 0.232609, 0.355217, 0.237440, 0.360360, 0.285175, 0.224614, 0.236003, 0.227772
Process 25: 0.410936, 0.347445, 0.309201, 0.348737, 0.324636, 0.229472, 0.231617, 0.280762, 0.238528, 0.277782, 0.277991, 0.226514, 0.237799, 0.228700, 0.237106, 0.232219, 0.242468, 0.232585, 0.273193, 0.237919, 0.234818, 0.232232, 0.234938, 0.357378, 0.239706, 0.362585, 0.287392, 0.226825, 0.238225, 0.230024
Process 26: 0.413309, 0.349571, 0.311486, 0.351190, 0.326703, 0.231164, 0.233415, 0.282408, 0.240326, 0.279505, 0.279692, 0.228223, 0.239451, 0.230418, 0.238810, 0.233960, 0.244103, 0.234243, 0.275035, 0.239530, 0.236580, 0.233878, 0.236720, 0.359104, 0.241433, 0.364331, 0.289102, 0.228534, 0.239925, 0.231724
Process 27: 0.416109, 0.352548, 0.314503, 0.354463, 0.328972, 0.233720, 0.236121, 0.284910, 0.242941, 0.282069, 0.282280, 0.230837, 0.242023, 0.233017, 0.241379, 0.236569, 0.246642, 0.236871, 0.277675, 0.242114, 0.239214, 0.236365, 0.239586, 0.361609, 0.243701, 0.366549, 0.291288, 0.230770, 0.242127, 0.233980
Process 28: 0.418646, 0.354726, 0.316694, 0.356801, 0.330792, 0.235016, 0.237565, 0.286149, 0.244296, 0.283306, 0.283597, 0.232136, 0.243308, 0.234336, 0.242662, 0.237926, 0.247991, 0.238208, 0.279089, 0.243311, 0.240681, 0.237631, 0.240812, 0.362921, 0.245386, 0.368275, 0.292961, 0.232464, 0.243790, 0.235662
Process 29: 0.421623, 0.357681, 0.319459, 0.359718, 0.332771, 0.237134, 0.239838, 0.288372, 0.246569, 0.285476, 0.285835, 0.234434, 0.245541, 0.236642, 0.244917, 0.240171, 0.250295, 0.240628, 0.281373, 0.245511, 0.242996, 0.239808, 0.243125, 0.365097, 0.247687, 0.370602, 0.295202, 0.234728, 0.246335, 0.238292
Process 30: 0.423428, 0.359882, 0.321756, 0.362229, 0.334707, 0.238687, 0.241576, 0.289955, 0.248281, 0.287149, 0.287497, 0.236049, 0.247209, 0.238331, 0.246540, 0.241830, 0.251832, 0.242239, 0.283121, 0.247065, 0.244738, 0.241374, 0.244862, 0.366779, 0.249363, 0.372255, 0.296889, 0.236415, 0.247652, 0.239658
Process 31: 0.426354, 0.362888, 0.324888, 0.365552, 0.337013, 0.241237, 0.244257, 0.292484, 0.250932, 0.289721, 0.290100, 0.238675, 0.249796, 0.240910, 0.249174, 0.244476, 0.254382, 0.244829, 0.285860, 0.249633, 0.247394, 0.243978, 0.247526, 0.369358, 0.251980, 0.374919, 0.299489, 0.239023, 0.250256, 0.242285
Process 32: 0.428878, 0.365047, 0.326885, 0.367816, 0.338766, 0.242491, 0.245610, 0.293698, 0.252321, 0.291014, 0.291402, 0.239991, 0.251101, 0.242248, 0.250460, 0.245798, 0.255694, 0.245898, 0.287218, 0.250823, 0.248805, 0.245136, 0.248949, 0.370674, 0.253307, 0.376215, 0.300755, 0.240348, 0.251535, 0.243613
Process 33: 0.431409, 0.367885, 0.329555, 0.370694, 0.340814, 0.244828, 0.248117, 0.295762, 0.254511, 0.293106, 0.293575, 0.242171, 0.253243, 0.244452, 0.252597, 0.248014, 0.257894, 0.248128, 0.289421, 0.252990, 0.251099, 0.247250, 0.251159, 0.372954, 0.255507, 0.378368, 0.302927, 0.242504, 0.253676, 0.245826
Process 34: 0.433697, 0.370132, 0.331945, 0.373303, 0.342860, 0.246292, 0.249729, 0.297521, 0.256411, 0.294935, 0.295410, 0.244040, 0.255035, 0.246310, 0.254400, 0.249862, 0.260077, 0.249940, 0.291344, 0.254675, 0.252987, 0.248975, 0.253053, 0.374670, 0.257384, 0.380340, 0.304745, 0.244432, 0.255508, 0.247762
Process 35: 0.436660, 0.373002, 0.334665, 0.376169, 0.345103, 0.248348, 0.251898, 0.299560, 0.258507, 0.296997, 0.297487, 0.246132, 0.257137, 0.248436, 0.256477, 0.251977, 0.262370, 0.252089, 0.293528, 0.256697, 0.255234, 0.250976, 0.255234, 0.376754, 0.259511, 0.382359, 0.307220, 0.246492, 0.257551, 0.249831
Process 36: 0.439045, 0.375189, 0.338148, 0.378783, 0.346863, 0.249949, 0.253719, 0.301212, 0.260311, 0.298765, 0.299238, 0.247901, 0.258873, 0.250228, 0.258231, 0.253776, 0.264096, 0.253881, 0.295393, 0.258327, 0.257021, 0.252654, 0.257060, 0.378493, 0.261264, 0.384153, 0.308617, 0.248272, 0.259441, 0.251611
Process 37: 0.444478, 0.378210, 0.341244, 0.381950, 0.348977, 0.252076, 0.255980, 0.303343, 0.262573, 0.300959, 0.301424, 0.250100, 0.261063, 0.252449, 0.260390, 0.256003, 0.266322, 0.256116, 0.297646, 0.260587, 0.259370, 0.254756, 0.259305, 0.380681, 0.263484, 0.386348, 0.310797, 0.250483, 0.261615, 0.253824
Process 38: 0.446287, 0.380261, 0.343464, 0.384286, 0.350902, 0.253857, 0.257932, 0.305186, 0.264465, 0.302805, 0.303266, 0.252046, 0.262884, 0.254334, 0.262250, 0.257904, 0.268675, 0.257990, 0.299622, 0.262232, 0.261318, 0.256506, 0.261265, 0.382577, 0.265238, 0.388153, 0.312525, 0.252258, 0.263369, 0.255731
Process 39: 0.451133, 0.383058, 0.346079, 0.387128, 0.353035, 0.255838, 0.260121, 0.307185, 0.266583, 0.304876, 0.305367, 0.254102, 0.264944, 0.256490, 0.264286, 0.260014, 0.270999, 0.260165, 0.301733, 0.264210, 0.263411, 0.258514, 0.263454, 0.384631, 0.267443, 0.390380, 0.314697, 0.254446, 0.265518, 0.257860
Process 40: 0.452558, 0.385314, 0.348481, 0.389685, 0.354978, 0.257491, 0.261942, 0.308929, 0.268395, 0.306635, 0.307131, 0.255901, 0.266696, 0.258294, 0.266034, 0.261814, 0.272714, 0.261972, 0.303589, 0.265873, 0.265261, 0.260199, 0.265242, 0.386449, 0.269257, 0.392205, 0.316482, 0.256260, 0.267253, 0.259681
Process 41: 0.457628, 0.388232, 0.351468, 0.392847, 0.357074, 0.259565, 0.264160, 0.310990, 0.270579, 0.308857, 0.309269, 0.258059, 0.268846, 0.260480, 0.268193, 0.263995, 0.274836, 0.264162, 0.305853, 0.267927, 0.267480, 0.262250, 0.267455, 0.388549, 0.271415, 0.394397, 0.318607, 0.258432, 0.269389, 0.261869
Process 42: 0.458085, 0.390371, 0.353565, 0.395053, 0.359100, 0.261243, 0.266055, 0.312775, 0.272480, 0.310637, 0.311078, 0.259899, 0.270649, 0.262331, 0.269988, 0.265849, 0.276662, 0.266046, 0.307761, 0.269649, 0.269382, 0.264004, 0.269325, 0.390392, 0.273241, 0.396236, 0.320422, 0.260277, 0.271169, 0.263841
Process 43: 0.462408, 0.393138, 0.356244, 0.397807, 0.361153, 0.263310, 0.268245, 0.314846, 0.274632, 0.312757, 0.313205, 0.262077, 0.272759, 0.264495, 0.272090, 0.268043, 0.278737, 0.268245, 0.309972, 0.271697, 0.271589, 0.266067, 0.271542, 0.392545, 0.275380, 0.398489, 0.322544, 0.262425, 0.273297, 0.267767
Process 44: 0.463277, 0.395469, 0.358634, 0.400278, 0.363140, 0.265004, 0.270166, 0.316612, 0.276477, 0.314564, 0.315001, 0.263928, 0.274536, 0.266378, 0.273867, 0.269896, 0.280510, 0.270094, 0.311890, 0.273410, 0.273476, 0.267829, 0.273398, 0.394343, 0.277197, 0.400452, 0.324317, 0.264308, 0.275065, 0.268518
Process 45: 0.467950, 0.398368, 0.361651, 0.403378, 0.365252, 0.267069, 0.272410, 0.318760, 0.278983, 0.317126, 0.317545, 0.266486, 0.277043, 0.271133, 0.276400, 0.272429, 0.282810, 0.272562, 0.314444, 0.275877, 0.276061, 0.270406, 0.280026, 0.396878, 0.279778, 0.403184, 0.326525, 0.266508, 0.277231, 0.270779
Process 46: 0.468862, 0.400526, 0.363743, 0.405462, 0.367561, 0.268887, 0.274433, 0.320650, 0.280610, 0.318623, 0.319045, 0.268045, 0.278578, 0.271723, 0.277915, 0.274062, 0.284479, 0.274357, 0.316125, 0.277328, 0.277695, 0.271811, 0.280698, 0.398443, 0.281297, 0.404799, 0.328429, 0.268496, 0.279116, 0.272763
Process 47: 0.473382, 0.403355, 0.366621, 0.408409, 0.369383, 0.271328, 0.276885, 0.323209, 0.283117, 0.321086, 0.321504, 0.270489, 0.280997, 0.273868, 0.280322, 0.276529, 0.286841, 0.276646, 0.318646, 0.279653, 0.280192, 0.274231, 0.286066, 0.400939, 0.283779, 0.407367, 0.330839, 0.270914, 0.281531, 0.275253
Process 48: 0.474847, 0.405691, 0.368854, 0.410642, 0.371404, 0.272602, 0.278414, 0.324489, 0.284616, 0.322578, 0.322991, 0.272072, 0.282445, 0.275359, 0.281841, 0.278092, 0.288424, 0.278388, 0.320251, 0.281111, 0.281835, 0.275646, 0.286683, 0.402427, 0.285242, 0.408990, 0.332280, 0.272441, 0.283031, 0.276839
Process 49: 0.478861, 0.408371, 0.371463, 0.413286, 0.373503, 0.274608, 0.280598, 0.326602, 0.286740, 0.324649, 0.325082, 0.274171, 0.284509, 0.277468, 0.283843, 0.280208, 0.290545, 0.280481, 0.322466, 0.283127, 0.284790, 0.277795, 0.289636, 0.404519, 0.287435, 0.411125, 0.334376, 0.274579, 0.285007, 0.278955
Process 50: 0.479347, 0.410772, 0.373967, 0.415786, 0.375630, 0.276445, 0.282582, 0.328460, 0.288686, 0.326578, 0.326941, 0.276131, 0.286396, 0.279435, 0.285734, 0.282189, 0.292371, 0.282468, 0.324393, 0.284996, 0.286080, 0.279588, 0.290159, 0.406464, 0.289306, 0.413110, 0.336250, 0.276540, 0.286905, 0.280928
Process 51: 0.483457, 0.413503, 0.376674, 0.418513, 0.377933, 0.278710, 0.284854, 0.330735, 0.294471, 0.328815, 0.329206, 0.278404, 0.288708, 0.281716, 0.288024, 0.284472, 0.294507, 0.284758, 0.326894, 0.287576, 0.288437, 0.281882, 0.295022, 0.409099, 0.291445, 0.415377, 0.338423, 0.278665, 0.288966, 0.283124
Process 52: 0.484726, 0.415868, 0.379093, 0.420820, 0.379839, 0.280341, 0.286826, 0.332494, 0.295312, 0.330687, 0.330969, 0.280271, 0.290422, 0.283572, 0.289740, 0.286377, 0.296308, 0.286698, 0.328645, 0.288982, 0.290277, 0.283548, 0.295688, 0.410603, 0.293361, 0.417239, 0.340299, 0.280668, 0.290919, 0.285131
Process 53: 0.488462, 0.418715, 0.381873, 0.423603, 0.382071, 0.282573, 0.291196, 0.334510, 0.298564, 0.332760, 0.333064, 0.282421, 0.292508, 0.285726, 0.291803, 0.288484, 0.298418, 0.288826, 0.330807, 0.290976, 0.292441, 0.285633, 0.298629, 0.412742, 0.295485, 0.419385, 0.342401, 0.282779, 0.293002, 0.287317
Process 54: 0.489559, 0.421031, 0.384214, 0.425866, 0.384051, 0.284227, 0.292207, 0.336405, 0.299185, 0.334698, 0.334954, 0.284381, 0.294345, 0.287713, 0.293675, 0.290455, 0.300243, 0.290780, 0.332779, 0.292879, 0.294417, 0.287549, 0.299301, 0.414668, 0.297423, 0.421409, 0.344292, 0.284796, 0.294842, 0.289294
Process 55: 0.493662, 0.423723, 0.386953, 0.428504, 0.386314, 0.286487, 0.296491, 0.338687, 0.304435, 0.336974, 0.337226, 0.286671, 0.296620, 0.290103, 0.296015, 0.292764, 0.302362, 0.295155, 0.336283, 0.295154, 0.296704, 0.289736, 0.303530, 0.416937, 0.299765, 0.423731, 0.346607, 0.287158, 0.297153, 0.291637
Process 56: 0.495198, 0.426153, 0.389367, 0.430822, 0.388371, 0.288350, 0.297166, 0.340522, 0.305427, 0.338809, 0.338978, 0.288541, 0.298379, 0.291961, 0.297701, 0.294632, 0.304191, 0.296181, 0.337462, 0.296898, 0.298643, 0.291564, 0.304360, 0.418804, 0.301521, 0.425581, 0.348333, 0.288969, 0.298839, 0.293501
Process 57: 0.498749, 0.428836, 0.392176, 0.433668, 0.390583, 0.290885, 0.301183, 0.342795, 0.310033, 0.341114, 0.341253, 0.290925, 0.300625, 0.294246, 0.300069, 0.299045, 0.306354, 0.300856, 0.340988, 0.299179, 0.300997, 0.293792, 0.307954, 0.421091, 0.303797, 0.427900, 0.350573, 0.291292, 0.301178, 0.295837
Process 58: 0.500280, 0.431274, 0.394478, 0.435708, 0.392511, 0.292610, 0.301934, 0.344499, 0.310885, 0.342932, 0.342999, 0.292720, 0.302368, 0.296108, 0.301738, 0.299395, 0.308204, 0.301483, 0.341732, 0.300851, 0.302852, 0.295556, 0.308760, 0.422918, 0.305590, 0.429807, 0.352353, 0.293168, 0.302875, 0.297749
Process 59: 0.504565, 0.434007, 0.397267, 0.438492, 0.394525, 0.294634, 0.304719, 0.346805, 0.314800, 0.345231, 0.345220, 0.294995, 0.304599, 0.298394, 0.304053, 0.301540, 0.310348, 0.304755, 0.345129, 0.303128, 0.305182, 0.297783, 0.311973, 0.425164, 0.307715, 0.433954, 0.354549, 0.296609, 0.305124, 0.300115
Process 60: 0.505575, 0.436299, 0.399568, 0.440594, 0.396703, 0.296617, 0.305373, 0.348541, 0.315758, 0.347009, 0.346990, 0.296838, 0.306359, 0.300331, 0.305720, 0.303339, 0.312159, 0.305548, 0.345962, 0.304831, 0.307051, 0.299534, 0.312758, 0.427020, 0.309634, 0.434850, 0.356339, 0.297325, 0.306853, 0.301922
Process 61: 0.509929, 0.439217, 0.402087, 0.443070, 0.398782, 0.298574, 0.307968, 0.350737, 0.318216, 0.349072, 0.349048, 0.300502, 0.308436, 0.302376, 0.307773, 0.305449, 0.314283, 0.308520, 0.348876, 0.306839, 0.309164, 0.301554, 0.315076, 0.429078, 0.311689, 0.438159, 0.358432, 0.299408, 0.308906, 0.304054
Process 62: 0.510533, 0.441317, 0.404506, 0.445352, 0.400884, 0.300499, 0.308866, 0.352567, 0.318935, 0.351100, 0.350959, 0.301433, 0.310300, 0.304419, 0.309692, 0.307507, 0.316132, 0.309324, 0.350172, 0.308760, 0.311190, 0.303491, 0.315714, 0.431101, 0.313667, 0.439103, 0.360324, 0.301396, 0.310789, 0.306108
Process 63: 0.514887, 0.443921, 0.407107, 0.450182, 0.403106, 0.302711, 0.312943, 0.354811, 0.322490, 0.355120, 0.353251, 0.303600, 0.312577, 0.306746, 0.311947, 0.309793, 0.318236, 0.312919, 0.353493, 0.310967, 0.313491, 0.305907, 0.320215, 0.433345, 0.318738, 0.443017, 0.362572, 0.303728, 0.312997, 0.308458
