MPI_insiderank_serial
Process 0: 5.226951, 4.607187, 4.628827, 4.621417, 4.601387, 4.616670, 4.594373, 4.609746, 4.562721, 4.563135, 4.605033, 4.585243, 4.597237, 4.594193, 4.563642, 4.590018, 4.568800, 4.552859, 4.596673, 4.590484, 4.570500, 4.591657, 4.600722, 4.578911, 4.609453, 4.565461, 4.613319, 4.625252, 4.569814, 4.588469
Process 1: 5.229384, 4.609633, 4.631751, 4.624307, 4.604232, 4.620493, 4.597942, 4.612984, 4.565704, 4.566504, 4.607861, 4.587969, 4.599594, 4.597020, 4.566672, 4.592893, 4.571511, 4.555510, 4.600192, 4.592987, 4.572977, 4.594240, 4.603038, 4.581814, 4.611865, 4.567884, 4.615735, 4.627664, 4.572175, 4.591086
