MPI_insiderank_serial
Process 0: 9.050604, 8.579846, 8.480436, 8.433037, 8.658345, 8.722052, 8.767680, 8.769455, 8.698893, 8.605243, 8.462304, 8.519075, 8.495137, 8.505075, 8.408355, 8.390718, 8.380614, 8.377951, 8.317292, 8.312555, 8.343648, 8.315610, 8.315856, 8.310976, 8.389158, 8.345060, 8.309708, 8.334173, 8.329748, 8.373088
Process 1: 9.052870, 8.581474, 8.483970, 8.436432, 8.668537, 8.733469, 8.776737, 8.779493, 8.707851, 8.611150, 8.467242, 8.524191, 8.499226, 8.510415, 8.413622, 8.395405, 8.385180, 8.382051, 8.321166, 8.316591, 8.347389, 8.319326, 8.319632, 8.314717, 8.393708, 8.349181, 8.313058, 8.337483, 8.333507, 8.384626
