MPI_insiderank_serial
Process 0: 1.119331, 0.817620, 0.589822, 0.608234, 0.630088, 0.594774, 0.595739, 0.610424, 0.611611, 0.864106, 0.600596, 0.679335, 0.700706, 0.654209, 0.592592, 0.607869, 0.626905, 0.607348, 0.602006, 0.636712, 0.606225, 0.611002, 0.616394, 0.627148, 0.623174, 0.602750, 0.571545, 0.619686, 0.605069, 0.619094
Process 1: 0.677595, 0.537272, 0.317773, 0.327047, 0.338741, 0.320052, 0.323445, 0.335210, 0.331868, 0.590760, 0.325547, 0.378049, 0.347043, 0.380191, 0.321773, 0.313327, 0.320435, 0.312336, 0.312938, 0.328685, 0.316560, 0.313147, 0.310318, 0.322227, 0.319195, 0.313235, 0.308340, 0.308664, 0.313832, 0.314024
Process 2: 0.682600, 0.538613, 0.321461, 0.330661, 0.342379, 0.324566, 0.326183, 0.341320, 0.335595, 0.594330, 0.329179, 0.380207, 0.352439, 0.383940, 0.324593, 0.317107, 0.324134, 0.316146, 0.316746, 0.332602, 0.320350, 0.316907, 0.314105, 0.326709, 0.322968, 0.316988, 0.312113, 0.312436, 0.317592, 0.317822
Process 3: 0.689994, 0.552201, 0.326368, 0.335447, 0.347258, 0.328627, 0.330467, 0.349494, 0.340480, 0.599432, 0.333968, 0.396999, 0.365835, 0.388714, 0.328891, 0.321876, 0.328965, 0.320852, 0.321465, 0.344692, 0.325071, 0.321648, 0.318850, 0.331447, 0.327709, 0.321723, 0.316843, 0.317152, 0.322341, 0.322520
Process 4: 0.696402, 0.555485, 0.329954, 0.339123, 0.350823, 0.332335, 0.334781, 0.350080, 0.344273, 0.602823, 0.337633, 0.399028, 0.367457, 0.392453, 0.333225, 0.325535, 0.332580, 0.324566, 0.325164, 0.345749, 0.328779, 0.325335, 0.322537, 0.335157, 0.331389, 0.325418, 0.320541, 0.320849, 0.326035, 0.326237
Process 5: 0.704333, 0.568334, 0.335001, 0.344085, 0.355782, 0.337173, 0.339119, 0.354535, 0.349149, 0.607754, 0.342587, 0.413032, 0.383389, 0.397317, 0.337629, 0.330393, 0.337490, 0.329388, 0.330011, 0.360527, 0.333592, 0.330170, 0.327824, 0.340013, 0.336235, 0.330249, 0.325370, 0.325677, 0.330880, 0.331046
Process 6: 0.710865, 0.569424, 0.338495, 0.347564, 0.359243, 0.340742, 0.343306, 0.358065, 0.352894, 0.611299, 0.346066, 0.415051, 0.385135, 0.400907, 0.341842, 0.333982, 0.340962, 0.332990, 0.333595, 0.361694, 0.337202, 0.333741, 0.331427, 0.343614, 0.339790, 0.333837, 0.328943, 0.329256, 0.334446, 0.334635
Process 7: 0.718510, 0.576416, 0.343602, 0.352491, 0.364237, 0.345587, 0.347667, 0.362992, 0.357807, 0.616350, 0.351015, 0.427161, 0.400237, 0.405791, 0.346243, 0.338867, 0.345929, 0.337814, 0.338451, 0.371574, 0.342037, 0.338574, 0.336277, 0.348472, 0.344611, 0.338668, 0.333799, 0.334095, 0.339291, 0.339461
Process 8: 0.725136, 0.577412, 0.347352, 0.356022, 0.367699, 0.349237, 0.351847, 0.366557, 0.361534, 0.620080, 0.354577, 0.429128, 0.402573, 0.409421, 0.350466, 0.342499, 0.349416, 0.341473, 0.342100, 0.372696, 0.345679, 0.342227, 0.339974, 0.352118, 0.348257, 0.342314, 0.337449, 0.337755, 0.342954, 0.343115
Process 9: 0.732915, 0.582169, 0.352505, 0.361003, 0.372654, 0.354127, 0.356256, 0.371454, 0.366476, 0.625586, 0.359543, 0.440371, 0.417295, 0.414305, 0.354901, 0.347402, 0.354348, 0.346329, 0.346954, 0.382024, 0.350530, 0.347071, 0.344808, 0.356996, 0.353100, 0.347171, 0.342310, 0.342611, 0.347806, 0.347964
Process 10: 0.739359, 0.586631, 0.356354, 0.364519, 0.376155, 0.357682, 0.360349, 0.375009, 0.370155, 0.628963, 0.363162, 0.440913, 0.419037, 0.417947, 0.359012, 0.351010, 0.357857, 0.349947, 0.350574, 0.383973, 0.354150, 0.350702, 0.348424, 0.360622, 0.356724, 0.350799, 0.345931, 0.346231, 0.351431, 0.351583
Process 11: 0.746908, 0.592452, 0.361463, 0.369582, 0.381173, 0.362638, 0.364785, 0.379981, 0.375131, 0.634214, 0.368428, 0.445507, 0.431300, 0.422875, 0.363486, 0.355927, 0.362782, 0.354836, 0.355448, 0.395776, 0.359034, 0.355585, 0.353332, 0.365523, 0.361596, 0.355692, 0.350811, 0.351130, 0.356306, 0.356542
Process 12: 0.753536, 0.597021, 0.365341, 0.373057, 0.384672, 0.366211, 0.368846, 0.383516, 0.378772, 0.637962, 0.372042, 0.448948, 0.432896, 0.426463, 0.367586, 0.359538, 0.366327, 0.358462, 0.359075, 0.396763, 0.362657, 0.359206, 0.356966, 0.369126, 0.365212, 0.359309, 0.354428, 0.354754, 0.359952, 0.360091
Process 13: 0.761704, 0.601926, 0.370531, 0.378059, 0.389662, 0.371213, 0.373230, 0.388477, 0.383759, 0.643177, 0.377274, 0.454108, 0.447519, 0.431386, 0.371968, 0.364443, 0.371202, 0.363354, 0.363931, 0.406771, 0.367522, 0.364076, 0.361855, 0.374017, 0.370069, 0.364173, 0.359301, 0.359644, 0.364815, 0.364967
Process 14: 0.767729, 0.605732, 0.374433, 0.381597, 0.393195, 0.374741, 0.377346, 0.391991, 0.387390, 0.647029, 0.380999, 0.457665, 0.449102, 0.434972, 0.376101, 0.368053, 0.374808, 0.366980, 0.367576, 0.408787, 0.371165, 0.367714, 0.365478, 0.378152, 0.373703, 0.367805, 0.362949, 0.363282, 0.368435, 0.368604
Process 15: 0.775498, 0.610651, 0.379660, 0.386608, 0.398226, 0.379782, 0.381691, 0.397034, 0.392329, 0.652224, 0.386210, 0.462859, 0.459605, 0.440026, 0.380475, 0.373010, 0.379686, 0.371881, 0.372466, 0.420630, 0.376074, 0.372655, 0.370399, 0.383365, 0.378575, 0.372669, 0.367793, 0.368114, 0.373296, 0.373445
Process 16: 0.782195, 0.614706, 0.383749, 0.390296, 0.401893, 0.383412, 0.386032, 0.400660, 0.396146, 0.656354, 0.390181, 0.466459, 0.463191, 0.443649, 0.384789, 0.376744, 0.383487, 0.375640, 0.376219, 0.421986, 0.379830, 0.376392, 0.374176, 0.386921, 0.382367, 0.376457, 0.371605, 0.371938, 0.377091, 0.377266
Process 17: 0.798653, 0.619333, 0.388698, 0.395125, 0.406656, 0.388162, 0.390204, 0.405505, 0.400812, 0.661330, 0.395055, 0.471302, 0.476508, 0.448482, 0.388966, 0.381415, 0.388126, 0.380285, 0.380877, 0.429500, 0.384485, 0.381044, 0.378838, 0.391733, 0.387022, 0.381105, 0.376256, 0.376574, 0.381763, 0.381912
Process 18: 0.803235, 0.623228, 0.392811, 0.399020, 0.410414, 0.391958, 0.394526, 0.409187, 0.404662, 0.665481, 0.399219, 0.474951, 0.478646, 0.452179, 0.393297, 0.385250, 0.391986, 0.384142, 0.384734, 0.431348, 0.388329, 0.384891, 0.382703, 0.395562, 0.390867, 0.384959, 0.380094, 0.380421, 0.385601, 0.385761
Process 19: 0.814775, 0.627816, 0.397740, 0.403910, 0.415113, 0.396700, 0.398655, 0.413950, 0.409344, 0.670418, 0.405114, 0.479797, 0.492129, 0.456920, 0.397688, 0.389944, 0.396601, 0.388761, 0.389364, 0.441534, 0.392954, 0.389520, 0.387344, 0.400231, 0.395490, 0.389572, 0.384723, 0.385056, 0.390262, 0.390381
Process 20: 0.817408, 0.631757, 0.401830, 0.407829, 0.418881, 0.400410, 0.402972, 0.417663, 0.413149, 0.674564, 0.409278, 0.483430, 0.493577, 0.460670, 0.401754, 0.393732, 0.400427, 0.392592, 0.393183, 0.442879, 0.396794, 0.393352, 0.391196, 0.404011, 0.399331, 0.393411, 0.388541, 0.388901, 0.394096, 0.394208
Process 21: 0.828792, 0.636346, 0.406707, 0.412894, 0.423671, 0.405173, 0.407140, 0.422385, 0.418457, 0.679508, 0.414286, 0.488263, 0.502729, 0.465462, 0.405916, 0.398408, 0.405081, 0.397250, 0.397836, 0.450902, 0.401430, 0.397974, 0.395838, 0.408727, 0.403962, 0.398034, 0.393170, 0.393552, 0.398750, 0.398846
Process 22: 0.831015, 0.640225, 0.410758, 0.416697, 0.427326, 0.408868, 0.411352, 0.426083, 0.421667, 0.683531, 0.418479, 0.492040, 0.504442, 0.469102, 0.410158, 0.402256, 0.408845, 0.401048, 0.401638, 0.452043, 0.405249, 0.401778, 0.399650, 0.412482, 0.407747, 0.401818, 0.396964, 0.397371, 0.402583, 0.402647
Process 23: 0.842460, 0.644902, 0.415641, 0.421773, 0.432110, 0.413634, 0.415627, 0.430908, 0.426462, 0.688517, 0.423573, 0.497127, 0.516806, 0.473978, 0.414404, 0.406957, 0.419626, 0.405753, 0.406328, 0.461299, 0.409969, 0.406482, 0.404357, 0.417263, 0.412434, 0.406537, 0.401709, 0.402071, 0.407265, 0.413255
Process 24: 0.845003, 0.648773, 0.419670, 0.425722, 0.435774, 0.417363, 0.419841, 0.434593, 0.430165, 0.692657, 0.427740, 0.500857, 0.518304, 0.477626, 0.418601, 0.410754, 0.420848, 0.409585, 0.410140, 0.462578, 0.413761, 0.410275, 0.408180, 0.421002, 0.416247, 0.410357, 0.405489, 0.405942, 0.411107, 0.414628
Process 25: 0.857121, 0.653433, 0.424561, 0.430787, 0.440637, 0.422200, 0.426882, 0.439412, 0.435034, 0.697591, 0.432801, 0.505906, 0.523898, 0.482445, 0.426244, 0.415524, 0.430197, 0.414304, 0.414857, 0.470776, 0.418488, 0.415020, 0.412890, 0.425951, 0.426758, 0.415049, 0.410218, 0.410611, 0.415790, 0.424332
Process 26: 0.859428, 0.657308, 0.428595, 0.434859, 0.444434, 0.425867, 0.428838, 0.443088, 0.438672, 0.701713, 0.436966, 0.509789, 0.524540, 0.486173, 0.427827, 0.419307, 0.431447, 0.418127, 0.418682, 0.472047, 0.422274, 0.418875, 0.416675, 0.429520, 0.428147, 0.418833, 0.414045, 0.414419, 0.419623, 0.425751
Process 27: 0.871394, 0.661985, 0.433515, 0.440130, 0.449456, 0.430774, 0.433670, 0.447893, 0.443589, 0.706728, 0.441993, 0.514822, 0.529478, 0.490967, 0.432591, 0.424004, 0.439106, 0.422803, 0.429728, 0.481030, 0.433291, 0.429565, 0.421424, 0.440241, 0.437624, 0.429677, 0.419893, 0.424938, 0.424306, 0.433423
Process 28: 0.874068, 0.665824, 0.437522, 0.444106, 0.453294, 0.434394, 0.437345, 0.451612, 0.447235, 0.710763, 0.446150, 0.518740, 0.533378, 0.494708, 0.436251, 0.427844, 0.440397, 0.426638, 0.431080, 0.482300, 0.434522, 0.430927, 0.425204, 0.441955, 0.438962, 0.431022, 0.422884, 0.426323, 0.428120, 0.434892
Process 29: 0.885409, 0.670553, 0.442437, 0.449262, 0.458340, 0.439251, 0.442169, 0.456369, 0.452060, 0.715707, 0.451159, 0.523814, 0.538388, 0.499556, 0.441082, 0.432520, 0.448266, 0.431321, 0.440281, 0.490534, 0.443776, 0.440104, 0.435824, 0.450997, 0.446860, 0.440212, 0.427594, 0.435485, 0.439453, 0.442529
Process 30: 0.887102, 0.674294, 0.446414, 0.453423, 0.462201, 0.442924, 0.445815, 0.460061, 0.455766, 0.719743, 0.455216, 0.527803, 0.542145, 0.503178, 0.444719, 0.436282, 0.449443, 0.435108, 0.441438, 0.491627, 0.444974, 0.441236, 0.436928, 0.452910, 0.448039, 0.441462, 0.431379, 0.436644, 0.440585, 0.443678
Process 31: 0.893428, 0.681462, 0.451348, 0.458808, 0.467336, 0.447719, 0.450578, 0.464957, 0.460621, 0.724725, 0.460281, 0.533182, 0.547142, 0.508061, 0.449564, 0.441030, 0.457183, 0.445172, 0.449235, 0.500091, 0.452819, 0.449181, 0.445783, 0.459800, 0.455964, 0.449310, 0.436093, 0.444643, 0.448880, 0.451448
Process 32: 0.899853, 0.683500, 0.455267, 0.462795, 0.471268, 0.451468, 0.454330, 0.468567, 0.464316, 0.728688, 0.464340, 0.537003, 0.550840, 0.511679, 0.453234, 0.444790, 0.458816, 0.446541, 0.450639, 0.501398, 0.454152, 0.450579, 0.447201, 0.461953, 0.457238, 0.450690, 0.439837, 0.446059, 0.450271, 0.452784
Process 33: 0.907491, 0.687725, 0.460114, 0.467881, 0.476200, 0.456238, 0.459097, 0.473313, 0.468953, 0.733595, 0.469313, 0.542000, 0.555598, 0.516424, 0.457962, 0.457152, 0.467870, 0.456666, 0.459719, 0.510443, 0.463394, 0.459781, 0.456307, 0.470927, 0.466702, 0.460411, 0.444529, 0.455243, 0.459651, 0.462257
Process 34: 0.913984, 0.691903, 0.464023, 0.472010, 0.480265, 0.460146, 0.462779, 0.477052, 0.473842, 0.737552, 0.473315, 0.546185, 0.559604, 0.520293, 0.461700, 0.461901, 0.469525, 0.462015, 0.462827, 0.511782, 0.466810, 0.463700, 0.460884, 0.473641, 0.468989, 0.463303, 0.448295, 0.458455, 0.463290, 0.464434
Process 35: 0.921684, 0.696157, 0.468810, 0.477032, 0.485268, 0.464951, 0.467520, 0.481811, 0.478733, 0.742399, 0.478281, 0.551246, 0.564451, 0.525157, 0.466403, 0.472830, 0.480713, 0.472477, 0.473572, 0.522611, 0.477427, 0.474841, 0.471486, 0.484818, 0.479803, 0.474339, 0.452962, 0.470310, 0.474329, 0.475371
Process 36: 0.928286, 0.700405, 0.472746, 0.481193, 0.489394, 0.468960, 0.471352, 0.485705, 0.482466, 0.746385, 0.482269, 0.555457, 0.568504, 0.529083, 0.470164, 0.473914, 0.481853, 0.473511, 0.474635, 0.523765, 0.478566, 0.475949, 0.472665, 0.486788, 0.480932, 0.475441, 0.456761, 0.471421, 0.475416, 0.476489
Process 37: 0.935797, 0.704657, 0.477578, 0.486285, 0.494457, 0.473906, 0.476254, 0.490575, 0.487245, 0.751268, 0.487246, 0.560665, 0.573461, 0.534005, 0.474941, 0.484770, 0.491549, 0.483352, 0.485106, 0.531928, 0.490052, 0.486024, 0.483260, 0.497278, 0.491447, 0.486214, 0.461474, 0.482410, 0.486533, 0.486296
Process 38: 0.942388, 0.708883, 0.481420, 0.490328, 0.498564, 0.477848, 0.480079, 0.494404, 0.490947, 0.755146, 0.491178, 0.564782, 0.577431, 0.537920, 0.478775, 0.486344, 0.493709, 0.486298, 0.487994, 0.533092, 0.492797, 0.488155, 0.485046, 0.499121, 0.494293, 0.487785, 0.465225, 0.484012, 0.489165, 0.488383
Process 39: 0.949939, 0.713125, 0.486207, 0.502010, 0.503722, 0.482802, 0.484958, 0.499291, 0.495783, 0.760004, 0.496071, 0.569933, 0.582401, 0.542859, 0.483617, 0.497608, 0.504555, 0.497400, 0.499156, 0.535555, 0.503037, 0.498900, 0.496029, 0.509715, 0.505269, 0.498612, 0.469900, 0.494823, 0.500029, 0.499624
Process 40: 0.956781, 0.717388, 0.490041, 0.504640, 0.507778, 0.486801, 0.488852, 0.503217, 0.499642, 0.763898, 0.500019, 0.574107, 0.586443, 0.546833, 0.487449, 0.498787, 0.505639, 0.498406, 0.500247, 0.539332, 0.504130, 0.500008, 0.497068, 0.511478, 0.505980, 0.499664, 0.473680, 0.495835, 0.501090, 0.500632
Process 41: 0.964495, 0.721725, 0.494846, 0.514449, 0.519516, 0.491908, 0.493834, 0.508218, 0.504574, 0.768809, 0.504954, 0.579316, 0.591509, 0.551858, 0.492436, 0.508594, 0.515644, 0.508067, 0.509267, 0.544214, 0.512320, 0.509231, 0.507106, 0.519984, 0.516282, 0.508983, 0.478452, 0.506638, 0.510467, 0.509965
Process 42: 0.971028, 0.725998, 0.498713, 0.515227, 0.521562, 0.495904, 0.497762, 0.512159, 0.508499, 0.772664, 0.508911, 0.583429, 0.595571, 0.555901, 0.496333, 0.509704, 0.517917, 0.511493, 0.511217, 0.547911, 0.514587, 0.511443, 0.508165, 0.521757, 0.517822, 0.511495, 0.482179, 0.507795, 0.511895, 0.512090
Process 43: 0.978701, 0.730322, 0.503533, 0.520336, 0.532106, 0.500984, 0.502721, 0.517173, 0.513977, 0.777551, 0.513829, 0.592669, 0.600660, 0.560985, 0.501337, 0.520836, 0.529064, 0.521557, 0.522095, 0.552746, 0.524929, 0.522093, 0.517917, 0.529825, 0.529016, 0.522491, 0.486912, 0.518230, 0.522143, 0.522274
Process 44: 0.985157, 0.734602, 0.507317, 0.524207, 0.533145, 0.505042, 0.506744, 0.521139, 0.517908, 0.781415, 0.517756, 0.593438, 0.604713, 0.565061, 0.505278, 0.521842, 0.530501, 0.523806, 0.523061, 0.556466, 0.526424, 0.523169, 0.518908, 0.531595, 0.529679, 0.523508, 0.490660, 0.519315, 0.523055, 0.523964
Process 45: 0.992779, 0.738940, 0.512158, 0.529329, 0.543941, 0.510144, 0.511773, 0.526271, 0.522920, 0.786252, 0.522665, 0.598158, 0.609833, 0.570080, 0.510277, 0.530723, 0.538917, 0.534185, 0.526493, 0.561294, 0.530738, 0.532188, 0.529631, 0.541827, 0.539613, 0.527417, 0.495392, 0.528209, 0.532609, 0.534347
Process 46: 0.999446, 0.743158, 0.515868, 0.533208, 0.545102, 0.514208, 0.515771, 0.530218, 0.526865, 0.790057, 0.526523, 0.602201, 0.613890, 0.574169, 0.514269, 0.532835, 0.541771, 0.535271, 0.530306, 0.565044, 0.534388, 0.534579, 0.530740, 0.543782, 0.541183, 0.531108, 0.499097, 0.530842, 0.533231, 0.535664
Process 47: 1.006946, 0.747399, 0.520600, 0.538195, 0.555034, 0.519273, 0.520712, 0.535297, 0.531845, 0.794825, 0.531330, 0.607280, 0.618979, 0.579160, 0.519205, 0.543180, 0.552005, 0.541879, 0.535061, 0.569787, 0.539246, 0.545001, 0.539018, 0.551469, 0.551897, 0.535813, 0.503805, 0.541494, 0.538110, 0.545931
Process 48: 1.013834, 0.751786, 0.524344, 0.542081, 0.556309, 0.523391, 0.524863, 0.539300, 0.535854, 0.798593, 0.535165, 0.611341, 0.623083, 0.583292, 0.523267, 0.544226, 0.553219, 0.544032, 0.538710, 0.573399, 0.542970, 0.546254, 0.541487, 0.553148, 0.552562, 0.539489, 0.507454, 0.542497, 0.541787, 0.547248
Process 49: 1.021529, 0.756046, 0.529124, 0.546978, 0.566062, 0.528451, 0.531827, 0.544340, 0.540791, 0.803350, 0.539989, 0.616369, 0.633660, 0.588385, 0.531872, 0.551135, 0.562336, 0.548686, 0.543362, 0.578082, 0.547647, 0.556051, 0.551080, 0.562802, 0.562756, 0.544152, 0.512126, 0.551280, 0.546487, 0.556863
Process 50: 1.027996, 0.760334, 0.532941, 0.550970, 0.567173, 0.532701, 0.534371, 0.548522, 0.544914, 0.807196, 0.543895, 0.620503, 0.634667, 0.592586, 0.533397, 0.552967, 0.563796, 0.552453, 0.547192, 0.581832, 0.551364, 0.557051, 0.552576, 0.564526, 0.563402, 0.547914, 0.515892, 0.552246, 0.550208, 0.557832
Process 51: 1.035729, 0.764642, 0.537676, 0.555800, 0.576079, 0.539113, 0.539402, 0.553587, 0.549880, 0.811948, 0.548672, 0.625474, 0.643239, 0.598836, 0.538376, 0.557615, 0.572442, 0.557107, 0.551801, 0.586475, 0.555990, 0.563722, 0.562102, 0.571736, 0.572687, 0.552531, 0.523016, 0.561231, 0.554843, 0.566184
Process 52: 1.042113, 0.768959, 0.541470, 0.559794, 0.577118, 0.542914, 0.543657, 0.557786, 0.554070, 0.815781, 0.552511, 0.629566, 0.644228, 0.602225, 0.542523, 0.561369, 0.573728, 0.560838, 0.555544, 0.590207, 0.559736, 0.564523, 0.563103, 0.573525, 0.573337, 0.556296, 0.525079, 0.562191, 0.558567, 0.568238
Process 53: 1.049656, 0.773281, 0.546194, 0.565831, 0.585924, 0.548014, 0.548673, 0.564991, 0.559108, 0.820578, 0.557310, 0.634520, 0.652993, 0.607336, 0.547560, 0.565980, 0.582581, 0.565478, 0.560165, 0.594854, 0.564389, 0.569158, 0.570793, 0.581066, 0.582253, 0.560951, 0.529716, 0.571172, 0.563232, 0.577809
Process 54: 1.056324, 0.777676, 0.550023, 0.568549, 0.586947, 0.552251, 0.552886, 0.567665, 0.563251, 0.824389, 0.561092, 0.638605, 0.654034, 0.611578, 0.551768, 0.569702, 0.583701, 0.569965, 0.563853, 0.598567, 0.568095, 0.572860, 0.571807, 0.582756, 0.582894, 0.564653, 0.533443, 0.572168, 0.566912, 0.578949
Process 55: 1.063903, 0.783114, 0.554778, 0.573413, 0.596393, 0.557413, 0.557993, 0.572781, 0.568353, 0.829187, 0.565875, 0.643579, 0.662663, 0.616740, 0.556851, 0.574385, 0.593061, 0.573834, 0.568555, 0.603226, 0.572765, 0.577524, 0.580371, 0.591555, 0.591573, 0.569311, 0.538115, 0.580861, 0.571603, 0.586929
Process 56: 1.070739, 0.786614, 0.558701, 0.577367, 0.597387, 0.561741, 0.562267, 0.577066, 0.572603, 0.833059, 0.569778, 0.647700, 0.663672, 0.621061, 0.561131, 0.578136, 0.594290, 0.577642, 0.572293, 0.606992, 0.576507, 0.581302, 0.581399, 0.593227, 0.592161, 0.573072, 0.541865, 0.581953, 0.575351, 0.587886
Process 57: 1.081030, 0.791015, 0.563484, 0.582214, 0.606411, 0.566850, 0.567439, 0.582217, 0.583241, 0.837814, 0.574563, 0.652609, 0.672108, 0.626204, 0.566248, 0.582784, 0.603297, 0.582237, 0.576953, 0.611631, 0.581171, 0.585947, 0.590058, 0.600505, 0.597074, 0.577713, 0.546493, 0.591370, 0.580010, 0.596287
Process 58: 1.085042, 0.795421, 0.567417, 0.586172, 0.607449, 0.571169, 0.571744, 0.586540, 0.584286, 0.841753, 0.578468, 0.656713, 0.673129, 0.630496, 0.570587, 0.586545, 0.604577, 0.586057, 0.580704, 0.615405, 0.584931, 0.589695, 0.591047, 0.602206, 0.601157, 0.581460, 0.550268, 0.592496, 0.583769, 0.597272
Process 59: 1.092501, 0.799789, 0.572201, 0.590920, 0.613871, 0.576208, 0.576881, 0.591662, 0.592972, 0.846539, 0.583238, 0.661575, 0.681842, 0.635587, 0.575652, 0.591144, 0.613312, 0.590534, 0.585310, 0.620010, 0.589551, 0.594307, 0.599019, 0.609252, 0.606000, 0.586073, 0.554859, 0.601219, 0.588367, 0.605793
Process 60: 1.099154, 0.804194, 0.576138, 0.594784, 0.615819, 0.580456, 0.581185, 0.595933, 0.593938, 0.850438, 0.587087, 0.665607, 0.682830, 0.639819, 0.579548, 0.594863, 0.614379, 0.594394, 0.589043, 0.623736, 0.593266, 0.598026, 0.600072, 0.610897, 0.609831, 0.589789, 0.558582, 0.602293, 0.592097, 0.606970
Process 61: 1.106925, 0.808695, 0.581001, 0.599607, 0.620944, 0.585534, 0.586331, 0.601067, 0.602239, 0.855284, 0.591884, 0.670483, 0.691236, 0.644940, 0.584244, 0.599549, 0.618430, 0.599028, 0.593689, 0.628408, 0.597923, 0.602708, 0.607658, 0.618131, 0.614728, 0.594448, 0.563237, 0.610545, 0.596752, 0.613090
Process 62: 1.113482, 0.813206, 0.585029, 0.603528, 0.625154, 0.589825, 0.590664, 0.605406, 0.603219, 0.859310, 0.595880, 0.674543, 0.692298, 0.649235, 0.588035, 0.603313, 0.622321, 0.602857, 0.597534, 0.632151, 0.601697, 0.606472, 0.608653, 0.619793, 0.618616, 0.598216, 0.567019, 0.611510, 0.600526, 0.614562
Process 63: 1.119516, 0.817621, 0.589822, 0.608235, 0.630089, 0.594775, 0.595740, 0.610424, 0.611601, 0.864106, 0.600594, 0.679334, 0.700704, 0.654211, 0.592601, 0.607869, 0.626907, 0.607347, 0.602007, 0.636713, 0.606225, 0.611002, 0.616392, 0.627172, 0.623177, 0.602750, 0.571545, 0.619690, 0.605067, 0.619097
