MPI_insiderank_serial
Process 0: 10.462171, 10.110579, 10.091415, 10.073466, 9.994942, 10.074607, 9.988295, 10.003600, 10.052219, 10.046611, 9.999903, 10.142846, 9.984784, 10.041107, 10.067170, 10.044380, 10.017568, 10.087885, 9.978342, 10.008850, 10.056043, 10.037266, 9.977104, 10.060515, 9.981079, 9.967167, 9.986917, 10.001919, 9.991874, 10.005284
Process 1: 10.464400, 10.113422, 10.097473, 10.079376, 10.001122, 10.082433, 9.996681, 10.011924, 10.060372, 10.054888, 10.008084, 10.150962, 9.992846, 10.048970, 10.075171, 10.052416, 10.025243, 10.095886, 9.986490, 10.016821, 10.064285, 10.043928, 9.984476, 10.067987, 9.988433, 9.976015, 9.994437, 10.009588, 9.999553, 10.015183
