MPI_insiderank_openmp_handopt_ssa
Process 0: 1.665562, 1.546852, 1.556271, 1.453141, 1.577010, 1.641991, 1.583996, 1.502878, 1.546873, 1.533553, 1.464454, 1.564492, 1.548891, 1.529994, 1.552903, 1.553217, 1.565824, 1.490021, 1.488078, 1.531988, 1.477944, 1.440034, 1.542637, 1.549106, 1.539614, 1.453519, 1.534775, 1.556961, 1.550680, 1.544856
Process 1: 1.526180, 1.403011, 1.420699, 1.325290, 1.406155, 1.408424, 1.446616, 1.370239, 1.413411, 1.399051, 1.324305, 1.422343, 1.411603, 1.407150, 1.411487, 1.411529, 1.396116, 1.354679, 1.350654, 1.394012, 1.341907, 1.298293, 1.415235, 1.406517, 1.402394, 1.312259, 1.408363, 1.396178, 1.407470, 1.399667
Process 2: 1.539768, 1.419058, 1.431005, 1.336169, 1.421783, 1.424744, 1.457477, 1.384445, 1.428321, 1.416432, 1.340182, 1.438673, 1.428219, 1.419698, 1.429429, 1.427485, 1.411541, 1.369813, 1.369127, 1.410595, 1.351283, 1.314504, 1.427530, 1.422341, 1.415570, 1.327181, 1.424928, 1.407252, 1.423303, 1.414848
Process 3: 1.560448, 1.440790, 1.451613, 1.366059, 1.443148, 1.444103, 1.478564, 1.405469, 1.447932, 1.434628, 1.357950, 1.458979, 1.446034, 1.441649, 1.445469, 1.447061, 1.429381, 1.389898, 1.387366, 1.430637, 1.370899, 1.334199, 1.446957, 1.442247, 1.433539, 1.346676, 1.439863, 1.428016, 1.443067, 1.434617
Process 4: 1.570336, 1.451480, 1.462127, 1.377314, 1.453483, 1.454947, 1.489793, 1.417138, 1.459992, 1.444965, 1.371364, 1.469114, 1.459380, 1.453108, 1.458918, 1.458134, 1.441806, 1.399362, 1.400565, 1.443724, 1.384713, 1.346210, 1.459533, 1.454898, 1.448093, 1.358929, 1.454867, 1.440176, 1.456521, 1.447157
Process 5: 1.588162, 1.468350, 1.479587, 1.388145, 1.475512, 1.471657, 1.506058, 1.434445, 1.472580, 1.461697, 1.387038, 1.485228, 1.475467, 1.469523, 1.474357, 1.473799, 1.457448, 1.414710, 1.415278, 1.459146, 1.399410, 1.360896, 1.476125, 1.469664, 1.462522, 1.374870, 1.466871, 1.455576, 1.472905, 1.463273
Process 6: 1.596193, 1.477914, 1.488347, 1.392456, 1.486517, 1.480875, 1.515642, 1.439947, 1.482439, 1.471064, 1.402841, 1.495641, 1.486589, 1.474895, 1.484302, 1.483762, 1.472841, 1.424201, 1.425834, 1.469378, 1.409772, 1.372458, 1.481575, 1.479743, 1.471900, 1.384238, 1.477421, 1.470366, 1.482151, 1.474561
Process 7: 1.611961, 1.493705, 1.504473, 1.405680, 1.511558, 1.496089, 1.530861, 1.449439, 1.494443, 1.486248, 1.413935, 1.510816, 1.501787, 1.484475, 1.499401, 1.498586, 1.493574, 1.439297, 1.440959, 1.484442, 1.424670, 1.387140, 1.490753, 1.494492, 1.487050, 1.399047, 1.488623, 1.488219, 1.497401, 1.491280
Process 8: 1.622358, 1.502954, 1.513118, 1.413321, 1.523362, 1.505360, 1.540754, 1.459088, 1.503311, 1.496273, 1.421814, 1.520875, 1.512000, 1.490529, 1.509687, 1.508718, 1.504915, 1.447534, 1.450736, 1.494526, 1.434034, 1.396859, 1.498820, 1.506657, 1.497643, 1.408878, 1.497635, 1.500786, 1.507142, 1.500904
Process 9: 1.642630, 1.524653, 1.534037, 1.433217, 1.551821, 1.526684, 1.561340, 1.479501, 1.522677, 1.514264, 1.442147, 1.541929, 1.529509, 1.509830, 1.530372, 1.530082, 1.538142, 1.467680, 1.468909, 1.512833, 1.453877, 1.418061, 1.518583, 1.526565, 1.517315, 1.429895, 1.515579, 1.529413, 1.528516, 1.522064
Process 10: 1.650520, 1.531486, 1.541198, 1.437662, 1.563063, 1.534444, 1.569459, 1.488398, 1.531918, 1.522756, 1.449707, 1.549737, 1.538136, 1.515521, 1.538023, 1.538501, 1.548870, 1.475189, 1.477292, 1.520917, 1.463271, 1.425132, 1.527903, 1.534231, 1.524800, 1.438702, 1.524485, 1.540264, 1.536471, 1.530388
Process 11: 1.666608, 1.547834, 1.557282, 1.454064, 1.578125, 1.643493, 1.585017, 1.503800, 1.547896, 1.534531, 1.465356, 1.565530, 1.549868, 1.530962, 1.553881, 1.554151, 1.566813, 1.491105, 1.489024, 1.533051, 1.478927, 1.441067, 1.543618, 1.550185, 1.540511, 1.454438, 1.535732, 1.557974, 1.551741, 1.545991
