MPI_insiderank_openmp_handopt_ssa
Process 0: 57.067262, 56.301473, 54.922280, 55.075856, 54.894445, 54.826350, 55.253165, 56.178843, 55.313134, 54.765028, 53.744954, 54.494195, 56.137354, 54.437864, 54.564018, 54.705309, 54.937945, 54.553075, 55.674042, 54.612989, 54.839137, 54.389402, 54.836333, 54.829734, 56.784227, 55.641453, 55.368692, 54.984286, 54.792706, 58.710590
Process 1: 57.073236, 56.307687, 54.928501, 55.082139, 54.899739, 54.832973, 55.258212, 56.183653, 55.319333, 54.770282, 53.749740, 54.502616, 56.142384, 54.443424, 54.569035, 54.714401, 54.943560, 54.559158, 55.680308, 54.621163, 54.844690, 54.394920, 54.841844, 54.834909, 56.795073, 55.647612, 55.373902, 54.989577, 54.798496, 58.718960
