mpi_trmm_opt3
Process 0: 62.173008, 62.256049, 61.735945, 61.606530, 61.571319, 61.608995, 61.614478, 61.671279, 61.648144, 61.637359, 61.540378, 61.539806, 61.556198, 61.589476, 61.605800, 61.637022, 61.509573, 61.544954, 61.382602, 61.410259, 61.412733, 61.525441, 61.520749, 61.459650, 61.361084, 61.416938, 61.411144, 61.468157, 61.390570, 61.474128
Process 1: 61.414899, 61.550356, 61.069252, 60.967085, 60.902744, 60.917097, 60.925155, 60.970860, 60.932627, 60.962353, 60.881149, 60.881412, 60.866574, 60.883614, 60.859667, 60.873722, 60.780652, 60.822548, 60.665013, 60.684676, 60.661458, 60.769325, 60.773164, 60.728421, 60.646520, 60.686951, 60.698923, 60.730556, 60.660829, 60.739496
Process 2: 61.423692, 61.559495, 61.077051, 60.975006, 60.910656, 60.925850, 60.934118, 60.979812, 60.941459, 60.970199, 60.889081, 60.889342, 60.875296, 60.892600, 60.868605, 60.882711, 60.788431, 60.830819, 60.672889, 60.693020, 60.670405, 60.778269, 60.781960, 60.736700, 60.654631, 60.694836, 60.707147, 60.739690, 60.669739, 60.748324
Process 3: 61.437285, 61.572042, 61.089557, 60.986978, 60.922416, 60.937843, 60.946129, 60.992055, 60.954022, 60.982484, 60.900818, 60.900811, 60.886970, 60.904385, 60.883291, 60.897581, 60.802461, 60.844811, 60.686454, 60.706555, 60.683817, 60.791672, 60.795709, 60.750396, 60.667690, 60.708017, 60.720305, 60.752359, 60.682834, 60.761679
Process 4: 61.446143, 61.581047, 61.097379, 60.994950, 60.930330, 60.946535, 60.955054, 61.001009, 60.962971, 60.990355, 60.908761, 60.908737, 60.895642, 60.913343, 60.892396, 60.906497, 60.810196, 60.853059, 60.694382, 60.714931, 60.692757, 60.800608, 60.804805, 60.758704, 60.675589, 60.715908, 60.728482, 60.761249, 60.691811, 60.770784
Process 5: 61.459832, 61.593595, 61.109452, 61.006898, 60.942132, 60.958597, 60.966834, 61.012918, 60.974937, 61.002074, 60.920310, 60.920032, 60.907280, 60.925094, 60.904346, 60.920348, 60.824850, 60.867266, 60.708062, 60.728444, 60.706268, 60.814079, 60.818135, 60.771816, 60.688760, 60.729158, 60.741645, 60.773993, 60.704915, 60.783873
Process 6: 61.468662, 61.602613, 61.117307, 61.014830, 60.950019, 60.967310, 60.975782, 61.021862, 60.983927, 61.010144, 60.928220, 60.927966, 60.915995, 60.934034, 60.913337, 60.929141, 60.832886, 60.875671, 60.715928, 60.736634, 60.715233, 60.822990, 60.827040, 60.780182, 60.696677, 60.737020, 60.749838, 60.782881, 60.713838, 60.792807
Process 7: 61.482245, 61.615066, 61.129333, 61.026637, 60.961774, 60.979304, 60.987757, 61.034111, 60.996006, 61.022927, 60.939925, 60.939413, 60.927688, 60.945822, 60.927175, 60.942967, 60.846459, 60.890289, 60.729475, 60.750089, 60.728675, 60.836362, 60.840386, 60.793262, 60.709687, 60.750215, 60.762952, 60.795567, 60.727756, 60.805819
Process 8: 61.492415, 61.625267, 61.138441, 61.035832, 60.971114, 60.989376, 60.997948, 61.044252, 61.006169, 61.032054, 60.949607, 60.948625, 60.938728, 60.955971, 60.937307, 60.953189, 60.856023, 60.900198, 60.739256, 60.760014, 60.738808, 60.846547, 60.850504, 60.802823, 60.719106, 60.760003, 60.772885, 60.805673, 60.737915, 60.815944
Process 9: 61.506181, 61.637831, 61.150516, 61.047673, 60.982975, 61.001506, 61.009961, 61.056490, 61.018438, 61.043612, 60.961303, 60.960086, 60.950541, 60.967849, 60.949406, 60.965201, 60.869783, 60.913995, 60.752963, 60.773576, 60.752358, 60.860105, 60.863879, 60.816001, 60.732307, 60.773289, 60.786076, 60.818377, 60.751030, 60.829074
Process 10: 61.516396, 61.647947, 61.159513, 61.056339, 60.992148, 61.011484, 61.019995, 61.066550, 61.028501, 61.052629, 60.970321, 60.969096, 60.960364, 60.977923, 60.959465, 60.975343, 60.879155, 60.923746, 60.762576, 60.783380, 60.762563, 60.870305, 60.873925, 60.825474, 60.741579, 60.782930, 60.796104, 60.828387, 60.761253, 60.839120
Process 11: 61.530800, 61.661177, 61.171565, 61.067712, 61.003841, 61.023722, 61.032310, 61.079204, 61.040454, 61.063955, 60.981879, 60.980678, 60.972614, 60.990266, 60.973291, 60.989093, 60.892705, 60.937343, 60.776713, 60.796845, 60.776513, 60.884195, 60.887168, 60.838611, 60.755040, 60.796696, 60.809665, 60.841982, 60.774969, 60.852058
Process 12: 61.541353, 61.671787, 61.180789, 61.076429, 61.013526, 61.033889, 61.042577, 61.089699, 61.050719, 61.073120, 60.991114, 60.990072, 60.982707, 61.000566, 60.983603, 60.999504, 60.902392, 60.947406, 60.786646, 60.807056, 60.786819, 60.894960, 60.897567, 60.848270, 60.764586, 60.806655, 60.820399, 60.852237, 60.785528, 60.862516
Process 13: 61.555403, 61.684243, 61.193195, 61.088034, 61.025641, 61.046022, 61.054576, 61.103094, 61.064694, 61.085586, 61.004162, 61.003816, 60.996716, 61.014517, 60.997901, 61.013841, 60.915951, 60.959005, 60.798158, 60.821905, 60.801050, 60.909123, 60.912142, 60.862830, 60.777807, 60.819759, 60.833511, 60.865293, 60.798483, 60.876064
Process 14: 61.565336, 61.694263, 61.202725, 61.096560, 61.034825, 61.055986, 61.064552, 61.113092, 61.074967, 61.094595, 61.013254, 61.013096, 61.006673, 61.024648, 61.008416, 61.023805, 60.925766, 60.968828, 60.808027, 60.831745, 60.811031, 60.919120, 60.922636, 60.872336, 60.787112, 60.829459, 60.843370, 60.875246, 60.808941, 60.886327
Process 15: 61.579460, 61.708220, 61.215256, 61.108287, 61.047455, 61.068782, 61.077303, 61.125837, 61.087753, 61.107198, 61.025490, 61.025302, 61.019272, 61.037258, 61.022708, 61.038102, 60.940279, 60.981103, 60.821243, 60.844738, 60.824625, 60.933524, 60.936109, 60.886440, 60.800118, 60.843570, 60.856598, 60.889165, 60.822210, 60.900229
Process 16: 61.589696, 61.717576, 61.224401, 61.116996, 61.056855, 61.078963, 61.087585, 61.136083, 61.097979, 61.116305, 61.034737, 61.034492, 61.029368, 61.047552, 61.032846, 61.048287, 60.949909, 60.991376, 60.831121, 60.854689, 60.834865, 60.943646, 60.946963, 60.896049, 60.809586, 60.853443, 60.866579, 60.899343, 60.832478, 60.910450
Process 17: 61.603749, 61.729902, 61.236543, 61.128563, 61.068859, 61.090983, 61.099510, 61.148034, 61.111103, 61.136048, 61.046685, 61.046168, 61.040987, 61.059069, 61.047117, 61.062758, 60.963977, 61.006543, 60.844574, 60.868685, 60.848684, 60.957395, 60.961597, 60.909669, 60.823054, 60.866866, 60.879935, 60.912665, 60.845668, 60.923584
Process 18: 61.613525, 61.741142, 61.246112, 61.136856, 61.078559, 61.101239, 61.109965, 61.158454, 61.120965, 61.145097, 61.056221, 61.055583, 61.050813, 61.069704, 61.056983, 61.072586, 60.973442, 61.016372, 60.854174, 60.878359, 60.858524, 60.967230, 60.971605, 60.919082, 60.832164, 60.876413, 60.889601, 60.922619, 60.855934, 60.933422
Process 19: 61.627802, 61.755202, 61.259274, 61.148933, 61.091272, 61.115100, 61.123490, 61.172053, 61.133708, 61.158234, 61.069453, 61.067766, 61.063494, 61.083209, 61.069515, 61.085128, 60.987674, 61.028615, 60.867435, 60.891385, 60.872800, 60.980280, 60.984774, 60.933474, 60.845271, 60.890886, 60.902974, 60.936950, 60.870464, 60.947415
Process 20: 61.638220, 61.764460, 61.268674, 61.158024, 61.100331, 61.125131, 61.133619, 61.182149, 61.143883, 61.167346, 61.078571, 61.077407, 61.074182, 61.093374, 61.079625, 61.095235, 60.996684, 61.038209, 60.876505, 60.901187, 60.883419, 60.990678, 60.994872, 60.942980, 60.855139, 60.900434, 60.912453, 60.947435, 60.880547, 60.957507
Process 21: 61.653388, 61.776301, 61.281672, 61.171235, 61.112335, 61.136656, 61.145055, 61.193516, 61.156966, 61.179015, 61.089786, 61.089080, 61.086812, 61.107266, 61.093898, 61.110203, 61.008052, 61.051642, 60.888351, 60.913109, 60.898662, 61.006115, 61.008648, 60.957489, 60.870329, 60.915461, 60.925146, 60.962291, 60.894419, 60.971825
Process 22: 61.663106, 61.786221, 61.290533, 61.179530, 61.121884, 61.146562, 61.155028, 61.203458, 61.166807, 61.188484, 61.098789, 61.098620, 61.096808, 61.117261, 61.104073, 61.120367, 61.017539, 61.061309, 60.897987, 60.923470, 60.908824, 61.015948, 61.018449, 60.967380, 60.879845, 60.924228, 60.934852, 60.972317, 60.904281, 60.981937
Process 23: 61.677366, 61.799794, 61.302640, 61.191311, 61.134459, 61.159114, 61.167540, 61.215910, 61.180519, 61.202855, 61.110666, 61.110742, 61.109173, 61.129647, 61.119322, 61.135787, 61.032630, 61.073556, 60.912698, 60.937209, 60.923483, 61.030408, 61.031547, 60.982532, 60.893926, 60.938385, 60.947796, 60.985776, 60.917172, 60.996878
Process 24: 61.687553, 61.809147, 61.311747, 61.199942, 61.143926, 61.169248, 61.177759, 61.226133, 61.190728, 61.211971, 61.119855, 61.119919, 61.119265, 61.139878, 61.129645, 61.145903, 61.042357, 61.083562, 60.922563, 60.947164, 60.934311, 61.040539, 61.041722, 60.992377, 60.903520, 60.948229, 60.957750, 60.995879, 60.927370, 61.007063
Process 25: 61.701604, 61.821931, 61.323315, 61.211493, 61.155949, 61.180793, 61.189194, 61.237521, 61.202064, 61.224424, 61.131108, 61.131656, 61.130589, 61.151308, 61.143934, 61.160228, 61.056441, 61.097709, 60.936649, 60.960556, 60.949183, 61.054323, 61.054875, 61.006007, 60.916485, 60.961679, 60.970607, 61.008615, 60.940036, 61.020170
Process 26: 61.711419, 61.830945, 61.332184, 61.219792, 61.165626, 61.190650, 61.199136, 61.247404, 61.211980, 61.233265, 61.140093, 61.140987, 61.140440, 61.161389, 61.153769, 61.170060, 61.065304, 61.107421, 60.945496, 60.969637, 60.959027, 61.064148, 61.065044, 61.015505, 60.926038, 60.971204, 60.979700, 61.018532, 60.949952, 61.029964
Process 27: 61.725638, 61.843632, 61.344269, 61.231551, 61.178228, 61.203184, 61.211651, 61.259866, 61.225050, 61.245205, 61.151962, 61.153169, 61.152757, 61.173767, 61.168164, 61.184336, 61.079424, 61.122601, 60.959529, 60.983085, 60.972974, 61.078074, 61.079821, 61.029090, 60.939085, 60.984880, 60.992906, 61.031674, 60.963108, 61.043521
Process 28: 61.735660, 61.854040, 61.353286, 61.240107, 61.187460, 61.213392, 61.221978, 61.270179, 61.235143, 61.254220, 61.161072, 61.162205, 61.162659, 61.184216, 61.178200, 61.194405, 61.088953, 61.132378, 60.969296, 60.992934, 60.983127, 61.088192, 61.089923, 61.038628, 60.948442, 60.994675, 61.002779, 61.041746, 60.973540, 61.053610
Process 29: 61.749662, 61.868383, 61.364835, 61.251623, 61.199469, 61.226373, 61.234800, 61.283159, 61.246468, 61.266561, 61.172798, 61.173941, 61.173981, 61.196844, 61.192548, 61.208746, 61.103043, 61.146487, 60.983327, 61.006302, 60.996994, 61.101955, 61.103583, 61.052217, 60.961380, 61.008073, 61.015620, 61.054485, 60.987677, 61.066740
Process 30: 61.760138, 61.877388, 61.373717, 61.259961, 61.209330, 61.236349, 61.244880, 61.293074, 61.256390, 61.275415, 61.182093, 61.183399, 61.183890, 61.206809, 61.202403, 61.218724, 61.111902, 61.155795, 60.992445, 61.015976, 61.006867, 61.112414, 61.113423, 61.061650, 60.971092, 61.017984, 61.025815, 61.064623, 60.997874, 61.076627
Process 31: 61.775236, 61.890104, 61.386854, 61.271956, 61.221891, 61.248871, 61.257396, 61.306108, 61.269465, 61.287949, 61.196235, 61.196629, 61.198908, 61.220278, 61.216191, 61.232447, 61.125340, 61.170133, 61.006666, 61.029545, 61.020958, 61.127521, 61.127376, 61.075403, 60.983647, 61.032255, 61.040036, 61.078730, 61.010741, 61.089875
Process 32: 61.786042, 61.900335, 61.395981, 61.281153, 61.231279, 61.259069, 61.267636, 61.316243, 61.279900, 61.296994, 61.205329, 61.205653, 61.208883, 61.230514, 61.227251, 61.243675, 61.135597, 61.180075, 61.017260, 61.040096, 61.031146, 61.137699, 61.137576, 61.085322, 60.993207, 61.042330, 61.050186, 61.088890, 61.020918, 61.100387
Process 33: 61.800190, 61.912661, 61.408850, 61.294942, 61.243887, 61.271035, 61.279560, 61.328076, 61.294683, 61.309858, 61.217026, 61.217813, 61.220974, 61.241982, 61.240022, 61.258948, 61.151221, 61.194827, 61.032918, 61.055580, 61.045647, 61.152106, 61.151927, 61.100555, 61.008612, 61.056458, 61.064225, 61.102770, 61.034130, 61.115262
Process 34: 61.810588, 61.922530, 61.417723, 61.303243, 61.253038, 61.280885, 61.289414, 61.337928, 61.304527, 61.318713, 61.225931, 61.226580, 61.230818, 61.252010, 61.249843, 61.269720, 61.161845, 61.204705, 61.043018, 61.065647, 61.056419, 61.161993, 61.161774, 61.110002, 61.018093, 61.066267, 61.074050, 61.112659, 61.043982, 61.125121
Process 35: 61.824540, 61.935439, 61.430541, 61.315333, 61.265915, 61.293590, 61.302101, 61.350553, 61.318382, 61.331218, 61.238051, 61.239001, 61.243596, 61.264496, 61.264702, 61.284961, 61.176903, 61.219208, 61.057428, 61.080041, 61.071262, 61.176215, 61.176018, 61.123955, 61.032129, 61.080274, 61.088008, 61.126530, 61.057415, 61.138907
Process 36: 61.835117, 61.945626, 61.439578, 61.323867, 61.275402, 61.303732, 61.312226, 61.360702, 61.328576, 61.340262, 61.247156, 61.248052, 61.253745, 61.274659, 61.274725, 61.295258, 61.187549, 61.230166, 61.067454, 61.090122, 61.081907, 61.186367, 61.187162, 61.133506, 61.041880, 61.090316, 61.098015, 61.136614, 61.067562, 61.149040
Process 37: 61.849009, 61.957737, 61.452191, 61.335664, 61.287797, 61.315517, 61.323981, 61.372302, 61.342020, 61.352371, 61.258661, 61.260057, 61.265743, 61.288808, 61.289496, 61.310842, 61.200038, 61.244541, 61.080296, 61.102104, 61.097801, 61.201121, 61.202494, 61.147970, 61.056372, 61.104603, 61.110078, 61.150571, 61.080783, 61.162828
Process 38: 61.859264, 61.967862, 61.461058, 61.343928, 61.296910, 61.325330, 61.333811, 61.382354, 61.351875, 61.361975, 61.267545, 61.268798, 61.275559, 61.299091, 61.299491, 61.321474, 61.209753, 61.255075, 61.090115, 61.111943, 61.108289, 61.211001, 61.212988, 61.157397, 61.065741, 61.114446, 61.119886, 61.160387, 61.090871, 61.172659
Process 39: 61.873618, 61.982049, 61.473908, 61.356046, 61.310113, 61.339277, 61.347844, 61.397225, 61.365726, 61.376514, 61.280641, 61.282708, 61.290051, 61.314556, 61.313709, 61.336154, 61.223738, 61.267889, 61.102392, 61.126667, 61.123530, 61.225588, 61.226219, 61.170119, 61.078169, 61.126753, 61.134195, 61.174636, 61.105643, 61.186041
Process 40: 61.885074, 61.992223, 61.482953, 61.364585, 61.319912, 61.349453, 61.357988, 61.407367, 61.375886, 61.385563, 61.289727, 61.292181, 61.300330, 61.324734, 61.323867, 61.346783, 61.233395, 61.277925, 61.112393, 61.136638, 61.134236, 61.236513, 61.237645, 61.179692, 61.087657, 61.137469, 61.144657, 61.185588, 61.115761, 61.196229
Process 41: 61.899507, 62.005831, 61.496589, 61.376393, 61.333175, 61.361868, 61.369677, 61.419689, 61.388119, 61.398293, 61.302570, 61.305531, 61.313318, 61.336676, 61.338697, 61.362505, 61.247834, 61.289823, 61.126284, 61.149424, 61.148878, 61.252243, 61.251269, 61.194224, 61.101050, 61.152462, 61.159201, 61.200430, 61.128878, 61.210333
Process 42: 61.910459, 62.014860, 61.506244, 61.384695, 61.342264, 61.371696, 61.379513, 61.430398, 61.398266, 61.407148, 61.311498, 61.314285, 61.322885, 61.346685, 61.349960, 61.373172, 61.257562, 61.299689, 61.136448, 61.159656, 61.158736, 61.262342, 61.261125, 61.204101, 61.110848, 61.162877, 61.169010, 61.210825, 61.138722, 61.220642
Process 43: 61.924865, 62.028088, 61.519637, 61.397062, 61.354715, 61.384703, 61.392069, 61.443317, 61.412941, 61.419212, 61.323935, 61.326301, 61.335139, 61.359399, 61.365162, 61.388299, 61.269837, 61.313551, 61.150643, 61.172992, 61.171437, 61.277118, 61.275798, 61.219556, 61.126357, 61.177837, 61.181089, 61.226092, 61.152844, 61.235579
Process 44: 61.936203, 62.038315, 61.529201, 61.406237, 61.364106, 61.394822, 61.402193, 61.453459, 61.423090, 61.428205, 61.333012, 61.335336, 61.344573, 61.369544, 61.375894, 61.398968, 61.278872, 61.323063, 61.159930, 61.182932, 61.181563, 61.287054, 61.285832, 61.229658, 61.136948, 61.188494, 61.190385, 61.236212, 61.162978, 61.245707
Process 45: 61.951219, 62.051152, 61.542477, 61.419390, 61.375999, 61.407347, 61.414009, 61.467140, 61.436746, 61.441022, 61.346513, 61.348092, 61.358358, 61.383897, 61.390687, 61.414134, 61.292873, 61.335085, 61.171329, 61.197626, 61.196277, 61.301689, 61.298115, 61.241654, 61.149741, 61.201209, 61.204119, 61.250519, 61.176560, 61.258746
Process 46: 61.961574, 62.061046, 61.551900, 61.428274, 61.385021, 61.417855, 61.423837, 61.476953, 61.446542, 61.449865, 61.355687, 61.357706, 61.368183, 61.393879, 61.400815, 61.424132, 61.302338, 61.344260, 61.180897, 61.207329, 61.206077, 61.311499, 61.307921, 61.251040, 61.158568, 61.210274, 61.213719, 61.260336, 61.186371, 61.268550
Process 47: 61.975628, 62.075103, 61.565229, 61.441428, 61.397478, 61.431932, 61.436482, 61.489909, 61.459408, 61.462634, 61.368168, 61.369760, 61.380355, 61.406653, 61.416694, 61.438840, 61.317931, 61.358754, 61.194720, 61.221613, 61.220466, 61.325747, 61.322145, 61.264944, 61.172556, 61.224212, 61.227162, 61.274213, 61.200191, 61.282377
Process 48: 61.986234, 62.084796, 61.574544, 61.450187, 61.406822, 61.442036, 61.446651, 61.500385, 61.469585, 61.471674, 61.377251, 61.378795, 61.389716, 61.417271, 61.427272, 61.448940, 61.328243, 61.369071, 61.204678, 61.231637, 61.230666, 61.335891, 61.332741, 61.274484, 61.182033, 61.234227, 61.237193, 61.284353, 61.210703, 61.292514
Process 49: 62.000269, 62.098683, 61.586358, 61.462008, 61.418635, 61.453870, 61.460240, 61.515088, 61.483075, 61.485899, 61.390536, 61.391364, 61.403360, 61.432565, 61.441885, 61.462941, 61.343231, 61.384764, 61.218716, 61.246264, 61.245165, 61.350380, 61.348210, 61.288738, 61.195502, 61.247738, 61.249962, 61.297614, 61.224945, 61.305771
Process 50: 62.010501, 62.108536, 61.595262, 61.470241, 61.427913, 61.463689, 61.470103, 61.525109, 61.492928, 61.494784, 61.399417, 61.400103, 61.412677, 61.442565, 61.451913, 61.472736, 61.353101, 61.395291, 61.228529, 61.256044, 61.255933, 61.361135, 61.358084, 61.298134, 61.205045, 61.257552, 61.259988, 61.307406, 61.234946, 61.315609
Process 51: 62.024566, 62.122224, 61.607570, 61.482319, 61.441586, 61.476352, 61.482790, 61.537681, 61.505770, 61.508080, 61.412776, 61.413013, 61.426198, 61.455312, 61.466654, 61.487386, 61.367490, 61.408089, 61.241961, 61.269309, 61.270747, 61.376732, 61.371820, 61.312659, 61.218351, 61.271972, 61.274452, 61.321748, 61.247930, 61.329759
Process 52: 62.035164, 62.131588, 61.616577, 61.490843, 61.450835, 61.486442, 61.492906, 61.547822, 61.516282, 61.517151, 61.422567, 61.422032, 61.435595, 61.465522, 61.476698, 61.497522, 61.377146, 61.418019, 61.252153, 61.279578, 61.280905, 61.387189, 61.381964, 61.322582, 61.227824, 61.281917, 61.284439, 61.332219, 61.258021, 61.340265
Process 53: 62.049294, 62.143883, 61.628528, 61.502775, 61.463434, 61.498379, 61.504693, 61.559571, 61.530991, 61.529611, 61.435809, 61.434169, 61.447628, 61.477615, 61.488724, 61.512377, 61.391826, 61.432727, 61.267644, 61.295209, 61.295288, 61.402730, 61.396228, 61.337740, 61.241955, 61.295960, 61.298290, 61.347143, 61.271117, 61.355069
Process 54: 62.060577, 62.153765, 61.637386, 61.511003, 61.472604, 61.508140, 61.514521, 61.569410, 61.540794, 61.538887, 61.444723, 61.442891, 61.456959, 61.487624, 61.498518, 61.522695, 61.401662, 61.442484, 61.278100, 61.304969, 61.305145, 61.413209, 61.406054, 61.347126, 61.251854, 61.306250, 61.308054, 61.356976, 61.280945, 61.364892
Process 55: 62.074884, 62.166682, 61.649658, 61.523056, 61.485431, 61.520761, 61.527162, 61.582038, 61.554496, 61.551914, 61.456791, 61.455297, 61.469522, 61.500361, 61.513274, 61.537888, 61.413935, 61.456350, 61.291729, 61.317449, 61.317804, 61.428912, 61.420799, 61.361706, 61.267197, 61.321551, 61.320479, 61.371106, 61.294418, 61.378810
Process 56: 62.086245, 62.176896, 61.658706, 61.531617, 61.494787, 61.530835, 61.537298, 61.592198, 61.564630, 61.561115, 61.465927, 61.464335, 61.479012, 61.510535, 61.523349, 61.548381, 61.423592, 61.466234, 61.301706, 61.327521, 61.327950, 61.439355, 61.430846, 61.371289, 61.277227, 61.331684, 61.330509, 61.381233, 61.304528, 61.388954
Process 57: 62.101386, 62.189115, 61.671356, 61.543933, 61.507409, 61.544465, 61.549070, 61.605210, 61.578299, 61.573925, 61.478661, 61.477727, 61.493479, 61.524847, 61.537553, 61.563787, 61.437590, 61.478199, 61.313606, 61.342269, 61.342628, 61.454900, 61.445324, 61.385601, 61.292122, 61.345188, 61.343972, 61.394683, 61.317272, 61.402180
Process 58: 62.111602, 62.200644, 61.680453, 61.552815, 61.516468, 61.554852, 61.558917, 61.614993, 61.588110, 61.582791, 61.487649, 61.486474, 61.502746, 61.535122, 61.548039, 61.573634, 61.447814, 61.486929, 61.323321, 61.352050, 61.352454, 61.465534, 61.455802, 61.395266, 61.300907, 61.354907, 61.353693, 61.404482, 61.327365, 61.412068
Process 59: 62.125641, 62.214363, 61.693235, 61.566534, 61.529264, 61.568495, 61.572736, 61.628729, 61.600940, 61.595557, 61.499775, 61.498830, 61.515334, 61.548566, 61.563649, 61.588240, 61.463153, 61.499200, 61.337272, 61.365284, 61.366336, 61.480603, 61.469954, 61.409697, 61.314209, 61.369293, 61.367267, 61.418751, 61.341696, 61.426216
Process 60: 62.136220, 62.223679, 61.702311, 61.575145, 61.538574, 61.578607, 61.582856, 61.638908, 61.611098, 61.604574, 61.508924, 61.507889, 61.525030, 61.558741, 61.574175, 61.598374, 61.472376, 61.509134, 61.346492, 61.374717, 61.376995, 61.491302, 61.480512, 61.419532, 61.324156, 61.379227, 61.376874, 61.428924, 61.352486, 61.436384
Process 61: 62.150464, 62.235934, 61.714881, 61.587134, 61.552394, 61.590372, 61.595279, 61.651327, 61.624718, 61.616095, 61.520461, 61.521036, 61.538075, 61.570750, 61.587188, 61.613260, 61.484240, 61.524189, 61.359358, 61.386878, 61.389710, 61.504288, 61.496244, 61.434200, 61.338722, 61.393713, 61.389936, 61.443101, 61.366621, 61.449505
Process 62: 62.159959, 62.244073, 61.723561, 61.594837, 61.559602, 61.597434, 61.602306, 61.659192, 61.634802, 61.624692, 61.528192, 61.527707, 61.544949, 61.577506, 61.594744, 61.622398, 61.494905, 61.533962, 61.368893, 61.396602, 61.399070, 61.513565, 61.506252, 61.444190, 61.347765, 61.402628, 61.398678, 61.452727, 61.376192, 61.458845
Process 63: 62.173840, 62.256838, 61.735931, 61.606516, 61.571305, 61.608987, 61.614460, 61.671262, 61.648139, 61.637349, 61.540356, 61.539795, 61.556187, 61.589463, 61.605792, 61.637019, 61.509560, 61.544940, 61.382587, 61.410247, 61.412718, 61.525428, 61.520747, 61.459653, 61.361070, 61.416924, 61.411134, 61.468143, 61.390556, 61.474112
