mpi_trmm_opt3
Process 0: 6.567365, 6.128609, 6.102362, 6.004299, 6.011079, 6.013700, 6.003534, 5.997025, 5.990425, 5.989513, 5.996928, 5.998527, 5.984664, 5.993539, 5.987773, 5.983307, 5.986079, 6.013149, 5.990001, 5.987270, 5.985472, 5.994192, 5.985945, 5.985312, 5.986579, 5.984280, 6.009307, 5.992466, 5.985960, 5.987390
Process 1: 6.571315, 6.132445, 6.106177, 6.008114, 6.014924, 6.017530, 6.007345, 6.000866, 5.994253, 5.993337, 6.000735, 6.002357, 5.988492, 5.997349, 5.991609, 5.987137, 5.989932, 6.016966, 5.993832, 5.991103, 5.989304, 5.998029, 5.989792, 5.989134, 5.990425, 5.988101, 6.013140, 5.996284, 5.989790, 5.991211
