MPI_insiderank_serial
Process 0: 1.827048, 1.426438, 1.273224, 1.288143, 1.316514, 1.755659, 1.269460, 1.609075, 1.276258, 1.613141, 1.278051, 1.270487, 1.277274, 1.499937, 1.269422, 1.267835, 1.276471, 1.533885, 1.271805, 1.349945, 1.272699, 1.272893, 1.269041, 1.269397, 1.269590, 1.273803, 1.274235, 1.271762, 1.268927, 1.285867
Process 1: 1.156150, 0.754966, 0.605661, 0.598637, 0.645302, 1.083215, 0.598250, 0.937793, 0.605248, 0.898928, 0.606480, 0.598527, 0.606079, 0.827754, 0.597962, 0.597132, 0.599263, 0.862041, 0.600140, 0.641983, 0.598378, 0.601272, 0.597854, 0.597693, 0.598539, 0.602318, 0.602871, 0.599104, 0.597906, 0.614217
Process 2: 1.177245, 0.777123, 0.627518, 0.621076, 0.667401, 1.105685, 0.620585, 0.960173, 0.627429, 0.922451, 0.628710, 0.620761, 0.628185, 0.850143, 0.620209, 0.619453, 0.621570, 0.884140, 0.622374, 0.664192, 0.620733, 0.623583, 0.620152, 0.619929, 0.620840, 0.624643, 0.625209, 0.621428, 0.620193, 0.636369
Process 3: 1.200169, 0.799391, 0.650022, 0.643230, 0.689632, 1.127773, 0.642839, 0.982345, 0.649693, 0.948684, 0.650810, 0.643037, 0.650466, 0.872325, 0.642476, 0.641685, 0.643786, 0.906409, 0.644644, 0.690313, 0.642964, 0.645866, 0.642430, 0.642176, 0.643064, 0.646909, 0.647492, 0.643722, 0.642427, 0.658692
Process 4: 1.222240, 0.821502, 0.672288, 0.665441, 0.711795, 1.150064, 0.665013, 1.004517, 0.671794, 0.974411, 0.673007, 0.665203, 0.672628, 0.894611, 0.664690, 0.663919, 0.665960, 0.928529, 0.666815, 0.715938, 0.665196, 0.668014, 0.664609, 0.664352, 0.665300, 0.669062, 0.669633, 0.665870, 0.664657, 0.680868
Process 5: 1.244878, 0.843996, 0.694035, 0.687883, 0.734252, 1.172360, 0.687547, 1.026968, 0.694340, 1.003212, 0.695405, 0.687743, 0.695118, 0.917004, 0.687168, 0.686341, 0.688439, 0.951024, 0.689360, 0.744285, 0.687606, 0.690492, 0.687152, 0.686806, 0.687769, 0.691498, 0.692131, 0.688327, 0.687195, 0.703335
Process 6: 1.267104, 0.866983, 0.718039, 0.711260, 0.757278, 1.195874, 0.710473, 1.049972, 0.717476, 1.028044, 0.718422, 0.710650, 0.718044, 0.940393, 0.710140, 0.709505, 0.711395, 0.974325, 0.712281, 0.769467, 0.710822, 0.713487, 0.710164, 0.709934, 0.710685, 0.714520, 0.715081, 0.711554, 0.710160, 0.726271
Process 7: 1.292258, 0.890401, 0.741349, 0.734402, 0.779565, 1.219857, 0.733179, 1.072797, 0.741818, 1.054281, 0.741094, 0.733375, 0.741015, 0.964427, 0.733083, 0.733538, 0.734328, 0.997077, 0.735233, 0.795706, 0.733776, 0.736180, 0.732814, 0.733900, 0.733643, 0.737450, 0.738056, 0.734462, 0.733401, 0.748913
Process 8: 1.312347, 0.911842, 0.761520, 0.756171, 0.801689, 1.240809, 0.755136, 1.094603, 0.762295, 1.080276, 0.763020, 0.755317, 0.762745, 0.985087, 0.754811, 0.754173, 0.756100, 1.019013, 0.756921, 0.821790, 0.755541, 0.758155, 0.754851, 0.754603, 0.755345, 0.759119, 0.759749, 0.756164, 0.755121, 0.770935
Process 9: 1.335018, 0.934033, 0.781947, 0.778252, 0.823889, 1.263526, 0.777225, 1.116714, 0.784676, 1.108496, 0.785196, 0.777445, 0.784897, 1.008099, 0.776893, 0.776599, 0.778268, 1.041150, 0.779070, 0.850238, 0.777647, 0.780251, 0.776929, 0.777068, 0.777488, 0.781289, 0.781851, 0.778281, 0.777253, 0.793056
Process 10: 1.356795, 0.956328, 0.803963, 0.800620, 0.846186, 1.285342, 0.799570, 1.139074, 0.806759, 1.134081, 0.807559, 0.799724, 0.807203, 1.029641, 0.799314, 0.798710, 0.800547, 1.063558, 0.801433, 0.875453, 0.799980, 0.802677, 0.799279, 0.799157, 0.799891, 0.803614, 0.804217, 0.800682, 0.799577, 0.815341
Process 11: 1.380018, 0.978405, 0.826473, 0.822445, 0.868157, 1.307682, 0.821323, 1.160815, 0.829212, 1.160232, 0.829471, 0.821566, 0.829190, 1.051986, 0.821119, 0.821177, 0.822372, 1.085357, 0.823373, 0.901590, 0.821813, 0.824395, 0.821025, 0.821561, 0.821850, 0.825555, 0.826033, 0.822664, 0.821399, 0.837158
Process 12: 1.401218, 1.000796, 0.848430, 0.848733, 0.890605, 1.329783, 0.844038, 1.183377, 0.851458, 1.186448, 0.852197, 0.844249, 0.851880, 1.074168, 0.843596, 0.843390, 0.845097, 1.107971, 0.846145, 0.924074, 0.844530, 0.847064, 0.843490, 0.843602, 0.844320, 0.848046, 0.848576, 0.845375, 0.843782, 0.859871
Process 13: 1.424260, 1.023478, 0.871034, 0.874801, 0.916226, 1.352166, 0.866995, 1.205873, 0.874140, 1.208854, 0.875358, 0.866691, 0.874349, 1.096711, 0.866124, 0.865936, 0.868037, 1.130577, 0.869099, 0.946352, 0.867465, 0.869480, 0.866138, 0.866218, 0.866909, 0.870644, 0.871103, 0.868184, 0.866319, 0.883081
Process 14: 1.445990, 1.045376, 0.893016, 0.899717, 0.938051, 1.374166, 0.888791, 1.227910, 0.896023, 1.231400, 0.897025, 0.888818, 0.896457, 1.118752, 0.888170, 0.887936, 0.889878, 1.152494, 0.890954, 0.969044, 0.889327, 0.891650, 0.888054, 0.888107, 0.888883, 0.892575, 0.893127, 0.890151, 0.888271, 0.904690
Process 15: 1.468466, 1.067756, 0.915391, 0.923078, 0.960780, 1.396504, 0.911113, 1.250229, 0.918407, 1.255634, 0.919432, 0.911173, 0.918784, 1.141112, 0.910508, 0.910268, 0.912233, 1.174882, 0.913309, 0.991590, 0.911708, 0.913972, 0.910432, 0.910465, 0.911260, 0.914941, 0.915481, 0.912493, 0.910651, 0.927040
Process 16: 1.489558, 1.089057, 0.936744, 0.950204, 0.982068, 1.418093, 0.932493, 1.271632, 0.939758, 1.275589, 0.940808, 0.932525, 0.940140, 1.162484, 0.931883, 0.931647, 0.936544, 1.196235, 0.934678, 1.012983, 0.933059, 0.935373, 0.931769, 0.931826, 0.932602, 0.936311, 0.936841, 0.933833, 0.932000, 0.948410
Process 17: 1.512470, 1.111663, 0.959247, 0.974090, 1.004076, 1.440624, 0.955007, 1.294149, 0.962274, 1.298502, 0.963284, 0.955027, 0.962680, 1.184996, 0.954355, 0.954151, 0.958822, 1.218771, 0.957172, 1.035520, 0.955585, 0.957888, 0.954301, 0.954363, 0.955146, 0.958833, 0.959361, 0.956371, 0.954528, 0.970927
Process 18: 1.534347, 1.133536, 0.981243, 0.996263, 1.026472, 1.462630, 0.977006, 1.316414, 0.984030, 1.319737, 0.985488, 0.977388, 0.984687, 1.206982, 0.976340, 0.976169, 0.981330, 1.240793, 0.979351, 1.057110, 0.977722, 0.979894, 0.976297, 0.976370, 0.976854, 0.980868, 0.981376, 0.978524, 0.976308, 0.993146
Process 19: 1.558471, 1.157152, 1.005112, 1.019969, 1.049003, 1.486092, 1.000585, 1.340342, 1.008311, 1.342990, 1.009080, 1.001326, 1.008271, 1.230628, 0.999819, 0.999676, 1.005241, 1.264364, 1.002896, 1.079745, 1.001536, 1.003459, 0.999987, 0.999984, 1.000998, 1.004248, 1.004923, 1.002301, 1.000212, 1.016690
Process 20: 1.579077, 1.178287, 1.026046, 1.040905, 1.068212, 1.507370, 1.021697, 1.360897, 1.029404, 1.364589, 1.030159, 1.022246, 1.029345, 1.251723, 1.021090, 1.020725, 1.025294, 1.285522, 1.024150, 1.101817, 1.022548, 1.024529, 1.021098, 1.021026, 1.022149, 1.025576, 1.025997, 1.023282, 1.021651, 1.037702
Process 21: 1.602177, 1.200770, 1.048570, 1.064343, 1.090761, 1.529922, 1.044217, 1.384522, 1.052930, 1.388739, 1.052671, 1.045765, 1.051878, 1.274242, 1.043602, 1.043296, 1.049408, 1.308116, 1.046654, 1.125278, 1.047011, 1.047058, 1.043605, 1.043576, 1.045625, 1.048081, 1.048514, 1.045828, 1.045178, 1.060236
Process 22: 1.623547, 1.222545, 1.070394, 1.084999, 1.112541, 1.551518, 1.068000, 1.405269, 1.073788, 1.409542, 1.074478, 1.066592, 1.073687, 1.296024, 1.065406, 1.065055, 1.069448, 1.329873, 1.068434, 1.146703, 1.069022, 1.068851, 1.065447, 1.065367, 1.066444, 1.069881, 1.070307, 1.067622, 1.065996, 1.082004
Process 23: 1.646650, 1.245327, 1.093101, 1.109439, 1.135294, 1.574248, 1.091943, 1.429817, 1.098272, 1.434079, 1.097220, 1.091080, 1.096358, 1.318783, 1.088133, 1.087820, 1.093880, 1.352602, 1.091179, 1.169488, 1.092810, 1.091624, 1.088225, 1.088105, 1.090988, 1.092643, 1.093028, 1.090367, 1.090597, 1.104731
Process 24: 1.668640, 1.267663, 1.115300, 1.129648, 1.157492, 1.596828, 1.113540, 1.450055, 1.118482, 1.453233, 1.119117, 1.111246, 1.118553, 1.340704, 1.109858, 1.109629, 1.114191, 1.374441, 1.112799, 1.190413, 1.113954, 1.113493, 1.110054, 1.110235, 1.111321, 1.114681, 1.114879, 1.112739, 1.110809, 1.126754
Process 25: 1.692254, 1.290218, 1.138968, 1.153504, 1.180150, 1.619247, 1.136018, 1.472787, 1.142222, 1.476237, 1.142725, 1.134266, 1.141260, 1.363768, 1.133103, 1.133845, 1.140153, 1.397436, 1.136750, 1.212963, 1.137498, 1.136362, 1.133675, 1.133133, 1.134553, 1.137375, 1.138305, 1.135467, 1.134214, 1.149263
Process 26: 1.712972, 1.312286, 1.159495, 1.173842, 1.202197, 1.640663, 1.159149, 1.494383, 1.162724, 1.498848, 1.163302, 1.155692, 1.162640, 1.385222, 1.154970, 1.154376, 1.161865, 1.419129, 1.157280, 1.235851, 1.159199, 1.158380, 1.154292, 1.154986, 1.155384, 1.159106, 1.159576, 1.156868, 1.154983, 1.171496
Process 27: 1.737618, 1.335986, 1.182166, 1.197259, 1.226010, 1.665285, 1.182529, 1.518523, 1.187422, 1.521913, 1.186871, 1.180024, 1.186671, 1.409582, 1.178885, 1.177069, 1.185862, 1.443424, 1.180810, 1.259280, 1.183839, 1.182352, 1.177841, 1.179099, 1.178087, 1.183433, 1.183861, 1.181168, 1.178312, 1.195382
Process 28: 1.758551, 1.357591, 1.203517, 1.217939, 1.247911, 1.686915, 1.202875, 1.540266, 1.207422, 1.543875, 1.209311, 1.201418, 1.208596, 1.430887, 1.199888, 1.198404, 1.207413, 1.465195, 1.203123, 1.281254, 1.204724, 1.204117, 1.199888, 1.200249, 1.199408, 1.204454, 1.205629, 1.202927, 1.199038, 1.216763
Process 29: 1.782293, 1.380420, 1.226073, 1.241607, 1.270948, 1.710067, 1.226048, 1.563443, 1.231048, 1.566885, 1.232517, 1.224832, 1.231474, 1.454084, 1.223680, 1.220949, 1.230813, 1.488039, 1.226278, 1.304155, 1.227692, 1.227200, 1.223358, 1.223701, 1.221975, 1.228220, 1.228635, 1.226001, 1.222693, 1.240236
Process 30: 1.804582, 1.402984, 1.250017, 1.264475, 1.293185, 1.732224, 1.247340, 1.585619, 1.251627, 1.589091, 1.254698, 1.247113, 1.253824, 1.476518, 1.245992, 1.244912, 1.253004, 1.510345, 1.248750, 1.326433, 1.250634, 1.249465, 1.245685, 1.245993, 1.245896, 1.250410, 1.250829, 1.248233, 1.245521, 1.262516
Process 31: 1.828098, 1.426438, 1.273217, 1.288144, 1.316511, 1.755469, 1.269461, 1.609073, 1.276249, 1.613143, 1.278049, 1.270486, 1.277268, 1.499936, 1.269411, 1.267835, 1.276461, 1.533879, 1.271807, 1.349944, 1.272697, 1.272907, 1.269042, 1.269401, 1.269592, 1.273801, 1.274233, 1.271764, 1.268927, 1.285866
