MPI_insiderank_serial
Process 0: 1.830468, 1.431672, 1.345786, 1.373169, 1.352640, 1.354025, 1.357180, 1.361737, 1.340576, 1.346963, 1.362983, 1.356722, 1.353196, 1.356695, 1.347096, 1.339157, 1.368799, 1.343488, 1.336714, 1.362921, 1.348578, 1.343698, 1.340341, 1.344354, 1.357598, 1.341921, 1.344144, 1.357774, 1.335155, 1.342027
Process 1: 1.724722, 1.345447, 1.256140, 1.284300, 1.263711, 1.255087, 1.265291, 1.271663, 1.251059, 1.264982, 1.274284, 1.269463, 1.271146, 1.267684, 1.257623, 1.248840, 1.276093, 1.254245, 1.247741, 1.280820, 1.258947, 1.259894, 1.250472, 1.254326, 1.274676, 1.251637, 1.254087, 1.267994, 1.246330, 1.252036
Process 2: 1.739892, 1.358138, 1.272638, 1.298589, 1.277662, 1.268916, 1.282347, 1.287026, 1.267236, 1.272223, 1.288605, 1.282695, 1.278074, 1.282575, 1.272807, 1.264085, 1.282023, 1.269524, 1.263037, 1.286870, 1.273926, 1.268943, 1.265405, 1.270920, 1.282421, 1.268601, 1.269552, 1.283052, 1.262445, 1.267723
Process 3: 1.766070, 1.372785, 1.286478, 1.314214, 1.293254, 1.283687, 1.297834, 1.302301, 1.281412, 1.287251, 1.304193, 1.297072, 1.302480, 1.297371, 1.287525, 1.279552, 1.308110, 1.283997, 1.276987, 1.311824, 1.289011, 1.283963, 1.280245, 1.285165, 1.297504, 1.281819, 1.284348, 1.298190, 1.275756, 1.282188
Process 4: 1.770184, 1.387773, 1.302637, 1.328132, 1.308116, 1.298706, 1.312714, 1.317110, 1.296329, 1.302018, 1.318429, 1.312137, 1.307556, 1.311813, 1.302644, 1.294505, 1.314513, 1.298661, 1.293206, 1.317327, 1.303600, 1.298679, 1.295591, 1.300886, 1.313768, 1.296568, 1.299251, 1.312074, 1.291472, 1.297115
Process 5: 1.797473, 1.402309, 1.316250, 1.344242, 1.323363, 1.314171, 1.327357, 1.332042, 1.310949, 1.316730, 1.333219, 1.326967, 1.333526, 1.327114, 1.316863, 1.311515, 1.337091, 1.314250, 1.307361, 1.343730, 1.318877, 1.313752, 1.310380, 1.315443, 1.327268, 1.311886, 1.313917, 1.327642, 1.305470, 1.315013
Process 6: 1.814507, 1.416965, 1.331162, 1.358285, 1.337814, 1.328717, 1.342352, 1.347063, 1.326211, 1.331852, 1.347544, 1.341913, 1.339043, 1.341734, 1.332068, 1.324294, 1.355991, 1.328652, 1.321968, 1.357350, 1.333622, 1.328788, 1.325356, 1.329486, 1.342617, 1.327401, 1.329108, 1.342452, 1.320607, 1.327248
Process 7: 1.831675, 1.431669, 1.345790, 1.373174, 1.352639, 1.354013, 1.357190, 1.361737, 1.340576, 1.346963, 1.362983, 1.356729, 1.353190, 1.356696, 1.347096, 1.339158, 1.368797, 1.343493, 1.336715, 1.362912, 1.348579, 1.343699, 1.340342, 1.344354, 1.357599, 1.341927, 1.344146, 1.357773, 1.335157, 1.342027
