MPI_insiderank_serial
Process 0: 4.609996, 4.560091, 4.665726, 4.581663, 4.550436, 4.545928, 4.518166, 4.526257, 4.512417, 4.525138, 4.584848, 4.487310, 4.513855, 4.504781, 4.510689, 4.640609, 4.613047, 4.485701, 4.537767, 4.538473, 4.535794, 4.515911, 4.639373, 4.841404, 4.841973, 4.842307, 4.859500, 4.842074, 4.842180, 4.842284
Process 1: 4.612062, 4.561941, 4.667596, 4.583700, 4.552469, 4.547947, 4.520183, 4.528290, 4.514447, 4.526982, 4.586692, 4.489154, 4.515707, 4.506619, 4.512539, 4.642660, 4.614913, 4.487552, 4.539619, 4.540326, 4.537646, 4.517759, 4.641390, 4.843537, 4.844112, 4.844340, 4.861531, 4.844113, 4.844193, 4.844293
