MPI_insiderank_serial
Process 0: 4.970252, 4.551866, 4.507530, 4.536169, 4.525872, 4.529352, 4.654495, 4.515801, 4.527971, 4.484625, 4.490918, 4.522038, 4.480561, 4.531263, 4.455912, 4.468386, 4.484283, 4.488000, 4.449709, 4.498411, 4.435126, 4.435745, 4.434364, 4.443985, 4.448881, 4.426960, 4.469084, 4.472804, 4.483479, 4.454696
Process 1: 4.856858, 4.425031, 4.371104, 4.406320, 4.402961, 4.414821, 4.598254, 4.397886, 4.399094, 4.361285, 4.348490, 4.388243, 4.349742, 4.406599, 4.328928, 4.341856, 4.348878, 4.353421, 4.327213, 4.378557, 4.302566, 4.314628, 4.303824, 4.319631, 4.318390, 4.298062, 4.339279, 4.345301, 4.356764, 4.328112
Process 2: 4.926615, 4.497761, 4.438082, 4.482793, 4.464087, 4.495080, 4.631348, 4.480867, 4.485837, 4.430193, 4.429918, 4.475008, 4.429496, 4.490901, 4.416812, 4.426290, 4.422589, 4.438365, 4.399588, 4.458493, 4.383678, 4.388270, 4.378400, 4.402074, 4.399805, 4.371639, 4.409969, 4.431922, 4.430610, 4.411816
Process 3: 4.971661, 4.553268, 4.508936, 4.537530, 4.527205, 4.530810, 4.655897, 4.517259, 4.529350, 4.485923, 4.492312, 4.523545, 4.481971, 4.532680, 4.457493, 4.469856, 4.485667, 4.489429, 4.451168, 4.499932, 4.436564, 4.437086, 4.435770, 4.445400, 4.450438, 4.428465, 4.470579, 4.474239, 4.485039, 4.456215
