MPI_insiderank_serial
Process 0: 1.655021, 1.452154, 1.358685, 1.369011, 1.366723, 1.361254, 1.350661, 1.364376, 1.387395, 1.364000, 1.363511, 1.356003, 1.358853, 1.369399, 1.394479, 1.360774, 1.360011, 1.362732, 1.363810, 1.358522, 1.358100, 1.357764, 1.362735, 1.366735, 1.361694, 1.354787, 1.358003, 1.359520, 1.361011, 1.364521
Process 1: 1.418839, 1.210707, 1.116016, 1.131096, 1.124094, 1.118329, 1.113010, 1.129439, 1.147841, 1.116066, 1.120457, 1.116567, 1.120009, 1.129623, 1.150009, 1.121282, 1.113989, 1.121310, 1.119409, 1.118821, 1.114970, 1.118536, 1.118350, 1.128753, 1.122043, 1.115048, 1.119594, 1.116208, 1.122151, 1.116695
Process 2: 1.433089, 1.226670, 1.129783, 1.144887, 1.139094, 1.131949, 1.127046, 1.142586, 1.162002, 1.130163, 1.134293, 1.130990, 1.133993, 1.142310, 1.163939, 1.135701, 1.128922, 1.135081, 1.133663, 1.133054, 1.128932, 1.132941, 1.132827, 1.145036, 1.136521, 1.130185, 1.133661, 1.130286, 1.136470, 1.130700
Process 3: 1.451260, 1.244267, 1.148388, 1.164307, 1.157807, 1.150558, 1.145641, 1.162036, 1.180810, 1.148676, 1.152793, 1.149560, 1.152550, 1.161634, 1.182526, 1.154276, 1.147808, 1.153613, 1.152344, 1.151737, 1.147503, 1.151592, 1.151588, 1.165145, 1.155058, 1.148846, 1.151944, 1.148831, 1.155050, 1.149270
Process 4: 1.467538, 1.260443, 1.164127, 1.179389, 1.173698, 1.166073, 1.161475, 1.177144, 1.196709, 1.164454, 1.168596, 1.165257, 1.168183, 1.176782, 1.198415, 1.169948, 1.163563, 1.169443, 1.168014, 1.167321, 1.163238, 1.167468, 1.168779, 1.180261, 1.170851, 1.164545, 1.168059, 1.164566, 1.171070, 1.165005
Process 5: 1.485324, 1.278133, 1.182429, 1.198543, 1.192037, 1.184540, 1.179807, 1.196183, 1.215247, 1.182911, 1.186946, 1.183773, 1.186822, 1.196031, 1.216770, 1.188546, 1.182202, 1.187859, 1.186423, 1.185865, 1.182039, 1.185882, 1.189551, 1.199518, 1.189343, 1.183124, 1.186370, 1.183032, 1.189535, 1.183473
Process 6: 1.501539, 1.294820, 1.198651, 1.213579, 1.207651, 1.200392, 1.195567, 1.211346, 1.230954, 1.198641, 1.202799, 1.199449, 1.202624, 1.210958, 1.232401, 1.204344, 1.197801, 1.203811, 1.202641, 1.201625, 1.197686, 1.201801, 1.206330, 1.214439, 1.205275, 1.198789, 1.202232, 1.198838, 1.205463, 1.199150
Process 7: 1.520639, 1.315787, 1.218941, 1.234513, 1.229149, 1.220034, 1.217417, 1.232369, 1.251675, 1.219017, 1.223253, 1.221009, 1.223372, 1.232014, 1.253675, 1.225931, 1.219698, 1.224525, 1.223236, 1.222226, 1.219297, 1.223233, 1.228535, 1.237132, 1.226952, 1.220260, 1.222759, 1.219379, 1.226904, 1.219654
Process 8: 1.537242, 1.333754, 1.233935, 1.248836, 1.243152, 1.235694, 1.231341, 1.246527, 1.266269, 1.233745, 1.237970, 1.235099, 1.237914, 1.246389, 1.267770, 1.239861, 1.233345, 1.238920, 1.237681, 1.237288, 1.233201, 1.237124, 1.242411, 1.249855, 1.240725, 1.234431, 1.237264, 1.233963, 1.240783, 1.234249
Process 9: 1.554392, 1.350937, 1.251874, 1.267553, 1.261155, 1.253700, 1.249343, 1.265300, 1.284287, 1.251751, 1.255985, 1.253098, 1.255947, 1.265147, 1.285837, 1.257956, 1.251483, 1.256988, 1.255733, 1.255350, 1.251260, 1.255229, 1.260485, 1.268579, 1.258856, 1.252437, 1.255175, 1.252033, 1.258792, 1.252268
Process 10: 1.570791, 1.367611, 1.267440, 1.282424, 1.276680, 1.269108, 1.264845, 1.280139, 1.299711, 1.267268, 1.271468, 1.268581, 1.271429, 1.279899, 1.301345, 1.273392, 1.266947, 1.272413, 1.271209, 1.270792, 1.266704, 1.270640, 1.275929, 1.283369, 1.274371, 1.267930, 1.270742, 1.267480, 1.274279, 1.267738
Process 11: 1.588113, 1.384652, 1.285579, 1.300543, 1.294842, 1.287275, 1.282982, 1.298254, 1.317825, 1.285457, 1.289669, 1.286843, 1.289648, 1.298098, 1.319521, 1.291686, 1.285147, 1.290633, 1.289408, 1.288937, 1.284961, 1.288893, 1.294215, 1.301525, 1.292796, 1.286145, 1.288907, 1.285851, 1.292495, 1.285939
Process 12: 1.604380, 1.401217, 1.301085, 1.314295, 1.311734, 1.302823, 1.298539, 1.313438, 1.333356, 1.300972, 1.305171, 1.302315, 1.305050, 1.313305, 1.335026, 1.307140, 1.300606, 1.306044, 1.304958, 1.304479, 1.300386, 1.304356, 1.309699, 1.316772, 1.307993, 1.301611, 1.304254, 1.301259, 1.307968, 1.301478
Process 13: 1.622761, 1.419925, 1.319126, 1.331212, 1.333310, 1.321435, 1.317728, 1.332902, 1.352717, 1.319025, 1.323229, 1.321603, 1.324158, 1.332500, 1.353407, 1.326341, 1.319610, 1.325448, 1.324132, 1.323584, 1.318734, 1.323589, 1.329048, 1.336015, 1.327533, 1.320810, 1.323585, 1.319633, 1.327136, 1.319532
Process 14: 1.638066, 1.435187, 1.335030, 1.349021, 1.347210, 1.336781, 1.332530, 1.346091, 1.367416, 1.336021, 1.338966, 1.336366, 1.339044, 1.345951, 1.369009, 1.341100, 1.334472, 1.341306, 1.338864, 1.338556, 1.334234, 1.338387, 1.343789, 1.349618, 1.341982, 1.335545, 1.338280, 1.335105, 1.341775, 1.336458
Process 15: 1.655357, 1.452153, 1.358683, 1.369010, 1.366723, 1.361254, 1.350662, 1.364374, 1.387403, 1.364001, 1.363512, 1.356008, 1.358853, 1.369398, 1.394481, 1.360773, 1.360011, 1.362732, 1.363809, 1.358523, 1.358108, 1.357765, 1.362736, 1.366734, 1.361694, 1.354786, 1.358004, 1.359520, 1.361011, 1.364522
