MPI_insiderank_serial
Process 0: 2.706649, 2.429413, 2.410356, 2.402061, 2.407126, 2.397118, 2.399280, 2.411521, 2.409915, 2.382426, 2.396819, 2.412591, 2.396862, 2.430577, 2.421275, 2.429761, 2.451673, 2.428761, 2.453734, 2.450535, 2.432759, 2.481096, 2.428604, 2.430034, 2.417974, 2.415523, 2.393804, 2.399656, 2.394230, 2.413826
Process 1: 2.498311, 2.225557, 2.205607, 2.202893, 2.197142, 2.190187, 2.203399, 2.214962, 2.206366, 2.181541, 2.192377, 2.208474, 2.197675, 2.222399, 2.216032, 2.242316, 2.254108, 2.222236, 2.254238, 2.244495, 2.229116, 2.254944, 2.226400, 2.220045, 2.216268, 2.212590, 2.191934, 2.196000, 2.190320, 2.202562
Process 2: 2.533013, 2.263851, 2.239607, 2.239215, 2.231973, 2.227570, 2.240772, 2.247788, 2.240070, 2.217090, 2.228746, 2.244481, 2.232588, 2.258000, 2.255913, 2.261754, 2.281991, 2.261584, 2.294849, 2.281422, 2.263510, 2.292553, 2.262444, 2.256691, 2.251743, 2.246269, 2.226610, 2.232917, 2.231649, 2.242558
Process 3: 2.567000, 2.294830, 2.269604, 2.270181, 2.263887, 2.258013, 2.270807, 2.277437, 2.271876, 2.248909, 2.259688, 2.280642, 2.264152, 2.289980, 2.286210, 2.297582, 2.313257, 2.291081, 2.323473, 2.315463, 2.298962, 2.325243, 2.292166, 2.288930, 2.282761, 2.278723, 2.257690, 2.262846, 2.258621, 2.272738
Process 4: 2.600261, 2.330355, 2.305780, 2.306294, 2.304999, 2.295066, 2.305414, 2.315499, 2.306465, 2.284069, 2.298240, 2.313330, 2.300742, 2.326738, 2.322887, 2.332247, 2.350183, 2.330546, 2.360828, 2.351234, 2.333850, 2.364475, 2.330144, 2.326085, 2.321580, 2.313749, 2.295471, 2.301281, 2.296955, 2.316416
Process 5: 2.634788, 2.366707, 2.338440, 2.339501, 2.336841, 2.327007, 2.337246, 2.346517, 2.341333, 2.317046, 2.328581, 2.345475, 2.332266, 2.359593, 2.355913, 2.375510, 2.381519, 2.362515, 2.400270, 2.383557, 2.366202, 2.395548, 2.362378, 2.357263, 2.352175, 2.348795, 2.327168, 2.335334, 2.331920, 2.352444
Process 6: 2.678304, 2.413832, 2.385270, 2.381580, 2.382970, 2.372575, 2.387081, 2.391271, 2.385081, 2.366222, 2.385573, 2.393164, 2.377268, 2.403564, 2.400617, 2.406665, 2.431923, 2.404419, 2.440654, 2.435025, 2.415135, 2.439307, 2.408534, 2.404970, 2.397369, 2.391122, 2.378055, 2.376727, 2.375510, 2.397188
Process 7: 2.707695, 2.430270, 2.411228, 2.402901, 2.408012, 2.397972, 2.400188, 2.412389, 2.410789, 2.383274, 2.397737, 2.413515, 2.397850, 2.431550, 2.422280, 2.430776, 2.452670, 2.429696, 2.454692, 2.451477, 2.433824, 2.482107, 2.429549, 2.430978, 2.419808, 2.416591, 2.394744, 2.400580, 2.395186, 2.415390
