MPI_insiderank_serial
Process 0: 6.005079, 5.696300, 5.629958, 5.620639, 5.593234, 5.648561, 5.607576, 5.537105, 5.568791, 5.596597, 5.488462, 5.621432, 5.573250, 5.588679, 5.559819, 5.609692, 5.539181, 5.577433, 5.531076, 5.512270, 5.611461, 5.523813, 5.502755, 5.510221, 5.601377, 5.588353, 5.600477, 5.536746, 5.637670, 5.574818
Process 1: 5.755533, 5.466302, 5.419997, 5.369639, 5.387377, 5.394501, 5.400515, 5.319598, 5.310859, 5.365168, 5.247278, 5.411525, 5.341854, 5.329271, 5.321294, 5.374210, 5.312434, 5.364638, 5.320075, 5.290945, 5.381589, 5.292789, 5.271187, 5.283868, 5.388065, 5.361297, 5.380704, 5.309239, 5.372623, 5.337933
Process 2: 5.878485, 5.594596, 5.519174, 5.504986, 5.496777, 5.530590, 5.510032, 5.452745, 5.459178, 5.497134, 5.377731, 5.523058, 5.467318, 5.468974, 5.455390, 5.493483, 5.434838, 5.459657, 5.447127, 5.415769, 5.513949, 5.414300, 5.401580, 5.392107, 5.497225, 5.483661, 5.508826, 5.437853, 5.511905, 5.471451
Process 3: 6.008020, 5.700039, 5.634395, 5.625550, 5.597930, 5.653232, 5.613489, 5.540800, 5.573624, 5.601255, 5.494639, 5.625866, 5.578494, 5.595033, 5.564772, 5.614952, 5.544176, 5.582985, 5.536737, 5.517813, 5.616175, 5.528731, 5.509355, 5.516869, 5.607083, 5.593915, 5.604665, 5.542151, 5.642894, 5.582695
