MPI_insiderank_serial
Process 0: 1.498584, 1.257851, 1.139491, 1.139059, 1.136553, 1.204049, 1.145602, 1.142444, 1.142190, 1.139657, 1.140367, 1.140095, 1.166492, 1.135632, 1.145088, 1.140924, 1.138059, 1.139273, 1.141432, 1.134451, 1.137840, 1.139984, 1.134776, 1.156641, 1.180341, 1.138842, 1.415859, 1.135949, 1.129609, 1.130715
Process 1: 1.053724, 0.824861, 0.706477, 0.711798, 0.703187, 0.767826, 0.714096, 0.715366, 0.709679, 0.706062, 0.704775, 0.708338, 0.729244, 0.702690, 0.711575, 0.706778, 0.704626, 0.713193, 0.709703, 0.701038, 0.702394, 0.707591, 0.703691, 0.712052, 0.747970, 0.706201, 0.984895, 0.704137, 0.698042, 0.699168
Process 2: 1.065679, 0.839036, 0.720413, 0.725907, 0.717446, 0.782272, 0.728751, 0.728485, 0.720597, 0.720833, 0.720172, 0.719934, 0.744282, 0.715870, 0.727098, 0.722728, 0.720523, 0.723841, 0.723757, 0.716308, 0.717750, 0.721969, 0.717385, 0.728402, 0.759784, 0.720318, 0.999102, 0.718727, 0.712221, 0.713041
Process 3: 1.079571, 0.850758, 0.735986, 0.740863, 0.731829, 0.794263, 0.741763, 0.743100, 0.736021, 0.734059, 0.733803, 0.734953, 0.757619, 0.729764, 0.740920, 0.734763, 0.734406, 0.738939, 0.736321, 0.730798, 0.732715, 0.735939, 0.732359, 0.742847, 0.774626, 0.734600, 1.012452, 0.732633, 0.727071, 0.727622
Process 4: 1.092621, 0.866004, 0.750563, 0.754753, 0.745562, 0.809057, 0.754580, 0.756636, 0.750747, 0.748155, 0.747522, 0.749384, 0.772047, 0.743320, 0.753469, 0.749132, 0.746886, 0.749202, 0.750073, 0.744594, 0.744677, 0.750821, 0.744294, 0.755948, 0.788161, 0.749232, 1.027109, 0.746542, 0.741078, 0.741160
Process 5: 1.107350, 0.879670, 0.765167, 0.768704, 0.760682, 0.824070, 0.769642, 0.771088, 0.764409, 0.762517, 0.761598, 0.763734, 0.786896, 0.758021, 0.768129, 0.763919, 0.762115, 0.767681, 0.765666, 0.758318, 0.759373, 0.764361, 0.759314, 0.769424, 0.802634, 0.765056, 1.040436, 0.761267, 0.755234, 0.755844
Process 6: 1.121917, 0.894430, 0.779509, 0.782866, 0.774551, 0.839280, 0.784332, 0.784641, 0.778387, 0.776341, 0.776389, 0.777555, 0.802069, 0.772903, 0.783037, 0.778838, 0.776452, 0.782804, 0.780134, 0.773420, 0.774821, 0.779442, 0.773250, 0.784669, 0.817695, 0.780167, 1.054771, 0.775454, 0.769485, 0.770029
Process 7: 1.136379, 0.907867, 0.793480, 0.797507, 0.788705, 0.852432, 0.797569, 0.798998, 0.793325, 0.791303, 0.790835, 0.792470, 0.816389, 0.786570, 0.797419, 0.792423, 0.790839, 0.794096, 0.793259, 0.787075, 0.788599, 0.793245, 0.788195, 0.797938, 0.830506, 0.794216, 1.069919, 0.790090, 0.783631, 0.784201
Process 8: 1.154107, 0.922802, 0.807617, 0.811445, 0.802630, 0.867416, 0.812135, 0.813355, 0.807256, 0.806359, 0.805595, 0.806401, 0.830963, 0.801189, 0.811888, 0.807444, 0.805569, 0.808681, 0.807959, 0.801598, 0.803505, 0.807738, 0.802800, 0.812833, 0.845504, 0.809191, 1.083956, 0.804671, 0.797727, 0.798340
Process 9: 1.170693, 0.936845, 0.822135, 0.825629, 0.816895, 0.881634, 0.827097, 0.828202, 0.822298, 0.820957, 0.820094, 0.821015, 0.846087, 0.816271, 0.826360, 0.821565, 0.820945, 0.823051, 0.822105, 0.817375, 0.818063, 0.821464, 0.816972, 0.827374, 0.860060, 0.822531, 1.098992, 0.819152, 0.811743, 0.813321
Process 10: 1.189716, 0.952315, 0.835969, 0.839673, 0.831051, 0.896780, 0.842128, 0.842291, 0.836962, 0.835115, 0.834322, 0.836373, 0.860141, 0.831033, 0.840294, 0.835945, 0.835187, 0.837121, 0.837101, 0.832210, 0.832477, 0.836354, 0.830887, 0.841492, 0.874806, 0.837381, 1.113685, 0.833395, 0.826368, 0.827274
Process 11: 1.204064, 0.965843, 0.850294, 0.853898, 0.845364, 0.910779, 0.855737, 0.856468, 0.850820, 0.849299, 0.848728, 0.850438, 0.875013, 0.844706, 0.854952, 0.850775, 0.849657, 0.851222, 0.850919, 0.845716, 0.846401, 0.850157, 0.845393, 0.855202, 0.888484, 0.851613, 1.127541, 0.847781, 0.841502, 0.841455
Process 12: 1.218430, 0.981056, 0.864308, 0.868513, 0.860133, 0.925759, 0.870665, 0.870903, 0.865116, 0.863830, 0.863024, 0.864784, 0.889713, 0.859565, 0.869213, 0.865603, 0.864007, 0.865973, 0.865535, 0.860656, 0.861416, 0.865217, 0.860138, 0.869961, 0.903420, 0.866179, 1.142279, 0.862192, 0.856126, 0.855727
Process 13: 1.232394, 0.994485, 0.878349, 0.881695, 0.874807, 0.940247, 0.884481, 0.884592, 0.879646, 0.878027, 0.877692, 0.878782, 0.904085, 0.873288, 0.883672, 0.879318, 0.878417, 0.881151, 0.880100, 0.874377, 0.875380, 0.879257, 0.874597, 0.883937, 0.917117, 0.880307, 1.156561, 0.876431, 0.870226, 0.869930
Process 14: 1.246920, 1.009186, 0.892256, 0.894480, 0.888538, 0.954603, 0.900763, 0.898615, 0.894070, 0.891815, 0.892067, 0.892744, 0.918801, 0.887874, 0.897899, 0.893794, 0.892325, 0.894628, 0.894324, 0.888845, 0.889717, 0.893420, 0.888265, 0.898350, 0.931691, 0.894465, 1.170621, 0.890424, 0.884097, 0.883947
Process 15: 1.264229, 1.023304, 0.907000, 0.909263, 0.903418, 0.969418, 0.915116, 0.913420, 0.909125, 0.906668, 0.907306, 0.907455, 0.933412, 0.902477, 0.912434, 0.908239, 0.907158, 0.909260, 0.908886, 0.903257, 0.904195, 0.908301, 0.903194, 0.912756, 0.946406, 0.909511, 1.185456, 0.905256, 0.898891, 0.898728
Process 16: 1.280717, 1.037912, 0.920696, 0.923036, 0.917156, 0.983526, 0.929296, 0.927422, 0.923217, 0.920601, 0.922018, 0.921374, 0.948121, 0.916898, 0.926958, 0.922716, 0.921932, 0.923686, 0.924059, 0.917102, 0.918486, 0.922128, 0.916931, 0.926817, 0.960392, 0.922124, 1.199334, 0.919202, 0.912671, 0.912533
Process 17: 1.296518, 1.052801, 0.935849, 0.938163, 0.931581, 0.999219, 0.943571, 0.942344, 0.938539, 0.935629, 0.936507, 0.936183, 0.962936, 0.931894, 0.941515, 0.937531, 0.936214, 0.937751, 0.939255, 0.932080, 0.933702, 0.937038, 0.932029, 0.941499, 0.975830, 0.936665, 1.214363, 0.934002, 0.926995, 0.927521
Process 18: 1.310520, 1.067562, 0.949897, 0.951889, 0.946068, 1.012949, 0.957687, 0.955861, 0.952800, 0.949758, 0.950873, 0.951421, 0.977116, 0.946169, 0.955988, 0.951488, 0.949845, 0.951740, 0.953051, 0.945872, 0.947615, 0.950434, 0.945696, 0.955871, 0.989854, 0.950164, 1.227953, 0.947854, 0.941267, 0.941499
Process 19: 1.326501, 1.081480, 0.964650, 0.966123, 0.960809, 1.028387, 0.972712, 0.970560, 0.967481, 0.964264, 0.965441, 0.965674, 0.991917, 0.961102, 0.970600, 0.966788, 0.964235, 0.966493, 0.967404, 0.960662, 0.963128, 0.965249, 0.960259, 0.971399, 1.004655, 0.964797, 1.242321, 0.962244, 0.956714, 0.956176
Process 20: 1.341648, 1.095991, 0.979031, 0.979963, 0.975281, 1.042092, 0.987189, 0.984219, 0.982054, 0.978834, 0.979591, 0.979891, 1.006354, 0.975183, 0.984726, 0.980797, 0.978245, 0.980131, 0.981463, 0.974720, 0.976868, 0.980447, 0.975117, 0.986894, 1.019533, 0.979268, 1.256637, 0.976170, 0.970350, 0.970298
Process 21: 1.356074, 1.110711, 0.994024, 0.994536, 0.991695, 1.058194, 1.001703, 0.998850, 0.996743, 0.993370, 0.994624, 0.994891, 1.021203, 0.990102, 0.999755, 0.995542, 0.993081, 0.994880, 0.995685, 0.989573, 0.992489, 0.994843, 0.989739, 1.004475, 1.035012, 0.993962, 1.271195, 0.991096, 0.985166, 0.985292
Process 22: 1.370071, 1.125712, 1.008041, 1.008233, 1.005590, 1.071604, 1.016154, 1.012777, 1.010708, 1.008610, 1.008813, 1.008966, 1.035346, 1.004258, 1.013803, 1.009847, 1.007015, 1.008979, 1.010542, 1.003477, 1.005776, 1.009255, 1.003838, 1.018537, 1.049050, 1.008351, 1.285148, 1.005141, 0.999156, 0.999406
Process 23: 1.384550, 1.139809, 1.023233, 1.023083, 1.020919, 1.087703, 1.031365, 1.027406, 1.025980, 1.022589, 1.023943, 1.024048, 1.050446, 1.019536, 1.029113, 1.024848, 1.022340, 1.023883, 1.025371, 1.018776, 1.021939, 1.024004, 1.018852, 1.033163, 1.064256, 1.023183, 1.300387, 1.020358, 1.014311, 1.014878
Process 24: 1.398273, 1.154215, 1.037289, 1.036583, 1.035136, 1.100589, 1.045621, 1.041247, 1.039950, 1.036976, 1.038651, 1.038218, 1.064668, 1.033790, 1.043232, 1.038905, 1.036310, 1.037896, 1.040006, 1.032828, 1.034408, 1.038548, 1.032917, 1.049263, 1.078378, 1.037626, 1.314367, 1.034361, 1.028148, 1.029005
Process 25: 1.413738, 1.169449, 1.052604, 1.051393, 1.049517, 1.115852, 1.060288, 1.056134, 1.055253, 1.051807, 1.053863, 1.053150, 1.080160, 1.049048, 1.058772, 1.054429, 1.051504, 1.052738, 1.054659, 1.047918, 1.050140, 1.053881, 1.048358, 1.066232, 1.093728, 1.052545, 1.329416, 1.049697, 1.042703, 1.044151
Process 26: 1.427212, 1.184027, 1.067158, 1.066738, 1.064060, 1.129975, 1.074830, 1.070446, 1.069781, 1.066487, 1.068091, 1.068077, 1.094221, 1.063295, 1.073075, 1.069005, 1.065825, 1.067599, 1.069823, 1.062434, 1.064286, 1.067779, 1.062928, 1.083857, 1.108078, 1.066958, 1.344457, 1.063919, 1.057273, 1.058588
Process 27: 1.441823, 1.199349, 1.081846, 1.081582, 1.078445, 1.145500, 1.089754, 1.084888, 1.084394, 1.080864, 1.082772, 1.082509, 1.109027, 1.078058, 1.087898, 1.083594, 1.080457, 1.082115, 1.084133, 1.077113, 1.079542, 1.082525, 1.077455, 1.099097, 1.122678, 1.081420, 1.358634, 1.078588, 1.073070, 1.073266
Process 28: 1.458111, 1.218808, 1.097038, 1.096950, 1.093413, 1.160466, 1.104847, 1.100051, 1.100534, 1.096000, 1.097650, 1.097788, 1.123642, 1.092890, 1.103169, 1.098966, 1.096014, 1.097124, 1.099486, 1.092149, 1.094378, 1.096992, 1.091864, 1.114255, 1.137384, 1.096123, 1.374062, 1.093170, 1.087285, 1.089066
Process 29: 1.470684, 1.228797, 1.111092, 1.110658, 1.109185, 1.175102, 1.118855, 1.114043, 1.113836, 1.109767, 1.111866, 1.111419, 1.137939, 1.107041, 1.116753, 1.112566, 1.109502, 1.110968, 1.112777, 1.106171, 1.108746, 1.111390, 1.106224, 1.128167, 1.151627, 1.110423, 1.387602, 1.107602, 1.101220, 1.102292
Process 30: 1.487319, 1.245578, 1.126415, 1.125411, 1.123255, 1.189133, 1.133924, 1.128945, 1.128760, 1.125315, 1.126769, 1.126472, 1.152833, 1.122130, 1.130831, 1.126889, 1.124445, 1.125127, 1.128328, 1.120752, 1.122081, 1.126847, 1.121477, 1.143579, 1.167250, 1.125756, 1.402324, 1.122268, 1.116361, 1.117421
Process 31: 1.499166, 1.257853, 1.139495, 1.139051, 1.136553, 1.204053, 1.145602, 1.142439, 1.142198, 1.139654, 1.140365, 1.140097, 1.166486, 1.135625, 1.145087, 1.140923, 1.138050, 1.139283, 1.141433, 1.134452, 1.137839, 1.139978, 1.134776, 1.156645, 1.180339, 1.138835, 1.415872, 1.135957, 1.129607, 1.130713
