MPI_insiderank_optimisedserial
Process 0: 31.250255, 19.666044, 21.316826, 20.682404, 18.098710, 18.308257, 21.174935, 16.879858, 20.324757, 19.129315, 17.147034, 16.514345, 19.001322, 16.782495, 17.650492, 19.234727, 17.985961, 17.815723, 17.722741, 17.545104, 17.426180, 19.027728, 24.614978, 18.295772, 16.914760, 27.468925, 16.241500, 16.641711, 21.714336, 16.574438
Process 1: 26.052202, 14.733436, 16.371096, 15.349340, 12.527127, 12.456831, 16.245875, 12.157051, 15.485208, 12.862905, 12.345125, 12.328823, 12.239565, 12.615461, 12.673710, 13.818784, 12.534547, 12.979338, 11.992298, 12.341267, 12.627809, 12.908409, 19.198983, 13.183346, 12.343053, 22.741769, 12.037329, 11.891062, 17.563411, 12.132234
Process 2: 26.174557, 14.870049, 16.486850, 15.490476, 12.635006, 12.568945, 16.369215, 12.253648, 15.594493, 12.984332, 12.504427, 12.427156, 12.347199, 12.747438, 12.798369, 13.965106, 12.636423, 13.075505, 12.092946, 12.448392, 12.786348, 13.024940, 19.323361, 13.295574, 12.431496, 22.876465, 12.101848, 11.980100, 17.695420, 12.217912
Process 3: 26.303293, 14.997660, 16.615221, 15.614567, 12.773010, 12.705213, 16.599545, 12.347716, 15.708179, 13.104595, 12.736221, 12.522532, 12.472358, 12.973857, 12.943333, 14.092231, 12.772842, 13.216393, 12.219624, 12.578583, 12.871949, 13.172254, 19.551989, 13.451889, 12.536869, 23.090541, 12.201161, 12.077950, 17.950876, 12.318316
Process 4: 26.421607, 15.139947, 16.746127, 15.761493, 12.886599, 12.845197, 16.640363, 12.437896, 15.825107, 13.216646, 12.874862, 12.611110, 12.582348, 13.117403, 13.088740, 14.254943, 12.881421, 13.357338, 12.333037, 12.690780, 13.086193, 13.344992, 19.593434, 13.623775, 12.627469, 23.253097, 12.289098, 12.163936, 18.084430, 12.408405
Process 5: 26.541953, 15.251135, 16.872609, 15.873315, 13.012832, 12.970055, 16.663718, 12.512018, 15.948941, 13.328922, 12.946086, 12.687277, 12.710298, 13.299729, 13.212362, 14.362786, 13.002674, 13.449091, 12.444821, 12.816376, 13.156258, 13.442728, 19.620930, 13.723641, 12.702168, 23.297776, 12.369554, 12.243173, 18.275353, 12.491773
Process 6: 26.666497, 15.388158, 17.005511, 16.013555, 13.139557, 13.099589, 16.694956, 12.579681, 16.063983, 13.433440, 13.082646, 12.770963, 12.807401, 13.433121, 13.377194, 14.519200, 13.136493, 13.685190, 12.558367, 12.930242, 13.322911, 13.625529, 19.645013, 13.902476, 12.795285, 23.447423, 12.456217, 12.334879, 18.407135, 12.583851
Process 7: 26.790019, 15.495825, 17.129139, 16.126094, 13.266260, 13.210370, 16.815830, 12.643088, 16.176491, 13.555721, 13.130195, 12.851933, 12.927659, 13.637415, 13.484541, 14.630638, 13.242976, 13.855963, 12.677558, 13.051626, 13.495618, 13.710014, 19.748675, 13.993504, 12.881314, 23.519553, 12.537268, 12.406288, 18.619493, 12.654429
Process 8: 26.919278, 15.611921, 17.270403, 16.243738, 13.413487, 13.356266, 16.925066, 12.735046, 16.288298, 13.667648, 13.275863, 12.931894, 13.047824, 13.777374, 13.604987, 14.770198, 13.373612, 13.996801, 12.782220, 13.167693, 13.654632, 13.868146, 19.864255, 14.151059, 12.973271, 23.658869, 12.615554, 12.471497, 18.756254, 12.741949
Process 9: 27.147557, 15.729973, 17.386638, 16.356017, 13.519236, 13.460917, 17.052989, 12.834039, 16.397546, 13.787851, 13.339421, 13.010320, 13.190775, 13.948286, 13.733326, 14.887719, 13.477529, 14.142066, 12.913110, 13.297973, 13.802285, 13.976576, 19.982942, 14.256910, 13.065974, 23.716684, 12.688867, 12.555377, 18.911086, 12.813908
Process 10: 27.370038, 15.862535, 17.533689, 16.477875, 13.655041, 13.595195, 17.174093, 13.057235, 16.514841, 13.909146, 13.546257, 13.085544, 13.317452, 14.623866, 13.866031, 15.022780, 13.592711, 14.354224, 13.025942, 13.445928, 14.028221, 14.114407, 20.115859, 14.405692, 13.187666, 23.829555, 12.759083, 12.635080, 19.126746, 12.893213
Process 11: 27.561721, 15.960197, 17.641773, 16.587395, 13.766366, 13.701838, 17.290570, 13.272214, 16.620978, 14.017146, 13.742750, 13.166479, 13.417645, 14.745846, 13.977731, 15.133543, 13.706435, 14.558400, 13.144213, 13.558178, 14.222974, 14.215230, 20.217274, 14.507414, 13.292697, 23.904265, 12.841219, 12.723059, 19.341739, 12.970586
Process 12: 27.771974, 16.095065, 17.780095, 16.713020, 13.906219, 13.834216, 17.440607, 13.493682, 16.740172, 14.138816, 13.964036, 13.259787, 13.571869, 14.863815, 14.127889, 15.271140, 13.832100, 14.703637, 13.301128, 13.704186, 14.433430, 14.360974, 20.374609, 14.748672, 13.442317, 23.987691, 12.939460, 12.817627, 19.539428, 13.060549
Process 13: 27.996152, 16.200435, 17.887264, 16.819076, 14.014350, 13.937303, 17.534826, 13.685223, 16.852734, 14.251123, 14.189471, 13.340962, 13.663980, 14.883172, 14.213218, 15.375865, 13.938241, 14.763219, 13.398678, 13.789201, 14.644593, 14.461526, 20.462537, 14.945831, 13.522299, 24.057698, 13.016954, 12.912335, 19.767272, 13.146593
Process 14: 28.185241, 16.323939, 18.009528, 16.942533, 14.138021, 14.052373, 17.663361, 13.801047, 16.974117, 14.369485, 14.426296, 13.431818, 13.791673, 14.903168, 14.397260, 15.500934, 14.042858, 14.910864, 13.535222, 13.908839, 14.862542, 14.589415, 20.596058, 15.195078, 13.657926, 24.110188, 13.101224, 13.007869, 19.923285, 13.226389
Process 15: 28.211163, 16.428932, 18.112929, 17.035656, 14.235559, 14.147093, 17.755999, 13.895067, 17.064751, 14.468700, 14.677454, 13.505201, 13.883789, 14.916887, 14.610768, 15.596029, 14.147629, 15.138201, 13.615964, 14.004670, 14.968090, 14.676683, 20.683805, 15.408750, 13.717559, 24.134946, 13.183343, 13.089484, 20.007416, 13.307490
Process 16: 28.242675, 16.558355, 18.237143, 17.151044, 14.350173, 14.260688, 17.870360, 13.982522, 17.177760, 14.580818, 14.835649, 13.608247, 14.002237, 14.947990, 14.789988, 15.716288, 14.314276, 15.335692, 13.749199, 14.140374, 15.025055, 14.789905, 20.804361, 15.607690, 13.812349, 24.217381, 13.271127, 13.195628, 20.057268, 13.406023
Process 17: 28.268667, 16.808459, 18.340290, 17.253917, 14.455543, 14.364834, 17.973482, 14.064308, 17.278284, 14.685164, 14.862896, 13.689607, 14.102774, 14.962917, 14.850975, 15.817341, 14.362275, 15.565929, 13.836379, 14.222628, 15.098367, 14.893830, 20.901223, 15.814955, 13.886826, 24.326998, 13.364761, 13.271683, 20.102151, 13.482026
Process 18: 28.303043, 16.910345, 18.459294, 17.363884, 14.562824, 14.469344, 18.082154, 14.173856, 17.388405, 14.798809, 14.888690, 13.818330, 14.228435, 14.987117, 14.922823, 15.930964, 14.473190, 15.752314, 13.953830, 14.350910, 15.140621, 15.002537, 21.009970, 15.979213, 13.988979, 24.444503, 13.503366, 13.391685, 20.178749, 13.616987
Process 19: 28.325897, 17.092011, 18.543741, 17.441739, 14.645271, 14.544838, 18.161915, 14.324271, 17.465288, 14.877143, 14.902826, 13.841503, 14.294337, 15.004877, 14.992966, 16.006606, 14.559465, 15.945160, 14.022080, 14.416411, 15.163813, 15.073768, 21.090419, 16.046274, 14.061706, 24.524660, 13.512193, 13.427152, 20.254350, 13.631443
Process 20: 28.358554, 17.289601, 18.642740, 17.549096, 14.750988, 14.646245, 18.264330, 14.504570, 17.569050, 14.983261, 14.929810, 13.962854, 14.408247, 15.025735, 15.083559, 16.114382, 14.661510, 16.135749, 14.134998, 14.530536, 15.193025, 15.180796, 21.196994, 16.093632, 14.171491, 24.631889, 13.633461, 13.533885, 20.305061, 13.731142
Process 21: 28.380976, 17.376166, 18.717899, 17.624795, 14.825079, 14.741398, 18.342068, 14.630117, 17.640381, 15.058923, 14.953751, 14.151378, 14.478626, 15.045123, 15.296381, 16.190645, 14.734329, 16.340607, 14.202847, 14.593720, 15.213164, 15.252207, 21.265683, 16.143386, 14.243338, 24.691410, 13.713169, 13.555133, 20.327102, 13.749532
Process 22: 28.426364, 17.428219, 18.807400, 17.717412, 14.915777, 14.802599, 18.429262, 14.690987, 17.732576, 15.155213, 14.977269, 14.323277, 14.573607, 15.064345, 15.439010, 16.278083, 14.824772, 16.489689, 14.300466, 14.688132, 15.232255, 15.347312, 21.357456, 16.184447, 14.341350, 24.783409, 13.846406, 13.661129, 20.348843, 13.862156
Process 23: 28.504364, 17.465133, 18.871874, 17.775167, 14.984978, 14.863635, 18.495332, 14.718302, 17.800099, 15.221444, 14.993673, 14.384770, 14.634670, 15.079250, 15.542632, 16.333845, 14.881758, 16.508868, 14.359512, 14.732920, 15.250324, 15.430358, 21.412108, 16.402784, 14.394133, 24.842516, 13.932172, 13.702970, 20.363759, 13.977682
Process 24: 28.600085, 17.485353, 18.954827, 17.868317, 15.066339, 14.948434, 18.587688, 14.749382, 17.885726, 15.342104, 15.016398, 14.436747, 14.720522, 15.096714, 15.640849, 16.437417, 14.964093, 16.528536, 14.455978, 14.822957, 15.275500, 15.522958, 21.500631, 16.595428, 14.487842, 24.938657, 14.017028, 13.801224, 20.383846, 14.070568
Process 25: 28.697653, 17.503782, 19.015220, 17.949058, 15.118293, 15.007266, 18.673376, 14.774752, 17.949690, 15.426740, 15.037882, 14.479814, 14.804033, 15.117329, 15.767363, 16.519181, 15.036241, 16.547126, 14.535578, 14.879936, 15.297765, 15.592197, 21.553319, 16.807221, 14.545794, 25.031909, 14.080473, 13.851475, 20.401966, 14.138068
Process 26: 28.806687, 17.536154, 19.089665, 18.055407, 15.215682, 15.085218, 18.779203, 14.811356, 18.030326, 15.528775, 15.066652, 14.528935, 14.903541, 15.137364, 15.929067, 16.596931, 15.134061, 16.568018, 14.630332, 14.986801, 15.320128, 15.642157, 21.648581, 17.005595, 14.623825, 25.137909, 14.151777, 13.932169, 20.426948, 14.302937
Process 27: 28.894180, 17.557978, 19.199581, 18.134143, 15.301261, 15.148680, 18.854094, 14.832793, 18.092962, 15.607842, 15.088331, 14.578415, 14.979787, 15.154102, 16.084884, 16.664488, 15.214410, 16.582320, 14.841699, 15.052353, 15.336530, 15.812867, 21.730644, 17.208330, 14.683552, 25.221507, 14.207557, 13.976649, 20.449091, 14.487232
Process 28: 29.001140, 17.577317, 19.290906, 18.240239, 15.398493, 15.243566, 18.957753, 14.857327, 18.191282, 15.714445, 15.113553, 14.622278, 15.082577, 15.173314, 16.255018, 16.751821, 15.313799, 16.603231, 15.016865, 15.148980, 15.355363, 15.985815, 21.825070, 17.351273, 14.776471, 25.329698, 14.274562, 14.063357, 20.471542, 14.666986
Process 29: 29.100131, 17.633166, 19.378198, 18.332955, 15.486324, 15.327287, 19.052208, 14.888040, 18.301768, 15.812132, 15.141051, 14.666101, 15.173328, 15.190315, 16.380743, 16.836189, 15.399813, 16.623022, 15.204524, 15.230286, 15.389246, 16.171877, 21.917190, 17.568632, 14.859117, 25.423983, 14.323605, 14.140239, 20.488743, 14.856825
Process 30: 29.211710, 17.743337, 19.515050, 18.443661, 15.588309, 15.438596, 19.161683, 14.989332, 18.444619, 15.923692, 15.252111, 14.713274, 15.283656, 15.211675, 16.439331, 16.941125, 15.507604, 16.644219, 15.398729, 15.336734, 15.495788, 16.365530, 22.027853, 17.731878, 14.952195, 25.535351, 14.407091, 14.242009, 20.510588, 15.055176
Process 31: 29.304070, 17.837157, 19.598071, 18.537601, 15.683023, 15.513792, 19.259231, 15.062841, 18.559238, 16.016885, 15.360011, 14.881039, 15.373469, 15.231120, 16.486153, 17.016368, 15.601886, 16.658460, 15.479661, 15.425138, 15.590166, 16.540203, 22.119793, 17.809112, 15.040980, 25.623207, 14.464413, 14.313905, 20.529606, 15.231552
Process 32: 29.416557, 17.937455, 19.716267, 18.647206, 15.789144, 15.611257, 19.366378, 15.164158, 18.674417, 16.128845, 15.462125, 15.062679, 15.485345, 15.250925, 16.503114, 17.117597, 15.709774, 16.680669, 15.523259, 15.534747, 15.699858, 16.724095, 22.226519, 17.822311, 15.146548, 25.731422, 14.557272, 14.414389, 20.550055, 15.417796
Process 33: 29.530335, 18.059527, 19.800712, 18.764512, 15.907242, 15.722065, 19.483638, 15.262872, 18.795704, 16.249598, 15.583356, 15.249675, 15.607972, 15.278175, 16.532803, 17.229402, 15.833349, 16.708766, 15.583042, 15.654984, 15.824214, 16.912411, 22.347074, 17.840885, 15.262471, 25.858461, 14.679261, 14.526373, 20.583117, 15.600581
Process 34: 29.620683, 18.145022, 19.847458, 18.825877, 15.978110, 15.804201, 19.540169, 15.349848, 18.831137, 16.315374, 15.652442, 15.426461, 15.660264, 15.292653, 16.545266, 17.293510, 15.903766, 16.722418, 15.619459, 15.729071, 15.893646, 17.088349, 22.407547, 17.855070, 15.326301, 25.932243, 14.749460, 14.607110, 20.597277, 15.778708
Process 35: 29.722354, 18.259665, 19.953874, 18.975369, 16.095452, 15.910900, 19.655390, 15.446249, 18.942420, 16.428856, 15.754451, 15.593650, 15.780950, 15.370710, 16.573689, 17.416715, 16.013484, 16.750784, 15.730437, 15.834265, 16.007463, 17.251069, 22.519359, 17.872550, 15.504663, 26.040965, 14.861491, 14.720331, 20.627580, 15.857141
Process 36: 29.796796, 18.301200, 20.003550, 19.174308, 16.155012, 15.980290, 19.718360, 15.505008, 18.995356, 16.472521, 15.820380, 15.784309, 15.827660, 15.414147, 16.587700, 17.629455, 16.066298, 16.765460, 15.927608, 15.893958, 16.058683, 17.446569, 22.568591, 17.886896, 15.651361, 26.091289, 14.907037, 14.776066, 20.642524, 15.909992
Process 37: 29.889493, 18.393727, 20.093404, 19.357915, 16.257114, 16.077725, 19.812584, 15.597866, 19.100923, 16.571259, 15.909712, 15.906551, 15.928359, 15.509675, 16.616953, 17.768124, 16.159622, 16.790460, 16.108418, 15.989602, 16.152761, 17.610880, 22.665523, 17.903407, 15.720869, 26.190961, 15.003505, 14.870785, 20.671554, 15.958870
Process 38: 29.947814, 18.431266, 20.126593, 19.511898, 16.301693, 16.136511, 19.844600, 15.642871, 19.143835, 16.606422, 15.957713, 15.922974, 15.981293, 15.545902, 16.631297, 17.804307, 16.197495, 16.806685, 16.258758, 16.036209, 16.193353, 17.770243, 22.707129, 17.919659, 15.766578, 26.229891, 15.018810, 14.926185, 20.687250, 15.995126
Process 39: 30.032693, 18.512733, 20.208698, 19.705833, 16.386458, 16.217707, 19.928797, 15.716313, 19.235748, 16.688120, 16.025898, 15.946872, 16.066472, 15.629105, 16.659841, 17.860262, 16.277732, 16.832912, 16.449804, 16.116133, 16.274488, 17.951737, 22.787682, 17.937362, 15.879472, 26.316691, 15.104757, 15.008283, 20.715835, 16.056244
Process 40: 30.075324, 18.544089, 20.235476, 19.821039, 16.417952, 16.260734, 19.956736, 15.751044, 19.278276, 16.718501, 16.052388, 15.960614, 16.109819, 15.661241, 16.671669, 17.895689, 16.308172, 16.848957, 16.568830, 16.149369, 16.304415, 18.075944, 22.815472, 17.951096, 15.958298, 26.349066, 15.134176, 15.038335, 20.732221, 16.092222
Process 41: 30.160905, 18.614327, 20.305396, 20.001317, 16.487712, 16.333130, 20.029538, 15.813301, 19.341192, 16.786863, 16.117774, 15.979815, 16.211566, 15.726654, 16.695986, 17.992439, 16.383084, 16.871731, 16.746215, 16.216406, 16.372165, 18.253491, 22.882173, 17.966705, 16.062976, 26.415201, 15.201619, 15.117820, 20.759049, 16.150947
Process 42: 30.220040, 18.649095, 20.337147, 20.161983, 16.519010, 16.365038, 20.060017, 15.852509, 19.386126, 16.837011, 16.155621, 15.995317, 16.368614, 15.760487, 16.711278, 18.149449, 16.413665, 16.888453, 16.905155, 16.250480, 16.406016, 18.416194, 22.916757, 17.982458, 16.118281, 26.453915, 15.237003, 15.140815, 20.773396, 16.168030
Process 43: 30.290968, 18.708352, 20.401195, 20.337626, 16.582972, 16.434045, 20.123004, 15.913148, 19.456285, 16.915196, 16.212877, 16.014832, 16.572458, 15.819671, 16.736975, 18.361149, 16.477282, 16.911470, 17.083197, 16.313955, 16.469173, 18.589788, 22.981494, 18.000617, 16.179751, 26.512143, 15.297993, 15.205037, 20.803995, 16.185636
Process 44: 30.343294, 18.741725, 20.432077, 20.364471, 16.744609, 16.480859, 20.154760, 15.947122, 19.500784, 16.957936, 16.243273, 16.032345, 16.730562, 15.864379, 16.749248, 18.453546, 16.510198, 16.926568, 17.243695, 16.349897, 16.500719, 18.614220, 23.014167, 18.014746, 16.216500, 26.549734, 15.330247, 15.376918, 20.819626, 16.200482
Process 45: 30.410399, 18.796541, 20.492132, 20.378442, 16.912793, 16.551836, 20.212229, 16.010087, 19.557985, 17.029175, 16.311445, 16.052343, 16.916282, 15.936395, 16.790900, 18.530689, 16.581173, 16.974315, 17.405490, 16.414001, 16.557401, 18.774560, 23.073856, 18.030137, 16.342348, 26.618501, 15.395543, 15.543419, 20.844454, 16.215974
Process 46: 30.462494, 18.852479, 20.543846, 20.391748, 17.052957, 16.616124, 20.265651, 16.078454, 19.577038, 17.085966, 16.363525, 16.069730, 16.961666, 15.994610, 16.850197, 18.582633, 16.638845, 17.030783, 17.419687, 16.460670, 16.613407, 18.790014, 23.122156, 18.042651, 16.388030, 26.684434, 15.461776, 15.686784, 20.904838, 16.229390
Process 47: 30.517882, 18.901981, 20.589334, 20.408248, 17.216614, 16.667399, 20.313167, 16.123050, 19.599482, 17.139110, 16.417934, 16.090805, 17.047691, 16.046314, 16.934095, 18.674868, 16.694167, 17.084912, 17.438285, 16.513037, 16.692191, 18.807454, 23.177557, 18.060264, 16.474166, 26.732213, 15.502443, 15.850896, 20.990046, 16.247068
Process 48: 30.568014, 18.955330, 20.639583, 20.420986, 17.402896, 16.718443, 20.361543, 16.186825, 19.636365, 17.187535, 16.461956, 16.106775, 17.088214, 16.093684, 16.969275, 18.729083, 16.744754, 17.135464, 17.451285, 16.559686, 16.720793, 18.820677, 23.225398, 18.073248, 16.511144, 26.785317, 15.550091, 15.955236, 21.018817, 16.261210
Process 49: 30.620247, 19.004957, 20.685999, 20.433312, 17.513824, 16.770556, 20.407808, 16.239780, 19.708071, 17.238784, 16.516992, 16.126503, 17.153960, 16.148515, 17.046076, 18.796807, 16.800283, 17.189757, 17.466453, 16.610574, 16.779429, 18.834410, 23.278197, 18.088996, 16.576687, 26.837771, 15.599471, 16.031379, 21.093870, 16.298480
Process 50: 30.669573, 19.054741, 20.731820, 20.446514, 17.693645, 16.815671, 20.455421, 16.291848, 19.733763, 17.406615, 16.564242, 16.144723, 17.292160, 16.195858, 17.069013, 18.846041, 16.843364, 17.232881, 17.478013, 16.774394, 16.822949, 18.847646, 23.318844, 18.100872, 16.595498, 26.885715, 15.646556, 16.122070, 21.126226, 16.311843
Process 51: 30.739817, 19.103509, 20.806774, 20.463197, 17.868309, 16.862490, 20.524445, 16.338280, 19.792001, 17.580888, 16.616304, 16.167976, 17.485301, 16.247171, 17.127373, 18.915774, 16.896089, 17.284398, 17.495687, 16.948022, 16.874801, 18.864105, 23.369432, 18.121492, 16.649609, 26.936839, 15.700397, 16.240377, 21.179380, 16.348583
Process 52: 30.763053, 19.149100, 20.826318, 20.475520, 17.893355, 16.975567, 20.546792, 16.389700, 19.829178, 17.689504, 16.659527, 16.183057, 17.595759, 16.291304, 17.163957, 18.938007, 16.936675, 17.327509, 17.508284, 16.998954, 16.917807, 18.876578, 23.413650, 18.135266, 16.671265, 26.980271, 15.739542, 16.288845, 21.222583, 16.363381
Process 53: 30.819769, 19.217441, 20.883099, 20.513573, 17.908870, 17.107328, 20.603836, 16.432241, 19.877160, 17.817358, 16.705202, 16.202131, 17.745085, 16.338831, 17.212955, 18.974714, 16.985531, 17.374888, 17.548920, 17.041974, 16.966058, 18.890750, 23.481941, 18.148942, 16.707887, 27.029879, 15.787697, 16.329077, 21.268820, 16.383746
Process 54: 30.851447, 19.238563, 20.915968, 20.524743, 17.920506, 17.264445, 20.635823, 16.480428, 19.919887, 17.974150, 16.747850, 16.216785, 17.903204, 16.381808, 17.255136, 18.988298, 17.029342, 17.417862, 17.563034, 17.079612, 17.007086, 18.902536, 23.500447, 18.163153, 16.719913, 27.075641, 15.832093, 16.365008, 21.309392, 16.396363
Process 55: 30.900525, 19.297843, 20.962257, 20.561907, 17.936493, 17.439906, 20.682703, 16.525658, 19.999115, 18.148878, 16.795635, 16.234688, 18.101904, 16.427581, 17.326130, 19.048847, 17.078235, 17.465678, 17.602902, 17.130734, 17.056017, 18.918849, 23.559752, 18.182426, 16.738350, 27.119501, 15.883984, 16.409754, 21.357629, 16.413223
Process 56: 30.942099, 19.330147, 21.004954, 20.577159, 17.950499, 17.589514, 20.726189, 16.571393, 20.015893, 18.298615, 16.838401, 16.250334, 18.250012, 16.470690, 17.344970, 19.064061, 17.154631, 17.509649, 17.616498, 17.169655, 17.097656, 18.931738, 23.592386, 18.195330, 16.757053, 27.166132, 15.921762, 16.442267, 21.400704, 16.426727
Process 57: 31.013124, 19.373947, 21.071628, 20.599690, 17.965883, 17.760136, 20.792897, 16.636679, 20.074879, 18.465929, 16.907088, 16.269093, 18.437316, 16.539994, 17.402848, 19.113047, 17.341994, 17.575502, 17.637161, 17.230387, 17.173913, 18.948236, 23.636391, 18.209876, 16.771825, 27.228060, 15.967939, 16.482561, 21.469904, 16.443127
Process 58: 31.029035, 19.419735, 21.090491, 20.611165, 17.977628, 17.948450, 20.811722, 16.658350, 20.102389, 18.661493, 16.924163, 16.296604, 18.626168, 16.560393, 17.431611, 19.144688, 17.533404, 17.595338, 17.648764, 17.273323, 17.196338, 18.959612, 23.756141, 18.221542, 16.784702, 27.250875, 16.009003, 16.522319, 21.487662, 16.454358
Process 59: 31.087150, 19.463782, 21.150694, 20.628686, 17.993289, 18.120423, 20.870619, 16.714832, 20.148179, 18.835118, 16.983108, 16.342439, 18.819338, 16.620010, 17.478066, 19.175336, 17.708171, 17.653066, 17.666921, 17.334097, 17.252152, 18.974616, 23.928370, 18.240656, 16.802270, 27.311956, 16.055906, 16.562458, 21.547304, 16.470283
Process 60: 31.118239, 19.507990, 21.179987, 20.641711, 18.008371, 18.264557, 20.902150, 16.749829, 20.193609, 18.965857, 17.015999, 16.387627, 18.955339, 16.652076, 17.527980, 19.192530, 17.852391, 17.685326, 17.679805, 17.372068, 17.288983, 18.988846, 24.085486, 18.254942, 16.818325, 27.335648, 16.098321, 16.593552, 21.579298, 16.484869
Process 61: 31.162270, 19.550227, 21.224513, 20.658499, 18.046233, 18.282716, 20.947724, 16.789727, 20.240740, 19.007944, 17.058079, 16.436096, 18.976892, 16.695986, 17.571151, 19.210355, 17.895523, 17.730251, 17.697225, 17.450442, 17.334949, 19.004083, 24.275626, 18.270997, 16.857503, 27.381412, 16.167436, 16.610940, 21.624897, 16.522122
Process 62: 31.213145, 19.594648, 21.280439, 20.669800, 18.060017, 18.295464, 21.002789, 16.842329, 20.282744, 19.045954, 17.108277, 16.474844, 18.988271, 16.744021, 17.608496, 19.222235, 17.932628, 17.778869, 17.708852, 17.496147, 17.386442, 19.016215, 24.453438, 18.283136, 16.870853, 27.432302, 16.184349, 16.625734, 21.676422, 16.535356
Process 63: 31.253085, 19.669316, 21.319305, 20.686128, 18.101735, 18.311044, 21.178009, 16.882146, 20.328359, 19.131540, 17.149494, 16.517081, 19.004633, 16.784994, 17.653021, 19.236366, 17.989492, 17.818998, 17.726027, 17.548218, 17.429405, 19.031267, 24.618286, 18.299524, 16.917829, 27.471259, 16.244153, 16.645106, 21.716934, 16.578392
