MPI_insiderank_optimisedserial
Process 0: 39.660798, 26.222488, 26.824294, 26.138451, 28.984184, 27.356442, 24.708001, 27.792444, 27.893432, 27.708030, 24.594641, 28.372356, 27.814010, 29.837378, 27.764288, 30.312497, 27.960071, 30.250568, 27.867524, 30.106379, 28.100167, 26.141671, 80.151246, 157.489906, 24.569700, 24.852135, 25.808109, 24.553034, 24.870221, 24.683077
Process 1: 30.878481, 17.732638, 18.229243, 17.667566, 18.384738, 18.854129, 16.169401, 19.310691, 19.402523, 19.274626, 16.047421, 19.862580, 19.441666, 20.060977, 19.314727, 20.139387, 19.294597, 20.009776, 19.182933, 19.968232, 19.455194, 17.455375, 70.179978, 146.666704, 16.184163, 16.262784, 16.892023, 16.148882, 16.194841, 16.146111
Process 2: 30.982844, 17.863866, 18.357337, 17.797887, 18.487129, 18.986979, 16.265702, 19.442117, 19.531971, 19.349873, 16.135893, 19.991644, 19.573965, 20.161446, 19.404297, 20.242299, 19.416923, 20.112458, 19.297108, 20.071030, 19.569176, 17.556943, 70.303306, 146.770190, 16.318612, 16.359145, 17.009528, 16.281059, 16.278175, 16.281838
Process 3: 31.092153, 17.958502, 18.448854, 17.922183, 18.605678, 19.099257, 16.364800, 19.559208, 19.642372, 19.461088, 16.245369, 20.075566, 19.647079, 20.287490, 19.498911, 20.360622, 19.503657, 20.225453, 19.382903, 20.186922, 19.656461, 17.672263, 70.425481, 146.906504, 16.384871, 16.455075, 17.138903, 16.364805, 16.388161, 16.349719
Process 4: 31.180329, 18.040761, 18.522288, 18.011149, 18.695358, 19.194507, 16.429276, 19.630266, 19.726376, 19.556116, 16.340875, 20.164983, 19.734098, 20.365241, 19.579253, 20.450538, 19.585217, 20.304237, 19.463367, 20.276106, 19.726669, 17.733214, 70.527372, 147.008566, 16.470797, 16.527299, 17.249571, 16.451283, 16.467850, 16.436495
Process 5: 31.293972, 18.113375, 18.599648, 18.063405, 18.803778, 19.263950, 16.509733, 19.683641, 19.782299, 19.624799, 16.410831, 20.230455, 19.797336, 20.470540, 19.654318, 20.551523, 19.645521, 20.407359, 19.520723, 20.383687, 19.793454, 17.823355, 70.620314, 147.110011, 16.540618, 16.612141, 17.353051, 16.529705, 16.587487, 16.505032
Process 6: 31.387455, 18.151895, 18.646356, 18.129016, 18.883039, 19.317833, 16.566458, 19.748156, 19.852678, 19.666592, 16.480162, 20.272643, 19.841191, 20.554024, 19.713342, 20.639617, 19.698691, 20.485863, 19.576721, 20.463101, 19.854508, 17.876176, 70.711420, 147.199705, 16.579779, 16.690693, 17.444482, 16.576748, 16.677785, 16.544761
Process 7: 31.474343, 18.223178, 18.704786, 18.179779, 18.977482, 19.380092, 16.644261, 19.793926, 19.894937, 19.737024, 16.526538, 20.351363, 19.910926, 20.654983, 19.758846, 20.726347, 19.784124, 20.583891, 19.667235, 20.568603, 19.946484, 17.967184, 70.792808, 147.298296, 16.654084, 16.782902, 17.533969, 16.650696, 16.774170, 16.616539
Process 8: 31.526170, 18.291190, 18.761353, 18.222387, 19.051282, 19.418761, 16.716893, 19.846974, 19.945484, 19.807434, 16.576856, 20.426419, 19.985329, 20.728178, 19.820927, 20.804011, 19.859366, 20.656873, 19.741305, 20.638404, 20.020547, 18.036463, 70.870697, 147.378845, 16.727799, 16.857083, 17.613970, 16.713491, 16.852259, 16.691051
Process 9: 31.611178, 18.383084, 18.836918, 18.286149, 19.139373, 19.479468, 16.805886, 19.920193, 20.015786, 19.894935, 16.651910, 20.521022, 20.070786, 20.826485, 19.908451, 20.894172, 19.951588, 20.754300, 19.829043, 20.726652, 20.112479, 18.126709, 70.947355, 147.451432, 16.820182, 16.937106, 17.692341, 16.796952, 16.927805, 16.776885
Process 10: 31.669065, 18.463243, 18.893981, 18.346781, 19.203420, 19.545023, 16.862568, 19.976345, 20.073431, 19.948928, 16.711046, 20.590394, 20.122345, 20.884623, 19.963209, 20.949904, 20.010126, 20.818532, 19.887065, 20.785298, 20.169172, 18.187003, 71.014841, 147.521537, 16.872027, 17.001056, 17.763823, 16.860165, 16.979754, 16.836614
Process 11: 31.756159, 18.536039, 18.980306, 18.428102, 19.291131, 19.633081, 16.945744, 20.056691, 20.156868, 20.028940, 16.791875, 20.686921, 20.208354, 20.970110, 20.044490, 21.034620, 20.085338, 20.909052, 19.972354, 20.876742, 20.253774, 18.271065, 71.089431, 147.588556, 16.949230, 17.084829, 17.831964, 16.950132, 17.014485, 16.916833
Process 12: 31.821544, 18.569282, 19.041631, 18.487782, 19.357357, 19.684643, 17.012956, 20.121119, 20.218241, 20.093036, 16.853759, 20.738825, 20.271555, 21.037759, 20.108619, 21.097326, 20.155899, 20.981807, 20.034137, 20.951575, 20.316819, 18.338289, 71.139690, 147.651681, 17.016156, 17.150002, 17.889974, 17.002234, 17.058861, 16.982410
Process 13: 31.898707, 18.638687, 19.116079, 18.560499, 19.451021, 19.759615, 17.089498, 20.192142, 20.287086, 20.164409, 16.927580, 20.812705, 20.340771, 21.108688, 20.178374, 21.180360, 20.230834, 21.071081, 20.110146, 21.050280, 20.393104, 18.413829, 71.226435, 147.722386, 17.088707, 17.224400, 17.954666, 17.056868, 17.133444, 17.051891
Process 14: 31.954950, 18.695660, 19.200336, 18.617334, 19.511852, 19.814825, 17.144667, 20.250808, 20.344205, 20.220964, 16.983921, 20.868991, 20.400160, 21.174753, 20.235088, 21.257574, 20.286738, 21.156621, 20.165621, 21.123884, 20.448038, 18.471059, 71.302833, 147.770283, 17.143976, 17.281587, 17.995895, 17.112809, 17.188033, 17.111001
Process 15: 32.031082, 18.768799, 19.281580, 18.691131, 19.607858, 19.886789, 17.218950, 20.321189, 20.416574, 20.297482, 17.059873, 20.931805, 20.471127, 21.274335, 20.305997, 21.352768, 20.362771, 21.250615, 20.242939, 21.233010, 20.523328, 18.547561, 71.434893, 147.861286, 17.218844, 17.358637, 18.076553, 17.186818, 17.264082, 17.185287
Process 16: 32.087934, 18.827031, 19.333772, 18.747967, 19.687005, 19.932926, 17.275573, 20.379914, 20.471946, 20.354579, 17.117885, 20.976859, 20.529791, 21.349569, 20.368935, 21.422221, 20.418609, 21.344985, 20.299331, 21.320846, 20.579148, 18.607731, 71.488350, 147.938131, 17.275464, 17.415155, 18.127664, 17.242023, 17.323423, 17.242629
Process 17: 32.153596, 18.886414, 19.395303, 18.810181, 19.783168, 19.994469, 17.338365, 20.442337, 20.532003, 20.412970, 17.181426, 21.038534, 20.592503, 21.438486, 20.433801, 21.521013, 20.476258, 21.454158, 20.357815, 21.416650, 20.636615, 18.670749, 71.588874, 148.060713, 17.336267, 17.474371, 18.214691, 17.302483, 17.386072, 17.301112
Process 18: 32.225938, 18.937070, 19.422473, 18.859555, 19.864034, 20.040840, 17.386057, 20.490580, 20.582263, 20.462821, 17.229577, 21.084168, 20.640499, 21.519258, 20.482115, 21.601309, 20.522604, 21.540002, 20.405695, 21.499571, 20.682417, 18.719868, 71.676734, 148.110620, 17.384445, 17.526931, 18.281822, 17.350394, 17.435231, 17.345716
Process 19: 32.334952, 18.997886, 19.463410, 18.919943, 19.966163, 20.089806, 17.447037, 20.549356, 20.639140, 20.520027, 17.290495, 21.142534, 20.702171, 21.623582, 20.545797, 21.708544, 20.583533, 21.652036, 20.467703, 21.608748, 20.744752, 18.795812, 71.783957, 148.216946, 17.442837, 17.577982, 18.405914, 17.408802, 17.500890, 17.406264
Process 20: 32.418014, 19.044415, 19.517847, 18.978208, 20.056949, 20.139898, 17.499280, 20.596741, 20.688221, 20.568750, 17.349736, 21.191777, 20.746044, 21.703008, 20.598642, 21.794239, 20.644813, 21.743200, 20.544483, 21.688480, 20.810494, 18.860972, 71.867390, 148.292002, 17.492137, 17.626759, 18.457392, 17.454815, 17.548199, 17.463679
Process 21: 32.515333, 19.100142, 19.587851, 19.050549, 20.165718, 20.222501, 17.595202, 20.653787, 20.755587, 20.642447, 17.450338, 21.279155, 20.801510, 21.802760, 20.672366, 21.900697, 20.734115, 21.850826, 20.640155, 21.796403, 20.900590, 18.943413, 71.970647, 148.378597, 17.553233, 17.707995, 18.553115, 17.509691, 17.635819, 17.565720
Process 22: 32.598126, 19.167687, 19.662450, 19.121439, 20.246989, 20.306680, 17.674859, 20.712689, 20.828141, 20.718413, 17.533866, 21.365004, 20.877030, 21.889186, 20.754343, 21.988767, 20.814827, 21.944675, 20.719676, 21.883401, 20.975530, 19.006710, 72.062620, 148.471803, 17.634200, 17.782168, 18.618826, 17.577186, 17.714783, 17.648722
Process 23: 32.704938, 19.263369, 19.750074, 19.237303, 20.357853, 20.405430, 17.767692, 20.815438, 20.919305, 20.815890, 17.636264, 21.460422, 20.971111, 21.999049, 20.854787, 22.101377, 20.913435, 22.058932, 20.827529, 21.994874, 21.079086, 19.107318, 72.172758, 148.573896, 17.732927, 17.884053, 18.742093, 17.673027, 17.818279, 17.756997
Process 24: 32.792379, 19.352090, 19.815632, 19.288433, 20.448998, 20.494583, 17.844123, 20.891870, 20.992025, 20.894278, 17.710594, 21.529846, 21.046048, 22.086500, 20.940304, 22.190765, 20.996103, 22.152153, 20.910056, 22.085638, 21.160123, 19.191105, 72.267801, 148.648409, 17.810455, 17.954711, 18.806987, 17.745686, 17.892378, 17.845983
Process 25: 32.902609, 19.454200, 19.913181, 19.374991, 20.563612, 20.597660, 17.947764, 20.993238, 21.092246, 20.993101, 17.807331, 21.626438, 21.141326, 22.195648, 21.040377, 22.301946, 21.104803, 22.260747, 21.019384, 22.192258, 21.261042, 19.295333, 72.380913, 148.744856, 17.898843, 18.046453, 18.930760, 17.846547, 17.992937, 17.941838
Process 26: 32.997841, 19.540219, 19.991852, 19.458862, 20.668381, 20.686564, 18.036414, 21.083783, 21.190360, 21.076403, 17.902736, 21.716392, 21.229564, 22.288390, 21.128305, 22.398972, 21.194707, 22.360132, 21.106005, 22.299983, 21.356933, 19.375765, 72.470779, 148.819703, 17.974665, 18.132755, 18.991673, 17.937946, 18.077450, 18.038323
Process 27: 33.107070, 19.648321, 20.100756, 19.558991, 20.794130, 20.793503, 18.144570, 21.186356, 21.266015, 21.179840, 18.007024, 21.824462, 21.332445, 22.401765, 21.235811, 22.513733, 21.303919, 22.473370, 21.210360, 22.408462, 21.460677, 19.485024, 72.585722, 148.938776, 18.091979, 18.228925, 19.123316, 18.044105, 18.188044, 18.146595
Process 28: 33.198425, 19.734473, 20.190016, 19.650198, 20.889821, 20.884045, 18.234464, 21.271632, 21.333009, 21.263161, 18.095318, 21.912877, 21.423844, 22.494181, 21.325531, 22.610390, 21.396999, 22.567312, 21.297220, 22.506782, 21.551467, 19.579199, 72.680505, 149.011322, 18.181799, 18.317041, 19.196164, 18.130545, 18.271748, 18.231480
Process 29: 33.314403, 19.839017, 20.299379, 19.761726, 21.007252, 20.996462, 18.342769, 21.376278, 21.423233, 21.374447, 18.204597, 22.021346, 21.527703, 22.608479, 21.431205, 22.725868, 21.508102, 22.681705, 21.409774, 22.619695, 21.660781, 19.687729, 72.797994, 149.165188, 18.319477, 18.421669, 19.315806, 18.236182, 18.386761, 18.344505
Process 30: 33.409755, 19.937115, 20.396534, 19.847277, 21.098876, 21.085195, 18.444710, 21.475339, 21.551619, 21.461082, 18.299418, 22.112987, 21.625840, 22.709101, 21.531851, 22.826737, 21.603404, 22.783000, 21.503458, 22.722060, 21.755706, 19.785776, 72.892479, 149.243303, 18.388273, 18.519997, 19.407288, 18.329252, 18.487543, 18.439966
Process 31: 33.528842, 20.040241, 20.510424, 19.958282, 21.199057, 21.202323, 18.553083, 21.583134, 21.654920, 21.566567, 18.412148, 22.223399, 21.732407, 22.822596, 21.638699, 22.940559, 21.714722, 22.898125, 21.616627, 22.837056, 21.871252, 19.900007, 73.017561, 149.348110, 18.514107, 18.621280, 19.542559, 18.436243, 18.599947, 18.572957
Process 32: 33.647180, 20.153313, 20.623106, 20.076815, 21.318794, 21.318925, 18.669803, 21.688175, 21.763017, 21.673468, 18.526867, 22.337530, 21.848942, 22.938767, 21.752530, 23.059495, 21.831407, 23.012617, 21.732450, 22.952203, 21.986453, 20.013360, 73.137120, 149.452766, 18.612233, 18.735554, 19.656675, 18.557237, 18.720696, 18.692627
Process 33: 33.732048, 20.241776, 20.709087, 20.164093, 21.412214, 21.429080, 18.753190, 21.771199, 21.846411, 21.768681, 18.617787, 22.423366, 21.935653, 23.013054, 21.836535, 23.144692, 21.925731, 23.090322, 21.826666, 23.029396, 22.066943, 20.112624, 73.209022, 149.559273, 18.703543, 18.830655, 19.763437, 18.650679, 18.817359, 18.771229
Process 34: 33.825475, 20.321865, 20.794145, 20.254592, 21.497237, 21.525651, 18.836988, 21.857518, 21.945807, 21.848103, 18.695540, 22.511686, 22.018301, 23.099000, 21.913638, 23.235947, 22.014722, 23.173270, 21.914301, 23.116655, 22.153106, 20.191573, 73.308300, 149.641089, 18.792316, 18.913825, 19.851590, 18.723613, 18.906971, 18.858868
Process 35: 33.893223, 20.415165, 20.871205, 20.330260, 21.586628, 21.589322, 18.913766, 21.942829, 22.023593, 21.923305, 18.790282, 22.583407, 22.105324, 23.180590, 22.006073, 23.310119, 22.087530, 23.257582, 21.996399, 23.188155, 22.228923, 20.274835, 73.378253, 149.731297, 18.876443, 18.989723, 19.929424, 18.819300, 18.986456, 18.948462
Process 36: 33.961732, 20.471168, 20.941337, 20.400638, 21.644120, 21.653537, 18.982552, 22.013143, 22.103998, 21.993703, 18.856021, 22.655689, 22.163916, 23.241629, 22.064444, 23.379664, 22.162045, 23.321678, 22.062298, 23.256014, 22.296925, 20.341230, 73.434913, 149.795428, 18.939839, 19.063156, 20.004914, 18.883027, 19.061471, 18.994621
Process 37: 34.046556, 20.556885, 21.029053, 20.485484, 21.733815, 21.717517, 19.108209, 22.097615, 22.180557, 22.077226, 18.944092, 22.746922, 22.242009, 23.332370, 22.144779, 23.462948, 22.236683, 23.409352, 22.153290, 23.344470, 22.374605, 20.430995, 73.520426, 149.882597, 19.034848, 19.149065, 20.097661, 18.969013, 19.147445, 19.092975
Process 38: 34.096687, 20.608633, 21.085087, 20.543654, 21.794096, 21.764165, 19.155745, 22.154562, 22.244889, 22.129364, 18.995789, 22.798725, 22.307185, 23.391477, 22.216029, 23.513407, 22.293011, 23.460193, 22.212102, 23.391577, 22.430902, 20.486533, 73.565701, 149.945024, 19.082674, 19.208817, 20.152682, 19.022238, 19.202332, 19.142441
Process 39: 34.169475, 20.681875, 21.154877, 20.612679, 21.861765, 21.833346, 19.227404, 22.227655, 22.322024, 22.199490, 19.069738, 22.862348, 22.374994, 23.462878, 22.282244, 23.583855, 22.367325, 23.530716, 22.282603, 23.461290, 22.504078, 20.558527, 73.637275, 150.049907, 19.159851, 19.279121, 20.220339, 19.087097, 19.279412, 19.219276
Process 40: 34.221202, 20.736823, 21.208972, 20.667942, 21.911945, 21.884626, 19.274476, 22.284075, 22.380766, 22.249294, 19.120885, 22.918241, 22.423636, 23.513869, 22.327115, 23.635572, 22.423402, 23.581328, 22.332975, 23.509353, 22.554764, 20.613059, 73.690706, 150.107220, 19.207964, 19.332192, 20.253638, 19.141301, 19.335196, 19.263358
Process 41: 34.286346, 20.797114, 21.274617, 20.730827, 21.977338, 21.953041, 19.324030, 22.352883, 22.448403, 22.315001, 19.184698, 22.984253, 22.490881, 23.581448, 22.392549, 23.701777, 22.486187, 23.644017, 22.400788, 23.575520, 22.625210, 20.679069, 73.767503, 150.198023, 19.299508, 19.393801, 20.325095, 19.209128, 19.396443, 19.342618
Process 42: 34.337504, 20.846844, 21.323576, 20.790368, 22.025695, 22.002965, 19.362254, 22.403296, 22.509601, 22.370577, 19.233402, 23.034555, 22.538188, 23.628127, 22.443056, 23.752023, 22.546136, 23.690895, 22.452453, 23.625318, 22.685473, 20.738995, 73.815543, 150.264480, 19.344826, 19.446182, 20.388418, 19.256795, 19.459317, 19.387468
Process 43: 34.401061, 20.908219, 21.388986, 20.861439, 22.092429, 22.063485, 19.420062, 22.489236, 22.581226, 22.429122, 19.296182, 23.093539, 22.597663, 23.698479, 22.503485, 23.820506, 22.620434, 23.753084, 22.515496, 23.689882, 22.754959, 20.806909, 73.869156, 150.344942, 19.397766, 19.514336, 20.460051, 19.316744, 19.530302, 19.443422
Process 44: 34.458073, 20.958746, 21.445865, 20.919373, 22.149564, 22.119596, 19.476569, 22.535470, 22.638841, 22.482587, 19.344598, 23.148645, 22.645633, 23.757618, 22.557131, 23.875188, 22.677156, 23.802917, 22.574000, 23.748427, 22.813429, 20.867123, 73.908422, 150.399647, 19.444561, 19.570757, 20.518234, 19.367280, 19.593583, 19.488493
Process 45: 34.528893, 21.020088, 21.512599, 20.987028, 22.213890, 22.185573, 19.545014, 22.616324, 22.711479, 22.549264, 19.404774, 23.216234, 22.711938, 23.820820, 22.614258, 23.940189, 22.743187, 23.861122, 22.639521, 23.810941, 22.880960, 20.933398, 73.940518, 150.490514, 19.523325, 19.639271, 20.589049, 19.436466, 19.659114, 19.571756
Process 46: 34.578384, 21.067070, 21.563819, 21.037922, 22.263140, 22.236635, 19.594474, 22.656712, 22.761441, 22.605780, 19.449722, 23.267315, 22.761243, 23.871774, 22.658218, 23.990672, 22.792539, 23.906214, 22.689096, 23.862103, 22.931066, 20.983460, 73.988885, 150.552791, 19.563706, 19.690342, 20.640219, 19.487121, 19.709114, 19.613177
Process 47: 34.646287, 21.135285, 21.627688, 21.103800, 22.325380, 22.303415, 19.655012, 22.701684, 22.826926, 22.668775, 19.508498, 23.328935, 22.824639, 23.934432, 22.717091, 24.051064, 22.856548, 23.964611, 22.754437, 23.926123, 22.992968, 21.048595, 74.051000, 150.663675, 19.635245, 19.755713, 20.705318, 19.553316, 19.771114, 19.680891
Process 48: 34.701658, 21.187118, 21.682552, 21.158687, 22.379598, 22.357297, 19.712877, 22.743918, 22.883832, 22.723531, 19.564849, 23.383814, 22.881170, 23.988606, 22.772338, 24.105866, 22.913120, 24.016314, 22.809486, 23.976029, 23.049570, 21.102426, 74.107738, 150.759595, 19.682645, 19.809971, 20.760749, 19.606683, 19.828194, 19.723587
Process 49: 34.760288, 21.247215, 21.739886, 21.216747, 22.431643, 22.413649, 19.769873, 22.802941, 22.955004, 22.782201, 19.623876, 23.440561, 22.936181, 24.046813, 22.828455, 24.208997, 22.969461, 24.071241, 22.867401, 24.035165, 23.105314, 21.160230, 74.164186, 150.868584, 19.745287, 19.867293, 20.819468, 19.663359, 19.886141, 19.790043
Process 50: 34.805981, 21.294477, 21.785253, 21.266276, 22.493339, 22.462471, 19.814075, 22.851749, 23.012684, 22.829197, 19.670026, 23.487238, 22.982946, 24.092201, 22.875472, 24.308692, 23.017590, 24.119280, 22.913035, 24.119578, 23.152670, 21.209226, 74.207585, 150.962145, 19.790921, 19.915459, 20.867380, 19.710980, 19.933141, 19.831909
Process 51: 34.862593, 21.352167, 21.840020, 21.323397, 22.618983, 22.516787, 19.871716, 22.910271, 23.070496, 22.886933, 19.727181, 23.543765, 23.037722, 24.160758, 22.931077, 24.428905, 23.072546, 24.207609, 22.970087, 24.238603, 23.208476, 21.265295, 74.304867, 151.077098, 19.848507, 19.970917, 20.923918, 19.765292, 19.989801, 19.890830
Process 52: 34.908811, 21.399367, 21.887341, 21.371160, 22.717914, 22.565372, 19.917859, 22.955840, 23.112871, 22.934722, 19.773285, 23.591189, 23.086300, 24.251794, 22.979406, 24.532318, 23.120130, 24.307781, 23.016555, 24.341085, 23.255811, 21.311983, 74.402103, 151.176571, 19.889768, 20.020004, 20.968182, 19.813775, 20.034848, 19.932815
Process 53: 34.963482, 21.453186, 21.941472, 21.425356, 22.844921, 22.620069, 19.974093, 23.010220, 23.166426, 22.989377, 19.830698, 23.644418, 23.140729, 24.361306, 23.033594, 24.651114, 23.174711, 24.459240, 23.070324, 24.459159, 23.308902, 21.365738, 74.524981, 151.300181, 19.950449, 20.074301, 21.038762, 19.867121, 20.088718, 19.991929
Process 54: 35.007655, 21.496696, 21.991679, 21.480686, 22.942327, 22.665820, 20.016076, 23.065995, 23.194548, 23.046249, 19.883547, 23.698223, 23.183820, 24.455029, 23.076040, 24.749792, 23.235920, 24.551661, 23.120478, 24.559728, 23.355290, 21.420330, 74.626270, 151.397333, 19.992305, 20.118355, 21.091868, 19.910716, 20.132175, 20.034128
Process 55: 35.069150, 21.574200, 22.085262, 21.556858, 23.071219, 22.744376, 20.076093, 23.154085, 23.272603, 23.139554, 19.966152, 23.783044, 23.247289, 24.571399, 23.143464, 24.869923, 23.324375, 24.664492, 23.206814, 24.680067, 23.436943, 21.497605, 74.746803, 151.521164, 20.069449, 20.190016, 21.172811, 19.967287, 20.216301, 20.117358
Process 56: 35.138138, 21.647362, 22.157935, 21.625939, 23.171769, 22.810047, 20.141401, 23.221051, 23.334970, 23.220505, 20.040941, 23.843705, 23.318715, 24.674028, 23.203767, 24.974884, 23.389030, 24.764703, 23.272593, 24.786294, 23.500692, 21.558016, 74.849588, 151.621691, 20.130586, 20.259103, 21.243682, 20.031168, 20.291627, 20.175363
Process 57: 35.222690, 21.728832, 22.241129, 21.705507, 23.294852, 22.902439, 20.218677, 23.312393, 23.420955, 23.333514, 20.179473, 23.916175, 23.397679, 24.789366, 23.280739, 25.092177, 23.477514, 24.877312, 23.356002, 24.902936, 23.583305, 21.641011, 74.968891, 151.744042, 20.211847, 20.335933, 21.325071, 20.106457, 20.376949, 20.276529
Process 58: 35.288576, 21.793012, 22.311970, 21.768753, 23.395328, 22.972588, 20.290408, 23.373837, 23.494199, 23.384143, 20.244314, 23.980548, 23.462482, 24.895248, 23.343967, 25.195608, 23.544838, 24.976862, 23.422990, 25.006468, 23.660170, 21.707147, 75.075100, 151.841364, 20.275089, 20.403194, 21.395398, 20.170910, 20.442340, 20.332098
Process 59: 35.380687, 21.879284, 22.407790, 21.855654, 23.521741, 23.062519, 20.383601, 23.471536, 23.589899, 23.476100, 20.338028, 24.063481, 23.557672, 25.011681, 23.437634, 25.319319, 23.637445, 25.094200, 23.514729, 25.126541, 23.747726, 21.792731, 75.196987, 151.965428, 20.369353, 20.491523, 21.476912, 20.255986, 20.532217, 20.428867
Process 60: 35.455432, 21.957023, 22.485275, 21.940086, 23.625600, 23.137407, 20.454662, 23.544999, 23.662697, 23.517242, 20.432711, 24.134907, 23.627830, 25.121284, 23.512498, 25.424505, 23.706698, 25.199892, 23.589474, 25.234891, 23.817206, 21.860172, 75.303129, 152.062345, 20.440036, 20.566792, 21.553593, 20.332615, 20.601225, 20.494801
Process 61: 35.537132, 22.040323, 22.577462, 22.023167, 23.747903, 23.216387, 20.537573, 23.627714, 23.753270, 23.599648, 20.529278, 24.219413, 23.708566, 25.233093, 23.594146, 25.539507, 23.788340, 25.314382, 23.676200, 25.350052, 23.909519, 21.944984, 75.417763, 152.190317, 20.546434, 20.647451, 21.646155, 20.465075, 20.688076, 20.582420
Process 62: 35.609239, 22.125201, 22.663096, 22.098505, 23.850530, 23.287266, 20.608873, 23.700534, 23.825716, 23.668940, 20.596257, 24.298377, 23.788747, 25.344158, 23.666275, 25.646705, 23.863120, 25.419969, 23.757698, 25.455926, 23.992742, 22.018312, 75.525437, 152.283604, 20.602359, 20.726697, 21.727183, 20.517617, 20.761563, 20.694945
Process 63: 35.706551, 22.220007, 22.762857, 22.198280, 23.977703, 23.384417, 20.708027, 23.786448, 23.917983, 23.763573, 20.711384, 24.397814, 23.880691, 25.462081, 23.766111, 25.769103, 23.964532, 25.542454, 23.861562, 25.573455, 24.090997, 22.121097, 75.645748, 152.415021, 20.717611, 20.830775, 21.820456, 20.622032, 20.861647, 20.831382
Process 64: 35.810682, 22.318844, 22.867811, 22.300410, 24.103387, 23.484658, 20.803439, 23.880775, 24.025412, 23.863081, 20.769082, 24.506373, 23.983545, 25.588234, 23.861871, 25.893571, 24.070149, 25.654784, 23.961974, 25.698407, 24.187547, 22.219161, 75.772934, 152.531594, 20.801482, 20.927227, 21.931567, 20.706024, 20.956561, 20.900214
Process 65: 35.893083, 22.403465, 22.943804, 22.393892, 24.214912, 23.569235, 20.887038, 23.964171, 24.102451, 23.944124, 20.840511, 24.593055, 24.058305, 25.641941, 23.939750, 25.953586, 24.161145, 25.779066, 24.048030, 25.751353, 24.277686, 22.307233, 75.886957, 152.644873, 20.889222, 21.019176, 22.020599, 20.814843, 21.035659, 21.002954
Process 66: 35.980813, 22.474727, 23.029116, 22.471193, 24.322536, 23.655169, 20.973650, 24.039520, 24.178997, 24.022876, 20.917422, 24.692437, 24.143206, 25.733883, 24.020848, 26.044129, 24.244619, 25.847609, 24.131949, 25.833140, 24.356489, 22.380459, 75.944429, 152.726407, 20.960506, 21.094372, 22.103596, 20.877226, 21.111692, 21.077970
Process 67: 36.053383, 22.561099, 23.111030, 22.558113, 24.432439, 23.732997, 21.047152, 24.125789, 24.258406, 24.103695, 20.994385, 24.795251, 24.217746, 25.803358, 24.103505, 26.110892, 24.326341, 25.949588, 24.222623, 25.910064, 24.446551, 22.462962, 76.049086, 152.845416, 21.016736, 21.174043, 22.187864, 20.979103, 21.189676, 21.162694
Process 68: 36.121612, 22.633392, 23.186046, 22.632866, 24.529836, 23.805218, 21.120427, 24.201557, 24.337451, 24.180502, 21.068184, 24.843716, 24.292293, 25.860407, 24.180609, 26.178984, 24.403713, 26.005093, 24.301654, 25.970260, 24.528615, 22.538743, 76.109435, 152.896111, 21.093070, 21.241665, 22.263848, 21.028790, 21.267130, 21.211810
Process 69: 36.203687, 22.710067, 23.254051, 22.702322, 24.634780, 23.882660, 21.195256, 24.273659, 24.409415, 24.260464, 21.139310, 24.942536, 24.355034, 25.941731, 24.258620, 26.253336, 24.486935, 26.087166, 24.376631, 26.047311, 24.595968, 22.615598, 76.184467, 152.973623, 21.163893, 21.311102, 22.332484, 21.122260, 21.348023, 21.304991
Process 70: 36.257371, 22.773400, 23.315951, 22.761998, 24.725019, 23.941336, 21.260436, 24.335398, 24.469476, 24.317303, 21.203528, 24.977225, 24.421842, 25.991116, 24.319800, 26.310338, 24.548519, 26.141299, 24.428009, 26.096848, 24.650824, 22.678911, 76.235439, 153.025408, 21.217400, 21.373378, 22.392743, 21.163805, 21.408384, 21.345505
Process 71: 36.337080, 22.843723, 23.387524, 22.837196, 24.825063, 24.018860, 21.329964, 24.413099, 24.546293, 24.394441, 21.273314, 25.039186, 24.501091, 26.063896, 24.391797, 26.380930, 24.624042, 26.212510, 24.505604, 26.167383, 24.725471, 22.746130, 76.314989, 153.155750, 21.292632, 21.448294, 22.466592, 21.262183, 21.483279, 21.401257
Process 72: 36.391072, 22.893909, 23.439971, 22.886839, 24.904871, 24.069533, 21.384424, 24.465801, 24.602138, 24.445314, 21.324599, 25.091935, 24.560246, 26.109770, 24.440024, 26.426887, 24.674220, 26.263781, 24.557512, 26.218571, 24.778798, 22.802845, 76.370657, 153.204473, 21.337592, 21.503196, 22.523233, 21.304237, 21.536893, 21.446489
Process 73: 36.458698, 22.957647, 23.503296, 22.952483, 24.999118, 24.137269, 21.458177, 24.526564, 24.665867, 24.510848, 21.385095, 25.157981, 24.648571, 26.176043, 24.503771, 26.494180, 24.738616, 26.328202, 24.624261, 26.283322, 24.845041, 22.869505, 76.451920, 153.304616, 21.404683, 21.568871, 22.591892, 21.389218, 21.602454, 21.508412
Process 74: 36.509225, 23.007136, 23.555099, 23.000430, 25.073902, 24.194582, 21.516112, 24.580168, 24.723974, 24.562150, 21.436512, 25.212104, 24.693400, 26.222431, 24.554606, 26.552502, 24.789706, 26.397546, 24.675792, 26.341780, 24.897409, 22.918006, 76.521273, 153.364575, 21.458422, 21.620249, 22.648897, 21.438077, 21.654912, 21.557810
Process 75: 36.577829, 23.079880, 23.615333, 23.062649, 25.161383, 24.273423, 21.584887, 24.653524, 24.796421, 24.632216, 21.497024, 25.273973, 24.757313, 26.284669, 24.615483, 26.636851, 24.851637, 26.486209, 24.737706, 26.427266, 24.956215, 22.985853, 76.593860, 153.464340, 21.518239, 21.684528, 22.722151, 21.511770, 21.723213, 21.616698
Process 76: 36.630573, 23.132111, 23.675247, 23.113041, 25.225520, 24.323439, 21.641560, 24.708968, 24.852607, 24.681612, 21.544509, 25.326788, 24.797764, 26.336305, 24.663872, 26.699171, 24.905515, 26.550240, 24.797437, 26.488324, 25.015506, 23.038031, 76.654671, 153.514317, 21.565453, 21.739489, 22.776765, 21.562488, 21.783953, 21.663998
Process 77: 36.698693, 23.204081, 23.746487, 23.175214, 25.318154, 24.395499, 21.706713, 24.780530, 24.922907, 24.750729, 21.608963, 25.392986, 24.827630, 26.408380, 24.730609, 26.773730, 24.974792, 26.638603, 24.870625, 26.561067, 25.085940, 23.104900, 76.728892, 153.616651, 21.632718, 21.808996, 22.848755, 21.627307, 21.854101, 21.721795
Process 78: 36.752218, 23.260354, 23.806137, 23.223127, 25.387723, 24.448017, 21.760989, 24.834351, 24.976271, 24.801751, 21.661314, 25.447964, 24.888578, 26.468727, 24.781859, 26.830111, 25.026455, 26.697151, 24.929784, 26.617118, 25.142880, 23.158012, 76.785038, 153.671843, 21.689610, 21.861627, 22.901742, 21.675975, 21.908411, 21.768241
Process 79: 36.817548, 23.333384, 23.873926, 23.291485, 25.477055, 24.516008, 21.826723, 24.902526, 25.041212, 24.866196, 21.730183, 25.516844, 24.951946, 26.562694, 24.845766, 26.898635, 25.091324, 26.778657, 24.997253, 26.686050, 25.212714, 23.223814, 76.845854, 153.783285, 21.753491, 21.952004, 22.967746, 21.741856, 21.977729, 21.829294
Process 80: 36.875749, 23.381217, 23.927759, 23.343256, 25.544520, 24.564766, 21.878836, 24.952679, 25.095441, 24.915610, 21.779050, 25.570662, 25.002485, 26.610328, 24.894041, 26.947425, 25.140548, 26.846269, 25.051993, 26.735838, 25.264484, 23.272276, 76.899273, 153.839655, 21.806166, 22.000967, 23.021774, 21.790993, 22.029576, 21.876310
Process 81: 36.937951, 23.448110, 23.983968, 23.401115, 25.643731, 24.625776, 21.936692, 25.012256, 25.158013, 24.973978, 21.840414, 25.630368, 25.058532, 26.688965, 24.952553, 27.011430, 25.198768, 26.940523, 25.113723, 26.797964, 25.322571, 23.330731, 76.956497, 153.944702, 21.867130, 22.058281, 23.084098, 21.857722, 22.087829, 21.937064
Process 82: 36.986175, 23.494567, 24.034846, 23.449551, 25.716094, 24.673912, 21.986883, 25.059910, 25.208515, 25.022511, 21.888465, 25.679103, 25.109777, 26.729784, 25.004464, 27.085431, 25.249849, 27.012664, 25.163389, 26.873012, 25.372205, 23.380244, 77.004378, 154.032643, 21.914083, 22.106916, 23.132559, 21.900209, 22.137099, 21.984358
Process 83: 37.042241, 23.549969, 24.087264, 23.502885, 25.819330, 24.728966, 22.037817, 25.113957, 25.262426, 25.078962, 21.940540, 25.732869, 25.161870, 26.750741, 25.060170, 27.182150, 25.303523, 27.112248, 25.218500, 26.963026, 25.424774, 23.434354, 77.059100, 154.166830, 21.967857, 22.161619, 23.187235, 21.956155, 22.189315, 22.038247
Process 84: 37.087712, 23.597607, 24.135163, 23.550966, 25.904240, 24.775837, 22.087447, 25.166114, 25.311022, 25.124527, 21.987800, 25.780568, 25.210551, 26.820721, 25.109119, 27.265826, 25.351463, 27.191180, 25.264981, 27.031977, 25.473777, 23.480978, 77.129635, 154.231836, 22.015043, 22.210114, 23.233975, 21.996676, 22.244061, 22.088860
Process 85: 37.143302, 23.652791, 24.188265, 23.605887, 26.016069, 24.829154, 22.141375, 25.222439, 25.366013, 25.177865, 22.041250, 25.835146, 25.263786, 26.930046, 25.206162, 27.370139, 25.403594, 27.289084, 25.319107, 27.124707, 25.525786, 23.534563, 77.221017, 154.388853, 22.067996, 22.266958, 23.287929, 22.060442, 22.301096, 22.145790
Process 86: 37.186576, 23.704516, 24.232909, 23.650689, 26.106329, 24.873057, 22.186625, 25.264002, 25.414046, 25.225731, 22.086954, 25.878715, 25.308922, 27.018511, 25.249646, 27.440597, 25.448440, 27.367928, 25.362663, 27.195921, 25.571957, 23.578510, 77.291444, 154.446153, 22.113672, 22.306920, 23.331576, 22.096472, 22.344359, 22.187496
Process 87: 37.238635, 23.775623, 24.308922, 23.702030, 26.214620, 24.933336, 22.238038, 25.326054, 25.480168, 25.281704, 22.137602, 25.940887, 25.366341, 27.129143, 25.328494, 27.535305, 25.499290, 27.479195, 25.413506, 27.295678, 25.624858, 23.643840, 77.389738, 154.589238, 22.165556, 22.369208, 23.390674, 22.151491, 22.396587, 22.240273
Process 88: 37.290238, 23.837765, 24.377749, 23.764801, 26.307431, 24.987543, 22.302913, 25.390492, 25.536901, 25.345023, 22.200026, 25.999189, 25.432103, 27.220304, 25.380084, 27.616118, 25.566452, 27.565493, 25.471621, 27.380529, 25.677809, 23.706803, 77.470330, 154.657016, 22.218751, 22.442693, 23.445063, 22.194907, 22.440965, 22.284303
Process 89: 37.358169, 23.922800, 24.464653, 23.840550, 26.407998, 25.060288, 22.384800, 25.463626, 25.612380, 25.410032, 22.281984, 26.081364, 25.512980, 27.321447, 25.465457, 27.729200, 25.638190, 27.669200, 25.548857, 27.476788, 25.758836, 23.782708, 77.577064, 154.798424, 22.284191, 22.519664, 23.507098, 22.308897, 22.495456, 22.333872
Process 90: 37.420943, 23.986179, 24.531484, 23.902217, 26.512038, 25.124987, 22.442284, 25.526172, 25.668040, 25.473634, 22.345976, 26.143362, 25.575575, 27.415162, 25.501985, 27.818361, 25.697061, 27.764092, 25.606416, 27.569799, 25.824403, 23.845206, 77.671818, 154.869191, 22.345330, 22.573732, 23.570940, 22.344089, 22.558366, 22.406321
Process 91: 37.489008, 24.062476, 24.608186, 23.974578, 26.611842, 25.195841, 22.517631, 25.607180, 25.732641, 25.551507, 22.414909, 26.217383, 25.648858, 27.510641, 25.572363, 27.931942, 25.772135, 27.863875, 25.671257, 27.660816, 25.893375, 23.914700, 77.766936, 155.021290, 22.424243, 22.688865, 23.642198, 22.442331, 22.634379, 22.490017
Process 92: 37.550881, 24.128197, 24.681237, 24.041453, 26.709905, 25.261973, 22.583353, 25.675770, 25.796510, 25.616352, 22.484102, 26.284182, 25.725463, 27.602492, 25.642155, 28.021112, 25.834573, 27.964828, 25.746086, 27.755747, 25.960357, 23.981791, 77.863065, 155.080769, 22.486996, 22.723231, 23.715685, 22.495412, 22.693059, 22.556942
Process 93: 37.626073, 24.198133, 24.763293, 24.119935, 26.813571, 25.333241, 22.660547, 25.747164, 25.867343, 25.694969, 22.555008, 26.356569, 25.796261, 27.699899, 25.718609, 28.127441, 25.912464, 28.063738, 25.818641, 27.850232, 26.033258, 24.062114, 77.959964, 155.221228, 22.557526, 22.786820, 23.791577, 22.607798, 22.761893, 22.624431
Process 94: 37.696412, 24.262394, 24.833730, 24.197231, 26.917235, 25.407104, 22.729627, 25.817159, 25.931544, 25.760478, 22.625464, 26.429028, 25.868565, 27.798776, 25.789731, 28.222225, 25.992873, 28.167910, 25.891999, 27.947927, 26.113352, 24.136541, 78.058571, 155.289907, 22.631334, 22.851927, 23.860560, 22.641913, 22.836891, 22.696093
Process 95: 37.774520, 24.347046, 24.913337, 24.284790, 27.024593, 25.487417, 22.818535, 25.899293, 26.014155, 25.849795, 22.719603, 26.506302, 25.951831, 27.896453, 25.870518, 28.329010, 26.075649, 28.275171, 25.982842, 28.052822, 26.205530, 24.227159, 78.165780, 155.440635, 22.710413, 22.975686, 23.936555, 22.746787, 22.913610, 22.795525
Process 96: 37.862530, 24.433668, 24.998105, 24.372933, 27.137938, 25.570992, 22.909838, 25.989641, 26.111693, 25.942794, 22.806882, 26.597653, 26.032274, 28.015273, 25.951225, 28.420062, 26.171948, 28.390793, 26.070123, 28.173517, 26.299025, 24.315987, 78.284761, 155.534515, 22.800425, 23.026849, 24.028392, 22.825492, 22.998850, 22.881444
Process 97: 37.955553, 24.518816, 25.090212, 24.464361, 27.233023, 25.662495, 23.003672, 26.089121, 26.211381, 26.023568, 22.897363, 26.687143, 26.118842, 28.102230, 26.036293, 28.527715, 26.263485, 28.484426, 26.157485, 28.269173, 26.383966, 24.399814, 78.377147, 155.633547, 22.880055, 23.112077, 24.115623, 22.911103, 23.079250, 22.973740
Process 98: 38.029057, 24.587907, 25.173889, 24.534706, 27.315792, 25.734441, 23.074810, 26.159093, 26.279319, 26.095597, 22.968410, 26.757907, 26.186870, 28.172171, 26.107544, 28.599560, 26.359941, 28.566609, 26.221697, 28.342514, 26.448008, 24.467740, 78.446362, 155.710871, 22.943972, 23.171126, 24.179328, 22.974432, 23.152401, 23.045095
Process 99: 38.117605, 24.675804, 25.254220, 24.627682, 27.404748, 25.815206, 23.155055, 26.239328, 26.357910, 26.182354, 23.065052, 26.836168, 26.266391, 28.279322, 26.182179, 28.703174, 26.441924, 28.655267, 26.308293, 28.443601, 26.541214, 24.543500, 78.548428, 155.822762, 23.030529, 23.250220, 24.264477, 23.060480, 23.236692, 23.128524
Process 100: 38.181554, 24.742447, 25.315297, 24.684346, 27.464513, 25.877269, 23.221046, 26.300982, 26.420314, 26.247064, 23.154525, 26.902495, 26.327274, 28.338040, 26.239236, 28.775381, 26.496666, 28.719003, 26.370628, 28.515148, 26.603484, 24.609664, 78.617584, 155.887364, 23.088070, 23.302859, 24.324602, 23.101420, 23.303171, 23.182680
Process 101: 38.267462, 24.819194, 25.400752, 24.761156, 27.559614, 25.947880, 23.300636, 26.382002, 26.494061, 26.324705, 23.241026, 26.982499, 26.405235, 28.431287, 26.317032, 28.865965, 26.577335, 28.815114, 26.452029, 28.609233, 26.685899, 24.684209, 78.711655, 155.976552, 23.174316, 23.374354, 24.401315, 23.162372, 23.411186, 23.261169
Process 102: 38.318078, 24.872547, 25.457388, 24.818249, 27.611390, 26.001980, 23.357673, 26.439200, 26.550619, 26.381191, 23.292336, 27.040347, 26.462156, 28.481176, 26.370729, 28.925317, 26.600655, 28.871763, 26.500031, 28.667762, 26.734265, 24.743913, 78.767888, 156.022311, 23.225007, 23.422001, 24.456088, 23.217879, 23.467666, 23.315048
Process 103: 38.395461, 24.943601, 25.533776, 24.894965, 27.690401, 26.076195, 23.432912, 26.507300, 26.625817, 26.452410, 23.360397, 27.108424, 26.537024, 28.557543, 26.449750, 29.007946, 26.677692, 28.950121, 26.572304, 28.743476, 26.805386, 24.816962, 78.849543, 156.106760, 23.298529, 23.497282, 24.532073, 23.298266, 23.538798, 23.393902
Process 104: 38.441952, 24.996810, 25.585630, 24.945382, 27.737138, 26.133389, 23.485180, 26.558630, 26.675865, 26.504545, 23.405704, 27.161170, 26.590209, 28.607482, 26.514199, 29.057567, 26.726517, 29.021113, 26.627015, 28.817360, 26.858323, 24.866730, 78.898641, 156.153887, 23.355917, 23.546429, 24.587821, 23.349307, 23.588508, 23.440972
Process 105: 38.508789, 25.069206, 25.648660, 25.012102, 27.807032, 26.205712, 23.549305, 26.621049, 26.743373, 26.571338, 23.472655, 27.224644, 26.655865, 28.677034, 26.592400, 29.125777, 26.790935, 29.099681, 26.696838, 28.903711, 26.922924, 24.932527, 78.963531, 156.230381, 23.426413, 23.624985, 24.655799, 23.412849, 23.653353, 23.507199
Process 106: 38.559021, 25.116042, 25.705181, 25.063797, 27.859922, 26.256256, 23.603475, 26.677808, 26.796303, 26.622780, 23.521342, 27.278954, 26.707570, 28.725312, 26.653756, 29.187111, 26.840224, 29.149602, 26.749140, 28.973146, 26.975185, 24.979806, 79.027890, 156.276521, 23.477768, 23.674863, 24.707143, 23.463932, 23.702880, 23.561038
Process 107: 38.616177, 25.174192, 25.769186, 25.125526, 27.929916, 26.315208, 23.665704, 26.747174, 26.856042, 26.685404, 23.581817, 27.340049, 26.776350, 28.786319, 26.722910, 29.258056, 26.903021, 29.224777, 26.809633, 29.047001, 27.033455, 25.040822, 79.100993, 156.331011, 23.536806, 23.749797, 24.765469, 23.528855, 23.763954, 23.631397
Process 108: 38.659278, 25.223532, 25.824286, 25.171941, 27.988915, 26.360655, 23.718342, 26.802718, 26.906664, 26.730773, 23.627612, 27.388200, 26.828921, 28.842283, 26.775013, 29.315344, 26.958581, 29.261571, 26.865778, 29.103877, 27.080720, 25.092112, 79.160788, 156.378651, 23.580880, 23.802789, 24.820596, 23.572677, 23.809860, 23.680753
Process 109: 38.724760, 25.287651, 25.896792, 25.229055, 28.058665, 26.426662, 23.786394, 26.870001, 26.968968, 26.790093, 23.685972, 27.451070, 26.896715, 28.911863, 26.843172, 29.382671, 27.035829, 29.325561, 26.935425, 29.176396, 27.149663, 25.158441, 79.228434, 156.447066, 23.643998, 23.875095, 24.888482, 23.635326, 23.871982, 23.748758
Process 110: 38.776571, 25.338512, 25.947279, 25.272829, 28.111218, 26.479149, 23.837258, 26.920491, 27.017855, 26.837052, 23.729010, 27.500814, 26.945300, 28.964543, 26.892598, 29.433903, 27.086179, 29.376620, 27.002117, 29.230320, 27.198305, 25.209200, 79.277704, 156.496333, 23.692086, 23.927740, 24.939767, 23.686570, 23.916022, 23.800075
Process 111: 38.850101, 25.411444, 26.020835, 25.338488, 28.179970, 26.551501, 23.905588, 26.992315, 27.086166, 26.903849, 23.790016, 27.569649, 27.014054, 29.034406, 26.961767, 29.509601, 27.154060, 29.450144, 27.084223, 29.304202, 27.268032, 25.279581, 79.347619, 156.589476, 23.761140, 24.003508, 25.008516, 23.754375, 23.979646, 23.873977
Process 112: 38.903936, 25.464970, 26.073047, 25.387528, 28.231352, 26.604287, 23.956303, 27.044770, 27.136359, 26.953350, 23.841435, 27.618747, 27.062681, 29.086226, 27.012309, 29.560743, 27.204230, 29.502197, 27.142555, 29.355427, 27.320283, 25.330313, 79.399175, 156.631947, 23.813769, 24.050737, 25.059368, 23.803853, 24.025098, 23.923065
Process 113: 38.968203, 25.526861, 26.133550, 25.447827, 28.293478, 26.664173, 24.017873, 27.108311, 27.199808, 27.015924, 23.901868, 27.679449, 27.124013, 29.149745, 27.076435, 29.624475, 27.266017, 29.563318, 27.200102, 29.418375, 27.382392, 25.389706, 79.464119, 156.694077, 23.880831, 24.109192, 25.118888, 23.864456, 24.085084, 23.989748
Process 114: 39.015072, 25.573647, 26.179901, 25.495201, 28.338672, 26.711401, 24.064836, 27.150252, 27.245548, 27.061880, 23.948703, 27.725782, 27.170329, 29.193555, 27.123931, 29.669932, 27.313396, 29.609047, 27.233090, 29.465200, 27.428410, 25.434715, 79.509646, 156.735172, 23.925998, 24.152542, 25.164337, 23.909226, 24.131390, 24.036156
Process 115: 39.073416, 25.632242, 26.238546, 25.552652, 28.396727, 26.770183, 24.123545, 27.207795, 27.302517, 27.119821, 24.006523, 27.782936, 27.227687, 29.250842, 27.181215, 29.727895, 27.371501, 29.666068, 27.279676, 29.523916, 27.485951, 25.492715, 79.568935, 156.793686, 23.984247, 24.212146, 25.221472, 23.966287, 24.191271, 24.095263
Process 116: 39.116771, 25.677495, 26.280560, 25.597416, 28.439986, 26.812977, 24.165755, 27.251715, 27.346357, 27.163020, 24.049540, 27.828342, 27.270333, 29.295592, 27.223335, 29.771124, 27.416099, 29.710509, 27.322914, 29.574323, 27.529188, 25.539992, 79.611279, 156.855667, 24.027803, 24.251097, 25.265011, 24.009732, 24.234461, 24.139286
Process 117: 39.173244, 25.745217, 26.337696, 25.652512, 28.497010, 26.870046, 24.223051, 27.308591, 27.402439, 27.219325, 24.106150, 27.882743, 27.328456, 29.350551, 27.281524, 29.828068, 27.471801, 29.764667, 27.380226, 29.647966, 27.585015, 25.596137, 79.665739, 156.916234, 24.084209, 24.312079, 25.320366, 24.066717, 24.291387, 24.195807
Process 118: 39.217349, 25.781984, 26.381783, 25.696189, 28.541093, 26.914292, 24.266680, 27.352937, 27.448586, 27.263750, 24.151404, 27.929709, 27.371368, 29.396689, 27.324244, 29.872024, 27.516881, 29.811302, 27.424893, 29.685022, 27.630309, 25.640392, 79.709301, 156.996533, 24.128484, 24.349756, 25.366211, 24.110543, 24.334888, 24.240889
Process 119: 39.271546, 25.836937, 26.435628, 25.751005, 28.595036, 26.967711, 24.320198, 27.406731, 27.502591, 27.318435, 24.205506, 27.984369, 27.425391, 29.450515, 27.379159, 29.924453, 27.570048, 29.865119, 27.478889, 29.745465, 27.683783, 25.695361, 79.762905, 157.056664, 24.182830, 24.424228, 25.420380, 24.164611, 24.421674, 24.296662
Process 120: 39.312738, 25.876813, 26.477622, 25.793537, 28.636909, 27.009751, 24.362121, 27.447911, 27.544339, 27.360401, 24.246423, 28.025251, 27.467199, 29.493280, 27.419594, 29.966876, 27.614102, 29.906139, 27.520277, 29.778630, 27.726403, 25.735791, 79.805054, 157.092777, 24.223821, 24.459588, 25.462407, 24.205736, 24.456375, 24.336739
Process 121: 39.366160, 25.929607, 26.530415, 25.845892, 28.690103, 27.062968, 24.414676, 27.500271, 27.597694, 27.413875, 24.299676, 28.077980, 27.519908, 29.546332, 27.472712, 30.019989, 27.667880, 29.958742, 27.573863, 29.811678, 27.782136, 25.816269, 79.859438, 157.149857, 24.277355, 24.505962, 25.515536, 24.258579, 24.510822, 24.390013
Process 122: 39.408987, 25.971707, 26.572993, 25.890697, 28.732729, 27.105557, 24.456806, 27.542500, 27.640304, 27.456168, 24.341647, 28.120192, 27.562353, 29.590422, 27.514647, 30.062380, 27.710961, 30.001245, 27.615576, 29.857749, 27.827549, 25.865117, 79.904254, 157.188982, 24.319461, 24.545186, 25.557544, 24.300828, 24.550365, 24.432228
Process 123: 39.462312, 26.024614, 26.626447, 25.941405, 28.786409, 27.160242, 24.509491, 27.595242, 27.694805, 27.509823, 24.395378, 28.173101, 27.614735, 29.641617, 27.567485, 30.115861, 27.763020, 30.054247, 27.669120, 29.915155, 27.918546, 25.945165, 79.952052, 157.266292, 24.373080, 24.637390, 25.611415, 24.353658, 24.645437, 24.484734
Process 124: 39.509768, 26.072764, 26.673722, 25.987839, 28.833866, 27.204918, 24.557473, 27.641728, 27.739169, 27.558306, 24.444056, 28.221670, 27.662995, 29.687736, 27.614830, 30.163071, 27.810225, 30.101182, 27.716538, 29.956318, 27.951984, 25.989801, 79.999096, 157.301491, 24.418868, 24.671463, 25.658441, 24.401239, 24.677301, 24.532821
Process 125: 39.566568, 26.177100, 26.729914, 26.043484, 28.889744, 27.260753, 24.613791, 27.697346, 27.792680, 27.612635, 24.501318, 28.278002, 27.717952, 29.745302, 27.670325, 30.218297, 27.864941, 30.156680, 27.771686, 30.011972, 28.031828, 26.044105, 80.055416, 157.375366, 24.474475, 24.748134, 25.713722, 24.457837, 24.754268, 24.588568
Process 126: 39.606454, 26.192467, 26.770953, 26.085472, 28.931325, 27.302782, 24.654737, 27.740044, 27.839196, 27.655373, 24.541981, 28.319817, 27.759676, 29.785266, 27.711910, 30.259998, 27.906909, 30.198666, 27.813624, 30.054256, 28.068312, 26.087221, 80.096452, 157.414945, 24.515774, 24.783153, 25.755154, 24.499570, 24.789069, 24.630064
Process 127: 39.662988, 26.225015, 26.827672, 26.141278, 28.987669, 27.359369, 24.710909, 27.795489, 27.896113, 27.711508, 24.597768, 28.375431, 27.816877, 29.840574, 27.767146, 30.315509, 27.963046, 30.253698, 27.870073, 30.108895, 28.103124, 26.144243, 80.154682, 157.493033, 24.572637, 24.855287, 25.810702, 24.555962, 24.873317, 24.686588
