MPI_insiderank_optimisedserial
Process 0: 4.288249, 3.928990, 3.969871, 3.793441, 3.709000, 3.502294, 3.657678, 3.472538, 3.639857, 3.484782, 3.664575, 3.475138, 3.635821, 3.475985, 3.467308, 3.648611, 3.512282, 3.495954, 3.490876, 3.647987, 3.534385, 3.499700, 3.517937, 3.714082, 3.523765, 3.514428, 3.530256, 3.517258, 3.646280, 3.509813
Process 1: 4.292183, 3.937636, 3.976227, 3.800632, 3.716460, 3.510099, 3.665109, 3.479673, 3.647410, 3.492504, 3.672774, 3.482314, 3.643574, 3.483018, 3.474535, 3.657616, 3.519485, 3.503115, 3.497448, 3.655472, 3.541927, 3.506976, 3.525113, 3.721727, 3.530555, 3.522109, 3.537556, 3.524317, 3.653760, 3.517235
