MPI_insiderank_optimisedserial
Process 0: 4.436359, 4.412195, 4.368297, 4.367659, 4.393939, 4.363424, 4.304046, 4.528219, 4.285479, 4.368486, 4.326981, 4.346229, 4.515348, 4.830610, 4.780091, 4.532724, 4.462322, 4.423992, 4.434698, 4.443776, 4.500480, 4.410614, 4.405193, 4.427645, 4.471187, 5.507799, 4.412244, 4.416879, 4.422309, 4.541344
Process 1: 4.350699, 4.310146, 4.303108, 4.266806, 4.320264, 4.289446, 4.222138, 4.469106, 4.213867, 4.263353, 4.258773, 4.270275, 4.436311, 4.639318, 4.706211, 4.424331, 4.385028, 4.351963, 4.360758, 4.368875, 4.439247, 4.337455, 4.333161, 4.350809, 4.364905, 5.435915, 4.335056, 4.344729, 4.345270, 4.477201
Process 2: 4.385553, 4.363847, 4.334045, 4.317225, 4.361523, 4.322096, 4.256933, 4.494945, 4.245866, 4.314649, 4.289392, 4.304946, 4.475940, 4.671989, 4.739611, 4.479630, 4.421490, 4.386863, 4.396382, 4.402351, 4.471461, 4.371189, 4.367773, 4.387625, 4.418754, 5.469294, 4.374521, 4.379620, 4.385778, 4.511401
Process 3: 4.440187, 4.416412, 4.371993, 4.371384, 4.397600, 4.367828, 4.307597, 4.531873, 4.289119, 4.372065, 4.330144, 4.349802, 4.518838, 4.837514, 4.783794, 4.536063, 4.465919, 4.427633, 4.438321, 4.447383, 4.504041, 4.414206, 4.408832, 4.431275, 4.474787, 5.511425, 4.415850, 4.420448, 4.426964, 4.545030
