MPI_insiderank_serial
Process 0: 4.796041, 4.645540, 4.620370, 4.614248, 4.687130, 4.528426, 4.530175, 4.601005, 4.574229, 4.533669, 4.560893, 4.768778, 4.598008, 4.528045, 4.606014, 4.532989, 4.529334, 4.567625, 4.591928, 4.557959, 4.532918, 4.530664, 4.537340, 4.562214, 4.561024, 4.556531, 4.570289, 4.538142, 4.535603, 4.565570
Process 1: 4.400654, 4.275241, 4.263291, 4.220869, 4.328785, 4.183328, 4.138943, 4.241257, 4.227330, 4.194952, 4.171245, 4.715591, 4.169328, 4.177844, 4.247298, 4.193498, 4.170489, 4.175909, 4.231857, 4.198431, 4.173591, 4.170115, 4.180197, 4.201693, 4.175778, 4.200285, 4.229125, 4.177012, 4.175303, 4.176445
Process 2: 4.576910, 4.451880, 4.434764, 4.409170, 4.501404, 4.356772, 4.319993, 4.412415, 4.385032, 4.359960, 4.354915, 4.741123, 4.340116, 4.337967, 4.417421, 4.357991, 4.340444, 4.360422, 4.402430, 4.368629, 4.344632, 4.341985, 4.351954, 4.373070, 4.372759, 4.370153, 4.394510, 4.349489, 4.346493, 4.357589
Process 3: 4.802306, 4.651840, 4.627298, 4.620281, 4.693891, 4.535054, 4.536415, 4.608459, 4.581956, 4.541625, 4.567334, 4.775920, 4.605339, 4.536446, 4.614577, 4.541081, 4.536739, 4.575538, 4.599211, 4.565292, 4.541228, 4.537993, 4.545269, 4.569972, 4.568743, 4.565578, 4.577701, 4.546119, 4.543057, 4.573205
