MPI_insiderank_serial
Process 0: 1.982934, 1.931829, 1.843349, 1.823946, 1.862534, 1.842268, 1.807370, 1.877275, 1.822143, 1.836889, 1.902083, 1.815811, 1.810647, 1.850498, 1.812538, 1.831182, 1.870594, 1.900627, 1.822019, 1.830622, 1.868409, 1.809601, 1.819889, 1.856332, 1.819355, 1.816378, 1.874154, 1.836075, 1.843668, 1.834156
Process 1: 1.364202, 1.300564, 1.211114, 1.200312, 1.242766, 1.207930, 1.188031, 1.260618, 1.197031, 1.215232, 1.274385, 1.196067, 1.191095, 1.229925, 1.192590, 1.215797, 1.248945, 1.277547, 1.202273, 1.211813, 1.241113, 1.188561, 1.197175, 1.234878, 1.198137, 1.195588, 1.251190, 1.217395, 1.218859, 1.212519
Process 2: 1.406566, 1.345732, 1.255102, 1.245539, 1.287527, 1.263309, 1.232875, 1.304987, 1.243078, 1.260675, 1.322155, 1.243804, 1.236469, 1.276181, 1.240672, 1.262739, 1.296578, 1.326711, 1.251198, 1.259847, 1.290432, 1.237394, 1.245686, 1.286104, 1.248264, 1.243585, 1.299401, 1.265870, 1.274013, 1.262263
Process 3: 1.451254, 1.388132, 1.299522, 1.287694, 1.329683, 1.307102, 1.274913, 1.347796, 1.285817, 1.302556, 1.362544, 1.284422, 1.277917, 1.318665, 1.281201, 1.304246, 1.336032, 1.366508, 1.290772, 1.298193, 1.329410, 1.277579, 1.286138, 1.322547, 1.286180, 1.281960, 1.338641, 1.304489, 1.317895, 1.300590
Process 4: 1.494902, 1.431731, 1.338449, 1.334130, 1.373693, 1.349822, 1.319315, 1.390484, 1.329848, 1.346404, 1.407829, 1.328229, 1.322588, 1.361967, 1.325469, 1.347100, 1.381937, 1.411510, 1.337860, 1.344340, 1.376769, 1.322270, 1.330392, 1.368094, 1.331338, 1.327949, 1.384425, 1.349884, 1.361026, 1.348384
Process 5: 1.541629, 1.479681, 1.381755, 1.384802, 1.418139, 1.394244, 1.365481, 1.432299, 1.375493, 1.393075, 1.451963, 1.373620, 1.368485, 1.407455, 1.370779, 1.387424, 1.426931, 1.455170, 1.384233, 1.388768, 1.418785, 1.365870, 1.374071, 1.411651, 1.375761, 1.372436, 1.428438, 1.392500, 1.400331, 1.390148
Process 6: 1.583585, 1.529909, 1.424882, 1.426553, 1.462043, 1.438394, 1.407947, 1.474137, 1.419095, 1.435011, 1.495294, 1.416864, 1.410930, 1.450710, 1.414008, 1.430410, 1.470249, 1.500250, 1.430660, 1.432940, 1.463468, 1.410393, 1.418919, 1.456641, 1.419666, 1.415790, 1.474431, 1.439524, 1.443570, 1.434242
Process 7: 1.629101, 1.577145, 1.613225, 1.473611, 1.507208, 1.483475, 1.453293, 1.521921, 1.466221, 1.482320, 1.541599, 1.463063, 1.456381, 1.496026, 1.460061, 1.477112, 1.516294, 1.546279, 1.474145, 1.476751, 1.508631, 1.454408, 1.465390, 1.502076, 1.467118, 1.461680, 1.519391, 1.482004, 1.490396, 1.481101
Process 8: 1.673172, 1.619695, 1.621521, 1.517262, 1.550123, 1.527857, 1.497569, 1.562976, 1.506873, 1.524585, 1.584346, 1.505990, 1.501215, 1.540543, 1.502839, 1.519236, 1.559859, 1.589148, 1.517962, 1.521997, 1.552158, 1.499739, 1.507030, 1.545033, 1.508189, 1.504886, 1.560998, 1.525711, 1.531890, 1.522724
Process 9: 1.719782, 1.666290, 1.631493, 1.564197, 1.597859, 1.572654, 1.544182, 1.609709, 1.554502, 1.572752, 1.629387, 1.552043, 1.548198, 1.586415, 1.548796, 1.564110, 1.605367, 1.635403, 1.563387, 1.567177, 1.598086, 1.543172, 1.552095, 1.589143, 1.553160, 1.551847, 1.606681, 1.571071, 1.576695, 1.569175
Process 10: 1.761615, 1.707851, 1.639001, 1.599738, 1.644884, 1.615664, 1.586079, 1.651744, 1.596422, 1.613509, 1.675528, 1.594328, 1.589262, 1.628424, 1.591221, 1.607978, 1.647014, 1.677199, 1.604139, 1.609386, 1.640151, 1.586145, 1.595009, 1.633479, 1.595831, 1.593041, 1.648887, 1.613403, 1.619789, 1.610855
Process 11: 1.806684, 1.754025, 1.665700, 1.646592, 1.689914, 1.661801, 1.631008, 1.697665, 1.642444, 1.659251, 1.726940, 1.639282, 1.634235, 1.673538, 1.636270, 1.655315, 1.692880, 1.722988, 1.645592, 1.654426, 1.690351, 1.633657, 1.642689, 1.679523, 1.641746, 1.638776, 1.695902, 1.658448, 1.666988, 1.656637
Process 12: 1.851027, 1.796762, 1.707935, 1.688395, 1.736820, 1.704139, 1.675332, 1.740511, 1.685395, 1.703310, 1.767638, 1.684636, 1.679220, 1.717531, 1.679841, 1.696483, 1.737167, 1.767018, 1.690710, 1.698988, 1.734155, 1.675404, 1.683750, 1.721923, 1.685946, 1.682985, 1.737725, 1.702394, 1.708165, 1.699491
Process 13: 1.898116, 1.844392, 1.755903, 1.734775, 1.780573, 1.749430, 1.722433, 1.786913, 1.732015, 1.750012, 1.812319, 1.730102, 1.725682, 1.764434, 1.726737, 1.741651, 1.783117, 1.813000, 1.736028, 1.745698, 1.778625, 1.720707, 1.730163, 1.767244, 1.732015, 1.729709, 1.784209, 1.750282, 1.754545, 1.746687
Process 14: 1.938817, 1.885405, 1.796737, 1.778751, 1.822074, 1.794063, 1.763368, 1.830971, 1.774598, 1.790766, 1.859384, 1.771773, 1.766683, 1.806472, 1.768505, 1.787226, 1.824442, 1.854283, 1.778006, 1.786639, 1.824497, 1.764286, 1.774420, 1.812882, 1.773157, 1.770372, 1.827926, 1.791981, 1.799099, 1.787932
Process 15: 1.984169, 1.933064, 1.844521, 1.825142, 1.863676, 1.843419, 1.808504, 1.878425, 1.823218, 1.838071, 1.903220, 1.816946, 1.811770, 1.851615, 1.813668, 1.832304, 1.871744, 1.901787, 1.823148, 1.831742, 1.869550, 1.810706, 1.821062, 1.857433, 1.820509, 1.817511, 1.875307, 1.837185, 1.844829, 1.835300
