MPI_insiderank_serial
Process 0: 2.026913, 1.510317, 1.387859, 1.432342, 1.349394, 1.373799, 1.393280, 1.400622, 1.358189, 1.350725, 1.360533, 1.355077, 1.377138, 1.377635, 1.350836, 1.354808, 1.355604, 1.344097, 1.361831, 1.562121, 1.361384, 1.359083, 1.391413, 1.341978, 1.343434, 1.352396, 1.357098, 1.347588, 1.372370, 1.379519
Process 1: 1.292964, 0.800447, 0.665958, 0.725031, 0.644691, 0.654732, 0.651232, 0.685588, 0.649529, 0.642785, 0.654169, 0.647564, 0.652571, 0.677996, 0.640446, 0.644299, 0.643715, 0.638805, 0.644720, 0.846056, 0.654653, 0.653299, 0.657230, 0.638618, 0.644766, 0.646557, 0.642705, 0.640072, 0.651022, 0.657503
Process 2: 1.316555, 0.822107, 0.687715, 0.747806, 0.667183, 0.677499, 0.674429, 0.711259, 0.673183, 0.665317, 0.676848, 0.670453, 0.674727, 0.700361, 0.662994, 0.667791, 0.666263, 0.661001, 0.667649, 0.868608, 0.676665, 0.675868, 0.679288, 0.661307, 0.667773, 0.669829, 0.665044, 0.662602, 0.673925, 0.680211
Process 3: 1.341484, 0.846402, 0.712020, 0.772201, 0.690690, 0.701753, 0.699038, 0.735931, 0.696894, 0.689613, 0.700537, 0.694832, 0.698167, 0.723597, 0.687330, 0.691951, 0.690244, 0.684957, 0.691520, 0.892868, 0.700036, 0.699053, 0.703064, 0.685326, 0.691960, 0.695377, 0.688931, 0.686583, 0.697869, 0.704602
Process 4: 1.364081, 0.868542, 0.734621, 0.795038, 0.713472, 0.724799, 0.723201, 0.758509, 0.719770, 0.712572, 0.723424, 0.717633, 0.721299, 0.746234, 0.710357, 0.714741, 0.713158, 0.707620, 0.715443, 0.916828, 0.722229, 0.722594, 0.725517, 0.707901, 0.714009, 0.717409, 0.711731, 0.709944, 0.721597, 0.727739
Process 5: 1.388839, 0.892498, 0.758928, 0.818606, 0.737099, 0.749153, 0.747164, 0.781858, 0.743542, 0.736613, 0.747608, 0.741689, 0.744740, 0.769467, 0.734541, 0.738965, 0.737175, 0.731339, 0.744596, 0.941619, 0.745734, 0.746034, 0.749371, 0.732022, 0.737926, 0.741356, 0.741083, 0.733693, 0.745568, 0.751641
Process 6: 1.410766, 0.915133, 0.781920, 0.842541, 0.760211, 0.772899, 0.770167, 0.804835, 0.766415, 0.759933, 0.770227, 0.764697, 0.768276, 0.792778, 0.757728, 0.762180, 0.760699, 0.754960, 0.765411, 0.964338, 0.769076, 0.768834, 0.775121, 0.754482, 0.761072, 0.764127, 0.764696, 0.756392, 0.768914, 0.775470
Process 7: 1.437092, 0.939466, 0.807295, 0.866652, 0.783994, 0.798275, 0.794858, 0.829277, 0.790456, 0.785107, 0.794327, 0.788851, 0.792749, 0.817509, 0.782127, 0.787511, 0.785055, 0.778492, 0.790622, 0.989040, 0.794194, 0.792251, 0.804863, 0.778088, 0.784888, 0.788806, 0.789877, 0.781012, 0.793161, 0.800379
Process 8: 1.459019, 0.961270, 0.829198, 0.889041, 0.806326, 0.820053, 0.818027, 0.852007, 0.813494, 0.807042, 0.816716, 0.811795, 0.814493, 0.838760, 0.804264, 0.809446, 0.807332, 0.800636, 0.812870, 1.011564, 0.816035, 0.814555, 0.830265, 0.799837, 0.807579, 0.811384, 0.812311, 0.803273, 0.815479, 0.823234
Process 9: 1.483583, 1.004136, 0.853214, 0.912781, 0.830090, 0.843807, 0.842702, 0.875876, 0.837165, 0.830797, 0.840402, 0.835550, 0.838129, 0.862095, 0.828471, 0.833614, 0.831264, 0.824307, 0.836753, 1.036547, 0.840233, 0.838679, 0.859043, 0.824008, 0.831479, 0.835350, 0.837008, 0.827980, 0.840219, 0.847613
Process 10: 1.505079, 1.008592, 0.875367, 0.936795, 0.853058, 0.866749, 0.865902, 0.897510, 0.859846, 0.853859, 0.863623, 0.858501, 0.861054, 0.884751, 0.852040, 0.856615, 0.854455, 0.846927, 0.858363, 1.060345, 0.862840, 0.861322, 0.888455, 0.847061, 0.854027, 0.858151, 0.859824, 0.850147, 0.863488, 0.871027
Process 11: 1.529815, 1.036609, 0.897536, 0.963559, 0.876845, 0.890878, 0.890327, 0.919856, 0.883194, 0.877223, 0.886782, 0.881820, 0.884435, 0.908130, 0.875502, 0.880298, 0.879270, 0.870736, 0.882050, 1.085794, 0.886096, 0.884814, 0.918212, 0.870692, 0.877768, 0.881883, 0.884033, 0.874842, 0.887461, 0.896015
Process 12: 1.551972, 1.060193, 0.920370, 0.985678, 0.898847, 0.913965, 0.913136, 0.942906, 0.905540, 0.899727, 0.909210, 0.904734, 0.907205, 0.930881, 0.897861, 0.903017, 0.901245, 0.892856, 0.906750, 1.107459, 0.908939, 0.907241, 0.943227, 0.892846, 0.899677, 0.904338, 0.906501, 0.897420, 0.910037, 0.918015
Process 13: 1.581864, 1.085312, 0.945252, 1.009954, 0.923333, 0.938828, 0.942154, 0.968599, 0.930483, 0.923862, 0.933612, 0.929323, 0.931175, 0.955182, 0.922408, 0.927308, 0.925816, 0.917184, 0.932488, 1.132611, 0.932747, 0.931403, 0.968011, 0.917161, 0.924734, 0.928550, 0.931211, 0.922700, 0.934594, 0.942548
Process 14: 1.611120, 1.108660, 0.968448, 1.032972, 0.945901, 0.961355, 0.972139, 0.991849, 0.953014, 0.946618, 0.956912, 0.952011, 0.953396, 0.977719, 0.945224, 0.950181, 0.948468, 0.939852, 0.954973, 1.155723, 0.955125, 0.954931, 0.991011, 0.939978, 0.947052, 0.951536, 0.953906, 0.945520, 0.958606, 0.965750
Process 15: 1.640845, 1.132092, 0.993259, 1.056517, 0.969844, 0.985382, 1.002216, 1.016258, 0.976409, 0.970583, 0.980893, 0.975724, 0.978419, 1.001164, 0.969771, 0.974055, 0.972422, 0.964130, 0.978430, 1.180059, 0.978856, 0.978222, 1.015174, 0.963816, 0.970647, 0.974992, 0.978286, 0.969405, 0.982578, 0.989610
Process 16: 1.667235, 1.155104, 1.015582, 1.079323, 0.992778, 1.008343, 1.030031, 1.039442, 0.999565, 0.993828, 1.003695, 0.998759, 1.005966, 1.023931, 0.992727, 0.997012, 0.995428, 0.986794, 1.000899, 1.203262, 1.001431, 1.001062, 1.037734, 0.986813, 0.992975, 0.997987, 1.001082, 0.992128, 1.006095, 1.013520
Process 17: 1.694696, 1.178056, 1.039979, 1.102780, 1.016420, 1.032219, 1.055183, 1.063402, 1.022744, 1.017573, 1.027405, 1.022987, 1.033781, 1.047578, 1.016809, 1.020831, 1.019535, 1.010518, 1.025249, 1.227128, 1.025917, 1.024401, 1.061753, 1.010875, 1.016614, 1.022263, 1.025534, 1.015748, 1.029926, 1.037121
Process 18: 1.715860, 1.201398, 1.063627, 1.126132, 1.039528, 1.055694, 1.078988, 1.087072, 1.046213, 1.040520, 1.050625, 1.046184, 1.061407, 1.070358, 1.039970, 1.044037, 1.043101, 1.033498, 1.048990, 1.250331, 1.049301, 1.049672, 1.084474, 1.034032, 1.039518, 1.045148, 1.048476, 1.038918, 1.053263, 1.060476
Process 19: 1.742262, 1.224893, 1.088153, 1.150377, 1.063421, 1.079503, 1.105819, 1.111621, 1.070148, 1.064859, 1.074820, 1.069596, 1.086027, 1.093985, 1.064322, 1.068505, 1.067058, 1.057752, 1.072447, 1.274785, 1.073663, 1.074473, 1.108639, 1.058424, 1.062485, 1.068997, 1.072964, 1.063555, 1.077322, 1.084905
Process 20: 1.764491, 1.248733, 1.111415, 1.173813, 1.086618, 1.102661, 1.129523, 1.134788, 1.093379, 1.087968, 1.098287, 1.092506, 1.109257, 1.116666, 1.087853, 1.091743, 1.089682, 1.080823, 1.095340, 1.298744, 1.097003, 1.097859, 1.131413, 1.081506, 1.084766, 1.091635, 1.096197, 1.086526, 1.100996, 1.108584
Process 21: 1.792760, 1.273358, 1.136551, 1.197331, 1.111828, 1.129062, 1.154649, 1.160221, 1.118574, 1.112977, 1.123609, 1.117391, 1.217429, 1.141457, 1.113294, 1.116582, 1.114776, 1.105786, 1.120259, 1.323886, 1.122037, 1.122645, 1.154587, 1.107355, 1.109596, 1.116454, 1.123199, 1.111408, 1.126778, 1.133963
Process 22: 1.815367, 1.296436, 1.159961, 1.218612, 1.134571, 1.153833, 1.177752, 1.183167, 1.141395, 1.136085, 1.145861, 1.140631, 1.224195, 1.164409, 1.135576, 1.139698, 1.138069, 1.128874, 1.143055, 1.347101, 1.145120, 1.145272, 1.176536, 1.129107, 1.131820, 1.139120, 1.147439, 1.134104, 1.149502, 1.157085
Process 23: 1.838299, 1.319676, 1.184515, 1.242568, 1.158530, 1.177914, 1.201781, 1.207147, 1.165442, 1.159845, 1.169731, 1.164305, 1.231094, 1.187947, 1.159385, 1.163529, 1.162218, 1.153030, 1.166973, 1.371250, 1.169220, 1.169201, 1.201343, 1.152941, 1.155250, 1.162892, 1.171542, 1.157868, 1.173965, 1.181780
Process 24: 1.861998, 1.343260, 1.209483, 1.266173, 1.182439, 1.202174, 1.225625, 1.231623, 1.189266, 1.183582, 1.193459, 1.188354, 1.237605, 1.211828, 1.183057, 1.187188, 1.185945, 1.177055, 1.191332, 1.395228, 1.193476, 1.193070, 1.225263, 1.176739, 1.178737, 1.186398, 1.195185, 1.181945, 1.198340, 1.206785
Process 25: 1.886397, 1.367480, 1.234585, 1.290036, 1.206619, 1.226726, 1.249931, 1.255892, 1.213848, 1.207472, 1.217394, 1.212489, 1.244865, 1.236046, 1.206623, 1.211528, 1.210040, 1.201211, 1.215494, 1.419478, 1.218028, 1.217251, 1.249193, 1.200701, 1.202824, 1.209841, 1.219432, 1.206033, 1.223365, 1.231528
Process 26: 1.909829, 1.390867, 1.259367, 1.313793, 1.230727, 1.251038, 1.273993, 1.279429, 1.237369, 1.231451, 1.241273, 1.235650, 1.258218, 1.259714, 1.230423, 1.235695, 1.234245, 1.225309, 1.239336, 1.443548, 1.242021, 1.240585, 1.273143, 1.224085, 1.225483, 1.233419, 1.243119, 1.229149, 1.248342, 1.255708
Process 27: 1.934147, 1.414953, 1.286983, 1.337576, 1.254493, 1.276134, 1.297916, 1.304097, 1.261566, 1.255470, 1.265209, 1.259620, 1.282195, 1.283764, 1.254122, 1.259790, 1.258850, 1.249362, 1.264105, 1.467562, 1.266699, 1.264259, 1.297374, 1.247573, 1.248987, 1.257293, 1.266595, 1.252834, 1.274517, 1.280996
Process 28: 1.957737, 1.438382, 1.314304, 1.361009, 1.277504, 1.301097, 1.321355, 1.328748, 1.285603, 1.281161, 1.289144, 1.283897, 1.305604, 1.307041, 1.278014, 1.283314, 1.282892, 1.272833, 1.288351, 1.491231, 1.290077, 1.287671, 1.320738, 1.270844, 1.272357, 1.280756, 1.289635, 1.276183, 1.297816, 1.305588
Process 29: 1.981441, 1.462337, 1.339334, 1.384979, 1.301126, 1.325510, 1.345039, 1.352586, 1.309611, 1.302307, 1.312750, 1.307508, 1.329321, 1.330588, 1.302136, 1.307035, 1.307096, 1.296436, 1.313128, 1.514756, 1.313780, 1.311286, 1.344254, 1.294440, 1.296287, 1.304545, 1.312624, 1.299713, 1.322228, 1.330659
Process 30: 2.003979, 1.486775, 1.363888, 1.408940, 1.325398, 1.349961, 1.369291, 1.376830, 1.334394, 1.326773, 1.337053, 1.331344, 1.353334, 1.354223, 1.326658, 1.331037, 1.331683, 1.320269, 1.337675, 1.538804, 1.337686, 1.335248, 1.368086, 1.318327, 1.319877, 1.328423, 1.333695, 1.323951, 1.348615, 1.355357
Process 31: 2.027844, 1.510306, 1.387855, 1.432342, 1.349392, 1.373800, 1.393294, 1.400610, 1.358184, 1.350724, 1.360530, 1.355075, 1.377137, 1.377632, 1.350836, 1.354806, 1.355595, 1.344095, 1.361822, 1.562105, 1.361387, 1.359077, 1.391414, 1.341983, 1.343421, 1.352409, 1.357095, 1.347583, 1.372353, 1.379516
