MPI_insiderank_serial
Process 0: 1.046486, 0.835406, 0.766371, 0.782596, 0.763533, 0.765552, 0.887251, 0.781807, 0.759469, 0.763081, 0.894264, 0.768472, 0.771146, 0.765304, 0.778502, 0.770361, 0.765878, 0.751349, 0.749039, 0.754497, 0.776776, 0.802185, 0.761589, 0.772353, 0.806998, 0.777587, 0.769136, 0.775443, 0.772330, 0.776247
Process 1: 0.919118, 0.730643, 0.658736, 0.675571, 0.655729, 0.656398, 0.781616, 0.675123, 0.651589, 0.652375, 0.786013, 0.663297, 0.662920, 0.655180, 0.669691, 0.661693, 0.659793, 0.645913, 0.644013, 0.649101, 0.662496, 0.688383, 0.655340, 0.659935, 0.692049, 0.663993, 0.658720, 0.664886, 0.661753, 0.668914
Process 2: 0.925343, 0.737411, 0.663951, 0.680766, 0.661620, 0.662431, 0.787943, 0.680654, 0.657535, 0.659591, 0.793215, 0.669204, 0.669023, 0.664318, 0.676930, 0.667857, 0.665645, 0.653211, 0.651134, 0.656402, 0.670995, 0.696821, 0.662617, 0.667755, 0.699664, 0.672044, 0.666253, 0.672145, 0.669025, 0.676199
Process 3: 0.935841, 0.745477, 0.672211, 0.689002, 0.669823, 0.670671, 0.796505, 0.688560, 0.665242, 0.667962, 0.801428, 0.677661, 0.677336, 0.672731, 0.685228, 0.676213, 0.673515, 0.660975, 0.659046, 0.664093, 0.678621, 0.704585, 0.670446, 0.676036, 0.707888, 0.679979, 0.674202, 0.680184, 0.677603, 0.684109
Process 4: 0.944051, 0.751984, 0.679026, 0.695838, 0.676542, 0.678648, 0.802991, 0.695451, 0.672010, 0.674631, 0.808249, 0.684518, 0.684126, 0.679229, 0.691944, 0.682988, 0.680638, 0.668361, 0.666024, 0.671390, 0.687113, 0.712212, 0.677689, 0.683732, 0.716966, 0.687389, 0.681752, 0.688718, 0.685147, 0.691615
Process 5: 0.954627, 0.760528, 0.687236, 0.704198, 0.685150, 0.687429, 0.811483, 0.703654, 0.680387, 0.683147, 0.815865, 0.692820, 0.692486, 0.687709, 0.700355, 0.691413, 0.688546, 0.676255, 0.674775, 0.679188, 0.695229, 0.720651, 0.685472, 0.692284, 0.725426, 0.696410, 0.689604, 0.697966, 0.693314, 0.699543
Process 6: 0.963094, 0.767525, 0.694172, 0.710982, 0.691945, 0.693941, 0.818082, 0.710577, 0.687201, 0.689924, 0.823221, 0.699554, 0.699483, 0.694399, 0.707263, 0.698173, 0.695699, 0.683716, 0.681305, 0.686745, 0.703325, 0.728504, 0.693035, 0.700469, 0.734416, 0.703583, 0.697422, 0.705538, 0.701235, 0.707364
Process 7: 0.973396, 0.775712, 0.702388, 0.719228, 0.700141, 0.702422, 0.826508, 0.718592, 0.695478, 0.698064, 0.830799, 0.707870, 0.707652, 0.705738, 0.715435, 0.706407, 0.703430, 0.691250, 0.688889, 0.694976, 0.711772, 0.736647, 0.700682, 0.708545, 0.742451, 0.712470, 0.705265, 0.713373, 0.709065, 0.715019
Process 8: 0.981854, 0.782590, 0.709324, 0.726133, 0.706938, 0.708911, 0.833213, 0.725578, 0.702506, 0.705054, 0.839437, 0.714731, 0.714596, 0.712129, 0.722339, 0.713323, 0.710592, 0.698746, 0.696551, 0.702031, 0.719876, 0.745001, 0.708449, 0.716795, 0.750721, 0.719556, 0.713304, 0.720685, 0.717018, 0.722685
Process 9: 0.992090, 0.790627, 0.717202, 0.734027, 0.714884, 0.717231, 0.842397, 0.733461, 0.710310, 0.713002, 0.849594, 0.722611, 0.722475, 0.719998, 0.730241, 0.721280, 0.718461, 0.706308, 0.704023, 0.709506, 0.728122, 0.753121, 0.715858, 0.724856, 0.758737, 0.728698, 0.721264, 0.729303, 0.724907, 0.730413
Process 10: 1.000488, 0.797578, 0.724361, 0.741114, 0.721901, 0.723852, 0.848451, 0.740547, 0.717634, 0.722000, 0.856258, 0.729848, 0.729644, 0.727120, 0.737315, 0.728326, 0.725696, 0.713909, 0.711747, 0.717076, 0.736363, 0.761483, 0.723655, 0.733206, 0.766950, 0.735512, 0.729251, 0.736392, 0.733282, 0.738240
Process 11: 1.010562, 0.805612, 0.732243, 0.749078, 0.729896, 0.732157, 0.856770, 0.748467, 0.725328, 0.729429, 0.864441, 0.737602, 0.737516, 0.735000, 0.745279, 0.736290, 0.733473, 0.721317, 0.719117, 0.724531, 0.744418, 0.769427, 0.731124, 0.741197, 0.774938, 0.744395, 0.737030, 0.744635, 0.741211, 0.745886
Process 12: 1.018925, 0.812511, 0.739319, 0.756088, 0.736794, 0.738797, 0.863653, 0.755350, 0.732272, 0.736006, 0.871389, 0.744628, 0.744470, 0.742099, 0.752330, 0.743189, 0.740748, 0.728887, 0.726908, 0.732059, 0.752705, 0.777807, 0.739008, 0.749129, 0.783169, 0.751387, 0.745016, 0.751940, 0.748845, 0.753481
Process 13: 1.033396, 0.820560, 0.747207, 0.764064, 0.744851, 0.747203, 0.873836, 0.763442, 0.740323, 0.744498, 0.879412, 0.752587, 0.752483, 0.751186, 0.760258, 0.751297, 0.748452, 0.736390, 0.734148, 0.739572, 0.760644, 0.785908, 0.746401, 0.757143, 0.791214, 0.759834, 0.753150, 0.760708, 0.756613, 0.761179
Process 14: 1.038316, 0.827554, 0.754325, 0.771130, 0.751786, 0.753933, 0.879910, 0.770372, 0.747357, 0.751242, 0.886360, 0.759747, 0.759709, 0.757326, 0.767348, 0.758298, 0.755778, 0.744044, 0.741772, 0.747141, 0.768965, 0.794238, 0.754123, 0.764709, 0.799112, 0.768799, 0.761153, 0.767729, 0.764493, 0.768779
Process 15: 1.046763, 0.835407, 0.766372, 0.782601, 0.763534, 0.765540, 0.887253, 0.781810, 0.759472, 0.763079, 0.894272, 0.768472, 0.771147, 0.765305, 0.778503, 0.770361, 0.765877, 0.751351, 0.749040, 0.754497, 0.776765, 0.802185, 0.761590, 0.772353, 0.806997, 0.777589, 0.769135, 0.775442, 0.772330, 0.776248
