MPI_insiderank_serial
Process 0: 1.677140, 1.410054, 1.357621, 1.359005, 1.382884, 1.361692, 1.358318, 1.356634, 1.380025, 1.364340, 1.341343, 1.356719, 1.423991, 1.383834, 1.407710, 1.384757, 1.382085, 1.337010, 1.329678, 1.326643, 1.325540, 1.326664, 1.332311, 1.334737, 1.324800, 1.334997, 1.324851, 1.324713, 1.330568, 1.327550
Process 1: 1.590971, 1.319827, 1.267670, 1.271314, 1.293495, 1.271307, 1.268300, 1.266890, 1.293095, 1.277408, 1.251802, 1.261320, 1.334786, 1.289577, 1.314096, 1.292363, 1.291350, 1.247817, 1.240453, 1.237398, 1.236229, 1.235695, 1.243002, 1.245871, 1.235690, 1.246320, 1.235903, 1.235635, 1.241755, 1.238197
Process 2: 1.601853, 1.333382, 1.281881, 1.283664, 1.308131, 1.285379, 1.282885, 1.281625, 1.305520, 1.289190, 1.267639, 1.277946, 1.349923, 1.304802, 1.330368, 1.306823, 1.307572, 1.262718, 1.255482, 1.252428, 1.251299, 1.250761, 1.258012, 1.260245, 1.250687, 1.260559, 1.250666, 1.250674, 1.256017, 1.253067
Process 3: 1.618269, 1.350504, 1.297287, 1.300555, 1.323529, 1.302051, 1.298693, 1.297053, 1.320730, 1.305889, 1.281806, 1.293421, 1.364622, 1.321145, 1.345993, 1.323910, 1.321898, 1.277595, 1.270443, 1.267453, 1.266219, 1.265847, 1.272984, 1.275435, 1.265549, 1.276744, 1.265730, 1.265553, 1.271229, 1.268111
Process 4: 1.631675, 1.364050, 1.313993, 1.312672, 1.337133, 1.317046, 1.311788, 1.311616, 1.334665, 1.317877, 1.296106, 1.309196, 1.379106, 1.336706, 1.360900, 1.336904, 1.337419, 1.291879, 1.284643, 1.281535, 1.280496, 1.280576, 1.287191, 1.289343, 1.279778, 1.289556, 1.279769, 1.279694, 1.285176, 1.282247
Process 5: 1.648068, 1.380098, 1.330481, 1.329356, 1.353164, 1.334367, 1.328709, 1.326654, 1.350252, 1.334946, 1.311467, 1.324804, 1.394313, 1.353029, 1.377135, 1.354239, 1.352263, 1.307446, 1.300064, 1.297823, 1.295992, 1.296376, 1.302794, 1.305255, 1.295176, 1.305709, 1.295270, 1.295069, 1.300853, 1.298060
Process 6: 1.660624, 1.393554, 1.341948, 1.342208, 1.366600, 1.345019, 1.341471, 1.340392, 1.364071, 1.347740, 1.326126, 1.341295, 1.408753, 1.367506, 1.392706, 1.368338, 1.367092, 1.321563, 1.314291, 1.311252, 1.310131, 1.310836, 1.316808, 1.319024, 1.309412, 1.319255, 1.309363, 1.309330, 1.314810, 1.311882
Process 7: 1.677727, 1.410053, 1.357625, 1.359007, 1.382888, 1.361690, 1.358322, 1.356636, 1.380029, 1.364338, 1.341344, 1.356720, 1.423981, 1.383835, 1.407714, 1.384755, 1.382086, 1.337011, 1.329679, 1.326643, 1.325542, 1.326665, 1.332311, 1.334738, 1.324800, 1.334987, 1.324852, 1.324713, 1.330570, 1.327551
