MPI_insiderank_serial
Process 0: 10.515053, 10.073217, 9.983517, 9.994582, 9.961583, 9.976422, 9.943768, 9.968626, 9.941517, 9.986610, 9.934860, 9.971432, 9.936107, 9.975527, 9.945874, 9.964302, 9.949948, 10.077085, 9.989493, 9.956596, 9.957912, 9.977703, 9.933990, 9.973829, 9.947012, 9.981128, 9.947390, 9.961405, 9.993330, 9.984142
Process 1: 10.524656, 10.081295, 9.993424, 10.004260, 9.970732, 9.986244, 9.952378, 9.977012, 9.951977, 9.997235, 9.945071, 9.979187, 9.946038, 9.985541, 9.956475, 9.973419, 9.961984, 10.089467, 9.999565, 9.965453, 9.965835, 9.987855, 9.944133, 9.982320, 9.957624, 9.991765, 9.957875, 9.970959, 10.003323, 9.994198
