MPI_insiderank_serial
Process 0: 2.200614, 1.900310, 2.024567, 1.903666, 1.912227, 1.887172, 1.906083, 1.918238, 1.913342, 1.996729, 1.912024, 1.936637, 1.915061, 1.899600, 1.922250, 1.909270, 1.894637, 1.928056, 1.903773, 1.903799, 1.873753, 1.893226, 1.898409, 1.889958, 1.872063, 1.952456, 1.914701, 1.946508, 1.918141, 1.913622
Process 1: 1.578980, 1.285513, 1.402604, 1.279121, 1.257795, 1.265951, 1.290109, 1.291556, 1.285553, 1.363347, 1.287948, 1.315798, 1.292311, 1.280063, 1.308795, 1.278309, 1.273028, 1.306437, 1.283979, 1.273397, 1.254075, 1.272948, 1.278130, 1.270801, 1.254179, 1.315135, 1.291534, 1.322663, 1.295111, 1.289620
Process 2: 1.626269, 1.333494, 1.451847, 1.328453, 1.308772, 1.316041, 1.337808, 1.341071, 1.331943, 1.413696, 1.334470, 1.367109, 1.340826, 1.328083, 1.358829, 1.325448, 1.321602, 1.354221, 1.333194, 1.321321, 1.301921, 1.319561, 1.326745, 1.318445, 1.301320, 1.364528, 1.338769, 1.366851, 1.341927, 1.335969
Process 3: 1.667134, 1.373214, 1.490416, 1.369120, 1.346774, 1.353989, 1.378534, 1.380322, 1.373353, 1.453006, 1.375672, 1.404143, 1.381794, 1.368068, 1.396087, 1.365539, 1.360490, 1.393397, 1.371080, 1.361182, 1.340324, 1.359707, 1.365358, 1.358451, 1.340103, 1.409907, 1.378020, 1.407779, 1.382911, 1.377189
Process 4: 1.715021, 1.417375, 1.542783, 1.417814, 1.395115, 1.403717, 1.425857, 1.429866, 1.420896, 1.502843, 1.424610, 1.455183, 1.429691, 1.417330, 1.444295, 1.413680, 1.409039, 1.440704, 1.421149, 1.411342, 1.388340, 1.407805, 1.412742, 1.405443, 1.388274, 1.458663, 1.426568, 1.455458, 1.429704, 1.424134
Process 5: 1.757786, 1.457277, 1.587158, 1.457334, 1.437797, 1.444424, 1.463965, 1.471028, 1.467988, 1.543656, 1.464861, 1.494023, 1.471877, 1.456838, 1.480727, 1.456417, 1.450671, 1.488601, 1.460276, 1.450638, 1.430590, 1.449790, 1.454785, 1.447857, 1.430664, 1.502473, 1.468423, 1.498343, 1.472987, 1.467398
Process 6: 1.803932, 1.502861, 1.632650, 1.505057, 1.485771, 1.490485, 1.508376, 1.518973, 1.516957, 1.591537, 1.512110, 1.544112, 1.518275, 1.503950, 1.525574, 1.501923, 1.496866, 1.535316, 1.507113, 1.497421, 1.477136, 1.497007, 1.500684, 1.495075, 1.476606, 1.548536, 1.515457, 1.545243, 1.518375, 1.513836
Process 7: 1.846561, 1.546780, 1.675372, 1.546226, 1.531806, 1.533594, 1.552241, 1.561051, 1.559307, 1.633297, 1.554396, 1.582603, 1.561154, 1.545222, 1.567589, 1.546521, 1.540709, 1.574705, 1.549259, 1.542499, 1.519051, 1.538525, 1.543029, 1.537711, 1.518775, 1.593338, 1.557312, 1.588047, 1.561285, 1.556055
Process 8: 1.891657, 1.591202, 1.720611, 1.594444, 1.779568, 1.578539, 1.596719, 1.607716, 1.606059, 1.678464, 1.601818, 1.630110, 1.606093, 1.592678, 1.615301, 1.591069, 1.585740, 1.618531, 1.597354, 1.589597, 1.565687, 1.586386, 1.589898, 1.583662, 1.565388, 1.641648, 1.605131, 1.635915, 1.608569, 1.604137
Process 9: 1.936375, 1.634952, 1.764484, 1.634509, 1.789460, 1.622055, 1.640370, 1.650421, 1.650694, 1.722022, 1.645785, 1.672515, 1.649495, 1.635406, 1.658225, 1.635012, 1.629758, 1.662487, 1.638197, 1.630024, 1.609061, 1.629362, 1.633351, 1.626002, 1.608756, 1.683939, 1.647865, 1.680201, 1.652037, 1.647563
Process 10: 1.980217, 1.679595, 1.803403, 1.688789, 1.797994, 1.667368, 1.685354, 1.695432, 1.695319, 1.766953, 1.691271, 1.718286, 1.694576, 1.680857, 1.703817, 1.679916, 1.674804, 1.708859, 1.686230, 1.679351, 1.654398, 1.674681, 1.679665, 1.671136, 1.653898, 1.729784, 1.694790, 1.725849, 1.698030, 1.693546
Process 11: 2.024008, 1.722557, 1.847132, 1.731349, 1.807290, 1.709712, 1.728296, 1.739030, 1.733946, 1.816687, 1.733927, 1.759809, 1.737198, 1.722746, 1.745633, 1.722652, 1.717351, 1.749883, 1.725960, 1.726990, 1.696688, 1.716586, 1.721911, 1.713609, 1.695770, 1.773393, 1.736877, 1.768505, 1.740270, 1.735705
Process 12: 2.069242, 1.770943, 1.893877, 1.776773, 1.816269, 1.755870, 1.775306, 1.786633, 1.779294, 1.863814, 1.783785, 1.806921, 1.783590, 1.772065, 1.792480, 1.770265, 1.766056, 1.798112, 1.773602, 1.772719, 1.745595, 1.763690, 1.768592, 1.761988, 1.745049, 1.819155, 1.784243, 1.818360, 1.787216, 1.782635
Process 13: 2.115731, 1.813494, 1.935009, 1.818471, 1.825001, 1.800356, 1.818555, 1.830538, 1.822909, 1.909378, 1.826323, 1.851344, 1.828108, 1.814348, 1.836963, 1.823187, 1.807696, 1.841074, 1.817253, 1.817269, 1.788208, 1.808014, 1.812522, 1.803795, 1.786793, 1.865103, 1.828091, 1.860631, 1.831945, 1.827554
Process 14: 2.157912, 1.857358, 1.984015, 1.865321, 1.862869, 1.844510, 1.862649, 1.874632, 1.869237, 1.952746, 1.870216, 1.895624, 1.872254, 1.858299, 1.881594, 1.866210, 1.851643, 1.884992, 1.862719, 1.860729, 1.832580, 1.852524, 1.857726, 1.849006, 1.831003, 1.908442, 1.872973, 1.904900, 1.876464, 1.871802
Process 15: 2.201875, 1.901470, 2.025576, 1.904676, 1.913217, 1.888155, 1.907094, 1.919361, 1.914539, 1.997862, 1.913121, 1.937733, 1.916205, 1.900707, 1.923388, 1.910294, 1.895656, 1.929189, 1.904927, 1.904865, 1.874873, 1.894330, 1.899546, 1.891069, 1.873093, 1.953528, 1.915769, 1.947620, 1.919231, 1.914730
