MPI_insiderank_serial
Process 0: 0.729508, 0.478639, 0.464417, 0.471424, 0.465237, 0.464991, 0.465559, 0.464621, 0.464809, 0.464431, 1.335479, 0.463505, 0.471630, 0.465260, 0.463849, 0.464645, 0.463765, 0.462897, 0.463923, 0.468617, 0.464718, 0.482013, 0.470864, 0.464472, 0.464184, 0.469343, 0.464193, 0.464383, 0.463924, 0.469479
Process 1: 0.596384, 0.370975, 0.356698, 0.363886, 0.357624, 0.357119, 0.357731, 0.356915, 0.357062, 0.356112, 1.228311, 0.355985, 0.364207, 0.357711, 0.356239, 0.356340, 0.356091, 0.355489, 0.356167, 0.360654, 0.357008, 0.373875, 0.363193, 0.356567, 0.356311, 0.361500, 0.356443, 0.356609, 0.356328, 0.356072
Process 2: 0.599824, 0.374720, 0.360735, 0.367447, 0.361748, 0.361303, 0.361716, 0.360959, 0.361072, 0.360148, 1.231666, 0.359968, 0.368060, 0.361872, 0.360347, 0.360364, 0.359777, 0.359503, 0.360313, 0.364740, 0.360925, 0.378102, 0.367390, 0.360508, 0.360283, 0.364706, 0.360419, 0.360757, 0.360302, 0.359737
Process 3: 0.604740, 0.378296, 0.364397, 0.371294, 0.365232, 0.365014, 0.365570, 0.364817, 0.364610, 0.363598, 1.235732, 0.363744, 0.371612, 0.365591, 0.363755, 0.363823, 0.363679, 0.363104, 0.363665, 0.368338, 0.364438, 0.381470, 0.370823, 0.364058, 0.363758, 0.368765, 0.364201, 0.364123, 0.363763, 0.363679
Process 4: 0.608982, 0.382067, 0.367917, 0.374853, 0.368661, 0.368694, 0.369139, 0.368343, 0.368104, 0.367486, 1.239027, 0.367317, 0.375394, 0.369046, 0.367577, 0.367408, 0.367173, 0.366709, 0.367501, 0.371600, 0.368374, 0.385276, 0.374254, 0.367646, 0.367674, 0.372160, 0.367898, 0.367870, 0.367501, 0.367234
Process 5: 0.612814, 0.385349, 0.371576, 0.378373, 0.372314, 0.372366, 0.372706, 0.371918, 0.371869, 0.371158, 1.242739, 0.370983, 0.378947, 0.372693, 0.371124, 0.371283, 0.370944, 0.370278, 0.371213, 0.375397, 0.371992, 0.388985, 0.377960, 0.371453, 0.371190, 0.375706, 0.371486, 0.371611, 0.371089, 0.370845
Process 6: 0.617356, 0.389536, 0.375124, 0.382224, 0.376252, 0.375872, 0.376247, 0.375517, 0.375646, 0.374596, 1.246262, 0.374410, 0.382461, 0.376286, 0.374682, 0.374857, 0.374403, 0.373885, 0.374734, 0.379010, 0.375494, 0.392546, 0.381746, 0.375280, 0.374947, 0.379956, 0.374973, 0.375104, 0.374777, 0.374362
Process 7: 0.622252, 0.392934, 0.378550, 0.385929, 0.379607, 0.379265, 0.379744, 0.378924, 0.379071, 0.378043, 1.249714, 0.377954, 0.385982, 0.379700, 0.378089, 0.378892, 0.377823, 0.377361, 0.378160, 0.382625, 0.378995, 0.395929, 0.385255, 0.378705, 0.378372, 0.383603, 0.378577, 0.378490, 0.378302, 0.377828
Process 8: 0.626861, 0.396491, 0.382114, 0.389571, 0.383125, 0.382929, 0.383291, 0.382558, 0.382717, 0.381697, 1.253462, 0.381511, 0.389524, 0.383299, 0.381718, 0.382523, 0.381571, 0.380845, 0.381798, 0.386139, 0.382586, 0.399600, 0.388786, 0.382361, 0.382071, 0.387242, 0.382089, 0.382208, 0.381857, 0.381366
Process 9: 0.631558, 0.400129, 0.385778, 0.393028, 0.386770, 0.386455, 0.386820, 0.386166, 0.386277, 0.385227, 1.256919, 0.386287, 0.393044, 0.386870, 0.385278, 0.386114, 0.385007, 0.384493, 0.385306, 0.389686, 0.386140, 0.403141, 0.392432, 0.385899, 0.385584, 0.390752, 0.385612, 0.385678, 0.385373, 0.384898
Process 10: 0.636178, 0.403600, 0.389253, 0.396634, 0.390224, 0.389947, 0.390445, 0.389582, 0.389733, 0.388786, 1.260437, 0.388627, 0.396704, 0.390335, 0.388783, 0.389570, 0.388569, 0.388034, 0.388851, 0.393470, 0.389706, 0.406624, 0.395943, 0.389358, 0.389126, 0.394373, 0.389241, 0.389159, 0.388943, 0.388493
Process 11: 0.640821, 0.407257, 0.392849, 0.400276, 0.393814, 0.393625, 0.393992, 0.393251, 0.393391, 0.392388, 1.264039, 0.392212, 0.400302, 0.394061, 0.392485, 0.393202, 0.392158, 0.391546, 0.392477, 0.396769, 0.393233, 0.410315, 0.399490, 0.393030, 0.392685, 0.397948, 0.392772, 0.392862, 0.392525, 0.392027
Process 12: 0.645337, 0.410815, 0.396428, 0.403800, 0.397370, 0.397120, 0.397629, 0.396771, 0.396855, 0.395882, 1.267581, 0.395776, 0.403754, 0.397485, 0.395984, 0.396708, 0.395689, 0.395129, 0.395953, 0.400513, 0.396821, 0.413843, 0.403098, 0.396532, 0.396214, 0.401468, 0.396378, 0.396388, 0.395982, 0.395519
Process 13: 0.650063, 0.414351, 0.399971, 0.407429, 0.400885, 0.400692, 0.401156, 0.400316, 0.400440, 0.399525, 1.271217, 0.399310, 0.407469, 0.401054, 0.399562, 0.400239, 0.399288, 0.398627, 0.399565, 0.403790, 0.400382, 0.417525, 0.406570, 0.400130, 0.399861, 0.405111, 0.399871, 0.399982, 0.399640, 0.399190
Process 14: 0.654549, 0.417960, 0.403537, 0.410877, 0.404497, 0.404252, 0.404657, 0.403883, 0.403980, 0.403057, 1.274691, 0.402809, 0.410929, 0.404720, 0.403125, 0.403858, 0.402810, 0.402129, 0.403082, 0.407624, 0.403914, 0.421061, 0.410184, 0.403649, 0.403368, 0.408616, 0.403401, 0.403552, 0.403135, 0.402650
Process 15: 0.659086, 0.421382, 0.407053, 0.414346, 0.407964, 0.407746, 0.408237, 0.407368, 0.407510, 0.406531, 1.278163, 0.406383, 0.414513, 0.408141, 0.406577, 0.407326, 0.406279, 0.405708, 0.406608, 0.410969, 0.407505, 0.424489, 0.413677, 0.407140, 0.406859, 0.412095, 0.407004, 0.407011, 0.406703, 0.406175
Process 16: 0.663549, 0.424870, 0.410495, 0.417909, 0.411466, 0.411371, 0.411716, 0.410844, 0.411091, 0.410174, 1.281743, 0.409919, 0.418029, 0.411635, 0.410202, 0.410906, 0.409883, 0.409188, 0.410217, 0.414523, 0.410987, 0.428120, 0.417202, 0.410725, 0.410465, 0.415711, 0.410455, 0.410600, 0.410209, 0.409720
Process 17: 0.668188, 0.428514, 0.414203, 0.421439, 0.415229, 0.414933, 0.415346, 0.414551, 0.414676, 0.413653, 1.285469, 0.413511, 0.421582, 0.415345, 0.413727, 0.414468, 0.413397, 0.412824, 0.413740, 0.418178, 0.414539, 0.431773, 0.420843, 0.414313, 0.413989, 0.419248, 0.414036, 0.414174, 0.413758, 0.413305
Process 18: 0.672734, 0.432100, 0.417634, 0.424963, 0.418631, 0.418372, 0.418942, 0.418002, 0.418130, 0.417224, 1.288893, 0.417026, 0.425147, 0.418794, 0.417199, 0.417981, 0.416990, 0.416345, 0.417242, 0.421633, 0.418170, 0.435220, 0.424312, 0.417798, 0.417555, 0.422817, 0.417702, 0.417670, 0.417389, 0.416857
Process 19: 0.677312, 0.435662, 0.421207, 0.428629, 0.422238, 0.422105, 0.422467, 0.421667, 0.421788, 0.420810, 1.292551, 0.420597, 0.428666, 0.422389, 0.420897, 0.421633, 0.420521, 0.419904, 0.420900, 0.425575, 0.421732, 0.438924, 0.427903, 0.421447, 0.421119, 0.426415, 0.421238, 0.421349, 0.420906, 0.420402
Process 20: 0.681639, 0.439134, 0.424831, 0.432118, 0.425809, 0.425537, 0.426092, 0.425162, 0.425279, 0.424303, 1.296045, 0.424177, 0.432151, 0.425877, 0.424352, 0.425148, 0.424035, 0.423536, 0.424422, 0.428935, 0.425304, 0.442385, 0.431495, 0.424945, 0.424631, 0.429893, 0.424812, 0.424818, 0.424459, 0.423885
Process 21: 0.686287, 0.442772, 0.428418, 0.435747, 0.429384, 0.429251, 0.429661, 0.428796, 0.428964, 0.428017, 1.299504, 0.427786, 0.435851, 0.429480, 0.428059, 0.428810, 0.427687, 0.427117, 0.428094, 0.432335, 0.428890, 0.446034, 0.435124, 0.428633, 0.428293, 0.433578, 0.428378, 0.428508, 0.428139, 0.427606
Process 22: 0.690583, 0.446289, 0.431801, 0.439180, 0.432861, 0.432602, 0.433062, 0.432268, 0.432307, 0.431393, 1.302962, 0.431180, 0.439280, 0.432997, 0.431446, 0.432143, 0.431085, 0.430575, 0.431443, 0.435848, 0.432307, 0.449470, 0.442013, 0.431978, 0.431663, 0.436942, 0.431770, 0.431903, 0.431450, 0.431222
Process 23: 0.695126, 0.449808, 0.435479, 0.442664, 0.436363, 0.436187, 0.436700, 0.435783, 0.435885, 0.435027, 1.306504, 0.434833, 0.442906, 0.436457, 0.434978, 0.435784, 0.434644, 0.434041, 0.434979, 0.439571, 0.435925, 0.453013, 0.442930, 0.435590, 0.435245, 0.440527, 0.435458, 0.435472, 0.435090, 0.434867
Process 24: 0.699552, 0.453348, 0.439041, 0.446349, 0.440087, 0.439916, 0.440264, 0.439466, 0.439563, 0.438564, 1.310229, 0.438358, 0.446534, 0.440154, 0.438662, 0.439439, 0.438280, 0.437700, 0.438675, 0.443200, 0.439445, 0.456715, 0.445665, 0.439266, 0.438962, 0.444194, 0.438986, 0.439154, 0.438676, 0.439187
Process 25: 0.703991, 0.456898, 0.442695, 0.449888, 0.443572, 0.443346, 0.443942, 0.442965, 0.443031, 0.442545, 1.313825, 0.441910, 0.450003, 0.443652, 0.442153, 0.442901, 0.441840, 0.441309, 0.442176, 0.446726, 0.443081, 0.460241, 0.449277, 0.442746, 0.442479, 0.447672, 0.442627, 0.442687, 0.442252, 0.443255
Process 26: 0.708384, 0.460573, 0.446208, 0.453463, 0.447206, 0.447016, 0.447475, 0.446561, 0.446723, 0.446328, 1.317417, 0.445571, 0.453687, 0.447285, 0.445822, 0.446602, 0.445526, 0.444855, 0.445868, 0.450605, 0.446640, 0.463860, 0.452829, 0.446450, 0.446138, 0.451333, 0.446192, 0.446341, 0.445906, 0.446872
Process 27: 0.712896, 0.464080, 0.449720, 0.457100, 0.450769, 0.450484, 0.450968, 0.450183, 0.450157, 0.449610, 1.320864, 0.448988, 0.457174, 0.450845, 0.449262, 0.450048, 0.448965, 0.448458, 0.449312, 0.453897, 0.450132, 0.467441, 0.456408, 0.449865, 0.449615, 0.454790, 0.449685, 0.449789, 0.449373, 0.450466
Process 28: 0.717119, 0.467606, 0.453371, 0.460623, 0.454324, 0.454073, 0.454642, 0.453716, 0.453780, 0.453375, 1.324572, 0.452612, 0.460826, 0.454365, 0.452894, 0.453655, 0.452603, 0.451990, 0.452925, 0.457515, 0.453836, 0.471006, 0.459967, 0.453481, 0.453200, 0.458386, 0.453364, 0.453424, 0.453044, 0.455352
Process 29: 0.721645, 0.471242, 0.457436, 0.464244, 0.457890, 0.457698, 0.458199, 0.457347, 0.457396, 0.456732, 1.327961, 0.456236, 0.464321, 0.457931, 0.456521, 0.457286, 0.456152, 0.455525, 0.456568, 0.461002, 0.457309, 0.474617, 0.463503, 0.457099, 0.456802, 0.462001, 0.456844, 0.457033, 0.456538, 0.463246
Process 30: 0.726756, 0.475230, 0.460772, 0.467978, 0.461777, 0.461513, 0.462097, 0.461209, 0.461265, 0.460889, 1.331815, 0.460162, 0.468152, 0.461882, 0.460433, 0.461144, 0.460619, 0.459550, 0.460441, 0.465019, 0.461311, 0.478462, 0.467481, 0.460940, 0.460711, 0.465881, 0.460833, 0.460887, 0.460481, 0.466030
Process 31: 0.729791, 0.478636, 0.464460, 0.471412, 0.465234, 0.464992, 0.465554, 0.464631, 0.464809, 0.464436, 1.335477, 0.463505, 0.471629, 0.465264, 0.463851, 0.464644, 0.463755, 0.462882, 0.463919, 0.468614, 0.464717, 0.482013, 0.470867, 0.464473, 0.464183, 0.469351, 0.464199, 0.464382, 0.463919, 0.469483
