MPI_insiderank_serial
Process 0: 0.516035, 0.470946, 0.445476, 0.436722, 0.454140, 0.449577, 0.458070, 0.453991, 0.444816, 0.443536, 0.446515, 0.437954, 0.450069, 0.439365, 0.443350, 0.449461, 0.437592, 0.450608, 0.442645, 0.838445, 0.447278, 0.440180, 0.455774, 0.435797, 0.450950, 0.454683, 0.458119, 0.448945, 0.446021, 0.443101
Process 1: 0.402407, 0.357862, 0.332864, 0.324545, 0.338201, 0.337285, 0.343040, 0.341827, 0.333265, 0.328197, 0.335236, 0.323893, 0.337169, 0.326397, 0.330530, 0.334055, 0.326603, 0.332940, 0.331619, 0.725084, 0.334274, 0.327013, 0.339883, 0.324164, 0.335493, 0.340618, 0.345098, 0.333280, 0.334873, 0.327442
Process 2: 0.405765, 0.361263, 0.336348, 0.327952, 0.341711, 0.340626, 0.346593, 0.344962, 0.336668, 0.331675, 0.338686, 0.327340, 0.340581, 0.329800, 0.333965, 0.337552, 0.329964, 0.336511, 0.334992, 0.728615, 0.337457, 0.330442, 0.343218, 0.327508, 0.338966, 0.343993, 0.348959, 0.336798, 0.338236, 0.330917
Process 3: 0.409737, 0.365135, 0.340258, 0.331821, 0.345712, 0.344461, 0.350572, 0.348894, 0.340552, 0.335611, 0.342549, 0.331254, 0.344586, 0.333716, 0.337870, 0.341568, 0.333789, 0.340576, 0.338850, 0.732461, 0.341397, 0.334988, 0.347281, 0.331334, 0.342974, 0.347884, 0.352879, 0.340805, 0.342638, 0.334891
Process 4: 0.413097, 0.368573, 0.343714, 0.335198, 0.349130, 0.347847, 0.354009, 0.352250, 0.343920, 0.339077, 0.345967, 0.334780, 0.348006, 0.337115, 0.341261, 0.345030, 0.337133, 0.344178, 0.342226, 0.736228, 0.344880, 0.338042, 0.351042, 0.334661, 0.346469, 0.351309, 0.356292, 0.344271, 0.345760, 0.338326
Process 5: 0.417260, 0.372568, 0.347723, 0.339193, 0.353230, 0.351761, 0.358125, 0.356303, 0.347893, 0.343174, 0.349932, 0.338866, 0.352092, 0.341142, 0.345334, 0.349129, 0.341082, 0.348370, 0.346174, 0.740281, 0.348955, 0.342022, 0.355221, 0.338628, 0.350616, 0.355298, 0.360343, 0.348697, 0.349714, 0.342443
Process 6: 0.420714, 0.376126, 0.351230, 0.342618, 0.356664, 0.355178, 0.361637, 0.359789, 0.351343, 0.346757, 0.353370, 0.342384, 0.355567, 0.344575, 0.348810, 0.353107, 0.344486, 0.352393, 0.349611, 0.743464, 0.352501, 0.345519, 0.358771, 0.342054, 0.354160, 0.358787, 0.363823, 0.352236, 0.353131, 0.346041
Process 7: 0.424741, 0.380041, 0.355190, 0.346506, 0.360739, 0.359087, 0.366454, 0.363737, 0.355283, 0.350826, 0.357302, 0.346357, 0.359521, 0.348515, 0.352791, 0.357090, 0.348352, 0.356490, 0.353506, 0.747527, 0.356514, 0.349483, 0.363694, 0.345990, 0.358192, 0.362754, 0.367788, 0.356252, 0.357032, 0.350040
Process 8: 0.428596, 0.383824, 0.358806, 0.350109, 0.364682, 0.362634, 0.370146, 0.367341, 0.358841, 0.354490, 0.360856, 0.349990, 0.363186, 0.352129, 0.356377, 0.360835, 0.351935, 0.360240, 0.357076, 0.751157, 0.360221, 0.353062, 0.367181, 0.349611, 0.361903, 0.366371, 0.371398, 0.359951, 0.360598, 0.353731
Process 9: 0.432466, 0.387696, 0.362662, 0.353928, 0.369090, 0.366385, 0.374017, 0.371251, 0.362674, 0.358422, 0.364683, 0.353864, 0.367045, 0.356283, 0.360230, 0.364762, 0.355717, 0.364310, 0.360879, 0.755128, 0.364108, 0.356916, 0.371606, 0.354040, 0.365886, 0.370201, 0.375296, 0.363895, 0.364400, 0.357725
Process 10: 0.436099, 0.391266, 0.366284, 0.357560, 0.372614, 0.369921, 0.377694, 0.374826, 0.366663, 0.362129, 0.368257, 0.357481, 0.370662, 0.359846, 0.363856, 0.368464, 0.359254, 0.368055, 0.364431, 0.758705, 0.367718, 0.360512, 0.375332, 0.357369, 0.369587, 0.373833, 0.378860, 0.367603, 0.367938, 0.361361
Process 11: 0.439976, 0.395149, 0.370092, 0.361333, 0.376980, 0.373613, 0.381545, 0.378656, 0.370392, 0.366100, 0.372032, 0.361322, 0.374493, 0.363688, 0.367661, 0.372336, 0.363008, 0.372069, 0.368170, 0.762589, 0.371557, 0.364331, 0.379666, 0.361103, 0.374143, 0.378952, 0.382662, 0.371510, 0.371705, 0.365268
Process 12: 0.443873, 0.398748, 0.373941, 0.364944, 0.380591, 0.377208, 0.385259, 0.382292, 0.373964, 0.369844, 0.375674, 0.364995, 0.378161, 0.367317, 0.371295, 0.376039, 0.366846, 0.375964, 0.371773, 0.766197, 0.375244, 0.367940, 0.383166, 0.364719, 0.377542, 0.382998, 0.386321, 0.375207, 0.375280, 0.369071
Process 13: 0.448160, 0.402628, 0.378085, 0.368775, 0.384519, 0.381531, 0.389205, 0.386110, 0.377813, 0.373780, 0.379570, 0.368897, 0.382053, 0.371155, 0.375168, 0.380027, 0.370606, 0.379977, 0.375565, 0.770139, 0.379113, 0.371795, 0.387066, 0.368554, 0.381497, 0.386818, 0.390192, 0.379157, 0.379093, 0.373121
Process 14: 0.451542, 0.406342, 0.381551, 0.372413, 0.388207, 0.384887, 0.392909, 0.389813, 0.381441, 0.377550, 0.383196, 0.372603, 0.385716, 0.374824, 0.378826, 0.383780, 0.374221, 0.383785, 0.379194, 0.773786, 0.382818, 0.375480, 0.390795, 0.372163, 0.385229, 0.390522, 0.393866, 0.382908, 0.382696, 0.376821
Process 15: 0.455388, 0.410246, 0.385428, 0.376255, 0.392902, 0.388661, 0.397030, 0.393665, 0.385281, 0.381521, 0.387013, 0.376606, 0.389601, 0.378700, 0.382717, 0.387746, 0.378036, 0.387798, 0.383576, 0.777723, 0.386697, 0.379366, 0.394766, 0.375964, 0.389163, 0.394387, 0.397749, 0.386892, 0.386505, 0.380756
Process 16: 0.459195, 0.413995, 0.389011, 0.379881, 0.396337, 0.392207, 0.400826, 0.397288, 0.388835, 0.385194, 0.390569, 0.380258, 0.393247, 0.382342, 0.386330, 0.391473, 0.381614, 0.391579, 0.386999, 0.781371, 0.390313, 0.383005, 0.398441, 0.379576, 0.392875, 0.398010, 0.401372, 0.390556, 0.390061, 0.384456
Process 17: 0.463116, 0.417894, 0.392930, 0.383759, 0.400788, 0.396020, 0.404753, 0.401206, 0.392671, 0.389141, 0.394464, 0.384168, 0.397137, 0.386310, 0.390205, 0.395473, 0.385430, 0.395590, 0.390809, 0.785342, 0.394334, 0.386896, 0.402419, 0.383431, 0.396824, 0.401880, 0.405281, 0.394520, 0.393867, 0.388410
Process 18: 0.466659, 0.421442, 0.396562, 0.387400, 0.404455, 0.399578, 0.408448, 0.404819, 0.396269, 0.392881, 0.398032, 0.387822, 0.400760, 0.389928, 0.393841, 0.399212, 0.389012, 0.399329, 0.394383, 0.788971, 0.397949, 0.390522, 0.406113, 0.386999, 0.400562, 0.405510, 0.408895, 0.398259, 0.397415, 0.392132
Process 19: 0.470619, 0.425332, 0.400420, 0.391227, 0.408351, 0.403354, 0.412348, 0.408732, 0.400109, 0.396830, 0.401847, 0.391746, 0.404637, 0.393823, 0.397706, 0.403196, 0.392815, 0.403361, 0.398169, 0.792962, 0.401830, 0.394511, 0.410026, 0.390820, 0.404521, 0.409399, 0.412791, 0.402176, 0.401249, 0.396074
Process 20: 0.474284, 0.428897, 0.404025, 0.394807, 0.412006, 0.406913, 0.415956, 0.412298, 0.403653, 0.400543, 0.405361, 0.395403, 0.408258, 0.397394, 0.401296, 0.406892, 0.396358, 0.407076, 0.401722, 0.796470, 0.405438, 0.398121, 0.413714, 0.394387, 0.408217, 0.412991, 0.416366, 0.405869, 0.404751, 0.399740
Process 21: 0.478214, 0.433176, 0.407926, 0.398719, 0.415961, 0.410743, 0.419912, 0.416242, 0.407544, 0.404631, 0.409215, 0.399352, 0.412196, 0.401397, 0.405812, 0.410901, 0.400205, 0.411112, 0.405564, 0.800511, 0.409349, 0.402078, 0.417659, 0.398289, 0.412267, 0.416884, 0.420274, 0.409913, 0.408593, 0.403751
Process 22: 0.481888, 0.436710, 0.411531, 0.402348, 0.419625, 0.414309, 0.423572, 0.419861, 0.411144, 0.408320, 0.412754, 0.403020, 0.415834, 0.405045, 0.409187, 0.414611, 0.403776, 0.414877, 0.409112, 0.804050, 0.412975, 0.405755, 0.421333, 0.401881, 0.415996, 0.420542, 0.423855, 0.413610, 0.412125, 0.407445
Process 23: 0.485832, 0.440652, 0.415475, 0.406830, 0.423660, 0.418188, 0.427600, 0.423783, 0.415046, 0.412387, 0.416644, 0.407017, 0.419790, 0.409001, 0.413155, 0.418745, 0.407678, 0.418972, 0.413006, 0.808079, 0.416927, 0.409745, 0.425332, 0.405804, 0.420030, 0.424492, 0.427835, 0.417671, 0.416023, 0.412168
Process 24: 0.489543, 0.444418, 0.419048, 0.410202, 0.427297, 0.421746, 0.431212, 0.427406, 0.418612, 0.416067, 0.420177, 0.410689, 0.423426, 0.412611, 0.416764, 0.422408, 0.411249, 0.422746, 0.416525, 0.811655, 0.420537, 0.413380, 0.428973, 0.409404, 0.423756, 0.428104, 0.431427, 0.421338, 0.419571, 0.415893
Process 25: 0.493558, 0.448375, 0.422984, 0.414112, 0.431320, 0.426929, 0.435220, 0.431445, 0.422515, 0.420176, 0.424581, 0.415221, 0.427388, 0.416582, 0.420724, 0.426438, 0.415221, 0.426829, 0.420411, 0.815695, 0.424482, 0.417355, 0.432991, 0.413340, 0.427805, 0.432060, 0.435387, 0.425365, 0.423472, 0.419921
Process 26: 0.497032, 0.451883, 0.426563, 0.417719, 0.434955, 0.429192, 0.438903, 0.435019, 0.426100, 0.423881, 0.427947, 0.418665, 0.430979, 0.420192, 0.424357, 0.430160, 0.418852, 0.430547, 0.423970, 0.819292, 0.428087, 0.420978, 0.436627, 0.416911, 0.431535, 0.435662, 0.438972, 0.429142, 0.427002, 0.423604
Process 27: 0.501054, 0.455881, 0.430513, 0.421664, 0.438946, 0.433071, 0.442873, 0.439000, 0.429991, 0.428024, 0.431792, 0.422678, 0.435429, 0.424191, 0.428304, 0.434168, 0.422771, 0.434649, 0.427853, 0.823308, 0.432034, 0.425001, 0.440597, 0.420832, 0.435566, 0.439990, 0.443449, 0.433151, 0.430906, 0.427666
Process 28: 0.504608, 0.459481, 0.434137, 0.425297, 0.442617, 0.436661, 0.446558, 0.442803, 0.433566, 0.431980, 0.435340, 0.426357, 0.438674, 0.427834, 0.431953, 0.437863, 0.426310, 0.438385, 0.431423, 0.826898, 0.435675, 0.428701, 0.444292, 0.424443, 0.439277, 0.443285, 0.446766, 0.436881, 0.434463, 0.431375
Process 29: 0.508688, 0.463439, 0.438026, 0.429245, 0.446589, 0.442026, 0.450528, 0.446903, 0.437458, 0.436019, 0.439215, 0.430384, 0.442629, 0.431820, 0.435870, 0.441888, 0.430219, 0.442475, 0.435301, 0.830940, 0.439877, 0.432710, 0.448246, 0.428378, 0.443323, 0.447206, 0.450705, 0.440908, 0.438337, 0.435454
Process 30: 0.512239, 0.467156, 0.441731, 0.432949, 0.450332, 0.445834, 0.454305, 0.450253, 0.441111, 0.439723, 0.442835, 0.434148, 0.446333, 0.435553, 0.439570, 0.445655, 0.433885, 0.446261, 0.438941, 0.834584, 0.443220, 0.436457, 0.452005, 0.432052, 0.447112, 0.450950, 0.454350, 0.444707, 0.441994, 0.439233
Process 31: 0.516158, 0.470946, 0.445471, 0.436722, 0.454146, 0.449574, 0.458067, 0.453998, 0.444816, 0.443536, 0.446515, 0.437953, 0.450059, 0.439364, 0.443350, 0.449461, 0.437594, 0.450608, 0.442637, 0.838445, 0.447277, 0.440192, 0.455766, 0.435796, 0.450949, 0.454686, 0.458117, 0.448944, 0.446022, 0.443108
