MPI_insiderank_serial
Process 0: 0.793284, 0.597394, 0.545368, 0.541590, 0.542342, 0.550374, 0.650440, 0.541766, 0.540531, 0.541309, 0.544882, 0.556990, 0.682493, 0.541840, 0.546452, 0.550449, 0.541626, 0.540970, 0.541275, 0.550528, 0.541027, 0.790595, 0.541964, 0.541505, 0.541218, 0.544071, 0.555337, 0.546637, 0.552130, 0.545302
Process 1: 0.549888, 0.353330, 0.300613, 0.298783, 0.299407, 0.303389, 0.408289, 0.298970, 0.298323, 0.298315, 0.298212, 0.313774, 0.439411, 0.298822, 0.299807, 0.308216, 0.299300, 0.298785, 0.298744, 0.299775, 0.298488, 0.547633, 0.298683, 0.298706, 0.298535, 0.299494, 0.309274, 0.302199, 0.299604, 0.299543
Process 2: 0.553250, 0.356755, 0.303985, 0.302147, 0.302826, 0.306928, 0.411884, 0.302428, 0.301681, 0.302031, 0.301613, 0.317271, 0.442819, 0.302227, 0.303211, 0.311723, 0.302653, 0.302356, 0.302374, 0.303190, 0.301892, 0.550905, 0.303711, 0.302235, 0.302126, 0.302935, 0.312892, 0.305654, 0.303176, 0.303237
Process 3: 0.557539, 0.361313, 0.309259, 0.306459, 0.307132, 0.311217, 0.416175, 0.306676, 0.305993, 0.306196, 0.305897, 0.321636, 0.447118, 0.306496, 0.307484, 0.316049, 0.306963, 0.306634, 0.306651, 0.307470, 0.306177, 0.555281, 0.307952, 0.306510, 0.306420, 0.307212, 0.317142, 0.309944, 0.307499, 0.307440
Process 4: 0.560894, 0.364596, 0.312994, 0.310152, 0.310794, 0.314643, 0.419546, 0.310378, 0.309704, 0.309740, 0.309604, 0.324964, 0.450783, 0.310166, 0.311189, 0.319464, 0.310632, 0.310046, 0.310060, 0.311207, 0.309902, 0.558623, 0.311398, 0.310210, 0.309826, 0.311737, 0.321619, 0.313633, 0.310990, 0.310938
Process 5: 0.565338, 0.370490, 0.317359, 0.314417, 0.315113, 0.318962, 0.424128, 0.314623, 0.313949, 0.314225, 0.313851, 0.329371, 0.455060, 0.314459, 0.315446, 0.323829, 0.314932, 0.314454, 0.314448, 0.315464, 0.314154, 0.563061, 0.315686, 0.314467, 0.314199, 0.316486, 0.326351, 0.317888, 0.315347, 0.315458
Process 6: 0.568926, 0.373812, 0.320800, 0.318122, 0.318782, 0.322956, 0.427498, 0.318300, 0.317509, 0.317682, 0.317411, 0.332772, 0.458637, 0.318002, 0.319129, 0.327296, 0.318580, 0.317899, 0.317885, 0.319154, 0.317710, 0.566425, 0.319188, 0.318152, 0.317676, 0.320068, 0.329782, 0.321578, 0.318838, 0.318894
Process 7: 0.573486, 0.378210, 0.325196, 0.322434, 0.323120, 0.328168, 0.431810, 0.322662, 0.321979, 0.322025, 0.321863, 0.337102, 0.463095, 0.322451, 0.323477, 0.331627, 0.322935, 0.322236, 0.322235, 0.323485, 0.322190, 0.570770, 0.323627, 0.322467, 0.321977, 0.324567, 0.335194, 0.325934, 0.323164, 0.323222
Process 8: 0.577399, 0.381887, 0.328875, 0.326137, 0.326801, 0.331671, 0.435492, 0.326312, 0.325642, 0.325706, 0.325534, 0.340754, 0.466783, 0.326134, 0.327146, 0.335313, 0.326611, 0.325921, 0.325914, 0.327180, 0.325862, 0.574446, 0.327307, 0.326158, 0.325680, 0.328224, 0.339189, 0.329585, 0.326988, 0.326992
Process 9: 0.581755, 0.386133, 0.332998, 0.330219, 0.330892, 0.335868, 0.439575, 0.330407, 0.329739, 0.329814, 0.329637, 0.344841, 0.470873, 0.330231, 0.331251, 0.339412, 0.330697, 0.330009, 0.329994, 0.332215, 0.329949, 0.578552, 0.331365, 0.330230, 0.329755, 0.332337, 0.343262, 0.333680, 0.331116, 0.331096
Process 10: 0.584988, 0.389593, 0.336695, 0.333908, 0.334604, 0.339559, 0.443301, 0.334128, 0.333432, 0.333522, 0.333345, 0.348505, 0.474577, 0.333986, 0.334959, 0.343088, 0.334413, 0.333730, 0.333714, 0.335956, 0.333647, 0.582243, 0.335025, 0.333930, 0.333459, 0.336066, 0.346957, 0.337373, 0.334833, 0.334946
Process 11: 0.589490, 0.393838, 0.340814, 0.338027, 0.338728, 0.343734, 0.447392, 0.338203, 0.337532, 0.337603, 0.337443, 0.352588, 0.478699, 0.338059, 0.339052, 0.347199, 0.338511, 0.337842, 0.337821, 0.340096, 0.337760, 0.586333, 0.339117, 0.338048, 0.337565, 0.340153, 0.351056, 0.341491, 0.339043, 0.339170
Process 12: 0.592747, 0.397266, 0.344775, 0.341700, 0.342408, 0.347412, 0.451071, 0.341978, 0.341243, 0.341298, 0.341894, 0.356234, 0.482379, 0.341737, 0.342752, 0.350879, 0.342185, 0.341513, 0.341510, 0.343802, 0.341433, 0.590012, 0.342753, 0.341708, 0.341244, 0.343852, 0.354696, 0.345179, 0.342873, 0.342955
Process 13: 0.597339, 0.401630, 0.348825, 0.345869, 0.346540, 0.351542, 0.455216, 0.346139, 0.345350, 0.345400, 0.347321, 0.360367, 0.486507, 0.345861, 0.346858, 0.355026, 0.346341, 0.345651, 0.345627, 0.347935, 0.345566, 0.594128, 0.346858, 0.345832, 0.345405, 0.348005, 0.358843, 0.349312, 0.347604, 0.347129
Process 14: 0.600637, 0.405039, 0.352703, 0.349547, 0.350240, 0.355079, 0.458889, 0.349859, 0.349061, 0.349114, 0.352209, 0.364026, 0.490195, 0.349533, 0.350561, 0.358726, 0.350011, 0.349338, 0.349329, 0.351668, 0.349243, 0.597825, 0.350536, 0.349547, 0.349108, 0.351708, 0.362488, 0.353135, 0.351489, 0.350946
Process 15: 0.605005, 0.409259, 0.356894, 0.353652, 0.354388, 0.359019, 0.463020, 0.354011, 0.353160, 0.353228, 0.356493, 0.368139, 0.494317, 0.353686, 0.354673, 0.362852, 0.354139, 0.353447, 0.353448, 0.355786, 0.353357, 0.601959, 0.354631, 0.353647, 0.353233, 0.355971, 0.366581, 0.357412, 0.355666, 0.355242
Process 16: 0.608537, 0.412854, 0.360482, 0.357238, 0.357981, 0.362618, 0.466577, 0.357572, 0.356732, 0.356797, 0.360041, 0.371714, 0.497866, 0.357262, 0.358238, 0.366399, 0.357683, 0.357024, 0.357130, 0.359384, 0.356924, 0.605521, 0.358219, 0.357234, 0.356794, 0.359542, 0.370189, 0.361061, 0.359325, 0.358851
Process 17: 0.613001, 0.417158, 0.364740, 0.361410, 0.362143, 0.366799, 0.470743, 0.361770, 0.360894, 0.360998, 0.364205, 0.375887, 0.502157, 0.361427, 0.362410, 0.370565, 0.361868, 0.361181, 0.361284, 0.363570, 0.361085, 0.609796, 0.362367, 0.361422, 0.360959, 0.363723, 0.374341, 0.365382, 0.363614, 0.363081
Process 18: 0.616196, 0.420509, 0.368293, 0.365011, 0.365758, 0.370395, 0.474363, 0.365377, 0.364494, 0.364619, 0.367778, 0.379439, 0.505670, 0.365066, 0.365984, 0.374150, 0.365456, 0.364763, 0.364863, 0.367196, 0.364666, 0.613281, 0.365943, 0.365006, 0.364574, 0.367341, 0.377917, 0.369086, 0.367344, 0.366815
Process 19: 0.620740, 0.424788, 0.372534, 0.369243, 0.369989, 0.374643, 0.478582, 0.369601, 0.368711, 0.368842, 0.371966, 0.383622, 0.509963, 0.369274, 0.370183, 0.378410, 0.369675, 0.368962, 0.369074, 0.371426, 0.368858, 0.617590, 0.370133, 0.369251, 0.368793, 0.371556, 0.382093, 0.373418, 0.371660, 0.371107
Process 20: 0.624026, 0.428171, 0.376101, 0.372795, 0.373549, 0.378205, 0.482163, 0.373190, 0.372311, 0.372411, 0.375517, 0.387173, 0.513446, 0.372853, 0.373762, 0.381942, 0.373253, 0.372538, 0.372647, 0.375039, 0.372414, 0.621073, 0.373674, 0.372811, 0.372373, 0.375142, 0.385628, 0.377064, 0.378554, 0.374777
Process 21: 0.628516, 0.432523, 0.380358, 0.377071, 0.377813, 0.382484, 0.486428, 0.377425, 0.376561, 0.376661, 0.379711, 0.391386, 0.517811, 0.377121, 0.378015, 0.386248, 0.377501, 0.376801, 0.376881, 0.379260, 0.376692, 0.625417, 0.377905, 0.377106, 0.376631, 0.379387, 0.389852, 0.381383, 0.382873, 0.379121
Process 22: 0.631830, 0.435867, 0.383933, 0.380657, 0.381389, 0.386067, 0.489984, 0.381008, 0.380146, 0.380252, 0.383254, 0.397240, 0.521275, 0.380687, 0.381606, 0.389785, 0.381075, 0.380359, 0.380449, 0.382836, 0.380252, 0.628918, 0.381438, 0.380672, 0.380197, 0.382986, 0.393388, 0.385046, 0.386443, 0.382827
Process 23: 0.636347, 0.440265, 0.388165, 0.384883, 0.385656, 0.390295, 0.494260, 0.385266, 0.384381, 0.384499, 0.387457, 0.399542, 0.525565, 0.384973, 0.385824, 0.394032, 0.385327, 0.384605, 0.384670, 0.387067, 0.384487, 0.633150, 0.385639, 0.384894, 0.384453, 0.387235, 0.397599, 0.389348, 0.394682, 0.387184
Process 24: 0.639771, 0.444695, 0.391745, 0.388464, 0.389200, 0.395324, 0.497810, 0.388809, 0.387936, 0.388051, 0.391008, 0.403102, 0.529114, 0.388506, 0.389406, 0.397584, 0.388869, 0.388167, 0.388225, 0.390637, 0.388044, 0.636707, 0.389186, 0.388459, 0.388011, 0.390788, 0.401148, 0.393019, 0.398386, 0.390863
Process 25: 0.644314, 0.449132, 0.395965, 0.392660, 0.393425, 0.399581, 0.502037, 0.393040, 0.392171, 0.392284, 0.395193, 0.407277, 0.533325, 0.392744, 0.393619, 0.401788, 0.393096, 0.392389, 0.392456, 0.394828, 0.392289, 0.640936, 0.393376, 0.392667, 0.392198, 0.395029, 0.406363, 0.397302, 0.403155, 0.395175
Process 26: 0.647483, 0.452564, 0.399593, 0.396333, 0.397102, 0.403283, 0.505687, 0.396696, 0.395807, 0.395941, 0.398823, 0.411025, 0.537052, 0.396399, 0.397293, 0.405467, 0.396754, 0.396047, 0.396111, 0.398487, 0.395950, 0.644588, 0.396994, 0.396328, 0.395872, 0.398681, 0.410438, 0.400958, 0.406859, 0.398912
Process 27: 0.651940, 0.456920, 0.403792, 0.400528, 0.401286, 0.407843, 0.509845, 0.400865, 0.399991, 0.400136, 0.403506, 0.415603, 0.541251, 0.400571, 0.401488, 0.410208, 0.400936, 0.400860, 0.400919, 0.402689, 0.400139, 0.649313, 0.401184, 0.400495, 0.400335, 0.402912, 0.414731, 0.405228, 0.410973, 0.403136
Process 28: 0.655300, 0.460782, 0.407409, 0.404278, 0.404924, 0.411526, 0.513487, 0.404476, 0.403591, 0.403737, 0.407155, 0.419098, 0.544873, 0.404203, 0.405099, 0.413681, 0.404547, 0.404290, 0.404390, 0.406299, 0.403728, 0.652826, 0.404756, 0.404174, 0.404006, 0.406608, 0.418346, 0.408844, 0.414638, 0.406841
Process 29: 0.659632, 0.465129, 0.411625, 0.408526, 0.409112, 0.415706, 0.517691, 0.408671, 0.407793, 0.408010, 0.411429, 0.423128, 0.549082, 0.408407, 0.409296, 0.417871, 0.408756, 0.408442, 0.408552, 0.410544, 0.407978, 0.656975, 0.408941, 0.408396, 0.408182, 0.410907, 0.422646, 0.413118, 0.418802, 0.411121
Process 30: 0.663121, 0.468583, 0.415195, 0.412094, 0.412665, 0.419347, 0.521733, 0.412266, 0.411393, 0.412079, 0.415005, 0.426896, 0.552650, 0.412015, 0.412908, 0.421483, 0.412321, 0.412084, 0.412216, 0.414146, 0.411649, 0.660629, 0.412568, 0.411980, 0.411804, 0.414517, 0.426230, 0.416861, 0.422427, 0.415172
Process 31: 0.667534, 0.473025, 0.419472, 0.417230, 0.417177, 0.423603, 0.525905, 0.416533, 0.415721, 0.416250, 0.420032, 0.430951, 0.557002, 0.416297, 0.418011, 0.425703, 0.417222, 0.416305, 0.416421, 0.418628, 0.415925, 0.664839, 0.416871, 0.416506, 0.416041, 0.418791, 0.430475, 0.421678, 0.426670, 0.419455
Process 32: 0.671223, 0.476905, 0.423110, 0.420578, 0.420827, 0.427208, 0.529544, 0.420564, 0.419804, 0.419914, 0.423398, 0.434829, 0.560991, 0.420382, 0.421368, 0.429341, 0.420628, 0.419933, 0.420057, 0.422285, 0.420020, 0.668505, 0.420957, 0.420136, 0.419676, 0.422913, 0.434137, 0.425286, 0.430289, 0.423154
Process 33: 0.675797, 0.480923, 0.427314, 0.424755, 0.425572, 0.431371, 0.533736, 0.424735, 0.423937, 0.424076, 0.427583, 0.438867, 0.565798, 0.424530, 0.425533, 0.433521, 0.424834, 0.424100, 0.424252, 0.426446, 0.424170, 0.672801, 0.425074, 0.424914, 0.423828, 0.427056, 0.438310, 0.429456, 0.434498, 0.427331
Process 34: 0.679183, 0.484483, 0.430856, 0.428295, 0.428869, 0.434956, 0.537277, 0.428291, 0.427472, 0.427635, 0.431135, 0.442483, 0.569069, 0.428093, 0.429084, 0.437049, 0.428385, 0.427670, 0.427817, 0.430025, 0.427726, 0.676346, 0.428629, 0.428236, 0.427419, 0.430608, 0.441852, 0.433003, 0.438081, 0.430966
Process 35: 0.683435, 0.488538, 0.435091, 0.432476, 0.433065, 0.439127, 0.541467, 0.432502, 0.431663, 0.431816, 0.435323, 0.446804, 0.573260, 0.432285, 0.433277, 0.441263, 0.432565, 0.431870, 0.432028, 0.434205, 0.431903, 0.680605, 0.432817, 0.432424, 0.431588, 0.434790, 0.446118, 0.437193, 0.442273, 0.435159
Process 36: 0.686983, 0.492198, 0.438650, 0.436082, 0.436666, 0.442757, 0.545049, 0.436110, 0.435258, 0.435416, 0.438927, 0.450158, 0.576866, 0.435881, 0.436864, 0.444874, 0.436169, 0.435492, 0.435634, 0.437797, 0.435488, 0.684153, 0.436390, 0.436048, 0.435215, 0.438378, 0.449683, 0.440765, 0.445967, 0.438737
Process 37: 0.691157, 0.496227, 0.442915, 0.440261, 0.440842, 0.446905, 0.549233, 0.440308, 0.439456, 0.439607, 0.443108, 0.454519, 0.581040, 0.440058, 0.441065, 0.449038, 0.440341, 0.439650, 0.439812, 0.442575, 0.439676, 0.688512, 0.440568, 0.440245, 0.439963, 0.442643, 0.453932, 0.445032, 0.450202, 0.443000
Process 38: 0.694748, 0.499986, 0.446489, 0.443882, 0.444492, 0.450532, 0.552871, 0.443925, 0.443065, 0.443214, 0.446705, 0.457974, 0.584677, 0.443707, 0.444678, 0.452637, 0.443973, 0.443289, 0.443437, 0.445958, 0.443294, 0.692083, 0.444168, 0.443872, 0.443378, 0.446325, 0.457586, 0.448643, 0.453857, 0.446662
Process 39: 0.699456, 0.504005, 0.450745, 0.448054, 0.448653, 0.455672, 0.557022, 0.448067, 0.447223, 0.447395, 0.450872, 0.462281, 0.588821, 0.447944, 0.448830, 0.456918, 0.448122, 0.447451, 0.447613, 0.450184, 0.447471, 0.696363, 0.448353, 0.448041, 0.447551, 0.450517, 0.461789, 0.452874, 0.458075, 0.450920
Process 40: 0.702944, 0.507930, 0.454819, 0.451680, 0.452283, 0.459766, 0.560647, 0.451716, 0.450866, 0.451027, 0.454602, 0.465864, 0.592445, 0.451562, 0.452681, 0.460534, 0.451795, 0.451093, 0.451284, 0.453866, 0.451120, 0.700073, 0.451998, 0.451688, 0.451207, 0.454190, 0.465503, 0.456612, 0.461830, 0.454688
Process 41: 0.707335, 0.511959, 0.458907, 0.455828, 0.456431, 0.463930, 0.564793, 0.455823, 0.454982, 0.455210, 0.458786, 0.471381, 0.596590, 0.455791, 0.457393, 0.464672, 0.455917, 0.455253, 0.455412, 0.457995, 0.455266, 0.704400, 0.456125, 0.455832, 0.455341, 0.458314, 0.469650, 0.460741, 0.466061, 0.458880
Process 42: 0.710917, 0.515644, 0.462556, 0.459509, 0.460121, 0.467619, 0.568479, 0.459498, 0.458663, 0.458945, 0.462499, 0.475111, 0.600330, 0.459475, 0.461202, 0.468410, 0.459617, 0.458944, 0.459105, 0.461702, 0.459007, 0.708188, 0.459878, 0.459560, 0.459042, 0.462058, 0.473340, 0.464568, 0.469883, 0.462658
Process 43: 0.715017, 0.519667, 0.466712, 0.463615, 0.464234, 0.498506, 0.572595, 0.463616, 0.462781, 0.463077, 0.466689, 0.479099, 0.604551, 0.463690, 0.465406, 0.472480, 0.463719, 0.463063, 0.463221, 0.465799, 0.463095, 0.712376, 0.463952, 0.463643, 0.463175, 0.466127, 0.477441, 0.468686, 0.474011, 0.466752
Process 44: 0.718654, 0.523407, 0.470415, 0.467307, 0.467935, 0.499363, 0.576301, 0.467364, 0.466474, 0.466829, 0.470409, 0.483130, 0.608328, 0.467453, 0.470115, 0.476176, 0.467482, 0.466762, 0.466906, 0.473377, 0.466794, 0.716095, 0.467666, 0.467363, 0.466862, 0.469807, 0.481126, 0.472371, 0.477700, 0.470440
Process 45: 0.722771, 0.527409, 0.474529, 0.471403, 0.472050, 0.500464, 0.580426, 0.471511, 0.470585, 0.470965, 0.474523, 0.486914, 0.612420, 0.471571, 0.475174, 0.480304, 0.471590, 0.470901, 0.471027, 0.477487, 0.470896, 0.720285, 0.471776, 0.471462, 0.470961, 0.473938, 0.485237, 0.476487, 0.481811, 0.474561
Process 46: 0.726381, 0.531180, 0.478157, 0.475035, 0.475677, 0.501321, 0.584024, 0.475128, 0.474210, 0.474613, 0.478151, 0.490937, 0.616156, 0.475314, 0.479207, 0.483983, 0.475218, 0.474535, 0.474644, 0.481212, 0.474517, 0.723924, 0.475385, 0.475100, 0.474580, 0.477558, 0.488870, 0.480102, 0.485436, 0.478172
Process 47: 0.730456, 0.535164, 0.482298, 0.479142, 0.479760, 0.502412, 0.588110, 0.479224, 0.478286, 0.478692, 0.482225, 0.495108, 0.620249, 0.479394, 0.483337, 0.488068, 0.479299, 0.478614, 0.478732, 0.488498, 0.478622, 0.728061, 0.479499, 0.479181, 0.478669, 0.481645, 0.492955, 0.484192, 0.489521, 0.482249
Process 48: 0.734311, 0.539123, 0.486012, 0.482785, 0.483434, 0.503244, 0.591782, 0.482889, 0.481954, 0.482342, 0.485861, 0.498624, 0.623919, 0.483148, 0.488122, 0.491690, 0.482971, 0.482300, 0.482473, 0.492157, 0.482266, 0.731714, 0.483236, 0.482846, 0.482348, 0.485338, 0.496601, 0.487860, 0.493211, 0.485949
Process 49: 0.738157, 0.543090, 0.490064, 0.486883, 0.487526, 0.504211, 0.595847, 0.486953, 0.486010, 0.486418, 0.489953, 0.502567, 0.628007, 0.487212, 0.492068, 0.495789, 0.487023, 0.486380, 0.486529, 0.496220, 0.486327, 0.735821, 0.487320, 0.486943, 0.486432, 0.489387, 0.500733, 0.491931, 0.497268, 0.489997
Process 50: 0.741774, 0.546694, 0.493659, 0.490568, 0.491116, 0.505011, 0.599464, 0.490576, 0.489624, 0.490028, 0.493610, 0.506321, 0.631609, 0.490848, 0.495707, 0.499431, 0.490630, 0.489988, 0.490202, 0.499910, 0.489987, 0.739461, 0.491002, 0.490590, 0.490030, 0.493038, 0.504316, 0.495559, 0.500904, 0.493644
Process 51: 0.746005, 0.550714, 0.497732, 0.494683, 0.495280, 0.506400, 0.603538, 0.494650, 0.493744, 0.494184, 0.497689, 0.510333, 0.635695, 0.494935, 0.499730, 0.503541, 0.494752, 0.494122, 0.494298, 0.503992, 0.494104, 0.743550, 0.495071, 0.494652, 0.494118, 0.497097, 0.508402, 0.499638, 0.505553, 0.497703
Process 52: 0.750554, 0.554444, 0.501391, 0.498360, 0.498996, 0.507486, 0.607220, 0.498354, 0.497404, 0.497946, 0.501400, 0.514176, 0.639384, 0.498617, 0.503454, 0.507260, 0.498433, 0.497790, 0.498017, 0.507691, 0.497841, 0.747228, 0.498825, 0.498367, 0.497821, 0.500781, 0.512251, 0.503330, 0.508935, 0.501377
Process 53: 0.754803, 0.558405, 0.519059, 0.502438, 0.503109, 0.511455, 0.611309, 0.502437, 0.501517, 0.502009, 0.505526, 0.518547, 0.643463, 0.502701, 0.507502, 0.511820, 0.502523, 0.502440, 0.502660, 0.511788, 0.501995, 0.751377, 0.502908, 0.502429, 0.501892, 0.504866, 0.516662, 0.507397, 0.513045, 0.505454
Process 54: 0.758378, 0.562401, 0.519892, 0.506235, 0.506823, 0.515200, 0.615008, 0.506145, 0.505228, 0.505713, 0.509256, 0.521839, 0.647169, 0.506386, 0.511232, 0.515296, 0.506326, 0.505899, 0.506114, 0.515465, 0.505743, 0.755066, 0.506606, 0.506140, 0.505593, 0.508560, 0.520000, 0.511101, 0.516835, 0.509205
Process 55: 0.762760, 0.566451, 0.520999, 0.510411, 0.511020, 0.519238, 0.619066, 0.510231, 0.509310, 0.509845, 0.513293, 0.525872, 0.651251, 0.510490, 0.515263, 0.519404, 0.510398, 0.510048, 0.510260, 0.519553, 0.509811, 0.759195, 0.510705, 0.510219, 0.509675, 0.512661, 0.524105, 0.515273, 0.520897, 0.513687
Process 56: 0.766399, 0.570296, 0.521763, 0.514028, 0.514711, 0.522947, 0.622882, 0.513855, 0.512935, 0.513733, 0.516961, 0.529713, 0.654907, 0.514152, 0.519093, 0.523054, 0.514057, 0.513705, 0.513883, 0.523205, 0.513444, 0.762851, 0.514359, 0.513896, 0.513346, 0.516379, 0.527841, 0.518903, 0.524541, 0.517262
Process 57: 0.770435, 0.574232, 0.522775, 0.518699, 0.518829, 0.527000, 0.627358, 0.518231, 0.517084, 0.518266, 0.521685, 0.533745, 0.659043, 0.518237, 0.523566, 0.527181, 0.518692, 0.517767, 0.517989, 0.527265, 0.519771, 0.766931, 0.518451, 0.518030, 0.517461, 0.520437, 0.531911, 0.523646, 0.528738, 0.521348
Process 58: 0.773998, 0.577973, 0.525806, 0.522055, 0.522486, 0.530716, 0.630738, 0.521928, 0.520911, 0.521646, 0.525138, 0.537537, 0.662686, 0.522055, 0.526980, 0.530861, 0.522076, 0.521455, 0.521692, 0.530986, 0.521607, 0.770906, 0.522270, 0.521709, 0.521216, 0.524294, 0.535634, 0.526988, 0.532416, 0.525116
Process 59: 0.778235, 0.581962, 0.529884, 0.526144, 0.527048, 0.534745, 0.634825, 0.526068, 0.525297, 0.525704, 0.529211, 0.541650, 0.667231, 0.526512, 0.531024, 0.534983, 0.526171, 0.525519, 0.525756, 0.535051, 0.525568, 0.775283, 0.526676, 0.526301, 0.525365, 0.528689, 0.539811, 0.531168, 0.536571, 0.529216
Process 60: 0.781720, 0.585705, 0.533610, 0.529870, 0.530615, 0.538578, 0.638629, 0.529827, 0.528711, 0.529446, 0.532989, 0.545420, 0.670754, 0.530092, 0.534784, 0.538735, 0.529916, 0.529257, 0.529540, 0.538763, 0.529275, 0.778865, 0.530225, 0.529812, 0.529086, 0.532230, 0.543564, 0.534927, 0.540413, 0.533057
Process 61: 0.785995, 0.589718, 0.537657, 0.533913, 0.534649, 0.542616, 0.642697, 0.533965, 0.532849, 0.533579, 0.537138, 0.549318, 0.674819, 0.534148, 0.538799, 0.542768, 0.533967, 0.533318, 0.533623, 0.543343, 0.533345, 0.782904, 0.534288, 0.533838, 0.533167, 0.536336, 0.547611, 0.538977, 0.544456, 0.537676
Process 62: 0.789492, 0.593412, 0.541345, 0.537583, 0.538316, 0.546345, 0.646425, 0.537714, 0.536495, 0.537255, 0.540865, 0.553012, 0.678465, 0.537809, 0.542480, 0.546423, 0.537613, 0.536975, 0.537267, 0.546496, 0.536979, 0.786557, 0.537942, 0.537484, 0.536802, 0.540041, 0.551291, 0.542633, 0.548110, 0.541291
Process 63: 0.793624, 0.597394, 0.545368, 0.541590, 0.542343, 0.550368, 0.650438, 0.541766, 0.540531, 0.541307, 0.544883, 0.556992, 0.682494, 0.541840, 0.546468, 0.550450, 0.541627, 0.540971, 0.541275, 0.550529, 0.541022, 0.790595, 0.541964, 0.541506, 0.541218, 0.544072, 0.555342, 0.546636, 0.552131, 0.545301
