MPI_insiderank_serial
Process 0: 1.466841, 1.303992, 1.184170, 1.186623, 1.179032, 1.181969, 1.195058, 1.186182, 1.184919, 1.213643, 1.188899, 1.122821, 1.111890, 1.110240, 1.100681, 1.116556, 1.103847, 1.109093, 1.111758, 1.105653, 1.121229, 1.111036, 1.145517, 1.108070, 1.111004, 1.106756, 1.106224, 1.106179, 1.109063, 1.106573
Process 1: 1.018185, 0.841397, 0.733142, 0.727516, 0.721992, 0.726842, 0.733766, 0.731508, 0.724789, 0.753546, 0.730602, 0.697846, 0.690080, 0.684098, 0.678817, 0.688900, 0.678703, 0.684291, 0.685842, 0.682809, 0.696268, 0.685426, 0.718419, 0.684951, 0.687331, 0.683046, 0.682064, 0.683471, 0.683926, 0.683271
Process 2: 1.031817, 0.857758, 0.748198, 0.742053, 0.738118, 0.741588, 0.749101, 0.747169, 0.739997, 0.768799, 0.745598, 0.711742, 0.702952, 0.697799, 0.692162, 0.702453, 0.693185, 0.698366, 0.699784, 0.696661, 0.710378, 0.699745, 0.733229, 0.698478, 0.701418, 0.696581, 0.695819, 0.697465, 0.697678, 0.696809
Process 3: 1.046658, 0.872621, 0.762641, 0.756063, 0.753529, 0.755550, 0.764164, 0.761845, 0.754572, 0.783493, 0.760681, 0.724349, 0.716528, 0.711148, 0.704997, 0.715493, 0.706000, 0.711295, 0.712558, 0.709446, 0.723368, 0.712610, 0.745922, 0.711683, 0.714438, 0.709512, 0.708878, 0.710577, 0.710674, 0.709829
Process 4: 1.061084, 0.887950, 0.778014, 0.771076, 0.768747, 0.770787, 0.780306, 0.776661, 0.769807, 0.798777, 0.775326, 0.738277, 0.730318, 0.725100, 0.719101, 0.729442, 0.720344, 0.725577, 0.726636, 0.723351, 0.737591, 0.726982, 0.760039, 0.725768, 0.728634, 0.723632, 0.722965, 0.724614, 0.725036, 0.723987
Process 5: 1.076124, 0.903503, 0.793037, 0.785778, 0.784079, 0.785487, 0.795962, 0.791395, 0.785225, 0.813820, 0.790109, 0.752210, 0.744429, 0.738696, 0.732714, 0.743502, 0.734243, 0.739226, 0.740258, 0.737114, 0.751266, 0.740724, 0.773409, 0.739539, 0.742675, 0.737405, 0.736988, 0.738609, 0.739257, 0.738031
Process 6: 1.089722, 0.918558, 0.807889, 0.800463, 0.799170, 0.800151, 0.811183, 0.805856, 0.800262, 0.831701, 0.804643, 0.766044, 0.758026, 0.752368, 0.746622, 0.757449, 0.748377, 0.753086, 0.753947, 0.751005, 0.765119, 0.755050, 0.789232, 0.754029, 0.756997, 0.751636, 0.751426, 0.752897, 0.753345, 0.752187
Process 7: 1.105436, 0.933979, 0.823430, 0.815745, 0.814927, 0.815464, 0.826956, 0.821014, 0.816284, 0.848094, 0.819836, 0.780772, 0.772805, 0.766762, 0.760978, 0.772201, 0.763304, 0.767501, 0.768369, 0.765383, 0.779457, 0.769469, 0.806001, 0.768526, 0.771540, 0.766233, 0.765915, 0.767415, 0.767862, 0.766855
Process 8: 1.120291, 0.949339, 0.838434, 0.830662, 0.830083, 0.830345, 0.843011, 0.835603, 0.831974, 0.863337, 0.834663, 0.795030, 0.786926, 0.780645, 0.775198, 0.786280, 0.777016, 0.781661, 0.782621, 0.779568, 0.793798, 0.783467, 0.820074, 0.782580, 0.785869, 0.780485, 0.779924, 0.781567, 0.781816, 0.781086
Process 9: 1.135390, 0.964424, 0.853818, 0.845845, 0.845477, 0.845739, 0.858541, 0.850569, 0.847641, 0.878568, 0.849867, 0.809815, 0.801557, 0.794801, 0.789967, 0.800472, 0.791302, 0.796064, 0.796880, 0.794130, 0.807900, 0.798170, 0.834907, 0.797333, 0.800475, 0.795377, 0.794771, 0.796295, 0.796787, 0.795994
Process 10: 1.149680, 0.979440, 0.868964, 0.860987, 0.860988, 0.861178, 0.874053, 0.865333, 0.862812, 0.893622, 0.865277, 0.824116, 0.815219, 0.808675, 0.804184, 0.814226, 0.805216, 0.809722, 0.810864, 0.808278, 0.821923, 0.811830, 0.848286, 0.811377, 0.814002, 0.809682, 0.809072, 0.809886, 0.810970, 0.810294
Process 11: 1.165003, 0.994474, 0.884432, 0.876497, 0.876251, 0.877153, 0.889999, 0.879959, 0.878038, 0.908791, 0.880387, 0.838467, 0.829024, 0.823190, 0.818404, 0.828356, 0.819256, 0.823595, 0.825056, 0.822519, 0.835723, 0.826125, 0.862449, 0.825571, 0.827961, 0.823961, 0.823408, 0.823833, 0.825341, 0.824660
Process 12: 1.179494, 1.010197, 0.899287, 0.892022, 0.891474, 0.892732, 0.905553, 0.894691, 0.893326, 0.924331, 0.895802, 0.853073, 0.842991, 0.838097, 0.832948, 0.842824, 0.833754, 0.837493, 0.839857, 0.842531, 0.850102, 0.840784, 0.876275, 0.840099, 0.842201, 0.838596, 0.838040, 0.838311, 0.839956, 0.839305
Process 13: 1.194762, 1.025349, 0.914054, 0.907162, 0.906486, 0.907973, 0.921831, 0.909257, 0.908259, 0.939507, 0.910758, 0.867107, 0.856811, 0.852520, 0.846988, 0.856794, 0.847655, 0.851153, 0.854123, 0.852898, 0.864110, 0.854870, 0.890067, 0.854105, 0.856355, 0.852615, 0.852168, 0.852396, 0.854031, 0.853397
Process 14: 1.209327, 1.041141, 0.929300, 0.922775, 0.921897, 0.923598, 0.937075, 0.924433, 0.923568, 0.955532, 0.926192, 0.881798, 0.871226, 0.867225, 0.861487, 0.871325, 0.862227, 0.865384, 0.868906, 0.867103, 0.878755, 0.869508, 0.904611, 0.868729, 0.870934, 0.867302, 0.866766, 0.866982, 0.868688, 0.868058
Process 15: 1.225401, 1.056940, 0.944443, 0.938241, 0.937013, 0.938907, 0.953290, 0.939354, 0.939471, 0.970853, 0.941364, 0.896035, 0.885237, 0.881675, 0.875684, 0.885503, 0.876895, 0.879621, 0.883319, 0.881628, 0.893417, 0.883704, 0.918905, 0.882816, 0.885186, 0.881523, 0.881051, 0.881168, 0.882901, 0.882246
Process 16: 1.239272, 1.071957, 0.959314, 0.953614, 0.951955, 0.954020, 0.968292, 0.954064, 0.954125, 0.986078, 0.956480, 0.910858, 0.899153, 0.896090, 0.889904, 0.899898, 0.890326, 0.893599, 0.897947, 0.894538, 0.907549, 0.898724, 0.932989, 0.897041, 0.899320, 0.895837, 0.895346, 0.895336, 0.898504, 0.896575
Process 17: 1.254679, 1.087314, 0.974397, 0.969710, 0.967160, 0.969444, 0.982868, 0.969198, 0.969675, 1.001750, 0.972303, 0.926730, 0.914084, 0.910964, 0.904556, 0.914354, 0.904560, 0.908253, 0.912466, 0.908611, 0.922074, 0.913688, 0.948032, 0.911960, 0.914375, 0.910846, 0.910303, 0.910366, 0.913857, 0.911574
Process 18: 1.269066, 1.102355, 0.989071, 0.984934, 0.981865, 0.984455, 0.998157, 0.984067, 0.984711, 1.016746, 0.987163, 0.940083, 0.927361, 0.925004, 0.917955, 0.928164, 0.918404, 0.921814, 0.926393, 0.922012, 0.935958, 0.927267, 0.961371, 0.925152, 0.927661, 0.924004, 0.923527, 0.923684, 0.927118, 0.924708
Process 19: 1.284686, 1.117573, 1.004331, 1.000737, 0.997003, 0.999630, 1.013846, 0.999113, 1.000222, 1.032200, 1.002497, 0.954166, 0.941510, 0.940200, 0.932103, 0.942519, 0.932532, 0.935984, 0.940790, 0.936138, 0.950466, 0.941716, 0.975787, 0.939398, 0.941888, 0.938254, 0.937782, 0.937916, 0.941247, 0.938990
Process 20: 1.299155, 1.132659, 1.019228, 1.016300, 1.011459, 1.014488, 1.029119, 1.013994, 1.015489, 1.047245, 1.017623, 0.968490, 0.955598, 0.953588, 0.945811, 0.956515, 0.946785, 0.950163, 0.954772, 0.949818, 0.964266, 0.955995, 0.990112, 0.953086, 0.955572, 0.951940, 0.951447, 0.951607, 0.955141, 0.952656
Process 21: 1.314722, 1.147973, 1.034476, 1.032190, 1.026453, 1.029667, 1.044817, 1.029530, 1.031285, 1.063322, 1.033058, 0.982500, 0.969943, 0.968015, 0.959859, 0.970889, 0.961136, 0.964478, 0.969063, 0.963907, 0.978603, 0.970337, 1.004606, 0.967253, 0.969723, 0.966095, 0.965624, 0.965796, 0.968972, 0.966838
Process 22: 1.329378, 1.164065, 1.049364, 1.047621, 1.041286, 1.044345, 1.059248, 1.044795, 1.047201, 1.077960, 1.048102, 0.996625, 0.984048, 0.982055, 0.973676, 0.984826, 0.975427, 0.978624, 0.983223, 0.977454, 0.992842, 0.984458, 1.018716, 0.980788, 0.983198, 0.979592, 0.979102, 0.979251, 0.982452, 0.980288
Process 23: 1.345246, 1.179737, 1.064794, 1.063626, 1.056957, 1.059758, 1.075109, 1.060695, 1.063209, 1.093629, 1.064986, 1.011435, 0.998668, 0.996872, 0.988254, 1.000812, 0.990914, 0.993341, 0.998927, 0.992081, 1.009255, 0.999128, 1.033440, 0.995445, 0.997557, 0.994330, 0.993821, 0.993581, 0.997051, 0.994656
Process 24: 1.359460, 1.194725, 1.079332, 1.079186, 1.071539, 1.074563, 1.089853, 1.075646, 1.077386, 1.108407, 1.079808, 1.024818, 1.012346, 1.010765, 1.001866, 1.014669, 1.003857, 1.007386, 1.011961, 1.005939, 1.021646, 1.012708, 1.047102, 1.009089, 1.011003, 1.008001, 1.007476, 1.006899, 1.010132, 1.008169
Process 25: 1.375603, 1.210351, 1.094679, 1.095213, 1.087135, 1.090632, 1.105337, 1.091811, 1.093089, 1.123849, 1.096014, 1.039620, 1.027101, 1.025348, 1.016921, 1.029598, 1.018245, 1.021931, 1.026484, 1.021331, 1.036021, 1.027944, 1.062566, 1.024351, 1.026419, 1.023360, 1.023023, 1.022146, 1.025538, 1.023598
Process 26: 1.390291, 1.225286, 1.109190, 1.110067, 1.102105, 1.105351, 1.119754, 1.107131, 1.107847, 1.138299, 1.110553, 1.052737, 1.040651, 1.038988, 1.030023, 1.043438, 1.032098, 1.035603, 1.040032, 1.034583, 1.049518, 1.041080, 1.075533, 1.037469, 1.040041, 1.036479, 1.035979, 1.035306, 1.038499, 1.036578
Process 27: 1.406386, 1.241062, 1.124494, 1.125769, 1.117689, 1.120940, 1.135097, 1.123273, 1.123426, 1.153600, 1.126450, 1.067399, 1.055161, 1.054265, 1.044586, 1.058199, 1.046618, 1.050246, 1.054462, 1.049318, 1.064024, 1.055457, 1.089943, 1.051861, 1.054718, 1.050870, 1.050388, 1.049940, 1.053441, 1.050980
Process 28: 1.421039, 1.256407, 1.138911, 1.140571, 1.132525, 1.135724, 1.149872, 1.138716, 1.138268, 1.168370, 1.142402, 1.081272, 1.068801, 1.067762, 1.058397, 1.072150, 1.060423, 1.064301, 1.068378, 1.062898, 1.077783, 1.068872, 1.103381, 1.065861, 1.068823, 1.064630, 1.064061, 1.063972, 1.067384, 1.064416
Process 29: 1.437673, 1.272478, 1.154430, 1.156253, 1.148449, 1.151527, 1.165779, 1.154845, 1.154171, 1.184108, 1.157554, 1.095626, 1.083550, 1.082434, 1.072950, 1.087087, 1.074992, 1.079175, 1.083083, 1.077659, 1.092251, 1.083361, 1.117967, 1.080487, 1.083441, 1.079241, 1.078675, 1.078624, 1.081881, 1.078956
Process 30: 1.451605, 1.287578, 1.168779, 1.171250, 1.163279, 1.166206, 1.179721, 1.169767, 1.169166, 1.198097, 1.172726, 1.108631, 1.097072, 1.095760, 1.086211, 1.101016, 1.088481, 1.092731, 1.096358, 1.091086, 1.105637, 1.096640, 1.131181, 1.093749, 1.096624, 1.092435, 1.091881, 1.091842, 1.094833, 1.092208
Process 31: 1.467647, 1.303993, 1.184168, 1.186627, 1.179027, 1.181969, 1.195058, 1.186179, 1.184926, 1.213644, 1.188896, 1.122821, 1.111884, 1.110232, 1.100680, 1.116557, 1.103846, 1.109107, 1.111749, 1.105647, 1.121227, 1.111035, 1.145517, 1.108071, 1.111003, 1.106756, 1.106239, 1.106173, 1.109064, 1.106572
