MPI_insiderank_openmp_handopt_ssa
Process 0: 2.387683, 1.997484, 1.828099, 1.863586, 1.784397, 1.780241, 1.772793, 2.081444, 1.835824, 1.762385, 1.760332, 1.760409, 1.775875, 1.784833, 1.754120, 1.850919, 1.756811, 1.754113, 1.766896, 1.762423, 1.778448, 1.759173, 1.818219, 1.816209, 1.820834, 1.767070, 1.867843, 1.765165, 1.765543, 1.786479
Process 1: 1.788764, 1.411023, 1.231547, 1.267662, 1.190176, 1.166304, 1.157904, 1.472232, 1.227653, 1.164054, 1.169809, 1.156698, 1.165336, 1.169140, 1.157697, 1.237734, 1.167281, 1.162523, 1.163269, 1.166294, 1.168165, 1.164367, 1.225362, 1.225529, 1.228718, 1.164965, 1.258970, 1.173584, 1.172460, 1.173615
Process 2: 1.817670, 1.440997, 1.260671, 1.297716, 1.219875, 1.195984, 1.188178, 1.503062, 1.257598, 1.194281, 1.199466, 1.186862, 1.194985, 1.198683, 1.188125, 1.266759, 1.197203, 1.192275, 1.193367, 1.196018, 1.198081, 1.194184, 1.254829, 1.255409, 1.258282, 1.194916, 1.289441, 1.202038, 1.202433, 1.203073
Process 3: 1.847838, 1.470499, 1.291025, 1.326118, 1.247962, 1.223945, 1.216716, 1.532677, 1.286077, 1.222131, 1.227651, 1.215476, 1.223301, 1.227118, 1.217344, 1.295033, 1.225528, 1.220665, 1.221931, 1.224289, 1.226518, 1.222471, 1.282938, 1.284815, 1.286019, 1.223178, 1.318098, 1.230426, 1.230819, 1.231000
Process 4: 1.876510, 1.498222, 1.320366, 1.354317, 1.275920, 1.251890, 1.245066, 1.562158, 1.314129, 1.250599, 1.255517, 1.243907, 1.251515, 1.255320, 1.245959, 1.322862, 1.253551, 1.248670, 1.250121, 1.252200, 1.254737, 1.250544, 1.310854, 1.312927, 1.313718, 1.251095, 1.346600, 1.258306, 1.259005, 1.258787
Process 5: 1.907101, 1.526593, 1.350979, 1.383786, 1.305555, 1.281600, 1.275041, 1.592786, 1.343837, 1.282463, 1.285446, 1.274067, 1.281567, 1.285521, 1.276661, 1.353153, 1.283406, 1.278567, 1.280080, 1.281960, 1.284703, 1.280576, 1.340566, 1.341981, 1.343330, 1.281003, 1.376520, 1.288153, 1.289224, 1.288864
Process 6: 1.933642, 1.554386, 1.379164, 1.411008, 1.332699, 1.308877, 1.301989, 1.621078, 1.371114, 1.310252, 1.312740, 1.301129, 1.308459, 1.312627, 1.303942, 1.380446, 1.310355, 1.305643, 1.306938, 1.309109, 1.311711, 1.307486, 1.367582, 1.369844, 1.370700, 1.308074, 1.404094, 1.315284, 1.316464, 1.315943
Process 7: 1.961887, 1.581533, 1.406388, 1.437550, 1.359362, 1.335835, 1.328496, 1.648241, 1.397723, 1.336520, 1.339833, 1.327969, 1.335140, 1.339832, 1.330902, 1.407511, 1.336801, 1.332323, 1.333574, 1.335881, 1.338383, 1.334441, 1.394142, 1.396562, 1.397535, 1.335007, 1.430234, 1.341656, 1.342938, 1.342848
Process 8: 1.988428, 1.606731, 1.432283, 1.463573, 1.386147, 1.362353, 1.353674, 1.675767, 1.423731, 1.360753, 1.366658, 1.354262, 1.360419, 1.366379, 1.357789, 1.433597, 1.362723, 1.358849, 1.360276, 1.362068, 1.364946, 1.360490, 1.420510, 1.421846, 1.424356, 1.361560, 1.456749, 1.367656, 1.368722, 1.369576
Process 9: 2.017945, 1.633387, 1.459241, 1.494824, 1.415599, 1.391410, 1.382461, 1.704226, 1.452472, 1.390513, 1.395450, 1.383125, 1.389622, 1.395172, 1.385238, 1.462721, 1.391231, 1.387089, 1.389004, 1.390864, 1.393205, 1.389509, 1.449083, 1.450055, 1.452222, 1.389429, 1.485137, 1.396153, 1.397417, 1.398202
Process 10: 2.043580, 1.656960, 1.484533, 1.519489, 1.440892, 1.417080, 1.406774, 1.730818, 1.478152, 1.413544, 1.418266, 1.409135, 1.414777, 1.420003, 1.410535, 1.488448, 1.416549, 1.411583, 1.412928, 1.416264, 1.417111, 1.414585, 1.473707, 1.472894, 1.477812, 1.413845, 1.510092, 1.422376, 1.423551, 1.422570
Process 11: 2.069275, 1.682591, 1.509320, 1.545867, 1.466136, 1.442982, 1.432034, 1.756611, 1.502900, 1.436026, 1.442467, 1.434799, 1.442339, 1.445824, 1.435403, 1.512837, 1.441869, 1.437793, 1.438442, 1.442964, 1.443096, 1.440328, 1.497701, 1.497530, 1.503339, 1.438414, 1.536262, 1.448268, 1.449466, 1.448360
Process 12: 2.092635, 1.706238, 1.533956, 1.571265, 1.492024, 1.469105, 1.457243, 1.782671, 1.527935, 1.460525, 1.468760, 1.460930, 1.465810, 1.470347, 1.459045, 1.537921, 1.466827, 1.463230, 1.463895, 1.468474, 1.468875, 1.465165, 1.523439, 1.522632, 1.528935, 1.463734, 1.561524, 1.472032, 1.475843, 1.473740
Process 13: 2.118862, 1.727911, 1.559784, 1.597011, 1.518103, 1.494083, 1.481282, 1.808482, 1.554411, 1.484366, 1.492830, 1.485412, 1.490501, 1.497222, 1.481916, 1.563376, 1.490908, 1.486871, 1.487779, 1.494488, 1.492622, 1.489420, 1.546790, 1.546123, 1.554341, 1.489717, 1.588973, 1.497151, 1.501839, 1.497329
Process 14: 2.142072, 1.751353, 1.582750, 1.619838, 1.537339, 1.515211, 1.503888, 1.831201, 1.573689, 1.506444, 1.514692, 1.508652, 1.513726, 1.518298, 1.503220, 1.585933, 1.512911, 1.507785, 1.510088, 1.514630, 1.514464, 1.513252, 1.570824, 1.569687, 1.576803, 1.511415, 1.609314, 1.520898, 1.521820, 1.520539
Process 15: 2.166204, 1.775176, 1.605115, 1.641811, 1.559809, 1.536475, 1.527325, 1.854677, 1.597094, 1.529729, 1.537133, 1.530950, 1.537276, 1.539439, 1.526060, 1.606733, 1.533641, 1.528636, 1.529231, 1.535452, 1.537327, 1.534692, 1.592693, 1.593199, 1.597819, 1.532879, 1.629723, 1.540649, 1.544853, 1.543727
Process 16: 2.186034, 1.793632, 1.623770, 1.662507, 1.580268, 1.556266, 1.547898, 1.875068, 1.616166, 1.548111, 1.556477, 1.548980, 1.554494, 1.557752, 1.546617, 1.626946, 1.553357, 1.548325, 1.549611, 1.554563, 1.554306, 1.553954, 1.612578, 1.611888, 1.615757, 1.552398, 1.649402, 1.560568, 1.562785, 1.563248
Process 17: 2.207697, 1.814203, 1.642157, 1.680850, 1.600709, 1.576147, 1.567947, 1.896863, 1.634095, 1.566696, 1.575452, 1.568242, 1.572076, 1.577890, 1.564689, 1.647964, 1.573268, 1.567795, 1.568860, 1.574537, 1.573467, 1.573986, 1.631098, 1.630815, 1.634922, 1.571917, 1.668399, 1.579236, 1.583650, 1.581440
Process 18: 2.225459, 1.831605, 1.659507, 1.699292, 1.618483, 1.594178, 1.585950, 1.915579, 1.651386, 1.583378, 1.593920, 1.587528, 1.589991, 1.596218, 1.584773, 1.666639, 1.592876, 1.586240, 1.587705, 1.593864, 1.592426, 1.591249, 1.649386, 1.648870, 1.653701, 1.590970, 1.686334, 1.599892, 1.601553, 1.598497
Process 19: 2.246248, 1.848984, 1.678667, 1.718039, 1.636408, 1.615433, 1.605330, 1.934610, 1.669534, 1.602782, 1.611878, 1.608361, 1.608327, 1.616382, 1.604462, 1.684178, 1.612383, 1.604339, 1.605224, 1.614929, 1.609782, 1.610531, 1.667562, 1.666722, 1.671436, 1.609526, 1.706353, 1.617017, 1.619319, 1.619877
Process 20: 2.263222, 1.864990, 1.693510, 1.732224, 1.652371, 1.632032, 1.621578, 1.951393, 1.686089, 1.619130, 1.627700, 1.625291, 1.624416, 1.632412, 1.621815, 1.700012, 1.627545, 1.621554, 1.621394, 1.631246, 1.625948, 1.626951, 1.684538, 1.683943, 1.686807, 1.625373, 1.723347, 1.634536, 1.635808, 1.636480
Process 21: 2.280595, 1.885092, 1.710529, 1.749381, 1.666480, 1.648481, 1.636402, 1.967574, 1.702750, 1.638545, 1.644130, 1.640816, 1.639083, 1.649808, 1.637804, 1.717697, 1.642874, 1.637505, 1.637295, 1.647688, 1.643256, 1.643718, 1.700500, 1.700072, 1.703644, 1.642164, 1.740302, 1.649309, 1.651937, 1.652072
Process 22: 2.294554, 1.900217, 1.724272, 1.762583, 1.679926, 1.663138, 1.650605, 1.981474, 1.717096, 1.653795, 1.659280, 1.653274, 1.653674, 1.663341, 1.649602, 1.733092, 1.656746, 1.652941, 1.652103, 1.660959, 1.657056, 1.657222, 1.714574, 1.713720, 1.717619, 1.657273, 1.754665, 1.664031, 1.662934, 1.666493
Process 23: 2.310037, 1.917951, 1.740996, 1.780352, 1.696877, 1.679762, 1.667442, 1.998103, 1.730732, 1.671253, 1.671461, 1.669805, 1.670674, 1.679005, 1.666206, 1.746704, 1.671982, 1.666843, 1.665167, 1.674688, 1.673874, 1.673309, 1.729772, 1.727891, 1.732124, 1.669129, 1.765038, 1.678354, 1.679281, 1.683295
Process 24: 2.318460, 1.928279, 1.753981, 1.792229, 1.709672, 1.691925, 1.679965, 2.010691, 1.742854, 1.684065, 1.683289, 1.682043, 1.683273, 1.691581, 1.678893, 1.758765, 1.684971, 1.679579, 1.677423, 1.687481, 1.686398, 1.684513, 1.742644, 1.740189, 1.744850, 1.681587, 1.777767, 1.690944, 1.692215, 1.695856
Process 25: 2.333037, 1.942371, 1.769108, 1.806277, 1.723838, 1.705031, 1.695606, 2.023962, 1.758054, 1.699260, 1.697960, 1.695611, 1.698446, 1.706514, 1.692175, 1.773198, 1.698917, 1.693241, 1.692714, 1.701796, 1.701768, 1.699352, 1.757312, 1.755411, 1.758773, 1.696167, 1.789277, 1.703445, 1.705887, 1.711526
Process 26: 2.342628, 1.954602, 1.780967, 1.816243, 1.734765, 1.717379, 1.710896, 2.034702, 1.771631, 1.710009, 1.710689, 1.707545, 1.714429, 1.718086, 1.703151, 1.786232, 1.707737, 1.702838, 1.706707, 1.712023, 1.717177, 1.708241, 1.766525, 1.766167, 1.770598, 1.709330, 1.802151, 1.714385, 1.716189, 1.725978
Process 27: 2.359625, 1.962940, 1.799912, 1.827828, 1.755718, 1.738538, 1.733626, 2.052410, 1.793543, 1.718079, 1.731771, 1.730384, 1.737759, 1.740581, 1.725203, 1.805518, 1.727546, 1.724487, 1.727705, 1.732906, 1.741108, 1.730431, 1.789485, 1.787540, 1.792599, 1.727086, 1.822611, 1.734997, 1.736738, 1.748381
Process 28: 2.368042, 1.971026, 1.808844, 1.836510, 1.764500, 1.757759, 1.749124, 2.061930, 1.807989, 1.726272, 1.740985, 1.739202, 1.751503, 1.760154, 1.734612, 1.825446, 1.737085, 1.734033, 1.741205, 1.741652, 1.754351, 1.739572, 1.798810, 1.796738, 1.801283, 1.738411, 1.841121, 1.744675, 1.745336, 1.762890
Process 29: 2.376456, 1.980273, 1.815849, 1.847789, 1.772069, 1.767818, 1.759843, 2.068966, 1.821276, 1.735401, 1.747957, 1.748132, 1.762107, 1.771309, 1.741802, 1.835863, 1.744494, 1.741750, 1.753108, 1.750115, 1.764658, 1.746771, 1.805899, 1.803875, 1.808517, 1.752564, 1.853687, 1.752813, 1.753194, 1.773240
Process 30: 2.381598, 1.986248, 1.821457, 1.855025, 1.777737, 1.774701, 1.766153, 2.074649, 1.829154, 1.743997, 1.753657, 1.753737, 1.769199, 1.778191, 1.747472, 1.844254, 1.750167, 1.747462, 1.760044, 1.755753, 1.771802, 1.752490, 1.811568, 1.809547, 1.814163, 1.760401, 1.861224, 1.758512, 1.758871, 1.779833
Process 31: 2.388643, 1.997481, 1.828100, 1.863582, 1.784396, 1.780236, 1.772795, 2.081450, 1.835830, 1.762371, 1.760332, 1.760406, 1.775884, 1.784833, 1.754118, 1.850920, 1.756825, 1.754115, 1.766895, 1.762419, 1.778447, 1.759178, 1.818218, 1.816204, 1.820841, 1.767069, 1.867841, 1.765163, 1.765542, 1.786469
