MPI_insiderank_optimisedserial
Process 0: 2.071191, 1.791157, 1.821657, 1.826999, 1.909083, 1.883133, 1.898814, 1.796792, 1.897277, 2.076230, 1.924540, 2.143095, 2.275723, 2.028642, 1.823081, 1.806201, 1.897696, 1.992677, 1.827234, 1.844737, 1.869633, 1.969627, 2.004236, 2.055649, 1.834100, 1.911582, 1.802732, 1.862496, 1.816992, 1.833085
Process 1: 1.933792, 1.671694, 1.728479, 1.677419, 1.805174, 1.768113, 1.732567, 1.676322, 1.698860, 1.823359, 1.781878, 2.008545, 2.126350, 1.810427, 1.679621, 1.699286, 1.771070, 1.814166, 1.706727, 1.712256, 1.732961, 1.915026, 1.752134, 1.750952, 1.697150, 1.788383, 1.684346, 1.732171, 1.698505, 1.677112
Process 2: 1.975361, 1.704845, 1.759986, 1.726575, 1.837559, 1.809401, 1.794069, 1.722725, 1.724071, 1.861177, 1.825340, 2.052389, 2.204242, 1.843337, 1.720598, 1.737504, 1.799350, 1.857784, 1.745874, 1.754874, 1.771492, 1.938426, 1.779795, 1.788938, 1.737570, 1.826572, 1.731938, 1.777165, 1.745897, 1.720967
Process 3: 2.077490, 1.795989, 1.826782, 1.835373, 1.915652, 1.889280, 1.904738, 1.802880, 1.903738, 2.084594, 1.931951, 2.150459, 2.283568, 2.036287, 1.830603, 1.814306, 1.905682, 2.001764, 1.836786, 1.855479, 1.881604, 1.980973, 2.017412, 2.065038, 1.842886, 1.921059, 1.812034, 1.873487, 1.827355, 1.845506
