MPI_insiderank_optimisedserial
Process 0: 5.009435, 4.607332, 4.441877, 4.655122, 10.904821, 4.232779, 10.446992, 5.107852, 6.480030, 7.289762, 7.323878, 4.468127, 4.128474, 3.882735, 3.702511, 3.734154, 3.779113, 3.711846, 3.604747, 3.617704, 3.930655, 3.737592, 3.392557, 3.592812, 3.253387, 3.530947, 3.370076, 3.322964, 3.324398, 3.231620
Process 1: 5.022301, 4.620724, 4.455921, 4.669115, 10.919233, 4.244116, 10.462082, 5.119964, 6.492535, 7.302669, 7.340802, 4.480683, 4.141031, 3.895880, 3.715511, 3.747199, 3.792191, 3.725008, 3.618016, 3.636342, 3.946527, 3.753396, 3.408712, 3.609286, 3.269441, 3.547176, 3.386340, 3.344909, 3.341217, 3.248521
