MPI_insiderank_optimisedserial
Process 0: 2.031458, 1.881482, 1.697822, 1.762560, 1.610165, 1.811797, 1.911594, 1.564755, 1.832534, 1.876683, 1.868045, 1.594387, 1.904112, 1.485152, 1.832357, 1.553621, 2.367572, 1.658483, 1.990780, 1.914162, 1.997296, 2.269169, 2.774173, 1.947532, 2.090299, 1.561463, 2.544467, 2.759057, 1.894132, 3.302003
Process 1: 1.459169, 1.607655, 1.475939, 1.384413, 1.308742, 1.443617, 1.239615, 1.218382, 1.326513, 1.644195, 1.418273, 1.244975, 1.243315, 1.233704, 1.358189, 1.235637, 1.297458, 1.429242, 1.680067, 1.527944, 1.295352, 1.227042, 1.068135, 1.436057, 1.146545, 1.381853, 2.229647, 1.082528, 1.342423, 3.005137
Process 2: 1.500244, 1.655171, 1.520084, 1.447933, 1.355331, 1.602942, 1.423697, 1.331005, 1.379330, 1.692060, 1.697060, 1.362011, 1.438494, 1.277719, 1.495912, 1.289325, 1.452463, 1.560442, 1.851263, 1.617040, 1.474291, 1.410932, 1.233984, 1.579576, 1.286794, 1.485288, 2.380531, 1.228475, 1.371617, 3.149980
Process 3: 1.525357, 1.688418, 1.559161, 1.500798, 1.413294, 1.631460, 1.616470, 1.375077, 1.417478, 1.709288, 1.731773, 1.423317, 1.620508, 1.312851, 1.636662, 1.340938, 1.658357, 1.581719, 1.880765, 1.681588, 1.655005, 1.592672, 1.397073, 1.612105, 1.446052, 1.499267, 2.411455, 1.396302, 1.405977, 3.181276
Process 4: 1.556122, 1.721738, 1.599028, 1.561024, 1.461893, 1.671455, 1.719683, 1.419605, 1.450983, 1.742436, 1.763062, 1.470693, 1.687690, 1.344855, 1.691815, 1.391583, 1.851317, 1.601495, 1.908022, 1.739636, 1.824009, 1.781059, 1.560989, 1.644793, 1.607535, 1.518501, 2.440778, 1.566907, 1.439222, 3.210893
Process 5: 1.691229, 1.770084, 1.630857, 1.615276, 1.520293, 1.744644, 1.779809, 1.472032, 1.507505, 1.790466, 1.800668, 1.514624, 1.735055, 1.386064, 1.739907, 1.443338, 2.037639, 1.625273, 1.935138, 1.796832, 1.892816, 1.965133, 1.734485, 1.866552, 1.778187, 1.533940, 2.477160, 2.457824, 1.579494, 3.233296
Process 6: 1.874547, 1.793893, 1.659131, 1.701683, 1.561309, 1.772132, 1.847615, 1.520362, 1.670680, 1.847040, 1.837340, 1.562505, 1.852764, 1.418049, 1.796006, 1.499301, 2.238369, 1.643720, 1.959071, 1.878571, 1.945442, 2.157085, 1.915122, 1.897157, 1.939311, 1.550443, 2.504319, 2.618587, 1.743857, 3.256268
Process 7: 2.033147, 1.882793, 1.700310, 1.764596, 1.612608, 1.814467, 1.913667, 1.566821, 1.833945, 1.878870, 1.871101, 1.596831, 1.906219, 1.486907, 1.834379, 1.555219, 2.369309, 1.660367, 1.993615, 1.915859, 1.999876, 2.270707, 2.775483, 1.950825, 2.096043, 1.563901, 2.550395, 2.761946, 1.900109, 3.303930
