MPI_insiderank_optimisedserial
Process 0: 0.726901, 0.422831, 0.324838, 0.282167, 0.257306, 0.258153, 0.255168, 0.253918, 0.254122, 0.268471, 0.267368, 0.254141, 0.257564, 0.244675, 0.249024, 0.253601, 0.253675, 0.253492, 0.252755, 0.250723, 0.255874, 0.256048, 0.254764, 0.255307, 0.252903, 0.252060, 0.254340, 0.255224, 0.257306, 0.257260
Process 1: 0.577621, 0.276015, 0.199444, 0.175756, 0.155941, 0.154412, 0.153586, 0.152455, 0.152438, 0.161574, 0.161880, 0.152291, 0.156694, 0.144806, 0.146195, 0.150936, 0.152137, 0.153849, 0.153144, 0.148072, 0.152896, 0.152837, 0.151272, 0.153278, 0.151793, 0.149063, 0.150949, 0.151584, 0.154958, 0.154830
Process 2: 0.579189, 0.278158, 0.200964, 0.176666, 0.157119, 0.155289, 0.154332, 0.153328, 0.153213, 0.162580, 0.162969, 0.153029, 0.158045, 0.146324, 0.147224, 0.151668, 0.153076, 0.154755, 0.154555, 0.148802, 0.153900, 0.153527, 0.152119, 0.154225, 0.152847, 0.150040, 0.151735, 0.152630, 0.156178, 0.155971
Process 3: 0.582279, 0.281131, 0.204047, 0.179450, 0.159856, 0.157982, 0.157068, 0.156100, 0.155770, 0.165131, 0.165660, 0.155761, 0.159830, 0.147996, 0.149881, 0.154347, 0.155838, 0.157449, 0.156250, 0.151590, 0.156579, 0.156201, 0.154565, 0.156898, 0.155520, 0.152687, 0.154743, 0.155319, 0.158812, 0.158666
Process 4: 0.584194, 0.283219, 0.205439, 0.180414, 0.160786, 0.159026, 0.157957, 0.157184, 0.156788, 0.166140, 0.166815, 0.156622, 0.161135, 0.149514, 0.150829, 0.155231, 0.157006, 0.158608, 0.157742, 0.152490, 0.157572, 0.157192, 0.156552, 0.157896, 0.156667, 0.153848, 0.155792, 0.156309, 0.159783, 0.159574
Process 5: 0.587620, 0.286247, 0.208392, 0.183349, 0.163478, 0.161642, 0.160702, 0.159829, 0.159357, 0.168521, 0.169578, 0.159442, 0.163053, 0.151237, 0.153522, 0.157880, 0.159776, 0.160316, 0.159424, 0.155148, 0.160244, 0.159838, 0.159245, 0.160617, 0.159404, 0.156531, 0.158607, 0.159069, 0.162487, 0.162290
Process 6: 0.589837, 0.287940, 0.209970, 0.184423, 0.164396, 0.162559, 0.161579, 0.160850, 0.160452, 0.169602, 0.170580, 0.160310, 0.164524, 0.152810, 0.154495, 0.158931, 0.160775, 0.161911, 0.160932, 0.156153, 0.161247, 0.160897, 0.160768, 0.161540, 0.160505, 0.157552, 0.159552, 0.160021, 0.163407, 0.163222
Process 7: 0.592944, 0.290748, 0.212848, 0.187302, 0.167033, 0.165113, 0.164091, 0.163363, 0.162980, 0.173266, 0.173250, 0.163206, 0.166380, 0.154570, 0.157237, 0.161696, 0.163693, 0.163679, 0.162645, 0.158923, 0.163919, 0.163590, 0.163265, 0.164096, 0.162796, 0.160088, 0.162365, 0.162691, 0.165987, 0.165821
Process 8: 0.594398, 0.292294, 0.214435, 0.188346, 0.167986, 0.166064, 0.165135, 0.164320, 0.164103, 0.174637, 0.174295, 0.163947, 0.167726, 0.156053, 0.158029, 0.162443, 0.164630, 0.165143, 0.164082, 0.159746, 0.164820, 0.164480, 0.164324, 0.165030, 0.163820, 0.161042, 0.163165, 0.163593, 0.166928, 0.166761
Process 9: 0.597737, 0.294992, 0.217420, 0.191335, 0.170614, 0.168686, 0.167742, 0.166953, 0.166673, 0.177165, 0.177058, 0.166732, 0.169502, 0.157780, 0.160591, 0.165162, 0.166340, 0.166774, 0.165758, 0.163025, 0.167445, 0.167149, 0.167010, 0.167607, 0.166292, 0.163734, 0.165818, 0.166336, 0.169439, 0.169394
Process 10: 0.599678, 0.297701, 0.218833, 0.192324, 0.171523, 0.169570, 0.168669, 0.167932, 0.167563, 0.178174, 0.177961, 0.167475, 0.170842, 0.159289, 0.161492, 0.165916, 0.167841, 0.168261, 0.167222, 0.163897, 0.168349, 0.167986, 0.167843, 0.168499, 0.167181, 0.164510, 0.166731, 0.167082, 0.170406, 0.170307
Process 11: 0.602940, 0.300906, 0.221741, 0.195155, 0.174061, 0.172120, 0.171276, 0.170507, 0.170114, 0.180704, 0.180553, 0.170257, 0.172719, 0.161079, 0.164096, 0.168601, 0.169519, 0.170009, 0.168949, 0.166621, 0.170965, 0.170662, 0.170451, 0.171151, 0.169795, 0.167192, 0.169357, 0.169676, 0.172953, 0.172902
Process 12: 0.605147, 0.303050, 0.223427, 0.196370, 0.175197, 0.173263, 0.172388, 0.171633, 0.171197, 0.181802, 0.181673, 0.171301, 0.174249, 0.162776, 0.165231, 0.169693, 0.171171, 0.171703, 0.170631, 0.167464, 0.172126, 0.171715, 0.171525, 0.172213, 0.170861, 0.168227, 0.170460, 0.170769, 0.174039, 0.173970
Process 13: 0.607497, 0.305553, 0.226196, 0.198886, 0.177603, 0.175643, 0.174793, 0.173949, 0.173509, 0.184069, 0.184140, 0.173847, 0.176047, 0.164381, 0.167609, 0.172175, 0.172786, 0.173238, 0.172189, 0.169872, 0.174471, 0.174114, 0.173933, 0.174662, 0.173176, 0.170798, 0.172952, 0.173206, 0.176528, 0.176403
Process 14: 0.609616, 0.307334, 0.227814, 0.200007, 0.178621, 0.176609, 0.175789, 0.174987, 0.174634, 0.186305, 0.185310, 0.174808, 0.176942, 0.165971, 0.168680, 0.173201, 0.174412, 0.174901, 0.173806, 0.170934, 0.175530, 0.176117, 0.174934, 0.175687, 0.174220, 0.171780, 0.173979, 0.174256, 0.177518, 0.177399
Process 15: 0.612685, 0.310209, 0.230538, 0.202213, 0.180913, 0.178982, 0.178089, 0.177329, 0.176984, 0.188909, 0.187778, 0.177309, 0.178355, 0.167557, 0.170992, 0.175583, 0.175992, 0.176429, 0.175369, 0.173301, 0.177890, 0.178846, 0.177286, 0.178042, 0.176479, 0.174373, 0.176249, 0.176596, 0.179779, 0.179655
Process 16: 0.614864, 0.311675, 0.231832, 0.203166, 0.181877, 0.179932, 0.179095, 0.178285, 0.177943, 0.190084, 0.188674, 0.178230, 0.179930, 0.169182, 0.171999, 0.176579, 0.177652, 0.178127, 0.177015, 0.174306, 0.178911, 0.179772, 0.178289, 0.179043, 0.177472, 0.175225, 0.177266, 0.177552, 0.180781, 0.180646
Process 17: 0.618418, 0.314406, 0.234654, 0.205446, 0.184237, 0.182222, 0.181488, 0.180634, 0.180259, 0.192383, 0.191066, 0.180760, 0.181498, 0.170793, 0.174356, 0.178990, 0.179232, 0.179627, 0.178499, 0.176635, 0.181242, 0.182005, 0.180604, 0.181373, 0.179783, 0.177701, 0.179590, 0.181066, 0.183118, 0.182983
Process 18: 0.620067, 0.316012, 0.236089, 0.206421, 0.185196, 0.183164, 0.182465, 0.181593, 0.181327, 0.193470, 0.191966, 0.181681, 0.183086, 0.172437, 0.175332, 0.179914, 0.180927, 0.181347, 0.180185, 0.177563, 0.182287, 0.182970, 0.181626, 0.182344, 0.180782, 0.178560, 0.180623, 0.181880, 0.184165, 0.184024
Process 19: 0.623510, 0.318700, 0.238807, 0.208583, 0.187517, 0.185388, 0.184725, 0.183863, 0.183527, 0.195677, 0.194422, 0.184016, 0.184579, 0.173937, 0.177596, 0.182261, 0.182388, 0.182795, 0.181733, 0.179849, 0.184571, 0.185130, 0.183845, 0.184643, 0.182978, 0.180961, 0.183034, 0.183982, 0.186470, 0.186270
Process 20: 0.625502, 0.321457, 0.240428, 0.209947, 0.188770, 0.186784, 0.185995, 0.185113, 0.184865, 0.197069, 0.195574, 0.185236, 0.186601, 0.175963, 0.178945, 0.183545, 0.184469, 0.184798, 0.183735, 0.181129, 0.185930, 0.186480, 0.185181, 0.185954, 0.184354, 0.182230, 0.184242, 0.185293, 0.187791, 0.187592
Process 21: 0.627699, 0.323617, 0.242717, 0.211803, 0.190753, 0.188662, 0.187929, 0.187046, 0.186847, 0.199019, 0.197704, 0.187322, 0.187823, 0.177177, 0.180856, 0.185622, 0.185634, 0.186013, 0.184913, 0.183090, 0.187886, 0.188343, 0.187092, 0.187925, 0.186186, 0.184438, 0.186193, 0.187251, 0.189700, 0.189541
Process 22: 0.630151, 0.326079, 0.244422, 0.213749, 0.191848, 0.189892, 0.189040, 0.188183, 0.187882, 0.200135, 0.198683, 0.188305, 0.189621, 0.179055, 0.182066, 0.186717, 0.187500, 0.187845, 0.186767, 0.184169, 0.189013, 0.189433, 0.188232, 0.189077, 0.187341, 0.185412, 0.187336, 0.188402, 0.190843, 0.190731
Process 23: 0.632865, 0.328586, 0.246913, 0.215491, 0.193912, 0.191955, 0.191130, 0.190217, 0.190058, 0.202285, 0.200874, 0.190579, 0.191006, 0.180476, 0.184168, 0.188933, 0.188803, 0.189204, 0.188095, 0.186261, 0.191116, 0.191489, 0.190294, 0.191199, 0.189416, 0.187619, 0.189455, 0.190532, 0.192877, 0.192809
Process 24: 0.635183, 0.330991, 0.248755, 0.216960, 0.195150, 0.193087, 0.192248, 0.191339, 0.191197, 0.204490, 0.201931, 0.191628, 0.192804, 0.182349, 0.185402, 0.190037, 0.190664, 0.191092, 0.189926, 0.187446, 0.192306, 0.192560, 0.191436, 0.192331, 0.190650, 0.188683, 0.190615, 0.191715, 0.194082, 0.193962
Process 25: 0.638483, 0.333403, 0.251223, 0.219384, 0.197350, 0.195138, 0.194287, 0.193444, 0.193320, 0.207134, 0.204149, 0.193795, 0.194242, 0.183714, 0.187513, 0.192270, 0.192061, 0.192515, 0.191290, 0.189509, 0.194416, 0.194542, 0.193622, 0.194440, 0.192578, 0.191314, 0.192721, 0.193811, 0.196221, 0.196033
Process 26: 0.640419, 0.335826, 0.253122, 0.220862, 0.198446, 0.196317, 0.195476, 0.194601, 0.194360, 0.208362, 0.205165, 0.194888, 0.196054, 0.185561, 0.188644, 0.193386, 0.193935, 0.194340, 0.193083, 0.190705, 0.195569, 0.195710, 0.194677, 0.195630, 0.193920, 0.192236, 0.193885, 0.194964, 0.197352, 0.197182
Process 27: 0.643019, 0.338270, 0.255661, 0.223192, 0.200544, 0.198367, 0.197463, 0.196671, 0.196511, 0.210359, 0.207449, 0.197122, 0.197568, 0.186957, 0.190772, 0.195503, 0.195406, 0.195700, 0.194488, 0.192811, 0.197710, 0.197689, 0.196760, 0.197720, 0.195324, 0.194194, 0.195922, 0.197091, 0.199418, 0.199285
Process 28: 0.645395, 0.340705, 0.257510, 0.224636, 0.201600, 0.199547, 0.198633, 0.197816, 0.197542, 0.211525, 0.208408, 0.198091, 0.199287, 0.188758, 0.191899, 0.196636, 0.197244, 0.197502, 0.196310, 0.193980, 0.198832, 0.198877, 0.197927, 0.198855, 0.197135, 0.195218, 0.197132, 0.198213, 0.200607, 0.200439
Process 29: 0.648274, 0.343184, 0.260052, 0.227018, 0.203592, 0.201572, 0.200704, 0.199867, 0.199717, 0.213470, 0.210546, 0.200203, 0.200784, 0.190175, 0.194020, 0.198843, 0.198760, 0.198980, 0.197820, 0.196086, 0.200913, 0.200849, 0.199985, 0.200858, 0.198567, 0.197445, 0.199131, 0.200342, 0.202559, 0.202470
Process 30: 0.650612, 0.345770, 0.261852, 0.228451, 0.204781, 0.202779, 0.201884, 0.201011, 0.200768, 0.214691, 0.211661, 0.201283, 0.202483, 0.191970, 0.195210, 0.199952, 0.200562, 0.200744, 0.199582, 0.197228, 0.202123, 0.202041, 0.201214, 0.202052, 0.200354, 0.198442, 0.200367, 0.201508, 0.203761, 0.203666
Process 31: 0.653179, 0.348109, 0.264267, 0.230682, 0.206606, 0.204576, 0.203731, 0.202829, 0.202629, 0.216441, 0.213625, 0.203136, 0.204006, 0.193407, 0.197095, 0.201880, 0.202029, 0.202221, 0.201050, 0.199045, 0.203958, 0.203884, 0.202986, 0.203878, 0.201808, 0.200427, 0.202163, 0.203359, 0.205641, 0.205477
Process 32: 0.655608, 0.350596, 0.266111, 0.231945, 0.207971, 0.205924, 0.205030, 0.204133, 0.203940, 0.217847, 0.214809, 0.204405, 0.205659, 0.195099, 0.198382, 0.203115, 0.203773, 0.203894, 0.202757, 0.200353, 0.205289, 0.205174, 0.204354, 0.205227, 0.203511, 0.201645, 0.203514, 0.204674, 0.206965, 0.206820
Process 33: 0.658576, 0.352875, 0.268437, 0.233716, 0.209827, 0.207734, 0.206880, 0.205987, 0.205843, 0.219560, 0.216854, 0.206337, 0.207140, 0.196515, 0.200149, 0.205007, 0.205215, 0.205353, 0.204217, 0.202225, 0.207141, 0.207035, 0.206108, 0.207124, 0.204925, 0.203639, 0.205319, 0.206531, 0.208786, 0.208696
Process 34: 0.660806, 0.355343, 0.270138, 0.235056, 0.211117, 0.209151, 0.208188, 0.207346, 0.207094, 0.220992, 0.218000, 0.207589, 0.209494, 0.198267, 0.201568, 0.206395, 0.206940, 0.207061, 0.205947, 0.203603, 0.208485, 0.208366, 0.207487, 0.208449, 0.206686, 0.204860, 0.206748, 0.207899, 0.210152, 0.210052
Process 35: 0.663444, 0.357670, 0.272437, 0.236879, 0.213008, 0.210888, 0.209967, 0.209123, 0.209024, 0.222770, 0.219986, 0.209482, 0.211810, 0.199671, 0.203425, 0.208308, 0.208327, 0.208501, 0.207387, 0.205480, 0.210381, 0.210271, 0.209376, 0.210345, 0.208099, 0.206951, 0.208532, 0.209757, 0.211982, 0.211940
Process 36: 0.665817, 0.360197, 0.274155, 0.238178, 0.214319, 0.212244, 0.211387, 0.210525, 0.210291, 0.225073, 0.221759, 0.210801, 0.212816, 0.201417, 0.204775, 0.209610, 0.210096, 0.210242, 0.209093, 0.206782, 0.211734, 0.211800, 0.210698, 0.211605, 0.209884, 0.208034, 0.209891, 0.211093, 0.213328, 0.213267
Process 37: 0.668475, 0.362504, 0.276519, 0.240010, 0.216120, 0.214011, 0.213093, 0.212257, 0.212234, 0.227092, 0.224139, 0.212583, 0.215123, 0.202786, 0.206588, 0.211452, 0.211456, 0.211612, 0.210455, 0.208576, 0.213483, 0.213689, 0.212484, 0.213394, 0.211203, 0.210057, 0.211560, 0.212835, 0.215089, 0.214984
Process 38: 0.670853, 0.365087, 0.278376, 0.241333, 0.217520, 0.215385, 0.214507, 0.213679, 0.213525, 0.228479, 0.225396, 0.213930, 0.216190, 0.204571, 0.208005, 0.212817, 0.213298, 0.213460, 0.212269, 0.209993, 0.214925, 0.215053, 0.213900, 0.214813, 0.213017, 0.211218, 0.213062, 0.214261, 0.216521, 0.216431
Process 39: 0.673762, 0.367354, 0.280749, 0.243505, 0.219334, 0.217237, 0.216304, 0.215509, 0.215338, 0.230167, 0.228333, 0.215685, 0.218152, 0.205944, 0.209733, 0.214582, 0.214669, 0.214898, 0.213664, 0.211820, 0.216636, 0.216962, 0.215679, 0.216592, 0.214364, 0.213205, 0.214749, 0.215994, 0.218295, 0.218229
Process 40: 0.676035, 0.369900, 0.282491, 0.245128, 0.220696, 0.218628, 0.217664, 0.216843, 0.216675, 0.231610, 0.230245, 0.217075, 0.219548, 0.207767, 0.211211, 0.215955, 0.216502, 0.216715, 0.215528, 0.213317, 0.218090, 0.218334, 0.217110, 0.218057, 0.216175, 0.214398, 0.217085, 0.217462, 0.219756, 0.219683
Process 41: 0.679048, 0.372156, 0.284835, 0.247270, 0.222465, 0.220321, 0.219433, 0.218705, 0.218544, 0.233408, 0.232217, 0.218886, 0.221834, 0.209278, 0.212928, 0.217830, 0.217856, 0.218074, 0.216976, 0.215159, 0.219834, 0.220155, 0.218917, 0.219938, 0.217552, 0.216465, 0.218347, 0.219308, 0.221562, 0.221460
Process 42: 0.681224, 0.374627, 0.286651, 0.248576, 0.223813, 0.221709, 0.220915, 0.220052, 0.219819, 0.234716, 0.233471, 0.220228, 0.222898, 0.211060, 0.214353, 0.219204, 0.219654, 0.219861, 0.218767, 0.216576, 0.221258, 0.221614, 0.220374, 0.221324, 0.219319, 0.217594, 0.219846, 0.220715, 0.222986, 0.222911
Process 43: 0.684201, 0.376988, 0.288577, 0.250372, 0.225607, 0.223490, 0.222599, 0.221801, 0.221681, 0.236466, 0.235354, 0.222028, 0.225281, 0.212463, 0.216125, 0.221009, 0.221077, 0.221309, 0.220186, 0.218309, 0.223061, 0.223406, 0.222120, 0.223073, 0.220747, 0.219559, 0.221505, 0.222469, 0.224713, 0.224627
Process 44: 0.686238, 0.379368, 0.290391, 0.251723, 0.227004, 0.224849, 0.224019, 0.223195, 0.223004, 0.237900, 0.236623, 0.223407, 0.226351, 0.214230, 0.217594, 0.222365, 0.222904, 0.222975, 0.221963, 0.219759, 0.224495, 0.224842, 0.223549, 0.224491, 0.222496, 0.220781, 0.223039, 0.223869, 0.226197, 0.226086
Process 45: 0.688791, 0.381626, 0.292309, 0.253505, 0.228730, 0.226569, 0.225739, 0.224917, 0.224811, 0.242142, 0.238493, 0.225170, 0.228274, 0.215632, 0.219336, 0.224188, 0.224307, 0.224399, 0.223373, 0.221467, 0.226227, 0.226584, 0.225291, 0.226262, 0.223882, 0.222707, 0.224745, 0.225615, 0.227897, 0.227831
Process 46: 0.691399, 0.384152, 0.293654, 0.254979, 0.230082, 0.228044, 0.227135, 0.226324, 0.226186, 0.242922, 0.239779, 0.226519, 0.229620, 0.217350, 0.220760, 0.225536, 0.226075, 0.226114, 0.225103, 0.222892, 0.227625, 0.228010, 0.226689, 0.227612, 0.225647, 0.223918, 0.226174, 0.227002, 0.229337, 0.229259
Process 47: 0.693403, 0.386273, 0.295569, 0.256814, 0.231605, 0.229535, 0.228660, 0.227861, 0.227699, 0.243678, 0.241236, 0.228034, 0.231468, 0.218665, 0.222249, 0.227163, 0.227420, 0.227464, 0.226490, 0.224456, 0.229184, 0.229569, 0.228286, 0.229177, 0.226984, 0.225502, 0.227718, 0.228530, 0.230836, 0.230756
Process 48: 0.695469, 0.388888, 0.297140, 0.258442, 0.233175, 0.231103, 0.230272, 0.229398, 0.229285, 0.244468, 0.242837, 0.229611, 0.232825, 0.220492, 0.223856, 0.228758, 0.229196, 0.229236, 0.228251, 0.226069, 0.230783, 0.231136, 0.229933, 0.230739, 0.228735, 0.227066, 0.229302, 0.230083, 0.232434, 0.232336
Process 49: 0.697611, 0.390809, 0.299133, 0.260010, 0.234759, 0.232687, 0.231843, 0.230963, 0.230813, 0.245641, 0.244375, 0.231283, 0.234777, 0.221918, 0.225542, 0.230348, 0.230617, 0.230716, 0.229703, 0.227691, 0.232424, 0.232734, 0.231502, 0.232338, 0.230204, 0.228778, 0.230910, 0.231710, 0.234011, 0.233908
Process 50: 0.699511, 0.393373, 0.301026, 0.261557, 0.236357, 0.234224, 0.233388, 0.232540, 0.232443, 0.247187, 0.245941, 0.232793, 0.236263, 0.223611, 0.227110, 0.231869, 0.232345, 0.232404, 0.231442, 0.229232, 0.233970, 0.234312, 0.233081, 0.233870, 0.231897, 0.230222, 0.232464, 0.233248, 0.235611, 0.235460
Process 51: 0.701610, 0.395117, 0.302932, 0.263036, 0.237917, 0.235737, 0.234864, 0.234034, 0.233938, 0.248703, 0.247409, 0.234287, 0.237660, 0.224948, 0.228648, 0.233363, 0.233674, 0.233728, 0.232728, 0.230738, 0.235473, 0.235867, 0.234611, 0.235402, 0.233200, 0.231906, 0.233948, 0.234746, 0.237085, 0.236942
Process 52: 0.703402, 0.397791, 0.304488, 0.264590, 0.239504, 0.237283, 0.236445, 0.235697, 0.235554, 0.250276, 0.249027, 0.235868, 0.239396, 0.226715, 0.230292, 0.234976, 0.235463, 0.235459, 0.234512, 0.232342, 0.237128, 0.237511, 0.236198, 0.236980, 0.234982, 0.233339, 0.235581, 0.236328, 0.238668, 0.238579
Process 53: 0.705498, 0.399624, 0.306450, 0.266136, 0.241018, 0.238897, 0.237983, 0.237203, 0.237068, 0.251747, 0.250601, 0.237406, 0.240830, 0.228072, 0.231912, 0.236573, 0.236828, 0.236815, 0.235886, 0.233878, 0.238617, 0.239089, 0.237708, 0.238494, 0.236334, 0.235015, 0.237133, 0.237854, 0.240185, 0.240141
Process 54: 0.707523, 0.402197, 0.308098, 0.267697, 0.242645, 0.240426, 0.239568, 0.238838, 0.238730, 0.253379, 0.252212, 0.239002, 0.242608, 0.229913, 0.233588, 0.238274, 0.238644, 0.238603, 0.237685, 0.235562, 0.240284, 0.240759, 0.239371, 0.240109, 0.238140, 0.236537, 0.238735, 0.239476, 0.241823, 0.241774
Process 55: 0.709452, 0.404129, 0.310074, 0.269265, 0.244198, 0.242055, 0.242079, 0.240357, 0.240371, 0.254917, 0.253745, 0.240647, 0.244081, 0.231279, 0.235212, 0.239800, 0.240062, 0.240044, 0.239075, 0.237077, 0.241982, 0.242333, 0.240967, 0.241695, 0.239511, 0.238213, 0.240296, 0.241054, 0.243440, 0.243406
Process 56: 0.711726, 0.406837, 0.311754, 0.270839, 0.245847, 0.243650, 0.243028, 0.241973, 0.242026, 0.256526, 0.255309, 0.242303, 0.245798, 0.233053, 0.236858, 0.241446, 0.241890, 0.241844, 0.240839, 0.238708, 0.243698, 0.244000, 0.242593, 0.243293, 0.241315, 0.239790, 0.241902, 0.242693, 0.245105, 0.245033
Process 57: 0.713848, 0.409144, 0.313685, 0.272389, 0.247419, 0.245218, 0.244641, 0.243517, 0.243667, 0.258038, 0.256823, 0.243783, 0.247194, 0.234398, 0.238372, 0.242958, 0.243252, 0.243326, 0.242283, 0.240241, 0.245325, 0.245488, 0.244104, 0.244834, 0.242700, 0.241443, 0.243382, 0.244196, 0.246591, 0.246613
Process 58: 0.715747, 0.411674, 0.315266, 0.273911, 0.248969, 0.246708, 0.246262, 0.245110, 0.245211, 0.259664, 0.258433, 0.245369, 0.248974, 0.236159, 0.240025, 0.244581, 0.245066, 0.244999, 0.244073, 0.241885, 0.246996, 0.247184, 0.245740, 0.246465, 0.244479, 0.242994, 0.244997, 0.245815, 0.248224, 0.248320
Process 59: 0.717730, 0.414031, 0.317198, 0.275430, 0.250480, 0.248242, 0.247815, 0.246669, 0.246748, 0.261122, 0.259941, 0.246867, 0.250429, 0.237504, 0.241624, 0.246192, 0.246407, 0.246492, 0.245588, 0.243405, 0.248499, 0.248663, 0.247334, 0.247993, 0.245810, 0.244685, 0.246491, 0.247334, 0.249710, 0.249805
Process 60: 0.719827, 0.416487, 0.319136, 0.277008, 0.252093, 0.249878, 0.249474, 0.248256, 0.248394, 0.262808, 0.261573, 0.248499, 0.252183, 0.239306, 0.243313, 0.247860, 0.248248, 0.248209, 0.247410, 0.245066, 0.250231, 0.250329, 0.249028, 0.249635, 0.247617, 0.246215, 0.248131, 0.248996, 0.251379, 0.251459
Process 61: 0.721752, 0.418229, 0.320736, 0.278559, 0.253690, 0.251788, 0.251062, 0.249822, 0.249978, 0.264337, 0.263418, 0.250042, 0.253691, 0.240722, 0.244854, 0.249518, 0.249765, 0.249798, 0.248900, 0.246679, 0.251810, 0.251870, 0.250579, 0.251196, 0.249022, 0.247800, 0.249726, 0.250584, 0.252953, 0.253014
Process 62: 0.724223, 0.420080, 0.322663, 0.280477, 0.255606, 0.253445, 0.252967, 0.251745, 0.251935, 0.266257, 0.265137, 0.251975, 0.255745, 0.242822, 0.246864, 0.251451, 0.251875, 0.251915, 0.251007, 0.248638, 0.253773, 0.253847, 0.252533, 0.253129, 0.251130, 0.249734, 0.251652, 0.252494, 0.254874, 0.254941
Process 63: 0.727228, 0.422834, 0.324838, 0.282169, 0.257308, 0.258151, 0.255167, 0.253917, 0.254123, 0.268471, 0.267369, 0.254145, 0.257557, 0.244674, 0.249030, 0.253602, 0.253675, 0.253492, 0.252754, 0.250721, 0.255872, 0.256048, 0.254764, 0.255308, 0.252902, 0.252059, 0.254339, 0.255224, 0.257305, 0.257258
