MPI_insiderank_optimisedserial
Process 0: 3.752328, 3.187064, 3.119133, 3.159668, 3.088913, 3.137062, 2.981791, 3.132109, 2.996545, 3.143138, 3.015711, 3.041267, 3.077468, 3.001211, 2.966672, 2.965609, 3.108441, 2.984990, 3.003265, 3.016688, 3.053974, 2.994656, 2.983724, 3.065104, 3.080194, 3.008822, 2.981260, 3.138966, 2.967417, 2.990750
Process 1: 3.755365, 3.190133, 3.122004, 3.162776, 3.092318, 3.140250, 2.985495, 3.135105, 3.000035, 3.146301, 3.019361, 3.044399, 3.081182, 3.004413, 2.970196, 2.969259, 3.112226, 2.988616, 3.006374, 3.019946, 3.057589, 2.998201, 2.987340, 3.068257, 3.083650, 3.012478, 2.984742, 3.141679, 2.970681, 2.994320
