MPI_insiderank_optimisedserial
Process 0: 1.229817, 0.989150, 1.004623, 1.000261, 1.113808, 0.990635, 1.012800, 1.021960, 0.980515, 1.002871, 1.016531, 1.001200, 0.977874, 1.005468, 1.003127, 0.951557, 0.946278, 0.944912, 0.961237, 0.935095, 0.964084, 0.967732, 0.951979, 0.989411, 0.940749, 0.937395, 0.939906, 0.934180, 0.953951, 0.939992
Process 1: 1.154740, 0.917469, 0.929925, 0.926471, 1.046124, 0.915667, 0.940537, 0.950309, 0.913217, 0.923401, 0.950660, 0.929232, 0.911312, 0.929307, 0.937475, 0.885239, 0.879761, 0.878221, 0.895775, 0.868853, 0.896868, 0.902353, 0.876435, 0.925142, 0.874488, 0.872573, 0.875597, 0.868587, 0.883317, 0.874126
Process 2: 1.169696, 0.932334, 0.940176, 0.938632, 1.057752, 0.932363, 0.955096, 0.967560, 0.923177, 0.932604, 0.959319, 0.945776, 0.921758, 0.944811, 0.946966, 0.897664, 0.888648, 0.886958, 0.905757, 0.877947, 0.904217, 0.910091, 0.893040, 0.933226, 0.881150, 0.882175, 0.882677, 0.877719, 0.892830, 0.884016
Process 3: 1.182830, 0.948499, 0.952207, 0.954628, 1.068623, 0.940678, 0.963706, 0.978847, 0.935504, 0.947485, 0.971546, 0.954591, 0.933369, 0.960060, 0.958423, 0.905171, 0.901825, 0.900233, 0.915419, 0.889242, 0.918997, 0.921676, 0.908795, 0.943954, 0.896325, 0.891527, 0.897850, 0.888704, 0.902583, 0.894233
Process 4: 1.193846, 0.958335, 0.965667, 0.967067, 1.087949, 0.956822, 0.983954, 0.993305, 0.948592, 0.962321, 0.982948, 0.970279, 0.945499, 0.972380, 0.967853, 0.917595, 0.913639, 0.909051, 0.928931, 0.906703, 0.928614, 0.934123, 0.919270, 0.957593, 0.905288, 0.903635, 0.906835, 0.901860, 0.917748, 0.907615
Process 5: 1.207084, 0.972575, 0.975965, 0.980629, 1.095447, 0.963200, 0.991952, 1.005099, 0.958207, 0.975470, 0.994378, 0.978411, 0.955926, 0.985587, 0.980662, 0.929308, 0.924411, 0.923065, 0.939697, 0.913570, 0.942060, 0.945815, 0.932759, 0.968033, 0.918419, 0.915667, 0.918317, 0.912600, 0.927209, 0.918038
Process 6: 1.218122, 0.981751, 0.990187, 0.991367, 1.104779, 0.974835, 1.006445, 1.015603, 0.971180, 0.985051, 1.005294, 0.990279, 0.966504, 0.996619, 0.992635, 0.945053, 0.935111, 0.932067, 0.951906, 0.924784, 0.952285, 0.957407, 0.943653, 0.979592, 0.929074, 0.926979, 0.930671, 0.923818, 0.939208, 0.929590
Process 7: 1.231301, 0.990289, 1.005674, 1.001417, 1.114934, 0.991706, 1.013893, 1.023057, 0.981656, 1.004016, 1.017671, 1.002348, 0.979048, 1.006603, 1.004098, 0.952713, 0.947280, 0.946027, 0.962324, 0.936203, 0.965233, 0.968866, 0.952932, 0.990492, 0.941902, 0.938517, 0.940986, 0.935290, 0.955077, 0.940912
