MPI_insiderank_optimisedserial
Process 0: 4.212143, 3.756442, 3.724846, 3.698741, 3.652197, 3.658848, 3.646904, 3.593493, 3.719056, 3.651685, 3.579812, 3.672109, 3.601898, 3.679801, 3.614483, 3.593868, 3.585971, 3.577712, 3.642169, 3.611917, 3.616464, 3.699044, 3.635877, 3.622810, 3.617626, 3.606449, 3.600573, 3.608367, 3.668869, 3.596029
Process 1: 4.219259, 3.762673, 3.732041, 3.704988, 3.657845, 3.664966, 3.653956, 3.600644, 3.728803, 3.658996, 3.585937, 3.679450, 3.609256, 3.687261, 3.622124, 3.601757, 3.594114, 3.587088, 3.651146, 3.620222, 3.626995, 3.707814, 3.644806, 3.631225, 3.626545, 3.615425, 3.608456, 3.616538, 3.677697, 3.604282
