MPI_insiderank_optimisedserial
Process 0: 1.886569, 1.710858, 1.820158, 1.626625, 2.948829, 1.733376, 1.612208, 1.728579, 1.582099, 1.646590, 1.475497, 1.518993, 1.574888, 1.601637, 1.648564, 1.504968, 1.565557, 3.118143, 1.566714, 1.602146, 1.667830, 1.598065, 1.647903, 1.571837, 1.585873, 1.605187, 1.618068, 1.623504, 1.771206, 2.183792
Process 1: 1.679352, 1.427045, 1.569159, 1.431693, 2.756582, 1.470434, 1.420441, 1.427011, 1.383353, 1.399979, 1.291038, 1.333721, 1.371720, 1.404026, 1.428970, 1.314391, 1.372715, 1.371585, 1.372247, 1.402698, 1.411623, 1.401594, 1.391917, 1.363605, 1.384913, 1.395646, 1.401040, 1.412137, 1.492565, 1.470758
Process 2: 1.723467, 1.498072, 1.627665, 1.485738, 2.815806, 1.539431, 1.478210, 1.504070, 1.444901, 1.462048, 1.339139, 1.387597, 1.436489, 1.464620, 1.487194, 1.367319, 1.427694, 1.428021, 1.426677, 1.455180, 1.470915, 1.471267, 1.460337, 1.430490, 1.448423, 1.468577, 1.473973, 1.483325, 1.565206, 1.528317
Process 3: 1.759007, 1.555468, 1.663962, 1.514132, 2.846932, 1.578481, 1.511123, 1.557076, 1.470678, 1.488046, 1.363773, 1.413663, 1.463241, 1.489779, 1.517595, 1.396060, 1.449652, 1.867510, 1.456833, 1.485423, 1.497453, 1.493827, 1.499343, 1.456002, 1.476059, 1.490506, 1.498960, 1.508632, 1.607178, 2.067371
Process 4: 1.804332, 1.599363, 1.723546, 1.559796, 2.882694, 1.626926, 1.548494, 1.619723, 1.507708, 1.526174, 1.401099, 1.453489, 1.508928, 1.538148, 1.558396, 1.431898, 1.487516, 1.930282, 1.503457, 1.535145, 1.545166, 1.534648, 1.546069, 1.501374, 1.519501, 1.536313, 1.543318, 1.558968, 1.655193, 2.113693
Process 5: 1.827532, 1.634530, 1.764254, 1.579893, 2.903613, 1.662658, 1.570968, 1.660765, 1.532619, 1.562025, 1.421810, 1.478571, 1.532451, 1.559167, 1.592403, 1.454427, 1.513043, 1.961579, 1.526140, 1.558859, 1.579944, 1.553816, 1.578823, 1.525204, 1.543259, 1.560665, 1.565977, 1.578771, 1.693426, 2.135785
Process 6: 1.855090, 1.674672, 1.798323, 1.606385, 2.931584, 1.698924, 1.596277, 1.692177, 1.554251, 1.602928, 1.447872, 1.500006, 1.557065, 1.583884, 1.617596, 1.478679, 1.534764, 2.325388, 1.552380, 1.585119, 1.622465, 1.578307, 1.618455, 1.552346, 1.568941, 1.584764, 1.593049, 1.606149, 1.736253, 2.164734
Process 7: 1.888877, 1.712863, 1.822539, 1.628775, 2.951090, 1.735276, 1.614350, 1.730506, 1.584309, 1.648857, 1.477751, 1.521085, 1.577075, 1.603857, 1.650579, 1.507235, 1.567639, 3.119612, 1.568958, 1.604548, 1.669898, 1.600162, 1.649936, 1.574047, 1.588046, 1.607498, 1.620704, 1.625776, 1.773560, 2.185879
