MPI_insiderank_optimisedserial
Process 0: 2.915882, 4.788639, 10.239949, 5.867951, 2.089809, 2.029750, 2.110304, 1.825732, 1.656041, 2.042927, 1.614415, 1.624149, 1.897085, 1.802519, 2.462438, 1.942233, 3.291797, 1.943709, 2.466114, 2.022048, 1.900888, 2.127023, 2.000323, 2.042968, 2.057984, 1.988145, 1.794243, 1.981751, 2.097365, 1.923888
Process 1: 2.466141, 2.064473, 9.546715, 5.294496, 1.543270, 1.515150, 1.566664, 1.495822, 1.277440, 1.246169, 1.278693, 1.241092, 1.525417, 1.340383, 1.417224, 1.457405, 1.506509, 1.470887, 1.464521, 1.446473, 1.470176, 1.722199, 1.609260, 1.639206, 1.626410, 1.588084, 1.381328, 1.478515, 1.616803, 1.476068
Process 2: 2.493951, 2.172473, 9.665503, 5.408409, 1.635696, 1.624222, 1.667099, 1.543253, 1.353306, 1.330653, 1.343852, 1.325361, 1.588394, 1.446860, 1.516715, 1.532496, 1.634025, 1.569994, 1.549918, 1.555557, 1.567199, 1.807523, 1.690724, 1.717840, 1.732749, 1.702263, 1.482709, 1.577370, 1.726218, 1.555234
Process 3: 2.521576, 2.233830, 9.724125, 5.440440, 1.670229, 1.645529, 1.689456, 1.561079, 1.380510, 1.353516, 1.362372, 1.358826, 1.610884, 1.493841, 1.565363, 1.577238, 1.674613, 1.593278, 1.578596, 1.573281, 1.596887, 1.836507, 1.718159, 1.736761, 1.760714, 1.732494, 1.505818, 1.627771, 1.772147, 1.599586
Process 4: 2.556589, 2.274919, 9.770931, 5.462276, 1.723512, 1.676581, 1.727689, 1.583546, 1.397019, 1.376258, 1.377736, 1.384989, 1.636255, 1.526962, 1.607596, 1.618802, 2.319254, 1.633909, 1.600255, 1.594405, 1.624618, 1.861878, 1.745704, 1.753410, 1.782557, 1.750428, 1.527385, 1.690020, 1.815729, 1.628341
Process 5: 2.610193, 2.327096, 9.834665, 5.490406, 1.769826, 1.702390, 1.788597, 1.616890, 1.412678, 1.398857, 1.406379, 1.401880, 1.662074, 1.540991, 1.642888, 1.658284, 2.343203, 1.668706, 1.622845, 1.624423, 1.650573, 1.900487, 1.770880, 1.778364, 1.810215, 1.775529, 1.550114, 1.735571, 1.840534, 1.656518
Process 6: 2.672742, 2.359198, 9.906982, 5.537575, 1.796406, 1.736278, 1.837106, 1.645912, 1.428367, 1.419808, 1.433087, 1.421878, 1.688813, 1.561482, 1.682311, 1.686156, 2.364270, 1.704669, 1.645692, 1.672560, 1.689997, 1.926022, 1.795725, 1.819615, 1.827601, 1.807166, 1.603269, 1.784853, 1.859320, 1.690055
Process 7: 2.716119, 2.380048, 9.963123, 5.602002, 1.817365, 1.799380, 1.895148, 1.662408, 1.443419, 1.439229, 1.458521, 1.443151, 1.718921, 1.614069, 1.704757, 1.703935, 2.401572, 1.733730, 1.669356, 1.702125, 1.719887, 1.942563, 1.829277, 1.854703, 1.852877, 1.835007, 1.646811, 1.812968, 1.874667, 1.713604
Process 8: 2.761582, 2.398687, 10.020354, 5.640866, 1.854702, 1.834052, 1.941793, 1.681731, 1.465488, 1.456540, 1.477974, 1.469844, 1.743166, 1.646520, 1.719800, 1.729743, 2.455895, 1.757937, 1.705744, 1.721844, 1.735479, 1.962207, 1.857652, 1.895710, 1.893777, 1.859465, 1.680187, 1.837204, 1.888089, 1.728799
Process 9: 2.792446, 2.421071, 10.076365, 5.665462, 1.901747, 1.855505, 1.975081, 1.701947, 1.487680, 1.480716, 1.496676, 1.494917, 1.773742, 1.664075, 1.743186, 1.759531, 2.496298, 1.778927, 1.745571, 1.744002, 1.758278, 1.983077, 1.888097, 1.916412, 1.932175, 1.879832, 1.701678, 1.859215, 1.904324, 1.742075
Process 10: 2.813562, 2.442287, 10.107544, 5.683314, 1.939112, 1.886677, 1.996245, 1.716432, 1.511505, 1.498554, 1.508441, 1.510888, 1.791660, 1.677133, 1.761597, 1.805794, 3.130053, 1.793557, 1.767434, 1.767125, 1.777445, 2.006009, 1.910536, 1.927215, 1.953262, 1.898413, 1.716135, 1.878175, 1.930867, 1.755752
Process 11: 2.831505, 2.487763, 10.148383, 5.725168, 1.972924, 1.943886, 2.012724, 1.732866, 1.542978, 1.514210, 1.520838, 1.533306, 1.806414, 1.692662, 1.791131, 1.850736, 3.154599, 1.816789, 1.784551, 1.794908, 1.791690, 2.052637, 1.926807, 1.939012, 1.988520, 1.915694, 1.729105, 1.896936, 1.973959, 1.793021
Process 12: 2.850025, 3.223981, 10.197334, 5.770873, 2.006587, 1.977330, 2.029095, 1.761374, 1.568657, 1.531475, 1.537773, 1.556600, 1.819447, 1.728491, 1.820322, 1.880114, 3.180987, 1.869208, 1.798474, 1.824395, 1.812002, 2.080587, 1.946393, 1.949645, 2.015930, 1.930026, 1.743914, 1.914722, 2.010917, 1.846673
Process 13: 2.877593, 3.274291, 10.218477, 5.795760, 2.043558, 1.993410, 2.051258, 1.791430, 1.595892, 2.007095, 1.557004, 1.587530, 1.834026, 1.745985, 1.844278, 1.913398, 3.208097, 1.892367, 1.816981, 1.883173, 1.828278, 2.100673, 1.963218, 1.964073, 2.035058, 1.943149, 1.758380, 1.937048, 2.046811, 1.886962
Process 14: 2.896865, 4.015288, 10.231457, 5.828983, 2.063763, 2.008330, 2.077504, 1.806258, 1.627251, 2.025965, 1.586195, 1.609952, 1.863099, 1.773415, 1.865890, 1.928839, 3.240141, 1.920716, 1.840184, 1.957587, 1.847347, 2.116171, 1.983187, 1.988720, 2.048235, 1.960410, 1.776479, 1.957993, 2.076406, 1.910031
Process 15: 2.917588, 4.789763, 10.241359, 5.869098, 2.091131, 2.030875, 2.111367, 1.826895, 1.657318, 2.043949, 1.615404, 1.625143, 1.898068, 1.803525, 2.463222, 1.943288, 3.292884, 1.944814, 2.466915, 2.023245, 1.901905, 2.128258, 2.001406, 2.043915, 2.059094, 1.989175, 1.795317, 1.983016, 2.098634, 1.925157
