MPI_insiderank_optimisedserial
Process 0: 1.920723, 1.881406, 1.836088, 1.822293, 1.868445, 1.798412, 1.870919, 1.917835, 1.833337, 1.911686, 1.851891, 1.831174, 1.828034, 1.959561, 1.780467, 1.870756, 1.774350, 1.870556, 1.777184, 1.837560, 1.756161, 1.720367, 1.725104, 1.737190, 1.877927, 1.748615, 1.939590, 1.810201, 1.869047, 1.863528
Process 1: 1.815815, 1.730512, 1.718160, 1.721559, 1.739607, 1.682562, 1.763628, 1.772109, 1.712796, 1.707219, 1.720636, 1.710672, 1.704067, 1.814534, 1.662256, 1.773441, 1.657513, 1.742082, 1.658670, 1.703811, 1.636428, 1.600519, 1.605348, 1.607344, 1.690849, 1.626465, 1.663392, 1.671159, 1.799196, 1.681248
Process 2: 1.873982, 1.800666, 1.771648, 1.768218, 1.800203, 1.739963, 1.808847, 1.837793, 1.773638, 1.797010, 1.778467, 1.767667, 1.755032, 1.886690, 1.715495, 1.824388, 1.711475, 1.795949, 1.712475, 1.758901, 1.691811, 1.656439, 1.660194, 1.662310, 1.728037, 1.673709, 1.711027, 1.714967, 1.835749, 1.724960
Process 3: 1.925273, 1.885847, 1.841290, 1.830161, 1.875253, 1.804813, 1.878638, 1.928225, 1.842609, 1.920158, 1.861668, 1.843810, 1.837961, 1.968952, 1.788222, 1.878878, 1.781129, 1.879358, 1.785790, 1.844610, 1.764067, 1.728983, 1.732608, 1.744278, 1.886329, 1.757566, 1.950906, 1.818505, 1.875742, 1.869832
