MPI_insiderank_optimisedserial
Process 0: 2.464983, 1.768090, 1.748241, 1.755609, 1.734740, 1.744804, 1.764377, 1.740586, 1.736690, 1.736010, 1.758927, 1.747471, 1.734100, 1.732409, 1.740338, 1.746128, 1.731112, 1.740590, 1.732761, 1.749099, 1.733518, 1.747783, 1.732460, 1.733606, 1.737684, 1.730925, 1.741938, 1.734596, 1.745343, 1.736474
Process 1: 2.465785, 1.768919, 1.749076, 1.756384, 1.735542, 1.745624, 1.765169, 1.741439, 1.737486, 1.736871, 1.759761, 1.748317, 1.734910, 1.733236, 1.741228, 1.746900, 1.731895, 1.741341, 1.733514, 1.749853, 1.734286, 1.748526, 1.733228, 1.734384, 1.738478, 1.731715, 1.742704, 1.735397, 1.746255, 1.737254
