MPI_insiderank_optimisedserial
Process 0: 0.381197, 0.170546, 0.137340, 0.137222, 0.133917, 0.136536, 0.132401, 0.131750, 0.132404, 0.132483, 0.133240, 0.131665, 0.131989, 0.134859, 0.131834, 0.131670, 0.132209, 0.142673, 0.131900, 0.132336, 0.132620, 0.132492, 0.131483, 0.131950, 0.132138, 0.167854, 0.131837, 0.132686, 0.132622, 0.131810
Process 1: 0.306183, 0.107096, 0.073478, 0.074074, 0.072139, 0.074219, 0.070299, 0.070264, 0.070558, 0.070597, 0.071202, 0.069990, 0.070366, 0.070658, 0.069730, 0.070076, 0.070418, 0.070588, 0.069906, 0.070436, 0.070902, 0.070558, 0.069675, 0.070289, 0.070485, 0.105536, 0.070188, 0.070361, 0.070482, 0.069806
Process 2: 0.315114, 0.107567, 0.073843, 0.074450, 0.072619, 0.074580, 0.070654, 0.070610, 0.070908, 0.070935, 0.071553, 0.070394, 0.070711, 0.071018, 0.070094, 0.070436, 0.070777, 0.070946, 0.070258, 0.070772, 0.071254, 0.070909, 0.070032, 0.070648, 0.070839, 0.105898, 0.070575, 0.070717, 0.070826, 0.070151
Process 3: 0.307096, 0.108081, 0.074476, 0.075109, 0.073318, 0.075237, 0.071287, 0.071258, 0.071558, 0.071574, 0.072202, 0.071037, 0.071342, 0.071684, 0.070762, 0.071085, 0.071435, 0.071579, 0.070891, 0.071469, 0.071906, 0.071567, 0.070676, 0.071284, 0.071496, 0.106550, 0.071227, 0.071355, 0.071468, 0.070816
Process 4: 0.316159, 0.108564, 0.074833, 0.075468, 0.073685, 0.075573, 0.071639, 0.071606, 0.071905, 0.071928, 0.072545, 0.071393, 0.071687, 0.072047, 0.071113, 0.071437, 0.071804, 0.071935, 0.071239, 0.071812, 0.072258, 0.071903, 0.071035, 0.071638, 0.071841, 0.106913, 0.071578, 0.071749, 0.071810, 0.071181
Process 5: 0.308350, 0.109135, 0.075470, 0.076138, 0.074348, 0.076236, 0.072271, 0.072279, 0.072570, 0.072565, 0.073188, 0.072039, 0.072326, 0.072720, 0.071801, 0.072089, 0.072469, 0.072575, 0.071863, 0.072467, 0.072908, 0.072575, 0.071689, 0.072276, 0.072502, 0.107580, 0.072209, 0.072407, 0.072453, 0.071829
Process 6: 0.317193, 0.109543, 0.075822, 0.076478, 0.074706, 0.076576, 0.072623, 0.072611, 0.072909, 0.072922, 0.073559, 0.072380, 0.072680, 0.073064, 0.072152, 0.072437, 0.072820, 0.072925, 0.072206, 0.072813, 0.073255, 0.072903, 0.072051, 0.072698, 0.072835, 0.107924, 0.072550, 0.072770, 0.072799, 0.072203
Process 7: 0.309288, 0.110132, 0.076463, 0.077124, 0.075362, 0.077219, 0.073314, 0.073256, 0.073558, 0.073568, 0.074202, 0.073012, 0.073318, 0.073720, 0.072796, 0.073088, 0.073470, 0.073554, 0.072850, 0.073464, 0.073893, 0.073547, 0.072694, 0.073346, 0.073479, 0.108609, 0.073191, 0.073413, 0.073441, 0.072853
Process 8: 0.318631, 0.110650, 0.076887, 0.077547, 0.075782, 0.077638, 0.073737, 0.073683, 0.073950, 0.073984, 0.074638, 0.073427, 0.073728, 0.074105, 0.073207, 0.073491, 0.073888, 0.073981, 0.073294, 0.073881, 0.074306, 0.073962, 0.073109, 0.073759, 0.073891, 0.109032, 0.073594, 0.073840, 0.073872, 0.073318
Process 9: 0.310756, 0.111170, 0.077466, 0.078125, 0.076351, 0.078221, 0.074308, 0.074256, 0.074528, 0.074594, 0.075197, 0.074010, 0.074296, 0.074677, 0.073789, 0.074058, 0.074464, 0.074543, 0.073896, 0.074462, 0.074873, 0.074540, 0.073683, 0.074343, 0.074493, 0.109632, 0.074163, 0.074400, 0.074430, 0.073902
Process 10: 0.319741, 0.111595, 0.077939, 0.078573, 0.076795, 0.078654, 0.074726, 0.074679, 0.074949, 0.075006, 0.075632, 0.074427, 0.074740, 0.075095, 0.074212, 0.074466, 0.074871, 0.074979, 0.074326, 0.074883, 0.075302, 0.074961, 0.074174, 0.074745, 0.074909, 0.110042, 0.074599, 0.074825, 0.074894, 0.074325
Process 11: 0.311748, 0.112146, 0.078542, 0.079157, 0.077386, 0.079302, 0.075307, 0.075260, 0.075521, 0.075559, 0.076190, 0.075007, 0.075321, 0.075684, 0.074824, 0.075029, 0.075478, 0.075551, 0.074914, 0.075458, 0.075882, 0.075567, 0.074735, 0.075334, 0.075481, 0.110634, 0.075152, 0.075415, 0.075463, 0.074923
Process 12: 0.320680, 0.112587, 0.078930, 0.079565, 0.077806, 0.079696, 0.075732, 0.075664, 0.075928, 0.075985, 0.076616, 0.075426, 0.075750, 0.076090, 0.075199, 0.075453, 0.075858, 0.076028, 0.075321, 0.075879, 0.076303, 0.075967, 0.075153, 0.075751, 0.075892, 0.111043, 0.075572, 0.075814, 0.075926, 0.075304
Process 13: 0.312868, 0.113105, 0.079496, 0.080162, 0.078387, 0.080291, 0.076302, 0.076241, 0.076518, 0.076604, 0.077177, 0.075997, 0.076312, 0.076725, 0.075775, 0.076011, 0.076432, 0.076598, 0.075902, 0.076438, 0.076876, 0.076605, 0.075739, 0.076330, 0.076479, 0.111615, 0.076140, 0.076394, 0.076492, 0.075888
Process 14: 0.322023, 0.113594, 0.079919, 0.080615, 0.078797, 0.080694, 0.076725, 0.076652, 0.076908, 0.077046, 0.077613, 0.076428, 0.076745, 0.077120, 0.076185, 0.076423, 0.076846, 0.077031, 0.076314, 0.076850, 0.077289, 0.077009, 0.076139, 0.076737, 0.076901, 0.112042, 0.076564, 0.076798, 0.076910, 0.076298
Process 15: 0.313881, 0.114078, 0.080486, 0.081184, 0.079372, 0.081256, 0.077291, 0.077222, 0.077479, 0.077616, 0.078176, 0.076990, 0.077315, 0.077684, 0.076747, 0.076990, 0.077426, 0.077586, 0.076895, 0.077429, 0.077847, 0.077594, 0.076717, 0.077312, 0.077463, 0.112640, 0.077130, 0.077362, 0.077470, 0.076873
Process 16: 0.323058, 0.114664, 0.080914, 0.081601, 0.079786, 0.081671, 0.077722, 0.077631, 0.077884, 0.078032, 0.078603, 0.077419, 0.077746, 0.078098, 0.077165, 0.077400, 0.077836, 0.078013, 0.077312, 0.077837, 0.078274, 0.078006, 0.077125, 0.077726, 0.077862, 0.113054, 0.077551, 0.077787, 0.077894, 0.077299
Process 17: 0.315095, 0.115653, 0.081472, 0.082183, 0.080366, 0.082249, 0.078277, 0.078204, 0.078499, 0.078596, 0.079159, 0.077992, 0.078298, 0.078662, 0.077722, 0.077963, 0.078469, 0.078581, 0.077883, 0.078410, 0.078836, 0.078578, 0.077681, 0.078283, 0.078439, 0.113634, 0.078125, 0.078342, 0.078460, 0.077864
Process 18: 0.324321, 0.116164, 0.081911, 0.082599, 0.080792, 0.082654, 0.078714, 0.078621, 0.078914, 0.079027, 0.079584, 0.078431, 0.078780, 0.079077, 0.078145, 0.078392, 0.078884, 0.079004, 0.078316, 0.078841, 0.079285, 0.078994, 0.078105, 0.078720, 0.078863, 0.114083, 0.078557, 0.078825, 0.078885, 0.078300
Process 19: 0.316260, 0.116715, 0.082476, 0.083180, 0.081365, 0.083216, 0.079280, 0.079205, 0.079491, 0.079585, 0.080145, 0.078995, 0.079354, 0.079642, 0.078711, 0.078960, 0.079469, 0.079570, 0.078878, 0.079393, 0.079865, 0.079571, 0.078665, 0.079278, 0.079443, 0.114646, 0.079114, 0.079387, 0.079465, 0.078859
Process 20: 0.325555, 0.117246, 0.082922, 0.083584, 0.081794, 0.083656, 0.079724, 0.079617, 0.079920, 0.080030, 0.080581, 0.079430, 0.079797, 0.080070, 0.079134, 0.079382, 0.079897, 0.080005, 0.079321, 0.079825, 0.080306, 0.079994, 0.079096, 0.079708, 0.079867, 0.115082, 0.079551, 0.079819, 0.079893, 0.079299
Process 21: 0.318256, 0.117759, 0.083470, 0.084584, 0.082364, 0.084210, 0.080267, 0.080173, 0.080472, 0.080576, 0.081128, 0.079978, 0.080343, 0.080622, 0.079693, 0.079977, 0.080469, 0.080551, 0.079867, 0.080389, 0.080860, 0.080551, 0.079645, 0.080266, 0.080480, 0.115655, 0.080109, 0.080364, 0.080438, 0.079847
Process 22: 0.327521, 0.118275, 0.083920, 0.085096, 0.082795, 0.084645, 0.080716, 0.080649, 0.080896, 0.081009, 0.081570, 0.080477, 0.080777, 0.081051, 0.080116, 0.080417, 0.080891, 0.080983, 0.080294, 0.080816, 0.081299, 0.080972, 0.080083, 0.080723, 0.080906, 0.116086, 0.080579, 0.080796, 0.080883, 0.080280
Process 23: 0.319382, 0.118788, 0.085272, 0.085696, 0.083408, 0.085194, 0.081253, 0.081199, 0.081470, 0.081553, 0.082126, 0.081025, 0.081345, 0.081598, 0.080682, 0.080970, 0.081469, 0.081551, 0.080887, 0.081428, 0.081840, 0.081532, 0.080644, 0.081264, 0.081475, 0.116673, 0.081165, 0.081347, 0.081441, 0.080824
Process 24: 0.328738, 0.119382, 0.085820, 0.086134, 0.083821, 0.085626, 0.081687, 0.081631, 0.081907, 0.081980, 0.082565, 0.081437, 0.081778, 0.082042, 0.081119, 0.081394, 0.081878, 0.081966, 0.081288, 0.081847, 0.082292, 0.081963, 0.081059, 0.081704, 0.081897, 0.117088, 0.081594, 0.081809, 0.081857, 0.081270
Process 25: 0.320584, 0.119881, 0.086392, 0.086725, 0.084373, 0.086193, 0.082255, 0.082202, 0.082490, 0.082562, 0.083122, 0.081999, 0.082326, 0.082624, 0.081659, 0.081979, 0.082430, 0.082532, 0.081867, 0.082417, 0.082835, 0.082520, 0.081619, 0.082258, 0.082454, 0.117665, 0.082149, 0.082350, 0.082417, 0.081831
Process 26: 0.329719, 0.120297, 0.086874, 0.087126, 0.084809, 0.086605, 0.082715, 0.082620, 0.082889, 0.082960, 0.083590, 0.082411, 0.082748, 0.083029, 0.082127, 0.082374, 0.082849, 0.082953, 0.082263, 0.082840, 0.083257, 0.082947, 0.082045, 0.082740, 0.082862, 0.118080, 0.082581, 0.082784, 0.082838, 0.082237
Process 27: 0.321611, 0.120816, 0.087425, 0.087667, 0.085362, 0.087144, 0.083277, 0.083167, 0.083446, 0.083509, 0.084135, 0.082955, 0.083290, 0.083580, 0.082706, 0.082926, 0.083392, 0.083495, 0.082988, 0.083405, 0.083814, 0.083505, 0.082584, 0.083281, 0.083420, 0.118681, 0.083119, 0.083333, 0.083407, 0.082779
Process 28: 0.330513, 0.121302, 0.087917, 0.088117, 0.085805, 0.087600, 0.083732, 0.083613, 0.083949, 0.083958, 0.084589, 0.083403, 0.083741, 0.084018, 0.083118, 0.083362, 0.083832, 0.083936, 0.083682, 0.083834, 0.084256, 0.083929, 0.083038, 0.083733, 0.083843, 0.119120, 0.083562, 0.083766, 0.083846, 0.083284
Process 29: 0.322326, 0.121795, 0.088442, 0.088657, 0.086340, 0.088120, 0.084280, 0.084145, 0.084566, 0.084501, 0.085118, 0.083950, 0.084271, 0.084563, 0.083657, 0.083915, 0.084398, 0.084500, 0.084054, 0.084413, 0.084773, 0.084476, 0.083569, 0.084281, 0.084383, 0.119662, 0.084108, 0.084312, 0.084374, 0.083779
Process 30: 0.331589, 0.122260, 0.088849, 0.089075, 0.086744, 0.088564, 0.084666, 0.084569, 0.085022, 0.084894, 0.085538, 0.084355, 0.084692, 0.084970, 0.084069, 0.084304, 0.084779, 0.084874, 0.084502, 0.084771, 0.085201, 0.084899, 0.084031, 0.084673, 0.084799, 0.120084, 0.084529, 0.084731, 0.084787, 0.084202
Process 31: 0.323371, 0.122766, 0.089394, 0.089631, 0.087307, 0.089152, 0.085241, 0.085133, 0.085611, 0.085456, 0.086109, 0.084922, 0.085256, 0.085556, 0.084623, 0.084886, 0.085338, 0.085445, 0.085070, 0.085333, 0.085775, 0.085496, 0.084588, 0.085245, 0.085361, 0.120676, 0.085109, 0.085297, 0.085343, 0.084769
Process 32: 0.332915, 0.123258, 0.089818, 0.090069, 0.087717, 0.089638, 0.085701, 0.085551, 0.086060, 0.085867, 0.086540, 0.085357, 0.085698, 0.085966, 0.085066, 0.085320, 0.085752, 0.085870, 0.085504, 0.085762, 0.086209, 0.085939, 0.085026, 0.085689, 0.085776, 0.121112, 0.085548, 0.085737, 0.085827, 0.085216
Process 33: 0.325535, 0.123807, 0.090389, 0.090709, 0.088293, 0.090239, 0.086319, 0.086139, 0.086657, 0.086503, 0.087113, 0.085934, 0.086279, 0.086620, 0.085649, 0.085922, 0.086340, 0.086500, 0.086107, 0.086355, 0.086792, 0.086607, 0.085616, 0.086290, 0.086359, 0.121722, 0.086147, 0.086307, 0.086391, 0.085809
Process 34: 0.334841, 0.124195, 0.090738, 0.091115, 0.088665, 0.090605, 0.086688, 0.086493, 0.087028, 0.086860, 0.087497, 0.086296, 0.086636, 0.086979, 0.086009, 0.086284, 0.086687, 0.086874, 0.086479, 0.086740, 0.087147, 0.086930, 0.086004, 0.086652, 0.086710, 0.122093, 0.086512, 0.086669, 0.086758, 0.086170
Process 35: 0.326631, 0.124760, 0.091340, 0.091725, 0.089247, 0.091196, 0.087296, 0.087087, 0.087654, 0.087453, 0.088070, 0.086875, 0.087226, 0.087566, 0.086597, 0.086895, 0.087292, 0.087483, 0.087065, 0.087370, 0.087736, 0.087542, 0.086604, 0.087251, 0.087296, 0.122695, 0.087102, 0.087251, 0.087340, 0.086774
Process 36: 0.335807, 0.125146, 0.091743, 0.092125, 0.089635, 0.091589, 0.087693, 0.087464, 0.088042, 0.087827, 0.088459, 0.087258, 0.087615, 0.087942, 0.086980, 0.087281, 0.087695, 0.087868, 0.087471, 0.087752, 0.088125, 0.087944, 0.087017, 0.087631, 0.087680, 0.123085, 0.087502, 0.087642, 0.087728, 0.087177
Process 37: 0.327717, 0.125726, 0.092329, 0.092733, 0.090223, 0.092177, 0.088285, 0.088052, 0.088705, 0.088418, 0.089046, 0.087847, 0.088194, 0.088557, 0.087565, 0.087892, 0.088385, 0.088468, 0.088056, 0.088357, 0.088699, 0.088565, 0.087627, 0.088227, 0.088283, 0.123690, 0.088101, 0.088222, 0.088330, 0.087785
Process 38: 0.336836, 0.126115, 0.092708, 0.093097, 0.090585, 0.092557, 0.088652, 0.088418, 0.089071, 0.088781, 0.089398, 0.088197, 0.088545, 0.088901, 0.087953, 0.088256, 0.088736, 0.088830, 0.088421, 0.088713, 0.089124, 0.088924, 0.088004, 0.088600, 0.088655, 0.124049, 0.088470, 0.088651, 0.088682, 0.088160
Process 39: 0.328670, 0.126671, 0.093280, 0.093675, 0.091167, 0.093126, 0.089227, 0.088999, 0.089675, 0.089375, 0.089980, 0.088776, 0.089176, 0.089473, 0.088534, 0.088856, 0.089349, 0.089426, 0.089016, 0.089291, 0.089704, 0.089536, 0.088582, 0.089194, 0.089248, 0.124862, 0.089052, 0.089217, 0.089249, 0.088733
Process 40: 0.337773, 0.127796, 0.093660, 0.094048, 0.091554, 0.093501, 0.089603, 0.089375, 0.090053, 0.089759, 0.090376, 0.089157, 0.089563, 0.089857, 0.088915, 0.089247, 0.089723, 0.089802, 0.089398, 0.089679, 0.090090, 0.089912, 0.088971, 0.089578, 0.089635, 0.125236, 0.089432, 0.089592, 0.089632, 0.089118
Process 41: 0.329803, 0.128556, 0.094258, 0.095215, 0.092111, 0.094107, 0.090376, 0.089941, 0.090642, 0.090351, 0.090952, 0.089752, 0.090170, 0.090427, 0.089525, 0.089922, 0.090315, 0.090402, 0.089972, 0.090282, 0.090668, 0.090516, 0.089539, 0.090167, 0.090232, 0.126012, 0.090013, 0.090187, 0.090242, 0.089695
Process 42: 0.338968, 0.129047, 0.094638, 0.095761, 0.092536, 0.094498, 0.090762, 0.090398, 0.091033, 0.090743, 0.091350, 0.090146, 0.090564, 0.090842, 0.090111, 0.090280, 0.090685, 0.090776, 0.090373, 0.090674, 0.091084, 0.090891, 0.089958, 0.090550, 0.090668, 0.126406, 0.090460, 0.090582, 0.090630, 0.090080
Process 43: 0.330746, 0.129598, 0.095211, 0.096370, 0.093103, 0.095063, 0.091386, 0.090960, 0.091615, 0.091319, 0.091934, 0.090799, 0.091164, 0.091424, 0.090626, 0.090868, 0.091284, 0.091354, 0.090944, 0.091262, 0.091654, 0.091478, 0.090531, 0.091119, 0.091271, 0.126987, 0.091026, 0.091167, 0.091227, 0.090665
Process 44: 0.339743, 0.130023, 0.095582, 0.096822, 0.093534, 0.095463, 0.091774, 0.091337, 0.091979, 0.091697, 0.092304, 0.091178, 0.091525, 0.091809, 0.091199, 0.091236, 0.091628, 0.091723, 0.091344, 0.091685, 0.092038, 0.091870, 0.090924, 0.091509, 0.091647, 0.127382, 0.091415, 0.091570, 0.091636, 0.091031
Process 45: 0.331811, 0.130576, 0.096158, 0.097420, 0.094091, 0.096037, 0.092349, 0.091903, 0.092550, 0.092281, 0.093100, 0.091755, 0.092113, 0.092387, 0.091816, 0.091805, 0.092201, 0.092280, 0.091925, 0.092261, 0.092610, 0.092451, 0.091489, 0.092080, 0.092232, 0.127960, 0.091980, 0.092147, 0.092225, 0.091620
Process 46: 0.340898, 0.130990, 0.096545, 0.097818, 0.094487, 0.096470, 0.092787, 0.092294, 0.092927, 0.092671, 0.093478, 0.092140, 0.092495, 0.092785, 0.092148, 0.092210, 0.092584, 0.092673, 0.092335, 0.092647, 0.093010, 0.092827, 0.091881, 0.092527, 0.092640, 0.128427, 0.092382, 0.092538, 0.092636, 0.092001
Process 47: 0.332813, 0.131565, 0.097138, 0.098427, 0.095068, 0.097052, 0.093388, 0.092883, 0.093517, 0.093274, 0.094304, 0.092736, 0.093090, 0.093382, 0.092731, 0.092775, 0.093178, 0.093270, 0.092927, 0.093227, 0.093602, 0.093410, 0.092465, 0.093116, 0.093215, 0.129020, 0.092967, 0.093134, 0.093242, 0.092799
Process 48: 0.341919, 0.132026, 0.097522, 0.098807, 0.095468, 0.097466, 0.093792, 0.093275, 0.093899, 0.093650, 0.094702, 0.093117, 0.093456, 0.093766, 0.093110, 0.093167, 0.093549, 0.093652, 0.093377, 0.093618, 0.093999, 0.093800, 0.092861, 0.093501, 0.093588, 0.129418, 0.093361, 0.093523, 0.093631, 0.093418
Process 49: 0.333833, 0.132580, 0.098126, 0.099392, 0.096023, 0.098035, 0.094356, 0.093826, 0.094461, 0.094219, 0.095281, 0.093687, 0.094018, 0.094323, 0.093681, 0.093726, 0.094106, 0.094226, 0.093944, 0.094174, 0.094557, 0.094363, 0.093610, 0.094067, 0.094146, 0.129984, 0.093912, 0.094090, 0.094224, 0.093981
Process 50: 0.342833, 0.132992, 0.098519, 0.099803, 0.096439, 0.098447, 0.094774, 0.094219, 0.094848, 0.094604, 0.095707, 0.094074, 0.094402, 0.094725, 0.094070, 0.094122, 0.094508, 0.094615, 0.094346, 0.094560, 0.094954, 0.094737, 0.094254, 0.094462, 0.094554, 0.130375, 0.094310, 0.094499, 0.094626, 0.094364
Process 51: 0.334751, 0.133517, 0.099087, 0.100372, 0.097005, 0.099020, 0.095350, 0.094780, 0.095408, 0.095179, 0.096280, 0.094644, 0.094975, 0.096666, 0.094640, 0.094696, 0.095074, 0.095193, 0.094916, 0.095123, 0.095517, 0.095321, 0.094645, 0.095014, 0.095110, 0.130948, 0.094886, 0.095059, 0.095214, 0.094951
Process 52: 0.343835, 0.133943, 0.099481, 0.100826, 0.097413, 0.099488, 0.095756, 0.095177, 0.095814, 0.095580, 0.096675, 0.095035, 0.095375, 0.097203, 0.095049, 0.095106, 0.095477, 0.095586, 0.095329, 0.095519, 0.095916, 0.095705, 0.095061, 0.095416, 0.095511, 0.131335, 0.095264, 0.095461, 0.095622, 0.095329
Process 53: 0.335724, 0.134492, 0.100067, 0.101410, 0.097983, 0.100081, 0.096333, 0.095774, 0.096387, 0.096232, 0.097249, 0.095611, 0.095963, 0.097850, 0.095622, 0.095691, 0.096054, 0.096230, 0.095901, 0.096100, 0.096500, 0.096287, 0.095638, 0.095987, 0.096085, 0.131907, 0.095838, 0.096039, 0.096250, 0.095895
Process 54: 0.344806, 0.134940, 0.100437, 0.101788, 0.098386, 0.100470, 0.096721, 0.096150, 0.096764, 0.096604, 0.097639, 0.095987, 0.096346, 0.098367, 0.096001, 0.096077, 0.096435, 0.096596, 0.096283, 0.096483, 0.096874, 0.096715, 0.096018, 0.096376, 0.096477, 0.132284, 0.096216, 0.096406, 0.096626, 0.096271
Process 55: 0.336731, 0.135482, 0.101019, 0.102360, 0.098960, 0.101058, 0.097290, 0.096726, 0.097332, 0.097182, 0.098201, 0.096565, 0.096920, 0.098959, 0.096570, 0.096646, 0.097003, 0.097186, 0.096854, 0.097050, 0.097454, 0.097285, 0.096583, 0.096938, 0.097042, 0.132853, 0.096796, 0.096986, 0.097215, 0.096845
Process 56: 0.345926, 0.135950, 0.101602, 0.102748, 0.099348, 0.101442, 0.097689, 0.097107, 0.097726, 0.097563, 0.098587, 0.096940, 0.097298, 0.099363, 0.096960, 0.097037, 0.097393, 0.097562, 0.097239, 0.097449, 0.097833, 0.097672, 0.096977, 0.097323, 0.097447, 0.133239, 0.097174, 0.097369, 0.097607, 0.097240
Process 57: 0.337816, 0.136521, 0.102360, 0.103311, 0.099910, 0.101997, 0.098249, 0.097677, 0.098278, 0.098113, 0.099143, 0.097496, 0.097858, 0.099945, 0.097512, 0.097582, 0.097958, 0.098121, 0.097795, 0.098007, 0.098402, 0.098219, 0.097527, 0.097869, 0.098002, 0.133801, 0.097734, 0.097928, 0.098168, 0.097791
Process 58: 0.346927, 0.136945, 0.102593, 0.103735, 0.100320, 0.102403, 0.098680, 0.098080, 0.098756, 0.098522, 0.099549, 0.097906, 0.098263, 0.100365, 0.097928, 0.098015, 0.098415, 0.098527, 0.098199, 0.098433, 0.098817, 0.098631, 0.097941, 0.098288, 0.098449, 0.134211, 0.098136, 0.098342, 0.098570, 0.098210
Process 59: 0.338883, 0.137483, 0.103140, 0.104305, 0.100893, 0.102941, 0.099255, 0.098639, 0.099328, 0.099101, 0.100106, 0.098469, 0.098873, 0.100954, 0.098491, 0.098552, 0.099013, 0.099099, 0.098770, 0.098992, 0.099451, 0.099180, 0.098508, 0.098843, 0.099028, 0.134772, 0.098720, 0.098951, 0.099132, 0.098773
Process 60: 0.347669, 0.137945, 0.103528, 0.104696, 0.101275, 0.103357, 0.099639, 0.099018, 0.099706, 0.099470, 0.100480, 0.098847, 0.099253, 0.101330, 0.098875, 0.098954, 0.099399, 0.099469, 0.099156, 0.099375, 0.099816, 0.099584, 0.098889, 0.099224, 0.099423, 0.135152, 0.099097, 0.099330, 0.099529, 0.099141
Process 61: 0.339574, 0.138531, 0.104083, 0.105268, 0.101832, 0.103910, 0.100192, 0.099583, 0.100256, 0.100047, 0.101041, 0.099411, 0.099814, 0.101900, 0.099429, 0.099491, 0.099961, 0.100029, 0.099732, 0.099924, 0.100383, 0.100142, 0.099436, 0.099780, 0.099990, 0.135725, 0.099686, 0.099890, 0.100124, 0.099699
Process 62: 0.348803, 0.138947, 0.104501, 0.105676, 0.102267, 0.104340, 0.100604, 0.099981, 0.100663, 0.100477, 0.101436, 0.099810, 0.100218, 0.102344, 0.099855, 0.099970, 0.100359, 0.100420, 0.100142, 0.100326, 0.100788, 0.100547, 0.099858, 0.100178, 0.100416, 0.136129, 0.100091, 0.100298, 0.100535, 0.100076
Process 63: 0.340774, 0.139519, 0.105077, 0.106237, 0.102826, 0.104909, 0.101182, 0.100586, 0.101219, 0.101062, 0.101994, 0.100399, 0.100781, 0.102914, 0.100424, 0.100522, 0.100922, 0.100978, 0.100718, 0.100878, 0.101365, 0.101117, 0.100407, 0.100749, 0.101029, 0.136716, 0.100692, 0.100867, 0.101105, 0.100626
Process 64: 0.349941, 0.140034, 0.105539, 0.106687, 0.103344, 0.105388, 0.101654, 0.101042, 0.101684, 0.101509, 0.102449, 0.100888, 0.101236, 0.103381, 0.100893, 0.101002, 0.101403, 0.101442, 0.101174, 0.101392, 0.101811, 0.101570, 0.100875, 0.101205, 0.101459, 0.137174, 0.101149, 0.101328, 0.101573, 0.101108
Process 65: 0.342074, 0.140573, 0.106131, 0.107244, 0.103880, 0.105954, 0.102202, 0.101615, 0.102253, 0.102082, 0.103028, 0.101447, 0.101800, 0.103956, 0.101457, 0.101557, 0.101966, 0.102022, 0.101751, 0.101966, 0.102378, 0.102138, 0.101420, 0.101768, 0.102009, 0.137733, 0.101723, 0.101903, 0.102131, 0.101669
Process 66: 0.350817, 0.140945, 0.106531, 0.107643, 0.104300, 0.106340, 0.102590, 0.101993, 0.102635, 0.102456, 0.103401, 0.101835, 0.102195, 0.104357, 0.101917, 0.101953, 0.102380, 0.102426, 0.102155, 0.102352, 0.102784, 0.102527, 0.101789, 0.102154, 0.102400, 0.138129, 0.102110, 0.102288, 0.102504, 0.102030
Process 67: 0.343005, 0.141476, 0.107108, 0.108183, 0.104881, 0.106901, 0.103226, 0.102562, 0.103199, 0.103027, 0.104014, 0.102399, 0.102776, 0.104926, 0.102473, 0.102533, 0.102980, 0.103016, 0.102765, 0.102914, 0.103363, 0.103120, 0.102350, 0.102780, 0.102991, 0.138752, 0.102686, 0.102861, 0.103076, 0.102603
Process 68: 0.351874, 0.141917, 0.107521, 0.108595, 0.105266, 0.107300, 0.103616, 0.102948, 0.103603, 0.103438, 0.104412, 0.102803, 0.103189, 0.105343, 0.102931, 0.102923, 0.103353, 0.103416, 0.103173, 0.103351, 0.103760, 0.103527, 0.102755, 0.103159, 0.103378, 0.139138, 0.103077, 0.103263, 0.103463, 0.102991
Process 69: 0.343954, 0.142460, 0.108138, 0.109150, 0.105801, 0.107855, 0.104187, 0.103514, 0.104176, 0.104010, 0.104979, 0.103376, 0.103788, 0.105914, 0.103518, 0.103481, 0.103921, 0.104099, 0.103798, 0.103928, 0.104339, 0.104110, 0.103322, 0.103721, 0.103938, 0.139700, 0.103656, 0.103831, 0.104033, 0.103592
Process 70: 0.352751, 0.142897, 0.108535, 0.109564, 0.106207, 0.108244, 0.104580, 0.103895, 0.104581, 0.104403, 0.105384, 0.103764, 0.104170, 0.106311, 0.103938, 0.103875, 0.104307, 0.104404, 0.104171, 0.104321, 0.104726, 0.104500, 0.103716, 0.104105, 0.104337, 0.140100, 0.104056, 0.104228, 0.104413, 0.103994
Process 71: 0.344786, 0.143418, 0.109106, 0.110115, 0.106744, 0.108794, 0.105157, 0.104464, 0.105139, 0.104948, 0.105930, 0.104320, 0.104735, 0.106931, 0.104533, 0.104424, 0.104875, 0.105072, 0.104736, 0.104880, 0.105291, 0.105054, 0.104341, 0.104656, 0.104887, 0.140652, 0.104615, 0.104800, 0.104987, 0.104549
Process 72: 0.353815, 0.143888, 0.109516, 0.110577, 0.107172, 0.109237, 0.105553, 0.104870, 0.105561, 0.105365, 0.106348, 0.104727, 0.105140, 0.107353, 0.104919, 0.104835, 0.105289, 0.105442, 0.105136, 0.105273, 0.105697, 0.105482, 0.104754, 0.105073, 0.105291, 0.141055, 0.105031, 0.105193, 0.105409, 0.104950
Process 73: 0.345695, 0.144416, 0.110081, 0.111137, 0.107708, 0.109784, 0.106119, 0.105438, 0.106100, 0.105914, 0.106918, 0.105291, 0.105700, 0.107929, 0.105464, 0.105382, 0.105845, 0.106050, 0.105682, 0.105838, 0.106264, 0.106023, 0.105302, 0.105611, 0.105855, 0.141615, 0.105586, 0.105745, 0.105968, 0.105524
Process 74: 0.354833, 0.144822, 0.110499, 0.111571, 0.108125, 0.110201, 0.106523, 0.105844, 0.106522, 0.106382, 0.107351, 0.105715, 0.106122, 0.108343, 0.105886, 0.105789, 0.106271, 0.106451, 0.106110, 0.106263, 0.106688, 0.106494, 0.105711, 0.106036, 0.106265, 0.142044, 0.106002, 0.106170, 0.106401, 0.105953
Process 75: 0.346605, 0.145337, 0.111050, 0.112101, 0.108671, 0.110735, 0.107087, 0.106394, 0.107057, 0.106920, 0.107915, 0.106271, 0.106683, 0.108891, 0.106426, 0.106345, 0.106816, 0.107011, 0.106660, 0.106825, 0.107246, 0.107047, 0.106254, 0.106582, 0.106823, 0.142615, 0.106541, 0.106717, 0.106937, 0.106514
Process 76: 0.355609, 0.145775, 0.112337, 0.112518, 0.109069, 0.111129, 0.107484, 0.106795, 0.107474, 0.107321, 0.108333, 0.106683, 0.107088, 0.109301, 0.106851, 0.106738, 0.107225, 0.107405, 0.107069, 0.107237, 0.107671, 0.107479, 0.106655, 0.106997, 0.107226, 0.143015, 0.106934, 0.107124, 0.107338, 0.106914
Process 77: 0.348491, 0.146289, 0.112998, 0.113068, 0.109640, 0.111684, 0.108040, 0.107362, 0.108134, 0.107865, 0.108893, 0.107250, 0.107651, 0.109859, 0.107413, 0.107291, 0.107771, 0.107955, 0.107625, 0.107794, 0.108235, 0.108036, 0.107205, 0.107566, 0.107781, 0.143572, 0.107485, 0.107701, 0.107878, 0.107460
Process 78: 0.357641, 0.146747, 0.113495, 0.113499, 0.110043, 0.112098, 0.108451, 0.107766, 0.108576, 0.108303, 0.109315, 0.107661, 0.108077, 0.110289, 0.107831, 0.107697, 0.108243, 0.108356, 0.108048, 0.108202, 0.108647, 0.108457, 0.107623, 0.107974, 0.108189, 0.143972, 0.107903, 0.108339, 0.108297, 0.107878
Process 79: 0.349416, 0.147240, 0.114146, 0.114048, 0.110604, 0.112649, 0.109013, 0.108305, 0.109112, 0.108833, 0.109869, 0.108194, 0.108673, 0.110847, 0.108367, 0.108236, 0.108781, 0.108887, 0.108594, 0.108755, 0.109216, 0.108993, 0.108182, 0.108533, 0.108739, 0.144519, 0.108443, 0.108946, 0.108845, 0.108415
Process 80: 0.358669, 0.147750, 0.114527, 0.114486, 0.111015, 0.113060, 0.109430, 0.108717, 0.109537, 0.109261, 0.110287, 0.108614, 0.109075, 0.111270, 0.108787, 0.108651, 0.109205, 0.110958, 0.109009, 0.109165, 0.109652, 0.109411, 0.108592, 0.108932, 0.109153, 0.144925, 0.108876, 0.109428, 0.109269, 0.108832
Process 81: 0.350537, 0.148244, 0.115098, 0.115029, 0.111560, 0.113615, 0.109982, 0.109273, 0.110066, 0.109800, 0.110825, 0.109150, 0.109621, 0.111829, 0.109324, 0.109194, 0.109750, 0.111217, 0.109552, 0.109707, 0.110194, 0.109959, 0.109140, 0.109476, 0.109715, 0.145482, 0.109436, 0.110011, 0.109805, 0.109393
Process 82: 0.359717, 0.148689, 0.115500, 0.115465, 0.111977, 0.114032, 0.110397, 0.109703, 0.110542, 0.110212, 0.111243, 0.109591, 0.110042, 0.112262, 0.109740, 0.109608, 0.110179, 0.111418, 0.109974, 0.110121, 0.110612, 0.110376, 0.109565, 0.109883, 0.110132, 0.145892, 0.109864, 0.110481, 0.110232, 0.109813
Process 83: 0.351376, 0.149215, 0.116042, 0.116006, 0.112529, 0.114581, 0.110949, 0.110297, 0.111043, 0.110739, 0.111784, 0.110176, 0.110591, 0.112817, 0.110273, 0.110197, 0.110713, 0.111673, 0.110512, 0.110669, 0.111154, 0.110921, 0.110109, 0.110437, 0.110711, 0.146449, 0.110475, 0.111044, 0.110774, 0.110368
Process 84: 0.360462, 0.149678, 0.116452, 0.116430, 0.112947, 0.115000, 0.111368, 0.110706, 0.111457, 0.111160, 0.112210, 0.110677, 0.111003, 0.113245, 0.110706, 0.110619, 0.111126, 0.111868, 0.110931, 0.111094, 0.111573, 0.111343, 0.110524, 0.110860, 0.111132, 0.146866, 0.110890, 0.111496, 0.111197, 0.110787
Process 85: 0.352322, 0.150153, 0.117005, 0.116970, 0.113517, 0.115554, 0.111928, 0.111277, 0.112008, 0.111696, 0.112756, 0.111220, 0.111558, 0.113812, 0.111243, 0.111168, 0.111683, 0.112139, 0.111476, 0.111704, 0.112131, 0.111897, 0.111083, 0.111426, 0.111703, 0.147420, 0.111451, 0.112047, 0.111761, 0.111354
Process 86: 0.361380, 0.150618, 0.117410, 0.117402, 0.113950, 0.115964, 0.112333, 0.111686, 0.112411, 0.112120, 0.113195, 0.111637, 0.111981, 0.114231, 0.111648, 0.111574, 0.112097, 0.112405, 0.111893, 0.112113, 0.112531, 0.112289, 0.111489, 0.111835, 0.112096, 0.147849, 0.111864, 0.112494, 0.112168, 0.111770
Process 87: 0.353398, 0.151107, 0.118016, 0.117959, 0.114516, 0.116542, 0.112925, 0.112231, 0.112958, 0.112667, 0.113775, 0.112172, 0.112508, 0.114792, 0.112263, 0.112142, 0.112641, 0.113109, 0.112445, 0.112657, 0.113071, 0.112857, 0.112046, 0.112450, 0.112645, 0.148437, 0.112417, 0.113058, 0.112713, 0.112329
Process 88: 0.362424, 0.151622, 0.118420, 0.118351, 0.114902, 0.116931, 0.113359, 0.112631, 0.113371, 0.113086, 0.114194, 0.112578, 0.112919, 0.115212, 0.112693, 0.112514, 0.113047, 0.113382, 0.112852, 0.113059, 0.113466, 0.113244, 0.112441, 0.112856, 0.113047, 0.148854, 0.112825, 0.113505, 0.113122, 0.112724
Process 89: 0.354338, 0.152109, 0.118957, 0.118879, 0.115442, 0.117478, 0.113901, 0.113166, 0.113915, 0.113606, 0.114731, 0.113103, 0.113448, 0.115772, 0.113233, 0.113052, 0.113604, 0.113938, 0.113435, 0.113594, 0.114001, 0.113782, 0.112982, 0.113389, 0.113582, 0.149394, 0.113364, 0.114044, 0.113654, 0.113302
Process 90: 0.363321, 0.152549, 0.119388, 0.119318, 0.115883, 0.117908, 0.114349, 0.113608, 0.114342, 0.114055, 0.115163, 0.113549, 0.113894, 0.116222, 0.113699, 0.113489, 0.114046, 0.114383, 0.113884, 0.114024, 0.114448, 0.114218, 0.113425, 0.113820, 0.114027, 0.149825, 0.113813, 0.114529, 0.114116, 0.113746
Process 91: 0.355266, 0.153029, 0.119908, 0.119858, 0.116424, 0.118442, 0.114891, 0.114148, 0.114874, 0.114571, 0.115698, 0.114067, 0.114420, 0.116858, 0.114235, 0.114016, 0.114605, 0.114936, 0.114425, 0.114556, 0.115009, 0.114759, 0.114015, 0.114350, 0.114584, 0.150363, 0.114353, 0.115062, 0.114628, 0.114279
Process 92: 0.364281, 0.153498, 0.120325, 0.120262, 0.116831, 0.118866, 0.115305, 0.114584, 0.115284, 0.114983, 0.116105, 0.114485, 0.114837, 0.117264, 0.114662, 0.114441, 0.115042, 0.115350, 0.114840, 0.114971, 0.115438, 0.115173, 0.114415, 0.114786, 0.115020, 0.150777, 0.114764, 0.115504, 0.115058, 0.114683
Process 93: 0.356201, 0.154054, 0.120870, 0.120862, 0.117392, 0.119461, 0.115864, 0.115151, 0.115834, 0.115528, 0.116656, 0.115036, 0.115387, 0.117834, 0.115237, 0.115014, 0.115627, 0.115892, 0.115391, 0.115523, 0.116008, 0.115745, 0.114969, 0.115351, 0.115607, 0.151354, 0.115324, 0.116064, 0.115608, 0.115242
Process 94: 0.365236, 0.154499, 0.121289, 0.121275, 0.117804, 0.119938, 0.116278, 0.115603, 0.116241, 0.115943, 0.117068, 0.115456, 0.115825, 0.118263, 0.115660, 0.115420, 0.116053, 0.116386, 0.115807, 0.115938, 0.116415, 0.116158, 0.115376, 0.115769, 0.116037, 0.151782, 0.115741, 0.116497, 0.116086, 0.115671
Process 95: 0.357351, 0.155009, 0.121870, 0.121867, 0.118367, 0.120521, 0.116850, 0.116189, 0.116815, 0.116553, 0.117631, 0.116015, 0.116382, 0.118836, 0.116251, 0.115993, 0.116638, 0.116969, 0.116381, 0.116513, 0.116983, 0.116782, 0.115951, 0.116335, 0.116606, 0.152373, 0.116311, 0.117070, 0.116677, 0.116260
Process 96: 0.366348, 0.155527, 0.122324, 0.122320, 0.118835, 0.120997, 0.117292, 0.116655, 0.117273, 0.117025, 0.118082, 0.116486, 0.116840, 0.119292, 0.116737, 0.116446, 0.117091, 0.118768, 0.116832, 0.116985, 0.117453, 0.117229, 0.116395, 0.116801, 0.117059, 0.152822, 0.116777, 0.117537, 0.117125, 0.116712
Process 97: 0.358350, 0.156098, 0.122846, 0.122863, 0.119349, 0.121559, 0.117832, 0.117209, 0.117807, 0.117543, 0.118622, 0.117022, 0.117370, 0.119836, 0.117261, 0.116989, 0.117645, 0.119305, 0.117394, 0.117522, 0.117985, 0.117776, 0.116922, 0.117346, 0.117586, 0.153373, 0.117285, 0.118079, 0.117651, 0.117244
Process 98: 0.367268, 0.156471, 0.123267, 0.123273, 0.119778, 0.121989, 0.118245, 0.117614, 0.118210, 0.117946, 0.119069, 0.117439, 0.117811, 0.120261, 0.117700, 0.117422, 0.118054, 0.119710, 0.117796, 0.117924, 0.118395, 0.118166, 0.117332, 0.117749, 0.117998, 0.153782, 0.117693, 0.118539, 0.118063, 0.117654
Process 99: 0.359202, 0.156986, 0.123826, 0.123826, 0.120335, 0.122582, 0.118813, 0.118208, 0.118820, 0.118503, 0.119646, 0.117994, 0.118368, 0.120829, 0.118258, 0.117989, 0.118652, 0.120241, 0.118367, 0.118478, 0.118999, 0.118731, 0.117891, 0.118314, 0.118550, 0.154332, 0.118230, 0.119106, 0.118609, 0.118229
Process 100: 0.368373, 0.157460, 0.124261, 0.124237, 0.120756, 0.123028, 0.119246, 0.118634, 0.119236, 0.118922, 0.120099, 0.118421, 0.118841, 0.121262, 0.118689, 0.118414, 0.119084, 0.120682, 0.118783, 0.118927, 0.119442, 0.119146, 0.118325, 0.118742, 0.118976, 0.154768, 0.118669, 0.119551, 0.119041, 0.118666
Process 101: 0.360159, 0.157955, 0.124844, 0.124788, 0.121313, 0.123606, 0.119811, 0.119220, 0.119796, 0.119491, 0.120635, 0.118984, 0.119403, 0.121828, 0.119253, 0.118981, 0.119641, 0.121214, 0.119355, 0.119487, 0.120003, 0.119699, 0.118882, 0.119295, 0.119540, 0.155323, 0.119235, 0.120100, 0.119584, 0.119235
Process 102: 0.369187, 0.158453, 0.125227, 0.125194, 0.121712, 0.124004, 0.120218, 0.119606, 0.120184, 0.119877, 0.121047, 0.119397, 0.119811, 0.122221, 0.119649, 0.119377, 0.120045, 0.121621, 0.119762, 0.119894, 0.120409, 0.120093, 0.119279, 0.119717, 0.119939, 0.155716, 0.119641, 0.120489, 0.120026, 0.119629
Process 103: 0.361118, 0.158977, 0.125785, 0.125757, 0.122272, 0.124579, 0.120789, 0.120163, 0.120749, 0.120441, 0.121603, 0.119948, 0.120363, 0.122791, 0.120217, 0.119989, 0.120607, 0.130852, 0.120344, 0.120463, 0.120961, 0.120661, 0.119836, 0.120286, 0.120565, 0.156275, 0.120209, 0.121047, 0.120585, 0.120186
Process 104: 0.370164, 0.159464, 0.126208, 0.126152, 0.122686, 0.124992, 0.121208, 0.120628, 0.121167, 0.120861, 0.122027, 0.120424, 0.120793, 0.123209, 0.120621, 0.120450, 0.121026, 0.131318, 0.120760, 0.120893, 0.121374, 0.121070, 0.120252, 0.120724, 0.120978, 0.156689, 0.120680, 0.121463, 0.121051, 0.120596
Process 105: 0.362159, 0.160002, 0.126796, 0.126718, 0.123312, 0.125801, 0.121802, 0.121222, 0.121760, 0.121453, 0.122630, 0.121025, 0.121384, 0.124016, 0.121215, 0.121074, 0.121621, 0.131928, 0.121348, 0.121537, 0.121977, 0.121659, 0.120846, 0.121318, 0.121561, 0.157288, 0.121264, 0.122051, 0.121659, 0.121191
Process 106: 0.371099, 0.160395, 0.127189, 0.127120, 0.123717, 0.126131, 0.122191, 0.121609, 0.122160, 0.121857, 0.123029, 0.121438, 0.121784, 0.124373, 0.121608, 0.121481, 0.122023, 0.132337, 0.121743, 0.121975, 0.122375, 0.122052, 0.121242, 0.121707, 0.121956, 0.157679, 0.121662, 0.122445, 0.122081, 0.121588
Process 107: 0.363020, 0.160884, 0.127724, 0.127655, 0.124259, 0.126872, 0.122784, 0.122155, 0.122708, 0.122403, 0.123590, 0.121974, 0.122314, 0.125134, 0.122201, 0.122036, 0.122568, 0.132882, 0.122289, 0.122540, 0.122910, 0.122596, 0.121780, 0.122240, 0.122499, 0.158272, 0.122194, 0.122983, 0.122625, 0.122141
Process 108: 0.372036, 0.161351, 0.128177, 0.128071, 0.124662, 0.127292, 0.123202, 0.122561, 0.123119, 0.122813, 0.124040, 0.122398, 0.122748, 0.125556, 0.122629, 0.122449, 0.122992, 0.133314, 0.122702, 0.122973, 0.123334, 0.123002, 0.122200, 0.122732, 0.122906, 0.158675, 0.122604, 0.123391, 0.123058, 0.122552
Process 109: 0.364175, 0.161856, 0.128711, 0.128626, 0.125214, 0.127819, 0.123762, 0.123109, 0.123678, 0.123365, 0.124594, 0.122946, 0.123282, 0.126116, 0.123181, 0.123000, 0.123529, 0.133869, 0.123308, 0.123544, 0.123882, 0.123561, 0.122757, 0.123253, 0.123457, 0.159229, 0.123146, 0.123951, 0.123603, 0.123164
Process 110: 0.372943, 0.162309, 0.129140, 0.129027, 0.125639, 0.128237, 0.124171, 0.123531, 0.124098, 0.123784, 0.125015, 0.123369, 0.123716, 0.126603, 0.123594, 0.123422, 0.123944, 0.134304, 0.123723, 0.123960, 0.124309, 0.123968, 0.123183, 0.123685, 0.123872, 0.159641, 0.123568, 0.124353, 0.124218, 0.123584
Process 111: 0.364940, 0.162805, 0.129688, 0.129595, 0.126212, 0.128784, 0.124745, 0.124094, 0.124677, 0.124566, 0.125587, 0.123938, 0.124279, 0.127211, 0.124155, 0.123989, 0.124510, 0.134872, 0.124300, 0.124518, 0.124870, 0.124746, 0.123745, 0.124255, 0.124444, 0.160207, 0.124142, 0.124933, 0.124768, 0.124159
Process 112: 0.374130, 0.163288, 0.130114, 0.129993, 0.126631, 0.129252, 0.125164, 0.124510, 0.125103, 0.124959, 0.125999, 0.124364, 0.124708, 0.127652, 0.124566, 0.124393, 0.124914, 0.135306, 0.124700, 0.124933, 0.125292, 0.125134, 0.124224, 0.124681, 0.124851, 0.160624, 0.124559, 0.125343, 0.125369, 0.124568
Process 113: 0.365872, 0.163803, 0.130636, 0.130585, 0.127157, 0.129806, 0.125698, 0.125041, 0.125649, 0.125709, 0.126528, 0.124900, 0.125240, 0.128182, 0.125110, 0.124923, 0.125455, 0.135844, 0.125227, 0.125473, 0.125826, 0.125896, 0.124767, 0.125223, 0.125387, 0.161161, 0.125088, 0.125886, 0.125973, 0.125105
Process 114: 0.375004, 0.164234, 0.131062, 0.131005, 0.127593, 0.130246, 0.126122, 0.125457, 0.126077, 0.126200, 0.126944, 0.125343, 0.125668, 0.128627, 0.125528, 0.125345, 0.125872, 0.136332, 0.125641, 0.125894, 0.126267, 0.126165, 0.125193, 0.125663, 0.125803, 0.161589, 0.125525, 0.126319, 0.126377, 0.125524
Process 115: 0.366791, 0.164780, 0.131580, 0.131552, 0.128145, 0.130826, 0.126665, 0.125988, 0.126626, 0.126752, 0.127475, 0.125893, 0.126204, 0.129157, 0.126058, 0.125889, 0.126410, 0.136874, 0.126175, 0.126436, 0.126807, 0.126783, 0.125726, 0.126207, 0.126350, 0.162127, 0.126061, 0.126865, 0.126933, 0.126062
Process 116: 0.375835, 0.165196, 0.132017, 0.131960, 0.128565, 0.131262, 0.127087, 0.126412, 0.127052, 0.127181, 0.127917, 0.126338, 0.126637, 0.129596, 0.126491, 0.126315, 0.126835, 0.137313, 0.126613, 0.126865, 0.127243, 0.127209, 0.126153, 0.126636, 0.126773, 0.162550, 0.126500, 0.127295, 0.127362, 0.126498
Process 117: 0.367735, 0.165714, 0.132555, 0.132529, 0.129105, 0.131798, 0.127653, 0.126962, 0.127608, 0.127722, 0.128470, 0.126887, 0.127186, 0.130123, 0.127030, 0.126871, 0.127401, 0.137868, 0.127159, 0.127424, 0.127793, 0.127761, 0.126701, 0.127189, 0.127326, 0.163101, 0.127044, 0.127857, 0.127921, 0.127051
Process 118: 0.377109, 0.166163, 0.132978, 0.132935, 0.129536, 0.132218, 0.128058, 0.127383, 0.128018, 0.128147, 0.128899, 0.127310, 0.127608, 0.130558, 0.127460, 0.127286, 0.127814, 0.138295, 0.127582, 0.127839, 0.128209, 0.128173, 0.127118, 0.127606, 0.127743, 0.163517, 0.127468, 0.128276, 0.128330, 0.127470
Process 119: 0.368716, 0.166694, 0.133528, 0.133490, 0.130075, 0.132751, 0.128599, 0.127913, 0.128614, 0.128690, 0.129440, 0.127843, 0.128149, 0.131083, 0.128000, 0.127836, 0.128398, 0.138846, 0.128118, 0.128387, 0.128751, 0.128723, 0.127665, 0.128153, 0.128282, 0.164061, 0.128011, 0.128886, 0.128871, 0.128012
Process 120: 0.377833, 0.167156, 0.133952, 0.133888, 0.130491, 0.133165, 0.129025, 0.128331, 0.129029, 0.129113, 0.129869, 0.128257, 0.128629, 0.131501, 0.128412, 0.128246, 0.128842, 0.139277, 0.128540, 0.128801, 0.129235, 0.129132, 0.128092, 0.128572, 0.128707, 0.164480, 0.128432, 0.129294, 0.129280, 0.128428
Process 121: 0.369759, 0.167702, 0.134481, 0.134427, 0.131016, 0.133716, 0.129560, 0.128854, 0.129570, 0.129634, 0.130395, 0.128783, 0.129146, 0.132031, 0.128943, 0.128778, 0.129372, 0.139810, 0.129068, 0.129331, 0.129768, 0.129664, 0.128627, 0.129100, 0.129237, 0.165014, 0.128958, 0.129831, 0.129814, 0.128974
Process 122: 0.378748, 0.168093, 0.134925, 0.134858, 0.131463, 0.134141, 0.130003, 0.129311, 0.130012, 0.130105, 0.130841, 0.129228, 0.129603, 0.132477, 0.129386, 0.129230, 0.129811, 0.140259, 0.129521, 0.129804, 0.130225, 0.130104, 0.129085, 0.129553, 0.129688, 0.165459, 0.129410, 0.130275, 0.130251, 0.129413
Process 123: 0.370653, 0.168637, 0.135446, 0.135395, 0.131993, 0.134666, 0.130538, 0.129826, 0.130546, 0.130621, 0.131365, 0.129764, 0.130131, 0.132994, 0.129917, 0.129761, 0.130339, 0.140785, 0.130046, 0.130350, 0.130749, 0.130632, 0.129619, 0.130075, 0.130214, 0.165987, 0.129927, 0.130797, 0.130774, 0.129945
Process 124: 0.379739, 0.169110, 0.135870, 0.135805, 0.132422, 0.135079, 0.130959, 0.130310, 0.130969, 0.131055, 0.131793, 0.130184, 0.130561, 0.133412, 0.130334, 0.130236, 0.130763, 0.141228, 0.130475, 0.130778, 0.131175, 0.131052, 0.130048, 0.130506, 0.130700, 0.166410, 0.130399, 0.131231, 0.131191, 0.130375
Process 125: 0.371646, 0.169645, 0.136398, 0.136340, 0.132955, 0.135616, 0.131498, 0.130834, 0.131503, 0.131584, 0.132328, 0.130775, 0.131090, 0.133956, 0.130880, 0.130771, 0.131307, 0.141769, 0.131003, 0.131296, 0.131711, 0.131591, 0.130585, 0.131046, 0.131226, 0.166947, 0.130950, 0.131772, 0.131717, 0.130906
Process 126: 0.380978, 0.170071, 0.136834, 0.136778, 0.133441, 0.136045, 0.131922, 0.131278, 0.131928, 0.132014, 0.132754, 0.131194, 0.131507, 0.134375, 0.131298, 0.131197, 0.131724, 0.142197, 0.131438, 0.131852, 0.132151, 0.132023, 0.131007, 0.131476, 0.131662, 0.167376, 0.131383, 0.132192, 0.132142, 0.131333
Process 127: 0.372552, 0.170547, 0.137339, 0.137229, 0.133916, 0.136531, 0.132401, 0.131749, 0.132404, 0.132480, 0.133239, 0.131664, 0.131987, 0.134858, 0.131833, 0.131670, 0.132210, 0.142672, 0.131900, 0.132336, 0.132619, 0.132489, 0.131482, 0.131949, 0.132137, 0.167855, 0.131837, 0.132685, 0.132617, 0.131811
