MPI_insiderank_optimisedserial
Process 0: 0.710238, 0.319179, 0.260588, 0.264292, 0.271491, 0.261319, 0.264756, 0.258356, 0.256385, 0.256499, 1.392497, 0.256188, 0.256374, 0.256863, 0.256339, 0.256066, 0.256063, 0.291271, 0.256940, 0.548139, 0.261297, 0.256453, 0.255468, 0.255877, 0.255719, 0.255746, 0.255983, 0.256924, 0.256412, 0.255915
Process 1: 0.574119, 0.186138, 0.124606, 0.124574, 0.132375, 0.127670, 0.128864, 0.124886, 0.123421, 0.122964, 1.259064, 0.123167, 0.122519, 0.124286, 0.122883, 0.122924, 0.122909, 0.157609, 0.123280, 0.415528, 0.129239, 0.122745, 0.122336, 0.122717, 0.122722, 0.122522, 0.122926, 0.123715, 0.123255, 0.122629
Process 2: 0.574029, 0.187035, 0.125408, 0.125732, 0.133526, 0.128450, 0.131018, 0.125682, 0.124263, 0.123762, 1.259859, 0.124008, 0.123313, 0.125088, 0.123673, 0.123759, 0.123747, 0.158398, 0.124063, 0.416311, 0.130018, 0.123535, 0.123139, 0.123540, 0.123562, 0.123416, 0.123749, 0.124534, 0.124063, 0.123426
Process 3: 0.575847, 0.188240, 0.126744, 0.127028, 0.134869, 0.129811, 0.132566, 0.126998, 0.125643, 0.125047, 1.261212, 0.125324, 0.124667, 0.126403, 0.124985, 0.125022, 0.125053, 0.159717, 0.125356, 0.417601, 0.131752, 0.124902, 0.124460, 0.124881, 0.124891, 0.124733, 0.125129, 0.125843, 0.125389, 0.124733
Process 4: 0.576331, 0.189112, 0.127551, 0.127828, 0.136025, 0.130626, 0.133498, 0.127783, 0.126457, 0.125866, 1.261974, 0.126203, 0.125468, 0.127243, 0.125797, 0.125839, 0.125874, 0.160523, 0.126150, 0.418408, 0.132182, 0.125718, 0.125270, 0.125699, 0.125748, 0.125542, 0.125929, 0.126651, 0.126198, 0.125568
Process 5: 0.578351, 0.190316, 0.128842, 0.129137, 0.137360, 0.131921, 0.134806, 0.129088, 0.127785, 0.127187, 1.263346, 0.127547, 0.126765, 0.128541, 0.127107, 0.127131, 0.127146, 0.161856, 0.127434, 0.419714, 0.133421, 0.127038, 0.126603, 0.127017, 0.127110, 0.126846, 0.127238, 0.127947, 0.127495, 0.126859
Process 6: 0.578985, 0.191158, 0.129687, 0.129954, 0.138186, 0.132731, 0.135630, 0.129886, 0.128597, 0.128016, 1.264146, 0.128349, 0.127552, 0.129323, 0.127916, 0.127944, 0.127990, 0.162664, 0.128225, 0.420526, 0.134219, 0.127858, 0.127480, 0.127819, 0.127921, 0.127643, 0.128069, 0.128776, 0.128261, 0.127699
Process 7: 0.580286, 0.192418, 0.130983, 0.131276, 0.139536, 0.134066, 0.136954, 0.131205, 0.129903, 0.129394, 1.265529, 0.129766, 0.128849, 0.130640, 0.129267, 0.129282, 0.129294, 0.163991, 0.129527, 0.421858, 0.135572, 0.129174, 0.128813, 0.129170, 0.129264, 0.128978, 0.129433, 0.130082, 0.129601, 0.129031
Process 8: 0.581578, 0.193462, 0.131946, 0.132218, 0.140552, 0.134992, 0.137892, 0.132132, 0.130854, 0.130342, 1.266396, 0.130686, 0.129785, 0.131565, 0.130233, 0.130204, 0.130208, 0.164917, 0.130502, 0.422803, 0.136496, 0.130122, 0.129735, 0.130105, 0.130204, 0.129922, 0.130385, 0.131006, 0.130515, 0.129986
Process 9: 0.582501, 0.194628, 0.133088, 0.133373, 0.141799, 0.136136, 0.139094, 0.133306, 0.132047, 0.131498, 1.267579, 0.131829, 0.130928, 0.132722, 0.131389, 0.131361, 0.131346, 0.166075, 0.131663, 0.424007, 0.137651, 0.131282, 0.130896, 0.131268, 0.131381, 0.131178, 0.131560, 0.132157, 0.131739, 0.131150
Process 10: 0.583664, 0.195572, 0.134056, 0.134317, 0.142777, 0.137166, 0.140042, 0.135179, 0.132956, 0.132443, 1.268516, 0.132772, 0.131869, 0.133667, 0.132331, 0.132302, 0.132275, 0.167006, 0.132576, 0.424951, 0.138569, 0.132236, 0.131843, 0.132267, 0.132319, 0.132091, 0.132503, 0.133098, 0.132661, 0.132100
Process 11: 0.584571, 0.196688, 0.135227, 0.135554, 0.143948, 0.138362, 0.141230, 0.136798, 0.134132, 0.133627, 1.269712, 0.133951, 0.133054, 0.134832, 0.133511, 0.133450, 0.133424, 0.168179, 0.133752, 0.426102, 0.139736, 0.133401, 0.133015, 0.133452, 0.133482, 0.133258, 0.133695, 0.134278, 0.133848, 0.133275
Process 12: 0.585330, 0.197678, 0.136277, 0.136541, 0.144949, 0.139371, 0.142230, 0.137782, 0.135153, 0.134604, 1.270663, 0.134937, 0.134107, 0.135796, 0.134498, 0.134481, 0.134411, 0.169162, 0.134728, 0.427080, 0.140713, 0.134426, 0.134006, 0.134435, 0.134462, 0.134237, 0.134742, 0.135280, 0.134844, 0.134264
Process 13: 0.586858, 0.198799, 0.137370, 0.137655, 0.146087, 0.140569, 0.143356, 0.138910, 0.136286, 0.135746, 1.271883, 0.136085, 0.135246, 0.136924, 0.135616, 0.135606, 0.135526, 0.170274, 0.135853, 0.428202, 0.141841, 0.135563, 0.135129, 0.135570, 0.135588, 0.135368, 0.135853, 0.136419, 0.135973, 0.135448
Process 14: 0.587528, 0.199786, 0.138327, 0.138613, 0.147046, 0.141556, 0.144337, 0.139872, 0.137257, 0.136714, 1.272832, 0.137056, 0.136216, 0.137954, 0.136578, 0.136560, 0.136500, 0.171234, 0.136819, 0.429178, 0.142795, 0.136531, 0.136101, 0.136542, 0.136592, 0.136338, 0.136831, 0.137404, 0.136942, 0.136421
Process 15: 0.589073, 0.200931, 0.139526, 0.139795, 0.148235, 0.142729, 0.145488, 0.141050, 0.138433, 0.137908, 1.274024, 0.138226, 0.137489, 0.139138, 0.137739, 0.137717, 0.137730, 0.172458, 0.137988, 0.430350, 0.143969, 0.137723, 0.137268, 0.137735, 0.137776, 0.137520, 0.138020, 0.138650, 0.138124, 0.137620
Process 16: 0.590515, 0.201985, 0.140442, 0.140712, 0.149152, 0.143653, 0.146407, 0.141953, 0.139343, 0.138829, 1.274911, 0.139154, 0.138847, 0.140045, 0.138663, 0.138641, 0.138660, 0.173343, 0.138896, 0.431273, 0.144857, 0.138702, 0.138239, 0.138638, 0.138711, 0.138416, 0.138914, 0.139574, 0.139051, 0.138532
Process 17: 0.591537, 0.203155, 0.141614, 0.141916, 0.150352, 0.144858, 0.147598, 0.143133, 0.140531, 0.140058, 1.276161, 0.140399, 0.140050, 0.141243, 0.139857, 0.139822, 0.139859, 0.174552, 0.140096, 0.432450, 0.146087, 0.139904, 0.139433, 0.139827, 0.139883, 0.139597, 0.140094, 0.140774, 0.140252, 0.139717
Process 18: 0.591857, 0.204040, 0.143067, 0.142841, 0.151315, 0.145777, 0.148543, 0.144115, 0.141465, 0.140998, 1.277035, 0.141324, 0.141078, 0.142172, 0.140841, 0.140756, 0.140788, 0.175486, 0.141073, 0.433440, 0.147000, 0.140906, 0.140366, 0.140756, 0.140823, 0.140553, 0.141029, 0.141697, 0.141198, 0.140683
Process 19: 0.593598, 0.205285, 0.144576, 0.144020, 0.152509, 0.146984, 0.149741, 0.145287, 0.142634, 0.142179, 1.278234, 0.142482, 0.142268, 0.143327, 0.142031, 0.141914, 0.141947, 0.176692, 0.142255, 0.434598, 0.148201, 0.142092, 0.141565, 0.141984, 0.141989, 0.141736, 0.142192, 0.142885, 0.142463, 0.141874
Process 20: 0.593996, 0.206325, 0.145567, 0.144965, 0.153517, 0.147914, 0.150661, 0.146217, 0.143563, 0.143096, 1.279144, 0.143403, 0.143240, 0.144250, 0.143001, 0.142841, 0.142870, 0.177656, 0.143171, 0.435518, 0.149074, 0.143066, 0.142488, 0.142902, 0.142916, 0.142636, 0.143116, 0.143845, 0.143409, 0.142858
Process 21: 0.595745, 0.207498, 0.146812, 0.146192, 0.154726, 0.149079, 0.151838, 0.147389, 0.144715, 0.144285, 1.280378, 0.144587, 0.144504, 0.145432, 0.144196, 0.144073, 0.144047, 0.178842, 0.144412, 0.436676, 0.150272, 0.144329, 0.143681, 0.144069, 0.144073, 0.143802, 0.144283, 0.145039, 0.144604, 0.144094
Process 22: 0.596318, 0.208533, 0.147779, 0.147201, 0.155709, 0.150072, 0.152812, 0.148337, 0.145729, 0.145231, 1.281273, 0.145539, 0.145448, 0.146363, 0.145164, 0.145022, 0.144987, 0.179815, 0.145337, 0.437634, 0.151200, 0.145286, 0.144632, 0.145001, 0.145029, 0.144809, 0.145257, 0.146011, 0.145606, 0.145117
Process 23: 0.597600, 0.209683, 0.148926, 0.148347, 0.156850, 0.151226, 0.153934, 0.149474, 0.146866, 0.146393, 1.282511, 0.146741, 0.146603, 0.147560, 0.146329, 0.146151, 0.146134, 0.180974, 0.146487, 0.438753, 0.152318, 0.146465, 0.145767, 0.146131, 0.146200, 0.145989, 0.146409, 0.147169, 0.146799, 0.146292
Process 24: 0.598635, 0.210746, 0.149883, 0.150047, 0.157829, 0.152160, 0.154869, 0.150382, 0.147783, 0.147318, 1.283420, 0.147693, 0.147641, 0.148473, 0.147270, 0.147099, 0.147060, 0.181963, 0.147420, 0.439671, 0.153248, 0.147391, 0.146700, 0.147074, 0.147124, 0.146969, 0.147308, 0.148120, 0.147751, 0.147239
Process 25: 0.600243, 0.211891, 0.151044, 0.151628, 0.159041, 0.153376, 0.156017, 0.151558, 0.148927, 0.148488, 1.284651, 0.148882, 0.148834, 0.149612, 0.148445, 0.148282, 0.148263, 0.183151, 0.148612, 0.440822, 0.154380, 0.148579, 0.147915, 0.148270, 0.148278, 0.148177, 0.148490, 0.149355, 0.148932, 0.148424
Process 26: 0.600686, 0.212857, 0.152026, 0.152711, 0.160092, 0.154353, 0.157005, 0.152506, 0.149903, 0.149513, 1.285608, 0.149934, 0.149826, 0.150591, 0.149446, 0.149276, 0.149255, 0.184131, 0.149794, 0.441791, 0.155405, 0.149557, 0.148891, 0.149270, 0.149277, 0.149202, 0.149454, 0.150352, 0.149925, 0.149417
Process 27: 0.602361, 0.213979, 0.153174, 0.153875, 0.162104, 0.155527, 0.158173, 0.153691, 0.151046, 0.150723, 1.287197, 0.151106, 0.151000, 0.151750, 0.150651, 0.150442, 0.150420, 0.185296, 0.151158, 0.442913, 0.156538, 0.150952, 0.150061, 0.150461, 0.150443, 0.150455, 0.150601, 0.151533, 0.151105, 0.150585
Process 28: 0.602879, 0.214940, 0.154120, 0.154822, 0.163285, 0.156498, 0.159177, 0.154801, 0.152001, 0.151694, 1.288121, 0.152065, 0.151980, 0.152702, 0.151625, 0.151418, 0.151369, 0.186246, 0.152142, 0.443900, 0.157453, 0.152075, 0.151026, 0.151438, 0.151415, 0.151421, 0.151544, 0.152494, 0.152088, 0.151544
Process 29: 0.605090, 0.216153, 0.155314, 0.156041, 0.164535, 0.157697, 0.160372, 0.156013, 0.153189, 0.152895, 1.289350, 0.153270, 0.153175, 0.153895, 0.152847, 0.152617, 0.152550, 0.187441, 0.153348, 0.445081, 0.158625, 0.153251, 0.152213, 0.152694, 0.152626, 0.152815, 0.152739, 0.153705, 0.153321, 0.152745
Process 30: 0.605207, 0.217127, 0.156297, 0.157013, 0.165519, 0.158679, 0.161325, 0.156953, 0.154135, 0.153846, 1.290323, 0.154234, 0.154189, 0.154844, 0.153800, 0.153596, 0.153509, 0.188419, 0.154290, 0.446041, 0.159555, 0.154277, 0.153179, 0.153646, 0.153606, 0.153615, 0.153700, 0.154672, 0.154276, 0.153708
Process 31: 0.606801, 0.218295, 0.157503, 0.158195, 0.166712, 0.159918, 0.162513, 0.158122, 0.155354, 0.155047, 1.291584, 0.155412, 0.155384, 0.156054, 0.154986, 0.154845, 0.154699, 0.189632, 0.155476, 0.447231, 0.160719, 0.155471, 0.154381, 0.154853, 0.154820, 0.154857, 0.154958, 0.155867, 0.155485, 0.154903
Process 32: 0.607435, 0.219350, 0.158453, 0.159142, 0.167675, 0.160895, 0.163464, 0.159056, 0.156312, 0.155978, 1.292541, 0.156382, 0.156359, 0.157025, 0.155918, 0.155799, 0.155635, 0.190581, 0.156454, 0.448174, 0.161680, 0.156423, 0.155340, 0.155821, 0.155790, 0.155813, 0.155917, 0.156827, 0.156434, 0.155911
Process 33: 0.609230, 0.220541, 0.159695, 0.160359, 0.168922, 0.162138, 0.164673, 0.160262, 0.157518, 0.157221, 1.293730, 0.157617, 0.157571, 0.158260, 0.157157, 0.157027, 0.156873, 0.191867, 0.157658, 0.449413, 0.162885, 0.157664, 0.156564, 0.157055, 0.157047, 0.157045, 0.157145, 0.158073, 0.157669, 0.157145
Process 34: 0.610311, 0.221376, 0.160615, 0.161270, 0.169808, 0.163087, 0.165548, 0.161129, 0.158378, 0.158199, 1.294592, 0.158465, 0.158436, 0.159092, 0.158012, 0.157908, 0.157864, 0.192726, 0.158513, 0.450272, 0.163752, 0.158533, 0.157489, 0.157922, 0.157906, 0.157906, 0.158002, 0.158983, 0.158536, 0.157989
Process 35: 0.611753, 0.222534, 0.161827, 0.162499, 0.171032, 0.164289, 0.166732, 0.162331, 0.159582, 0.159470, 1.295784, 0.159721, 0.159662, 0.160323, 0.159226, 0.159092, 0.159087, 0.193932, 0.159725, 0.451459, 0.164949, 0.159748, 0.158699, 0.159114, 0.159128, 0.159086, 0.159196, 0.160194, 0.159730, 0.159177
Process 36: 0.611695, 0.223473, 0.162768, 0.163460, 0.171975, 0.165212, 0.167651, 0.163232, 0.160531, 0.160383, 1.296726, 0.160620, 0.160573, 0.161220, 0.160194, 0.160013, 0.160023, 0.194843, 0.160692, 0.452376, 0.165872, 0.160680, 0.159597, 0.160030, 0.160065, 0.160036, 0.160114, 0.161111, 0.160639, 0.160079
Process 37: 0.613629, 0.224661, 0.164040, 0.164677, 0.173219, 0.166448, 0.168910, 0.164485, 0.161746, 0.161618, 1.297954, 0.161825, 0.161826, 0.162475, 0.161378, 0.161222, 0.161263, 0.196086, 0.161901, 0.453641, 0.167083, 0.161917, 0.160829, 0.161260, 0.161296, 0.161332, 0.161314, 0.162322, 0.161903, 0.161302
Process 38: 0.614152, 0.225603, 0.164913, 0.165635, 0.174104, 0.167340, 0.169798, 0.165354, 0.162657, 0.162497, 1.298862, 0.162718, 0.162735, 0.163337, 0.162249, 0.162119, 0.162167, 0.196960, 0.162790, 0.454538, 0.167967, 0.162813, 0.161718, 0.162202, 0.162208, 0.162218, 0.162199, 0.163205, 0.162807, 0.162214
Process 39: 0.615911, 0.226817, 0.166212, 0.166835, 0.175331, 0.168589, 0.171018, 0.166584, 0.163894, 0.163752, 1.300137, 0.163958, 0.163979, 0.164573, 0.163480, 0.163353, 0.163413, 0.198187, 0.164021, 0.455762, 0.169195, 0.164064, 0.162956, 0.163408, 0.163430, 0.163423, 0.163431, 0.164455, 0.164064, 0.163453
Process 40: 0.617214, 0.227821, 0.167142, 0.167740, 0.176273, 0.169499, 0.171923, 0.167455, 0.164797, 0.164665, 1.301040, 0.164889, 0.164893, 0.165466, 0.164368, 0.164313, 0.164331, 0.199078, 0.164913, 0.456671, 0.170107, 0.164973, 0.163866, 0.164329, 0.164339, 0.164327, 0.164340, 0.165362, 0.164975, 0.164370
Process 41: 0.618626, 0.228978, 0.168287, 0.169235, 0.177460, 0.170759, 0.173104, 0.168627, 0.166056, 0.165868, 1.302285, 0.166059, 0.166082, 0.166675, 0.165555, 0.165490, 0.165520, 0.200259, 0.166119, 0.457850, 0.171282, 0.166144, 0.165047, 0.165490, 0.165524, 0.165517, 0.165589, 0.166564, 0.166151, 0.165597
Process 42: 0.618472, 0.229828, 0.169203, 0.170200, 0.178365, 0.171654, 0.174009, 0.169533, 0.166947, 0.166787, 1.303179, 0.166973, 0.166991, 0.167659, 0.166473, 0.166401, 0.166430, 0.201170, 0.167011, 0.458754, 0.172215, 0.167045, 0.165951, 0.166401, 0.166490, 0.166418, 0.166498, 0.167471, 0.167064, 0.166486
Process 43: 0.619808, 0.230985, 0.170429, 0.171394, 0.179596, 0.172857, 0.175230, 0.170724, 0.168149, 0.168009, 1.304381, 0.168187, 0.168186, 0.168879, 0.167672, 0.167611, 0.167701, 0.202630, 0.168230, 0.459961, 0.173407, 0.168235, 0.167154, 0.167624, 0.167687, 0.167632, 0.167692, 0.168705, 0.168293, 0.167692
Process 44: 0.621453, 0.231945, 0.171384, 0.172500, 0.180765, 0.173797, 0.176122, 0.171641, 0.169068, 0.168970, 1.305312, 0.169133, 0.169123, 0.169809, 0.168622, 0.168542, 0.168653, 0.203778, 0.169152, 0.460894, 0.174335, 0.169163, 0.168144, 0.168553, 0.168623, 0.168562, 0.168632, 0.169651, 0.169204, 0.168625
Process 45: 0.622821, 0.233093, 0.172551, 0.173703, 0.182049, 0.174991, 0.177340, 0.172822, 0.170257, 0.170154, 1.306520, 0.170358, 0.170294, 0.171005, 0.169819, 0.169753, 0.169835, 0.204862, 0.170398, 0.462080, 0.175565, 0.170357, 0.169347, 0.169748, 0.169799, 0.169748, 0.169820, 0.170829, 0.170394, 0.169800
Process 46: 0.623644, 0.234002, 0.173478, 0.174653, 0.182966, 0.175884, 0.178242, 0.173781, 0.171156, 0.171059, 1.307422, 0.171260, 0.171204, 0.171909, 0.170791, 0.170657, 0.170740, 0.205788, 0.171338, 0.462988, 0.176462, 0.171271, 0.170251, 0.170663, 0.170709, 0.170715, 0.170722, 0.171731, 0.171293, 0.170707
Process 47: 0.624403, 0.235169, 0.174696, 0.175942, 0.184244, 0.177070, 0.179500, 0.174980, 0.172369, 0.172952, 1.308630, 0.172460, 0.172429, 0.173146, 0.172003, 0.171867, 0.171943, 0.206987, 0.172571, 0.464244, 0.177648, 0.172485, 0.171482, 0.171931, 0.171932, 0.171905, 0.171936, 0.172936, 0.172570, 0.171926
Process 48: 0.626082, 0.236254, 0.175604, 0.176858, 0.185171, 0.177974, 0.180373, 0.175864, 0.173264, 0.173334, 1.309531, 0.173364, 0.173319, 0.174028, 0.172880, 0.172779, 0.172853, 0.207910, 0.173465, 0.465121, 0.178544, 0.173385, 0.172374, 0.172850, 0.172822, 0.172787, 0.172826, 0.173833, 0.173451, 0.172826
Process 49: 0.627017, 0.237405, 0.176833, 0.178169, 0.186397, 0.179140, 0.181539, 0.177034, 0.174469, 0.174457, 1.310719, 0.174568, 0.174556, 0.175237, 0.174099, 0.174016, 0.174034, 0.209130, 0.174658, 0.466318, 0.179740, 0.174636, 0.173577, 0.174040, 0.174010, 0.173973, 0.174019, 0.175015, 0.174644, 0.174030
Process 50: 0.627379, 0.238286, 0.177751, 0.179127, 0.187313, 0.180131, 0.182440, 0.177950, 0.175406, 0.175360, 1.311631, 0.175486, 0.175470, 0.176139, 0.175010, 0.174959, 0.174959, 0.210047, 0.175577, 0.467229, 0.180649, 0.175555, 0.174495, 0.174965, 0.174934, 0.174893, 0.174985, 0.175934, 0.175560, 0.174952
Process 51: 0.628668, 0.239442, 0.178916, 0.180325, 0.188610, 0.181291, 0.183626, 0.179105, 0.176617, 0.176521, 1.312822, 0.176664, 0.176636, 0.177364, 0.176218, 0.176130, 0.176131, 0.211226, 0.176745, 0.468408, 0.181812, 0.176724, 0.175679, 0.176137, 0.176163, 0.176077, 0.176153, 0.177090, 0.176746, 0.176172
Process 52: 0.629657, 0.240364, 0.179836, 0.181268, 0.189571, 0.182195, 0.184532, 0.180023, 0.177514, 0.177408, 1.313740, 0.177575, 0.177544, 0.178281, 0.177122, 0.177039, 0.177055, 0.212197, 0.177648, 0.469319, 0.182736, 0.177626, 0.176591, 0.177056, 0.177037, 0.176982, 0.177046, 0.178007, 0.177647, 0.177067
Process 53: 0.631320, 0.241537, 0.181015, 0.182496, 0.190773, 0.183402, 0.185739, 0.181189, 0.178691, 0.178588, 1.314935, 0.178754, 0.178717, 0.179483, 0.178313, 0.178222, 0.178252, 0.213399, 0.178821, 0.470494, 0.183907, 0.178820, 0.177827, 0.178231, 0.178229, 0.178188, 0.178226, 0.179229, 0.178827, 0.178244
Process 54: 0.631676, 0.242553, 0.181950, 0.183587, 0.191818, 0.184324, 0.186656, 0.182148, 0.179637, 0.179586, 1.315871, 0.179735, 0.179651, 0.180401, 0.179250, 0.179160, 0.179178, 0.214333, 0.179757, 0.471436, 0.184857, 0.179743, 0.178766, 0.179188, 0.179163, 0.179126, 0.179169, 0.180158, 0.179760, 0.179173
Process 55: 0.632945, 0.243704, 0.183125, 0.185755, 0.192991, 0.185487, 0.187815, 0.183305, 0.180794, 0.180764, 1.317056, 0.180901, 0.180813, 0.181584, 0.180478, 0.180311, 0.180340, 0.215515, 0.180954, 0.472597, 0.186054, 0.180903, 0.179925, 0.180363, 0.180335, 0.180348, 0.180318, 0.181314, 0.180916, 0.180333
Process 56: 0.633953, 0.244730, 0.184036, 0.187128, 0.194806, 0.186416, 0.188782, 0.184273, 0.181705, 0.181695, 1.317931, 0.181806, 0.181746, 0.182522, 0.181368, 0.181233, 0.181265, 0.216424, 0.181867, 0.473573, 0.186956, 0.181831, 0.180846, 0.181318, 0.181267, 0.181265, 0.181237, 0.182242, 0.181873, 0.181248
Process 57: 0.635624, 0.245849, 0.186453, 0.189587, 0.196334, 0.187594, 0.189948, 0.185470, 0.182894, 0.182892, 1.319091, 0.182961, 0.182954, 0.183720, 0.182558, 0.182421, 0.182439, 0.217623, 0.183065, 0.474766, 0.188152, 0.183019, 0.182017, 0.182619, 0.182459, 0.182452, 0.182428, 0.183455, 0.183051, 0.182435
Process 58: 0.636083, 0.246802, 0.187438, 0.190584, 0.198108, 0.188553, 0.190888, 0.186407, 0.183844, 0.183836, 1.320049, 0.183905, 0.183959, 0.184673, 0.183519, 0.183383, 0.183386, 0.218567, 0.184008, 0.475710, 0.189064, 0.184016, 0.182962, 0.183585, 0.183412, 0.183400, 0.183365, 0.184411, 0.183981, 0.183382
Process 59: 0.637702, 0.247907, 0.188593, 0.191743, 0.199516, 0.189727, 0.192055, 0.187555, 0.185004, 0.184994, 1.321247, 0.185056, 0.185122, 0.185831, 0.184671, 0.184599, 0.184538, 0.219716, 0.185162, 0.476871, 0.190237, 0.185207, 0.184109, 0.184735, 0.184568, 0.184554, 0.184583, 0.185572, 0.185153, 0.184539
Process 60: 0.638241, 0.248838, 0.189526, 0.192669, 0.200461, 0.190656, 0.192986, 0.188466, 0.185988, 0.185933, 1.322190, 0.185995, 0.186047, 0.186749, 0.185608, 0.185539, 0.185473, 0.220643, 0.186075, 0.477818, 0.191154, 0.186145, 0.185044, 0.185658, 0.185501, 0.185478, 0.185511, 0.186521, 0.186061, 0.185525
Process 61: 0.639990, 0.249958, 0.190714, 0.193873, 0.201687, 0.191852, 0.194224, 0.189664, 0.187199, 0.187129, 1.323381, 0.187198, 0.187248, 0.188005, 0.186851, 0.186749, 0.186706, 0.221886, 0.187292, 0.479034, 0.192332, 0.187347, 0.186239, 0.186851, 0.186757, 0.186686, 0.186713, 0.187758, 0.187269, 0.186729
Process 62: 0.640374, 0.250931, 0.191644, 0.194807, 0.202613, 0.192755, 0.195109, 0.190569, 0.188116, 0.188047, 1.324271, 0.188137, 0.188160, 0.188898, 0.187800, 0.187670, 0.187669, 0.222813, 0.188185, 0.479966, 0.193230, 0.188262, 0.187150, 0.187745, 0.187657, 0.187597, 0.187610, 0.188725, 0.188164, 0.187631
Process 63: 0.642403, 0.252109, 0.192851, 0.196075, 0.203798, 0.193930, 0.196339, 0.191765, 0.189329, 0.189301, 1.325515, 0.189337, 0.189365, 0.190120, 0.189035, 0.188864, 0.188846, 0.224023, 0.189395, 0.481180, 0.194416, 0.189448, 0.188402, 0.188954, 0.188862, 0.188798, 0.188803, 0.189952, 0.189360, 0.188836
Process 64: 0.643485, 0.253128, 0.193807, 0.196997, 0.204744, 0.194868, 0.197287, 0.192709, 0.190280, 0.190228, 1.326400, 0.190330, 0.190283, 0.191056, 0.189999, 0.189812, 0.189799, 0.224966, 0.190408, 0.482121, 0.195414, 0.190406, 0.189338, 0.189905, 0.189811, 0.189746, 0.189736, 0.190918, 0.190307, 0.189849
Process 65: 0.644463, 0.254288, 0.194964, 0.198156, 0.205933, 0.196039, 0.198448, 0.193923, 0.191457, 0.191386, 1.327570, 0.191514, 0.191475, 0.192232, 0.191275, 0.190967, 0.190982, 0.226161, 0.191581, 0.483371, 0.196576, 0.191592, 0.190513, 0.191094, 0.190996, 0.190982, 0.190911, 0.192125, 0.191521, 0.191057
Process 66: 0.645000, 0.255141, 0.195883, 0.199055, 0.206888, 0.196938, 0.199403, 0.194811, 0.192365, 0.192279, 1.328488, 0.192434, 0.192367, 0.193129, 0.192173, 0.191882, 0.191886, 0.227063, 0.192494, 0.484274, 0.197485, 0.192482, 0.191424, 0.192004, 0.191892, 0.191863, 0.191813, 0.193017, 0.192413, 0.191956
Process 67: 0.646984, 0.256356, 0.197073, 0.200218, 0.208116, 0.198113, 0.200565, 0.195990, 0.193541, 0.193466, 1.329660, 0.193603, 0.193634, 0.194327, 0.193336, 0.193056, 0.193067, 0.228249, 0.193696, 0.485461, 0.198660, 0.193683, 0.192623, 0.193228, 0.193074, 0.193067, 0.193039, 0.194190, 0.193601, 0.193128
Process 68: 0.647028, 0.257288, 0.197999, 0.201154, 0.209033, 0.199040, 0.201503, 0.196906, 0.194482, 0.194374, 1.330606, 0.194531, 0.194518, 0.195242, 0.194258, 0.194053, 0.193982, 0.229165, 0.194620, 0.486360, 0.199561, 0.194641, 0.193558, 0.194147, 0.193998, 0.193966, 0.193993, 0.195122, 0.194506, 0.194058
Process 69: 0.648793, 0.258434, 0.199170, 0.202356, 0.210231, 0.200255, 0.202681, 0.198065, 0.195700, 0.195565, 1.331756, 0.195719, 0.195686, 0.196403, 0.195407, 0.195219, 0.195172, 0.230339, 0.195804, 0.487527, 0.200934, 0.195839, 0.194737, 0.195336, 0.195171, 0.195142, 0.195264, 0.196289, 0.195682, 0.195244
Process 70: 0.649171, 0.259359, 0.200081, 0.203274, 0.211229, 0.201185, 0.203618, 0.198968, 0.196606, 0.196486, 1.332731, 0.196637, 0.196582, 0.197376, 0.196338, 0.196124, 0.196122, 0.231287, 0.196733, 0.488446, 0.201686, 0.196771, 0.195652, 0.196257, 0.196118, 0.196058, 0.196200, 0.197208, 0.196590, 0.196172
Process 71: 0.650514, 0.260488, 0.201250, 0.204452, 0.212430, 0.202322, 0.204781, 0.200145, 0.197770, 0.197656, 1.333915, 0.197804, 0.197753, 0.198528, 0.197509, 0.197276, 0.197304, 0.232558, 0.197921, 0.489616, 0.202873, 0.197946, 0.196828, 0.197422, 0.197309, 0.197241, 0.197384, 0.198434, 0.197781, 0.197339
Process 72: 0.652290, 0.261557, 0.202196, 0.205392, 0.213363, 0.203273, 0.205723, 0.201087, 0.198709, 0.198576, 1.334868, 0.198749, 0.198698, 0.199470, 0.198452, 0.198224, 0.198275, 0.233514, 0.198852, 0.490546, 0.203832, 0.198903, 0.197845, 0.198363, 0.198242, 0.198155, 0.198350, 0.199405, 0.198729, 0.198273
Process 73: 0.653123, 0.262657, 0.203342, 0.206576, 0.214523, 0.204476, 0.206864, 0.202196, 0.199829, 0.199772, 1.336054, 0.199901, 0.199851, 0.200612, 0.199583, 0.199377, 0.199455, 0.234690, 0.200020, 0.491692, 0.204968, 0.200042, 0.198965, 0.199494, 0.199364, 0.199291, 0.199517, 0.200539, 0.199880, 0.199424
Process 74: 0.653765, 0.263525, 0.204277, 0.207487, 0.215450, 0.205416, 0.207802, 0.203134, 0.200746, 0.200672, 1.336943, 0.200823, 0.200775, 0.201508, 0.200552, 0.200309, 0.200383, 0.235612, 0.201012, 0.492612, 0.205948, 0.200951, 0.199877, 0.200416, 0.200273, 0.200261, 0.200440, 0.201458, 0.200813, 0.200341
Process 75: 0.655154, 0.264662, 0.205427, 0.208644, 0.216601, 0.206585, 0.209022, 0.204334, 0.201899, 0.201854, 1.338076, 0.201978, 0.201951, 0.202685, 0.201711, 0.201475, 0.201569, 0.236801, 0.202208, 0.493818, 0.207103, 0.202121, 0.201037, 0.201582, 0.201430, 0.201424, 0.201595, 0.202609, 0.202027, 0.201513
Process 76: 0.655809, 0.265659, 0.206414, 0.209566, 0.217531, 0.207505, 0.209945, 0.205293, 0.202840, 0.202784, 1.339030, 0.202904, 0.202898, 0.203618, 0.202649, 0.202435, 0.202502, 0.237757, 0.203127, 0.494740, 0.208033, 0.203053, 0.201967, 0.202560, 0.202379, 0.202349, 0.202526, 0.203552, 0.202969, 0.202458
Process 77: 0.657416, 0.266796, 0.207578, 0.210733, 0.218699, 0.208677, 0.211108, 0.206461, 0.204001, 0.203992, 1.340220, 0.204069, 0.204115, 0.204792, 0.203842, 0.203619, 0.203699, 0.238941, 0.204324, 0.495912, 0.209194, 0.204269, 0.203131, 0.203741, 0.203534, 0.203505, 0.203691, 0.204720, 0.204143, 0.203640
Process 78: 0.658055, 0.267704, 0.208484, 0.211655, 0.219615, 0.209659, 0.212020, 0.207364, 0.204898, 0.204893, 1.341108, 0.204978, 0.205025, 0.205698, 0.204766, 0.204572, 0.204606, 0.239862, 0.205237, 0.496801, 0.210105, 0.205194, 0.204052, 0.204630, 0.204455, 0.204398, 0.204632, 0.205623, 0.205058, 0.204552
Process 79: 0.659452, 0.268829, 0.209645, 0.213881, 0.220782, 0.210817, 0.213187, 0.208546, 0.206121, 0.206084, 1.342286, 0.206153, 0.206208, 0.206865, 0.205934, 0.205754, 0.205794, 0.241053, 0.206434, 0.497972, 0.211260, 0.206374, 0.205238, 0.205808, 0.205618, 0.205571, 0.205803, 0.206780, 0.206245, 0.205794
Process 80: 0.660860, 0.269857, 0.210569, 0.214980, 0.221731, 0.211737, 0.214118, 0.209478, 0.207033, 0.207022, 1.343248, 0.207068, 0.207130, 0.207840, 0.206861, 0.206673, 0.206724, 0.242044, 0.207349, 0.498895, 0.212169, 0.207304, 0.206157, 0.206714, 0.206583, 0.206483, 0.206713, 0.207706, 0.207180, 0.206708
Process 81: 0.661228, 0.270948, 0.211728, 0.216175, 0.222910, 0.212912, 0.215332, 0.210615, 0.208198, 0.208210, 1.344417, 0.208222, 0.208312, 0.209011, 0.208052, 0.207851, 0.207946, 0.243214, 0.208531, 0.500056, 0.213332, 0.208470, 0.207414, 0.207882, 0.207749, 0.207656, 0.207868, 0.208929, 0.208360, 0.207880
Process 82: 0.662016, 0.271857, 0.212648, 0.217087, 0.223825, 0.213837, 0.216257, 0.211534, 0.209140, 0.212524, 1.345299, 0.209160, 0.209239, 0.209912, 0.208968, 0.208795, 0.208863, 0.244144, 0.209473, 0.500990, 0.214270, 0.209404, 0.208348, 0.208812, 0.208665, 0.208578, 0.208803, 0.209864, 0.209290, 0.208807
Process 83: 0.663628, 0.272981, 0.213789, 0.218232, 0.224994, 0.215001, 0.217438, 0.212697, 0.210305, 0.213252, 1.346444, 0.210365, 0.210396, 0.211086, 0.210187, 0.209957, 0.210022, 0.245290, 0.210715, 0.502131, 0.215469, 0.210561, 0.209497, 0.209979, 0.209813, 0.209746, 0.209953, 0.211013, 0.210474, 0.209978
Process 84: 0.664358, 0.273930, 0.214731, 0.219161, 0.225909, 0.215917, 0.218368, 0.213671, 0.211226, 0.213910, 1.347359, 0.211288, 0.211320, 0.212000, 0.211125, 0.210896, 0.210948, 0.246219, 0.211623, 0.503050, 0.216405, 0.211500, 0.210413, 0.210913, 0.210749, 0.210735, 0.210887, 0.211949, 0.211395, 0.210907
Process 85: 0.665787, 0.275048, 0.215879, 0.220293, 0.227063, 0.217091, 0.219566, 0.214829, 0.212399, 0.214757, 1.348500, 0.212451, 0.212478, 0.213195, 0.212295, 0.212068, 0.212111, 0.247370, 0.212770, 0.504277, 0.217556, 0.212669, 0.211555, 0.212101, 0.211911, 0.211894, 0.212036, 0.213099, 0.212636, 0.212083
Process 86: 0.666511, 0.276065, 0.216903, 0.221232, 0.228008, 0.218039, 0.220520, 0.215780, 0.213344, 0.215479, 1.349447, 0.213399, 0.213501, 0.214130, 0.213240, 0.213026, 0.213071, 0.248316, 0.213714, 0.505225, 0.218498, 0.213625, 0.212500, 0.213053, 0.212872, 0.212838, 0.213000, 0.214059, 0.213558, 0.213025
Process 87: 0.667913, 0.277188, 0.218037, 0.222388, 0.229148, 0.219164, 0.221645, 0.216901, 0.214464, 0.216337, 1.350594, 0.214521, 0.214607, 0.215262, 0.214383, 0.214216, 0.214209, 0.249471, 0.214835, 0.506362, 0.219643, 0.214793, 0.213628, 0.214182, 0.213981, 0.213956, 0.214131, 0.215206, 0.214707, 0.214160
Process 88: 0.668566, 0.278209, 0.218947, 0.223306, 0.230090, 0.220149, 0.222551, 0.217829, 0.215439, 0.216986, 1.351529, 0.215460, 0.215528, 0.216191, 0.215308, 0.215139, 0.215124, 0.250373, 0.215748, 0.507302, 0.220568, 0.215702, 0.214548, 0.215105, 0.214917, 0.214889, 0.215108, 0.216109, 0.215618, 0.215152
Process 89: 0.670334, 0.279343, 0.220079, 0.224434, 0.231279, 0.221295, 0.223709, 0.218964, 0.216567, 0.217777, 1.352739, 0.216622, 0.216664, 0.217409, 0.216466, 0.216276, 0.216270, 0.251590, 0.216904, 0.508468, 0.221712, 0.216839, 0.215705, 0.216269, 0.216102, 0.216038, 0.216244, 0.217269, 0.216764, 0.216289
Process 90: 0.670594, 0.280273, 0.221068, 0.225382, 0.232245, 0.222248, 0.224667, 0.219923, 0.217531, 0.218537, 1.353695, 0.217587, 0.217633, 0.218332, 0.217429, 0.217245, 0.217235, 0.252587, 0.217856, 0.509444, 0.222685, 0.217796, 0.216678, 0.217227, 0.217077, 0.217007, 0.217207, 0.218232, 0.217731, 0.217262
Process 91: 0.671828, 0.281393, 0.222199, 0.226581, 0.233419, 0.223390, 0.225823, 0.221056, 0.218672, 0.219454, 1.354842, 0.218722, 0.218789, 0.219464, 0.218575, 0.218373, 0.218432, 0.253763, 0.219000, 0.510646, 0.223819, 0.218923, 0.217888, 0.218364, 0.218225, 0.218142, 0.218318, 0.219408, 0.218865, 0.218412
Process 92: 0.672713, 0.282360, 0.223139, 0.227517, 0.234378, 0.224317, 0.226778, 0.221985, 0.219599, 0.220162, 1.355783, 0.219706, 0.219749, 0.220390, 0.219516, 0.219315, 0.219368, 0.254700, 0.219952, 0.511619, 0.224755, 0.219882, 0.218851, 0.219293, 0.219160, 0.219072, 0.219259, 0.220341, 0.219799, 0.219355
Process 93: 0.674553, 0.283502, 0.224296, 0.228673, 0.235558, 0.225488, 0.227965, 0.223133, 0.220770, 0.221108, 1.356956, 0.220884, 0.220947, 0.221570, 0.220739, 0.220487, 0.220565, 0.255884, 0.221201, 0.512809, 0.225963, 0.221084, 0.220048, 0.220473, 0.220321, 0.220313, 0.220406, 0.221534, 0.220969, 0.220546
Process 94: 0.674812, 0.284495, 0.225267, 0.229638, 0.236522, 0.226452, 0.228952, 0.224120, 0.221737, 0.222046, 1.357922, 0.221835, 0.221914, 0.222539, 0.221688, 0.221462, 0.221521, 0.256839, 0.222152, 0.513831, 0.226910, 0.222060, 0.221006, 0.221445, 0.221285, 0.221260, 0.221352, 0.222491, 0.221982, 0.221516
Process 95: 0.676164, 0.285700, 0.226484, 0.230762, 0.237705, 0.227659, 0.230123, 0.225289, 0.222929, 0.223281, 1.359113, 0.223020, 0.223116, 0.223749, 0.222880, 0.222655, 0.222721, 0.258038, 0.223345, 0.515023, 0.228098, 0.223285, 0.222197, 0.222695, 0.222478, 0.222459, 0.222535, 0.223697, 0.223197, 0.222733
Process 96: 0.677275, 0.286897, 0.227511, 0.231778, 0.238718, 0.228670, 0.231109, 0.226270, 0.223944, 0.224199, 1.360113, 0.224030, 0.224181, 0.224745, 0.223862, 0.223723, 0.223725, 0.259056, 0.224334, 0.516026, 0.229094, 0.224319, 0.223201, 0.223676, 0.223493, 0.223463, 0.223531, 0.224696, 0.224219, 0.223732
Process 97: 0.678897, 0.287918, 0.228646, 0.232886, 0.239846, 0.229848, 0.232259, 0.227385, 0.225164, 0.225193, 1.361238, 0.225156, 0.225334, 0.225881, 0.225022, 0.224864, 0.224851, 0.260194, 0.225468, 0.517157, 0.230210, 0.225486, 0.224363, 0.224825, 0.224608, 0.224619, 0.224717, 0.225825, 0.225352, 0.224893
Process 98: 0.679436, 0.288907, 0.229564, 0.233797, 0.240782, 0.230789, 0.233180, 0.228308, 0.226070, 0.226080, 1.362224, 0.226091, 0.226244, 0.226809, 0.225954, 0.225794, 0.225779, 0.261120, 0.226406, 0.518101, 0.231143, 0.226415, 0.225314, 0.225741, 0.225540, 0.225555, 0.225640, 0.226767, 0.226286, 0.225871
Process 99: 0.681235, 0.289958, 0.230697, 0.234966, 0.241989, 0.231935, 0.234389, 0.229491, 0.227241, 0.227092, 1.363379, 0.227224, 0.227411, 0.228020, 0.227127, 0.226955, 0.226961, 0.262312, 0.227552, 0.519265, 0.232305, 0.227570, 0.226465, 0.226902, 0.226758, 0.226716, 0.226812, 0.227932, 0.227469, 0.227050
Process 100: 0.681483, 0.291045, 0.231699, 0.236016, 0.242971, 0.232885, 0.235350, 0.230456, 0.228174, 0.228131, 1.364335, 0.228199, 0.228382, 0.228995, 0.228075, 0.227928, 0.227974, 0.263272, 0.228537, 0.520226, 0.233269, 0.228540, 0.227450, 0.227858, 0.227713, 0.227669, 0.227783, 0.228960, 0.228420, 0.228022
Process 101: 0.683011, 0.292105, 0.232851, 0.237145, 0.244275, 0.234027, 0.236516, 0.231582, 0.229337, 0.229376, 1.365480, 0.229359, 0.229543, 0.230134, 0.229245, 0.229087, 0.229149, 0.264442, 0.229672, 0.521380, 0.234410, 0.229678, 0.228619, 0.228999, 0.228871, 0.228814, 0.228953, 0.230079, 0.229578, 0.229169
Process 102: 0.683685, 0.293139, 0.233783, 0.238066, 0.245277, 0.234950, 0.237538, 0.232529, 0.230275, 0.230286, 1.366418, 0.230360, 0.230458, 0.231058, 0.230207, 0.230001, 0.230067, 0.265396, 0.230656, 0.522310, 0.235456, 0.230578, 0.229553, 0.229929, 0.229805, 0.229735, 0.229872, 0.231006, 0.230484, 0.230084
Process 103: 0.685129, 0.294233, 0.234920, 0.239213, 0.246446, 0.236147, 0.238724, 0.233737, 0.231467, 0.231464, 1.367607, 0.231526, 0.231622, 0.232224, 0.231372, 0.231165, 0.231285, 0.266599, 0.231822, 0.523553, 0.236609, 0.231734, 0.230727, 0.231098, 0.230992, 0.230967, 0.231050, 0.232180, 0.231685, 0.231249
Process 104: 0.685751, 0.295432, 0.235902, 0.240195, 0.247418, 0.237110, 0.239698, 0.234676, 0.232434, 0.232405, 1.368562, 0.232478, 0.232588, 0.233178, 0.232313, 0.232126, 0.232270, 0.267552, 0.232781, 0.524509, 0.237572, 0.232679, 0.231696, 0.232095, 0.231952, 0.231940, 0.231995, 0.233148, 0.232679, 0.232199
Process 105: 0.687496, 0.296495, 0.237082, 0.241319, 0.248557, 0.238246, 0.240802, 0.235810, 0.233581, 0.233521, 1.369695, 0.233627, 0.233774, 0.234319, 0.233449, 0.233255, 0.233409, 0.268685, 0.233931, 0.525655, 0.238698, 0.233877, 0.232831, 0.233230, 0.233082, 0.233075, 0.233121, 0.234280, 0.233795, 0.233328
Process 106: 0.688494, 0.297427, 0.237988, 0.242250, 0.249521, 0.239195, 0.241762, 0.236738, 0.234528, 0.234473, 1.370654, 0.234572, 0.234706, 0.235256, 0.234388, 0.234255, 0.234362, 0.269624, 0.234876, 0.526561, 0.239650, 0.234827, 0.233765, 0.234168, 0.234033, 0.234024, 0.234065, 0.235222, 0.234745, 0.234275
Process 107: 0.689777, 0.298502, 0.249418, 0.243377, 0.250693, 0.240388, 0.242893, 0.237894, 0.235725, 0.235629, 1.371806, 0.235729, 0.235861, 0.236429, 0.235548, 0.235393, 0.235526, 0.270796, 0.236037, 0.527727, 0.240797, 0.235992, 0.234925, 0.235335, 0.235200, 0.235196, 0.235263, 0.236397, 0.235902, 0.235477
Process 108: 0.690585, 0.299539, 0.249905, 0.244344, 0.251691, 0.241341, 0.243866, 0.238866, 0.236677, 0.236666, 1.372832, 0.236690, 0.236827, 0.237450, 0.236509, 0.236360, 0.236485, 0.271803, 0.236998, 0.528705, 0.241766, 0.236945, 0.235890, 0.236298, 0.236231, 0.236153, 0.236214, 0.237352, 0.236859, 0.236427
Process 109: 0.691031, 0.300559, 0.250488, 0.245531, 0.252826, 0.242490, 0.245011, 0.239986, 0.237808, 0.237805, 1.373954, 0.237821, 0.237956, 0.238576, 0.237661, 0.237504, 0.237700, 0.272952, 0.238168, 0.529871, 0.242893, 0.238077, 0.237038, 0.237442, 0.237351, 0.237303, 0.237355, 0.238547, 0.238014, 0.237564
Process 110: 0.692113, 0.301526, 0.251131, 0.246457, 0.253724, 0.243379, 0.245921, 0.240888, 0.238693, 0.238754, 1.374853, 0.238721, 0.238846, 0.239458, 0.238551, 0.238401, 0.238580, 0.273834, 0.239058, 0.530731, 0.243792, 0.238979, 0.237988, 0.238334, 0.238241, 0.238197, 0.238249, 0.239434, 0.238898, 0.238465
Process 111: 0.693586, 0.302575, 0.251856, 0.247632, 0.254839, 0.244499, 0.247046, 0.242009, 0.239808, 0.239849, 1.375972, 0.239896, 0.239993, 0.240579, 0.239679, 0.239511, 0.239706, 0.274965, 0.240269, 0.531887, 0.244909, 0.240110, 0.239108, 0.239468, 0.239370, 0.239324, 0.239366, 0.240574, 0.240035, 0.239589
Process 112: 0.694834, 0.303700, 0.252263, 0.248603, 0.255771, 0.245431, 0.247963, 0.242932, 0.240749, 0.240758, 1.376937, 0.240824, 0.240907, 0.241493, 0.240644, 0.240436, 0.240626, 0.275885, 0.241184, 0.532776, 0.245903, 0.241027, 0.240029, 0.240385, 0.240297, 0.240286, 0.240312, 0.241497, 0.240960, 0.240501
Process 113: 0.696063, 0.304695, 0.252777, 0.249755, 0.256899, 0.246538, 0.249115, 0.244121, 0.241876, 0.241901, 1.378098, 0.241951, 0.242052, 0.242635, 0.241778, 0.241562, 0.241765, 0.277026, 0.242336, 0.533988, 0.247025, 0.242152, 0.241165, 0.241518, 0.241437, 0.241408, 0.241431, 0.242638, 0.242131, 0.241632
Process 114: 0.695987, 0.305696, 0.253185, 0.250694, 0.257834, 0.247466, 0.250152, 0.245024, 0.242797, 0.242820, 1.378993, 0.242868, 0.242972, 0.243540, 0.242715, 0.242490, 0.242684, 0.277945, 0.243234, 0.534887, 0.247938, 0.243077, 0.242083, 0.242483, 0.242350, 0.242323, 0.242335, 0.243561, 0.243050, 0.242550
Process 115: 0.697129, 0.306702, 0.253691, 0.251814, 0.258925, 0.248582, 0.251302, 0.246118, 0.243909, 0.243945, 1.380118, 0.243966, 0.244129, 0.244657, 0.243825, 0.243592, 0.243793, 0.279059, 0.245304, 0.536002, 0.249050, 0.244236, 0.243211, 0.243597, 0.243454, 0.243435, 0.243441, 0.244656, 0.244157, 0.243659
Process 116: 0.697994, 0.307728, 0.254120, 0.252795, 0.259896, 0.249617, 0.252352, 0.247088, 0.244880, 0.244919, 1.381070, 0.244936, 0.245090, 0.245619, 0.244796, 0.244625, 0.244764, 0.280027, 0.246032, 0.536909, 0.250011, 0.245207, 0.244172, 0.244564, 0.244434, 0.244406, 0.244458, 0.245645, 0.245116, 0.244626
Process 117: 0.699280, 0.308755, 0.254637, 0.253880, 0.260975, 0.250705, 0.253454, 0.248179, 0.246045, 0.246019, 1.382210, 0.246040, 0.246200, 0.246732, 0.245913, 0.245742, 0.245867, 0.281139, 0.246861, 0.537997, 0.251128, 0.246327, 0.245303, 0.245679, 0.245530, 0.245509, 0.245547, 0.246734, 0.246220, 0.245765
Process 118: 0.700356, 0.309758, 0.255065, 0.254854, 0.261976, 0.251619, 0.254379, 0.249131, 0.246960, 0.246954, 1.383164, 0.246977, 0.247140, 0.247692, 0.246855, 0.246686, 0.246803, 0.282107, 0.247660, 0.538941, 0.252072, 0.247259, 0.246224, 0.246620, 0.246539, 0.246446, 0.246492, 0.247677, 0.247150, 0.246695
Process 119: 0.701671, 0.310773, 0.255577, 0.256026, 0.263115, 0.252720, 0.255472, 0.250227, 0.248073, 0.248065, 1.384263, 0.248071, 0.248246, 0.248815, 0.247969, 0.247786, 0.247974, 0.283215, 0.248784, 0.540050, 0.253188, 0.248357, 0.247404, 0.247724, 0.247646, 0.247549, 0.247601, 0.248816, 0.248264, 0.247807
Process 120: 0.703132, 0.311895, 0.255979, 0.256980, 0.264025, 0.253633, 0.256377, 0.251147, 0.248974, 0.249036, 1.385171, 0.249005, 0.249161, 0.249730, 0.248877, 0.248711, 0.248891, 0.284143, 0.249736, 0.540970, 0.254111, 0.249270, 0.248316, 0.248636, 0.248567, 0.248470, 0.248517, 0.249738, 0.249178, 0.248728
Process 121: 0.703600, 0.312904, 0.256538, 0.258301, 0.265138, 0.254738, 0.257479, 0.252283, 0.250065, 0.250144, 1.386285, 0.250159, 0.250269, 0.250843, 0.249989, 0.249818, 0.250013, 0.285246, 0.250793, 0.542079, 0.255279, 0.250370, 0.249420, 0.249746, 0.249668, 0.249576, 0.249636, 0.250836, 0.250282, 0.249824
Process 122: 0.704502, 0.314279, 0.256948, 0.259437, 0.266106, 0.255688, 0.259264, 0.253233, 0.251027, 0.251076, 1.387225, 0.251109, 0.251214, 0.251772, 0.250991, 0.250765, 0.250948, 0.286198, 0.251763, 0.543020, 0.256208, 0.251317, 0.250357, 0.250690, 0.250615, 0.250565, 0.250573, 0.251785, 0.251225, 0.250784
Process 123: 0.706044, 0.315114, 0.257457, 0.260337, 0.267240, 0.256808, 0.260701, 0.254394, 0.252137, 0.252192, 1.388345, 0.252414, 0.252319, 0.252905, 0.252105, 0.251897, 0.252059, 0.287283, 0.252893, 0.544203, 0.257318, 0.252636, 0.251475, 0.251870, 0.251956, 0.251691, 0.251695, 0.252891, 0.252410, 0.251880
Process 124: 0.707434, 0.316181, 0.257865, 0.261273, 0.268175, 0.257775, 0.261707, 0.255328, 0.253085, 0.253457, 1.389288, 0.253374, 0.253273, 0.253830, 0.253031, 0.252820, 0.252995, 0.288217, 0.253807, 0.545117, 0.258263, 0.253599, 0.252402, 0.252790, 0.252904, 0.252743, 0.252632, 0.253831, 0.253333, 0.252829
Process 125: 0.707977, 0.317254, 0.258647, 0.262381, 0.269486, 0.259118, 0.263044, 0.256646, 0.254363, 0.254522, 1.390499, 0.254257, 0.254644, 0.255164, 0.254383, 0.254113, 0.254103, 0.289334, 0.255115, 0.546438, 0.259348, 0.254533, 0.253731, 0.254130, 0.253787, 0.253817, 0.253949, 0.254948, 0.254675, 0.254146
Process 126: 0.708766, 0.318255, 0.259591, 0.263320, 0.270460, 0.260153, 0.263972, 0.257596, 0.255407, 0.255485, 1.391469, 0.255194, 0.255408, 0.256078, 0.255369, 0.255097, 0.255088, 0.290272, 0.256111, 0.547361, 0.260297, 0.255459, 0.254497, 0.254896, 0.254714, 0.254747, 0.254984, 0.255931, 0.255636, 0.255134
Process 127: 0.709690, 0.319180, 0.260584, 0.264294, 0.271492, 0.261321, 0.264757, 0.258358, 0.256385, 0.256500, 1.392498, 0.256187, 0.256375, 0.256868, 0.256342, 0.256066, 0.256063, 0.291273, 0.256942, 0.548139, 0.261297, 0.256454, 0.255466, 0.255878, 0.255722, 0.255746, 0.255984, 0.256925, 0.256406, 0.255915
