MPI_insiderank_optimisedserial
Process 0: 2.449840, 1.756217, 1.800121, 4.391694, 4.424928, 4.172681, 4.026186, 4.058764, 4.065709, 4.138648, 2.882601, 5.714269, 3.715055, 5.394179, 2.150678, 3.341239, 3.099837, 2.309301, 2.251439, 2.952704, 1.733375, 2.144193, 1.593503, 2.093144, 2.929728, 5.225928, 2.187400, 1.559516, 1.552910, 1.555199
Process 1: 2.396886, 1.707699, 1.762900, 4.034402, 4.364980, 4.124368, 3.971398, 3.998927, 4.011456, 4.090678, 2.828304, 5.654866, 3.661213, 5.341838, 2.102330, 3.287858, 3.045172, 2.251068, 2.196217, 2.900497, 1.689884, 2.101220, 1.550447, 2.039485, 2.867940, 5.173119, 2.145394, 1.518168, 1.511654, 1.513827
Process 2: 2.422621, 1.730701, 1.782587, 4.364191, 4.393117, 4.150066, 3.999468, 4.026978, 4.039207, 4.116139, 2.855892, 5.682663, 3.688626, 5.368877, 2.126985, 3.315472, 3.072645, 2.278303, 2.224311, 2.926925, 1.711951, 2.122939, 1.572621, 2.066530, 2.906692, 5.199100, 2.166678, 1.538834, 1.532346, 1.534482
Process 3: 2.450764, 1.757109, 1.800950, 4.392683, 4.425918, 4.173676, 4.027208, 4.059747, 4.066962, 4.139710, 2.883651, 5.715340, 3.716127, 5.395225, 2.151749, 3.342298, 3.100911, 2.310341, 2.252482, 2.953759, 1.734324, 2.145182, 1.594410, 2.094152, 2.930795, 5.226915, 2.188348, 1.560572, 1.553975, 1.556230
