MPI_insiderank_optimisedserial
Process 0: 1.266244, 0.637676, 0.821218, 0.525327, 0.825904, 0.524036, 0.817654, 0.523772, 0.526608, 0.807031, 0.525083, 0.518351, 0.802694, 0.520123, 0.542131, 0.838937, 0.530135, 0.517356, 0.802371, 0.516145, 0.517584, 0.709790, 0.515025, 0.522022, 0.744741, 0.517424, 0.513289, 0.514120, 0.808589, 0.525140
Process 1: 0.728896, 0.465713, 0.347752, 0.355065, 0.349175, 0.354961, 0.359574, 0.348619, 0.352468, 0.344377, 0.353035, 0.343966, 0.340510, 0.345972, 0.352127, 0.376371, 0.355859, 0.345666, 0.340526, 0.344815, 0.343645, 0.345092, 0.345472, 0.347798, 0.368333, 0.344695, 0.344108, 0.341656, 0.343371, 0.351726
Process 2: 0.736944, 0.476905, 0.356338, 0.364104, 0.358182, 0.363588, 0.367088, 0.356890, 0.360638, 0.352583, 0.361294, 0.352792, 0.348741, 0.354342, 0.359962, 0.384784, 0.364111, 0.354528, 0.348764, 0.353591, 0.351948, 0.353539, 0.354326, 0.355636, 0.376695, 0.352878, 0.352988, 0.349965, 0.351492, 0.359816
Process 3: 0.745996, 0.489750, 0.363462, 0.371205, 0.365675, 0.370602, 0.372072, 0.364172, 0.367638, 0.359995, 0.368458, 0.359693, 0.355963, 0.361331, 0.367409, 0.391970, 0.371463, 0.361477, 0.356024, 0.360628, 0.359114, 0.360728, 0.361223, 0.362120, 0.383996, 0.360299, 0.359928, 0.357782, 0.357914, 0.366948
Process 4: 0.754350, 0.496374, 0.370730, 0.378596, 0.372913, 0.377823, 0.379269, 0.371330, 0.374676, 0.366865, 0.375552, 0.366884, 0.362942, 0.368436, 0.374185, 0.398973, 0.378446, 0.368746, 0.362897, 0.367683, 0.366200, 0.367837, 0.368343, 0.369089, 0.391019, 0.367131, 0.367063, 0.364349, 0.365182, 0.373974
Process 5: 0.764216, 0.501957, 0.377345, 0.384818, 0.380019, 0.383910, 0.384707, 0.377919, 0.381194, 0.373499, 0.382038, 0.373026, 0.369508, 0.375026, 0.380874, 0.405520, 0.385052, 0.375159, 0.369410, 0.373944, 0.372711, 0.374328, 0.374610, 0.375309, 0.397572, 0.373822, 0.373306, 0.370986, 0.371713, 0.380323
Process 6: 0.771727, 0.507313, 0.383525, 0.390990, 0.385993, 0.390016, 0.390209, 0.384010, 0.387312, 0.379590, 0.388229, 0.379003, 0.375727, 0.381201, 0.388104, 0.411602, 0.391072, 0.380870, 0.375452, 0.379985, 0.378787, 0.380490, 0.380606, 0.381504, 0.403692, 0.379919, 0.379232, 0.376978, 0.378220, 0.386593
Process 7: 0.781402, 0.513088, 0.389652, 0.397062, 0.392067, 0.395984, 0.395600, 0.390119, 0.393344, 0.385681, 0.394203, 0.385040, 0.381855, 0.387291, 0.394412, 0.417665, 0.397184, 0.386849, 0.381512, 0.385963, 0.384885, 0.386527, 0.386603, 0.387561, 0.409779, 0.385987, 0.385278, 0.383001, 0.386994, 0.392700
Process 8: 0.789146, 0.518393, 0.395143, 0.402653, 0.397628, 0.401398, 0.400850, 0.395545, 0.398751, 0.391038, 0.399678, 0.390387, 0.387224, 0.392676, 0.399524, 0.422966, 0.402513, 0.392156, 0.386887, 0.391328, 0.390301, 0.391887, 0.391947, 0.392978, 0.415119, 0.391351, 0.390653, 0.388456, 0.394351, 0.398257
Process 9: 0.798765, 0.524204, 0.401380, 0.409035, 0.403649, 0.407480, 0.408035, 0.401412, 0.404882, 0.396979, 0.405594, 0.396525, 0.393165, 0.398641, 0.406319, 0.429006, 0.408473, 0.398348, 0.392889, 0.397490, 0.396273, 0.397904, 0.398151, 0.398524, 0.421173, 0.397280, 0.396755, 0.394369, 0.400376, 0.404186
Process 10: 0.806285, 0.529060, 0.406195, 0.414035, 0.408670, 0.412358, 0.411304, 0.406345, 0.409655, 0.401907, 0.410556, 0.401348, 0.398126, 0.403565, 0.412874, 0.433804, 0.413417, 0.403195, 0.397804, 0.402317, 0.401144, 0.402681, 0.402923, 0.403406, 0.426077, 0.402194, 0.401601, 0.399253, 0.405446, 0.409150
Process 11: 0.815800, 0.534788, 0.412161, 0.420000, 0.414622, 0.418193, 0.417358, 0.412252, 0.415564, 0.407906, 0.416446, 0.407211, 0.404014, 0.409482, 0.418903, 0.439848, 0.419315, 0.409075, 0.403716, 0.408176, 0.407119, 0.408663, 0.408975, 0.409373, 0.432042, 0.408155, 0.407452, 0.405204, 0.411439, 0.415167
Process 12: 0.822599, 0.539116, 0.416988, 0.424304, 0.419446, 0.422527, 0.421704, 0.417026, 0.420412, 0.412675, 0.421172, 0.411530, 0.408735, 0.414199, 0.423480, 0.444454, 0.424059, 0.413376, 0.408420, 0.412493, 0.411848, 0.413270, 0.413155, 0.414022, 0.436757, 0.412861, 0.411796, 0.409926, 0.416186, 0.419874
Process 13: 0.831545, 0.544392, 0.423887, 0.430520, 0.425344, 0.428801, 0.427562, 0.422895, 0.426270, 0.418535, 0.427065, 0.417735, 0.414609, 0.420063, 0.430670, 0.450350, 0.429932, 0.419767, 0.414261, 0.418719, 0.417759, 0.419214, 0.419428, 0.419916, 0.442674, 0.418795, 0.418034, 0.415913, 0.422467, 0.425815
Process 14: 0.838687, 0.547278, 0.430264, 0.435131, 0.430300, 0.433385, 0.432409, 0.427814, 0.431082, 0.423435, 0.431935, 0.422352, 0.419475, 0.424929, 0.436272, 0.455254, 0.434877, 0.424347, 0.419123, 0.423355, 0.422608, 0.424033, 0.423978, 0.424784, 0.447534, 0.423643, 0.422703, 0.420717, 0.427116, 0.430707
Process 15: 0.847880, 0.553499, 0.436195, 0.441117, 0.436327, 0.439412, 0.438233, 0.433780, 0.437073, 0.429436, 0.437889, 0.428376, 0.425470, 0.430883, 0.443795, 0.461246, 0.440776, 0.430448, 0.425118, 0.429384, 0.428587, 0.429980, 0.430074, 0.430663, 0.453487, 0.429699, 0.428790, 0.426772, 0.433211, 0.436761
Process 16: 0.854633, 0.557560, 0.440417, 0.443855, 0.442209, 0.442099, 0.444100, 0.438340, 0.441453, 0.435229, 0.442324, 0.431053, 0.429863, 0.436674, 0.450139, 0.467106, 0.445236, 0.433024, 0.430944, 0.432085, 0.432973, 0.435796, 0.432740, 0.435056, 0.459368, 0.434042, 0.431365, 0.431078, 0.438975, 0.441150
Process 17: 0.870127, 0.566141, 0.450561, 0.450327, 0.453295, 0.448564, 0.454946, 0.445562, 0.448749, 0.446098, 0.449687, 0.437485, 0.442164, 0.442602, 0.457581, 0.478153, 0.452678, 0.439571, 0.441735, 0.438513, 0.440356, 0.446820, 0.439208, 0.442366, 0.470182, 0.441358, 0.437959, 0.438464, 0.449990, 0.448480
Process 18: 0.901677, 0.569098, 0.475940, 0.454123, 0.479656, 0.452305, 0.480388, 0.449117, 0.452367, 0.471484, 0.453199, 0.441290, 0.467419, 0.446176, 0.461012, 0.503284, 0.456111, 0.443231, 0.467045, 0.442311, 0.443856, 0.472091, 0.442995, 0.445958, 0.495465, 0.444917, 0.441584, 0.442197, 0.475120, 0.452017
Process 19: 0.934193, 0.576517, 0.503520, 0.460973, 0.507412, 0.459233, 0.507121, 0.456078, 0.459360, 0.498260, 0.460192, 0.448163, 0.494210, 0.453114, 0.468100, 0.530241, 0.463198, 0.450271, 0.494089, 0.449372, 0.451008, 0.498830, 0.449838, 0.452939, 0.522240, 0.451895, 0.448562, 0.449122, 0.501918, 0.459109
Process 20: 0.963767, 0.579475, 0.529355, 0.464514, 0.533107, 0.462744, 0.532029, 0.460287, 0.463249, 0.523110, 0.463838, 0.451699, 0.519248, 0.457375, 0.471725, 0.555121, 0.467554, 0.454111, 0.519114, 0.453658, 0.454451, 0.523726, 0.453362, 0.456996, 0.547230, 0.455585, 0.452012, 0.452669, 0.526749, 0.463684
Process 21: 0.994639, 0.587058, 0.557288, 0.471485, 0.561110, 0.470378, 0.558992, 0.468682, 0.470113, 0.550134, 0.471035, 0.459030, 0.546240, 0.464426, 0.478750, 0.582007, 0.474759, 0.461116, 0.546154, 0.461815, 0.461983, 0.550543, 0.460298, 0.465300, 0.574028, 0.462566, 0.459679, 0.459643, 0.553573, 0.470689
Process 22: 1.023729, 0.590160, 0.583331, 0.475350, 0.587199, 0.474404, 0.584202, 0.473079, 0.474234, 0.575362, 0.475496, 0.463122, 0.571438, 0.468557, 0.488749, 0.607133, 0.478667, 0.464933, 0.571317, 0.466417, 0.466117, 0.575709, 0.464158, 0.469110, 0.599238, 0.466609, 0.463475, 0.463412, 0.578680, 0.475162
Process 23: 1.053154, 0.595805, 0.609735, 0.481095, 0.613501, 0.479978, 0.610176, 0.478859, 0.480785, 0.600870, 0.481186, 0.469738, 0.596977, 0.474180, 0.496967, 0.632648, 0.484997, 0.471446, 0.596648, 0.472138, 0.472400, 0.601271, 0.470446, 0.475457, 0.624751, 0.472290, 0.469400, 0.469961, 0.604135, 0.481333
Process 24: 1.080323, 0.600282, 0.635664, 0.486559, 0.639350, 0.485075, 0.635348, 0.484244, 0.486108, 0.625779, 0.486091, 0.475180, 0.622006, 0.479087, 0.501801, 0.657487, 0.489787, 0.476886, 0.621594, 0.476938, 0.477407, 0.626306, 0.475550, 0.480483, 0.649711, 0.477166, 0.474174, 0.474888, 0.629065, 0.486496
Process 25: 1.108608, 0.606348, 0.662366, 0.492627, 0.666116, 0.491340, 0.661245, 0.490700, 0.492758, 0.651521, 0.492033, 0.483208, 0.647786, 0.486019, 0.507726, 0.683285, 0.496688, 0.483305, 0.647316, 0.482992, 0.483340, 0.652006, 0.482421, 0.487921, 0.675441, 0.484471, 0.480498, 0.481117, 0.654773, 0.492786
Process 26: 1.135157, 0.610950, 0.688220, 0.497409, 0.692530, 0.496382, 0.686203, 0.495876, 0.497583, 0.676548, 0.496900, 0.488220, 0.672797, 0.491037, 0.512274, 0.708245, 0.501612, 0.489581, 0.672386, 0.488226, 0.488749, 0.676894, 0.487512, 0.494114, 0.700348, 0.489620, 0.485504, 0.485740, 0.679629, 0.497601
Process 27: 1.162461, 0.616730, 0.715010, 0.503564, 0.719682, 0.502874, 0.712498, 0.502199, 0.503630, 0.703132, 0.503158, 0.495227, 0.698791, 0.497376, 0.519460, 0.734620, 0.508130, 0.495474, 0.698188, 0.494611, 0.494705, 0.699960, 0.493534, 0.500858, 0.723536, 0.496081, 0.491328, 0.491941, 0.705250, 0.503394
Process 28: 1.189536, 0.624118, 0.741469, 0.509974, 0.746898, 0.508687, 0.738931, 0.507598, 0.510689, 0.729355, 0.509726, 0.501654, 0.724769, 0.504331, 0.525606, 0.760645, 0.514727, 0.502016, 0.724749, 0.500864, 0.500709, 0.702357, 0.499707, 0.506734, 0.728950, 0.501734, 0.497872, 0.498319, 0.731340, 0.509637
Process 29: 1.215227, 0.627189, 0.767980, 0.514674, 0.773737, 0.513475, 0.764997, 0.512512, 0.515462, 0.755090, 0.514464, 0.506761, 0.750332, 0.509062, 0.531073, 0.787005, 0.519444, 0.506526, 0.750401, 0.505586, 0.505703, 0.704466, 0.504309, 0.511399, 0.733855, 0.506577, 0.502693, 0.503038, 0.756912, 0.514551
Process 30: 1.241614, 0.634490, 0.794741, 0.520819, 0.799881, 0.519698, 0.791846, 0.519297, 0.522543, 0.781410, 0.520477, 0.514552, 0.776965, 0.516519, 0.537760, 0.813470, 0.525638, 0.513096, 0.776798, 0.511859, 0.513172, 0.707603, 0.511131, 0.517642, 0.739754, 0.513332, 0.508793, 0.510072, 0.783021, 0.520969
Process 31: 1.266785, 0.637670, 0.821213, 0.525321, 0.825905, 0.524034, 0.817654, 0.523767, 0.526607, 0.807026, 0.525083, 0.518347, 0.802694, 0.520128, 0.542128, 0.838935, 0.530135, 0.517359, 0.802369, 0.516151, 0.517579, 0.709785, 0.515031, 0.522020, 0.744739, 0.517429, 0.513282, 0.514120, 0.808588, 0.525138
