MPI_insiderank_optimisedserial
Process 0: 5.222049, 1.615591, 2.095137, 2.577687, 1.625522, 1.948935, 2.208117, 1.684765, 1.836042, 1.916247, 1.865066, 1.706015, 1.892415, 1.609930, 1.830870, 1.639434, 1.904385, 1.913899, 1.874248, 2.259866, 2.443649, 1.607309, 2.238963, 1.523081, 2.679206, 1.522741, 1.478532, 2.461155, 3.020637, 1.353969
Process 1: 1.830692, 1.376238, 1.230874, 1.495240, 1.366937, 1.427473, 1.962890, 1.231739, 1.573439, 1.240565, 1.213358, 1.504692, 1.209165, 1.406297, 1.213382, 1.367031, 1.254674, 1.389591, 1.528874, 1.734221, 1.869218, 1.362199, 1.932284, 1.180126, 2.555460, 1.144376, 1.264347, 1.440537, 2.638247, 1.230706
Process 2: 2.036717, 1.486432, 1.330541, 1.601627, 1.467263, 1.473944, 2.077156, 1.244015, 1.679297, 1.347248, 1.312924, 1.604576, 1.309375, 1.509279, 1.316517, 1.467872, 1.358821, 1.487959, 1.599731, 1.844502, 1.965576, 1.377587, 1.987491, 1.194668, 2.587019, 1.209711, 1.313630, 2.101954, 2.701567, 1.246903
Process 3: 2.633879, 1.510887, 1.492713, 1.688476, 1.490608, 1.537486, 2.117004, 1.261962, 1.752541, 1.472904, 1.416825, 1.628622, 1.463690, 1.530555, 1.418315, 1.555125, 1.463614, 1.510698, 1.666288, 2.003261, 2.019229, 1.401361, 2.012479, 1.218763, 2.613165, 1.285078, 1.357662, 2.114149, 2.782233, 1.278082
Process 4: 3.111140, 1.526216, 1.607340, 1.746827, 1.505960, 1.635093, 2.141255, 1.358595, 1.769148, 1.570398, 1.509183, 1.643230, 1.574221, 1.546181, 1.519347, 1.573859, 1.562022, 1.601635, 1.683214, 2.038828, 2.102636, 1.456101, 2.059406, 1.320867, 2.621428, 1.309459, 1.380207, 2.194348, 2.806481, 1.286483
Process 5: 3.939634, 1.551410, 1.778898, 2.434267, 1.528411, 1.739597, 2.165202, 1.475007, 1.794132, 1.710429, 1.631842, 1.667249, 1.681367, 1.569826, 1.625730, 1.598220, 1.695763, 1.705853, 1.702774, 2.106978, 2.187595, 1.516635, 2.118384, 1.421928, 2.642362, 1.375787, 1.402333, 2.266934, 2.888974, 1.306133
Process 6: 4.462582, 1.565667, 1.896515, 2.458638, 1.543986, 1.839331, 2.180447, 1.574415, 1.810522, 1.808183, 1.740519, 1.682273, 1.781715, 1.584662, 1.724344, 1.613491, 1.794750, 1.804265, 1.802815, 2.133618, 2.279947, 1.554655, 2.177054, 1.465399, 2.657445, 1.436887, 1.418286, 2.323019, 2.914223, 1.325012
Process 7: 5.223565, 1.617457, 2.098461, 2.580449, 1.627315, 1.950662, 2.210390, 1.686372, 1.838639, 1.918201, 1.867105, 1.708038, 1.894576, 1.611973, 1.832925, 1.641423, 1.906410, 1.915351, 1.876332, 2.263713, 2.447299, 1.608928, 2.241458, 1.524913, 2.681548, 1.524301, 1.480836, 2.464434, 3.025159, 1.356039
