MPI_insiderank_serial
Process 0: 1.936777, 1.942301, 1.928333, 1.932794, 1.941624, 1.945355, 1.937371, 1.934340, 1.940325, 1.938451, 1.946055, 1.932284, 1.943064, 1.937228, 1.944255, 1.951813, 1.943513, 1.930725, 1.939156, 1.943118, 1.932712, 1.940081, 1.939432, 1.928759, 1.929540, 1.936250, 1.939963, 1.938984, 1.932050, 1.930694
Process 1: 1.587503, 1.602249, 1.588359, 1.587852, 1.587845, 1.589375, 1.581401, 1.580739, 1.584200, 1.582120, 1.581706, 1.582756, 1.582202, 1.581971, 1.581305, 1.581792, 1.582779, 1.582128, 1.582249, 1.582102, 1.584079, 1.583757, 1.580692, 1.582115, 1.580958, 1.585682, 1.582550, 1.582272, 1.583628, 1.581889
Process 2: 1.612954, 1.626923, 1.612990, 1.620942, 1.612811, 1.622499, 1.614380, 1.613780, 1.617137, 1.615077, 1.614668, 1.615727, 1.615193, 1.614844, 1.614289, 1.614705, 1.615728, 1.615072, 1.615245, 1.615053, 1.617014, 1.616674, 1.613573, 1.615098, 1.613856, 1.618570, 1.615503, 1.615282, 1.616550, 1.614954
Process 3: 1.638618, 1.652456, 1.647229, 1.646318, 1.637715, 1.648083, 1.639831, 1.644369, 1.642750, 1.640747, 1.640496, 1.641558, 1.640896, 1.649386, 1.644123, 1.640426, 1.641365, 1.640779, 1.640837, 1.640699, 1.642675, 1.642323, 1.639277, 1.640154, 1.639494, 1.644265, 1.641193, 1.640870, 1.641779, 1.640551
Process 4: 1.664044, 1.677975, 1.672577, 1.671769, 1.668509, 1.673421, 1.665371, 1.678496, 1.668084, 1.666039, 1.665927, 1.667684, 1.666299, 1.674621, 1.671995, 1.670526, 1.666739, 1.674925, 1.666182, 1.666055, 1.667981, 1.667692, 1.664536, 1.665780, 1.673672, 1.671581, 1.666459, 1.666215, 1.667232, 1.674809
Process 5: 1.689770, 1.703513, 1.698072, 1.702086, 1.702708, 1.706620, 1.691587, 1.704311, 1.701630, 1.699735, 1.699724, 1.702409, 1.700326, 1.700474, 1.706443, 1.704996, 1.696437, 1.700561, 1.700415, 1.699127, 1.702751, 1.700521, 1.697958, 1.691343, 1.699360, 1.706358, 1.700195, 1.700182, 1.700985, 1.700431
Process 6: 1.724121, 1.737933, 1.732473, 1.736982, 1.737128, 1.741073, 1.726071, 1.738820, 1.736126, 1.734201, 1.734195, 1.736715, 1.734825, 1.735018, 1.740957, 1.739553, 1.730969, 1.735077, 1.734890, 1.733597, 1.737027, 1.734978, 1.732456, 1.725774, 1.733884, 1.740659, 1.734667, 1.734679, 1.735444, 1.734939
Process 7: 1.758636, 1.772255, 1.766779, 1.770814, 1.771461, 1.775418, 1.760381, 1.773183, 1.770475, 1.768521, 1.768527, 1.771131, 1.769187, 1.769423, 1.775408, 1.773985, 1.765299, 1.769553, 1.769366, 1.768043, 1.771378, 1.769278, 1.766822, 1.760069, 1.768263, 1.775072, 1.769079, 1.768983, 1.769731, 1.769247
Process 8: 1.783870, 1.797879, 1.792284, 1.796293, 1.797054, 1.800940, 1.785688, 1.798371, 1.804783, 1.793973, 1.793902, 1.796290, 1.794575, 1.794654, 1.800626, 1.799319, 1.790681, 1.794763, 1.794737, 1.793494, 1.796604, 1.794859, 1.792212, 1.785676, 1.793494, 1.800239, 1.794421, 1.794373, 1.795303, 1.794549
Process 9: 1.817975, 1.823600, 1.818051, 1.822185, 1.822802, 1.835561, 1.818476, 1.824175, 1.830098, 1.819599, 1.826513, 1.822034, 1.824202, 1.826901, 1.833982, 1.832344, 1.824613, 1.820444, 1.828927, 1.819172, 1.822420, 1.828996, 1.817808, 1.818508, 1.819204, 1.826030, 1.820159, 1.820059, 1.821034, 1.820433
Process 10: 1.852602, 1.858066, 1.852501, 1.856631, 1.857298, 1.870166, 1.853273, 1.859181, 1.865188, 1.854293, 1.861296, 1.856951, 1.858948, 1.861976, 1.869072, 1.867065, 1.859279, 1.855556, 1.863979, 1.853924, 1.857536, 1.863490, 1.852526, 1.852958, 1.854389, 1.861026, 1.854896, 1.854815, 1.856823, 1.855512
Process 11: 1.877826, 1.892122, 1.877909, 1.882000, 1.882706, 1.895026, 1.887701, 1.884091, 1.890053, 1.888859, 1.886429, 1.881980, 1.893407, 1.886793, 1.893881, 1.892195, 1.893815, 1.880366, 1.888847, 1.884031, 1.882356, 1.888832, 1.877700, 1.878280, 1.879170, 1.885914, 1.880068, 1.879996, 1.881673, 1.880342
Process 12: 1.903407, 1.917467, 1.903487, 1.907643, 1.917019, 1.920455, 1.912380, 1.909408, 1.915398, 1.913542, 1.911906, 1.907379, 1.918173, 1.912251, 1.919298, 1.917653, 1.918581, 1.905783, 1.914197, 1.919120, 1.907758, 1.914442, 1.905191, 1.903871, 1.904579, 1.911275, 1.905496, 1.914936, 1.907108, 1.905785
Process 13: 1.937932, 1.943139, 1.929134, 1.933607, 1.942428, 1.946165, 1.938198, 1.935149, 1.941125, 1.939256, 1.947025, 1.933097, 1.943860, 1.938040, 1.945082, 1.952802, 1.944311, 1.931537, 1.939968, 1.943939, 1.933536, 1.940891, 1.940406, 1.929568, 1.930355, 1.937065, 1.940971, 1.939772, 1.932831, 1.931493
