MPI_insiderank_serial
Process 0: 2.260591, 2.273368, 2.261299, 2.260450, 2.260607, 2.260207, 2.260309, 2.260106, 2.259962, 2.259959, 2.259904, 2.260068, 2.260097, 2.259892, 2.259800, 2.260082, 2.259712, 2.260241, 2.259984, 2.259828, 2.260169, 2.263051, 2.259868, 2.260017, 2.260085, 2.260670, 2.259712, 2.259939, 2.260125, 2.260027
Process 1: 1.993128, 2.006175, 1.994091, 1.993308, 1.993442, 1.993029, 1.993058, 1.992925, 1.992868, 1.992808, 1.992654, 1.992948, 1.992877, 1.992708, 1.992660, 1.992967, 1.992584, 1.992928, 1.992744, 1.992754, 1.992914, 1.995933, 1.992687, 1.992908, 1.992928, 1.993380, 1.992518, 1.992760, 1.992925, 1.992880
Process 2: 2.037819, 2.050714, 2.038635, 2.037742, 2.037976, 2.037534, 2.037576, 2.037429, 2.037302, 2.037324, 2.037191, 2.037431, 2.037394, 2.037230, 2.037121, 2.037443, 2.037086, 2.037441, 2.037323, 2.037181, 2.037433, 2.040427, 2.037234, 2.037391, 2.037451, 2.037987, 2.037009, 2.037248, 2.037433, 2.037329
Process 3: 2.082737, 2.095490, 2.083446, 2.082576, 2.082745, 2.082353, 2.082470, 2.082203, 2.082126, 2.082085, 2.081937, 2.082166, 2.082178, 2.082034, 2.081913, 2.082194, 2.081878, 2.082225, 2.082103, 2.081977, 2.082220, 2.085181, 2.081975, 2.082171, 2.082268, 2.082726, 2.081799, 2.082037, 2.082232, 2.082134
Process 4: 2.127474, 2.140274, 2.128242, 2.127366, 2.127541, 2.127102, 2.127281, 2.127056, 2.126885, 2.126914, 2.126728, 2.127023, 2.126961, 2.126800, 2.126755, 2.126969, 2.126655, 2.127007, 2.126913, 2.126788, 2.127028, 2.130018, 2.126797, 2.126984, 2.127037, 2.127561, 2.126582, 2.126810, 2.127025, 2.126945
Process 5: 2.172344, 2.185046, 2.173042, 2.172168, 2.172322, 2.171911, 2.172043, 2.171860, 2.171766, 2.171702, 2.171541, 2.171769, 2.171755, 2.171580, 2.171509, 2.171757, 2.171454, 2.171773, 2.171673, 2.171553, 2.171858, 2.174784, 2.171577, 2.171763, 2.171773, 2.172344, 2.171378, 2.171688, 2.171808, 2.171710
Process 6: 2.216982, 2.229762, 2.217757, 2.216909, 2.217014, 2.216641, 2.216746, 2.216620, 2.216407, 2.216409, 2.216275, 2.216515, 2.216497, 2.216301, 2.216252, 2.216558, 2.216155, 2.216704, 2.216387, 2.216293, 2.216566, 2.219517, 2.216323, 2.216464, 2.216535, 2.217099, 2.216104, 2.216394, 2.216557, 2.216434
Process 7: 2.262017, 2.274763, 2.262659, 2.261843, 2.261976, 2.261600, 2.261692, 2.261474, 2.261353, 2.261328, 2.261261, 2.261443, 2.261469, 2.261257, 2.261163, 2.261463, 2.261085, 2.261589, 2.261368, 2.261238, 2.261545, 2.264448, 2.261257, 2.261403, 2.261457, 2.262060, 2.261096, 2.261306, 2.261503, 2.261393
