MPI_insiderank_serial
Process 0: 3.120257, 2.735808, 2.662185, 2.676677, 2.698898, 2.709008, 2.691935, 2.702272, 2.679531, 2.695953, 2.699719, 2.619750, 2.639993, 2.677871, 2.648351, 2.687061, 2.672470, 2.686843, 2.703104, 2.680422, 2.699880, 2.659953, 2.667491, 2.713042, 2.690706, 2.665600, 2.680810, 2.688259, 2.675676, 2.699505
Process 1: 3.056567, 2.671546, 2.601031, 2.612305, 2.635317, 2.644923, 2.627676, 2.639294, 2.614486, 2.632097, 2.635995, 2.557459, 2.576534, 2.613798, 2.585162, 2.621979, 2.609203, 2.622717, 2.641953, 2.616558, 2.635987, 2.598319, 2.604496, 2.649163, 2.627356, 2.603639, 2.616500, 2.624579, 2.612207, 2.634016
Process 2: 3.086703, 2.703202, 2.631873, 2.644654, 2.666873, 2.677441, 2.659606, 2.670589, 2.647259, 2.663816, 2.668408, 2.588731, 2.608338, 2.646385, 2.616859, 2.654710, 2.640708, 2.654810, 2.671142, 2.648861, 2.668028, 2.629076, 2.636269, 2.680839, 2.659057, 2.634803, 2.648860, 2.656674, 2.644317, 2.666555
Process 3: 3.120596, 2.735805, 2.662187, 2.676674, 2.698899, 2.709007, 2.691932, 2.702272, 2.679530, 2.695952, 2.699716, 2.619750, 2.639992, 2.677870, 2.648352, 2.687061, 2.672469, 2.686842, 2.703102, 2.680421, 2.699879, 2.659953, 2.667490, 2.713041, 2.690707, 2.665599, 2.680810, 2.688258, 2.675676, 2.699502
