MPI_insiderank_serial
Process 0: 2.094067, 1.910865, 1.753194, 1.773215, 1.740892, 1.763656, 1.773257, 1.752573, 1.750285, 1.745456, 1.773107, 1.740259, 1.735230, 1.741630, 1.734807, 1.738543, 1.733374, 1.751432, 1.770570, 1.732298, 1.739660, 1.739739, 1.744151, 1.741350, 1.739601, 1.738149, 1.739083, 1.739264, 1.736950, 1.748891
Process 1: 1.673461, 1.501091, 1.329059, 1.347321, 1.318500, 1.348041, 1.350836, 1.324772, 1.328189, 1.316839, 1.341698, 1.318080, 1.315867, 1.317299, 1.311404, 1.316430, 1.313957, 1.322931, 1.357157, 1.308444, 1.317437, 1.316944, 1.315651, 1.318679, 1.316304, 1.315720, 1.316349, 1.317333, 1.313522, 1.327569
Process 2: 1.703492, 1.521005, 1.356189, 1.374520, 1.345619, 1.374113, 1.378656, 1.351728, 1.355791, 1.343635, 1.368164, 1.345024, 1.343111, 1.344734, 1.339767, 1.343413, 1.341171, 1.350039, 1.383719, 1.337072, 1.344347, 1.343951, 1.342655, 1.345778, 1.343118, 1.342875, 1.343607, 1.344280, 1.341198, 1.354682
Process 3: 1.734747, 1.554943, 1.388887, 1.407190, 1.378183, 1.407636, 1.410507, 1.384365, 1.388201, 1.376337, 1.401699, 1.377798, 1.375883, 1.377378, 1.370207, 1.376104, 1.373893, 1.382827, 1.417340, 1.369329, 1.377032, 1.376679, 1.375372, 1.378545, 1.376002, 1.375581, 1.376246, 1.377114, 1.374107, 1.387555
Process 4: 1.760489, 1.580432, 1.415777, 1.434103, 1.405204, 1.433540, 1.438033, 1.411226, 1.415404, 1.409471, 1.427502, 1.404616, 1.402790, 1.404439, 1.399283, 1.403038, 1.400701, 1.409585, 1.443164, 1.396706, 1.403790, 1.403454, 1.402159, 1.405502, 1.402676, 1.402667, 1.404077, 1.403905, 1.400934, 1.414485
Process 5: 1.794448, 1.615335, 1.449578, 1.468261, 1.439326, 1.469186, 1.471742, 1.445513, 1.449985, 1.444203, 1.466908, 1.439070, 1.437928, 1.439159, 1.432946, 1.437275, 1.435789, 1.444640, 1.478513, 1.431208, 1.438361, 1.438736, 1.437387, 1.440402, 1.438592, 1.437079, 1.437842, 1.438380, 1.436261, 1.448252
Process 6: 1.820012, 1.640608, 1.476058, 1.494790, 1.465813, 1.494242, 1.498370, 1.472077, 1.475930, 1.470600, 1.497473, 1.465587, 1.463697, 1.464986, 1.460140, 1.463668, 1.461549, 1.470717, 1.504235, 1.457300, 1.464498, 1.464638, 1.463517, 1.466217, 1.464240, 1.463174, 1.464329, 1.464509, 1.462179, 1.474751
Process 7: 1.855138, 1.669127, 1.514839, 1.528066, 1.499120, 1.528121, 1.531163, 1.505330, 1.508916, 1.503973, 1.534651, 1.496379, 1.496992, 1.498308, 1.493514, 1.497062, 1.494951, 1.508354, 1.538056, 1.488015, 1.497776, 1.497979, 1.496849, 1.499545, 1.497646, 1.496545, 1.497274, 1.497941, 1.495549, 1.507936
Process 8: 1.880418, 1.695086, 1.540683, 1.554261, 1.525242, 1.549632, 1.558678, 1.535648, 1.535364, 1.530222, 1.562592, 1.524963, 1.523120, 1.528585, 1.519482, 1.523163, 1.521052, 1.536089, 1.559556, 1.516726, 1.523904, 1.524046, 1.522969, 1.525706, 1.523748, 1.522632, 1.523575, 1.523981, 1.521705, 1.534241
Process 9: 2.015358, 1.730570, 1.576893, 1.590170, 1.561610, 1.584687, 1.593423, 1.573072, 1.571124, 1.566045, 1.595807, 1.560199, 1.559113, 1.566519, 1.554973, 1.558936, 1.557108, 1.572010, 1.592851, 1.551558, 1.559412, 1.560024, 1.565531, 1.561561, 1.559993, 1.558216, 1.559325, 1.559578, 1.557527, 1.568532
Process 10: 2.018850, 1.756243, 1.601514, 1.615651, 1.586558, 1.609975, 1.619532, 1.598038, 1.596092, 1.591340, 1.622117, 1.586088, 1.584238, 1.590561, 1.580493, 1.584349, 1.582366, 1.597393, 1.619574, 1.577687, 1.584828, 1.585346, 1.589369, 1.586830, 1.585124, 1.583714, 1.584859, 1.584829, 1.582663, 1.594683
Process 11: 2.026782, 1.789868, 1.635987, 1.649061, 1.620333, 1.640739, 1.652201, 1.632126, 1.629622, 1.624914, 1.652974, 1.619710, 1.617844, 1.622059, 1.614221, 1.617983, 1.616013, 1.630732, 1.650420, 1.611143, 1.618476, 1.619074, 1.623725, 1.620604, 1.618766, 1.617373, 1.618147, 1.618481, 1.616218, 1.628414
Process 12: 2.030275, 1.815885, 1.661450, 1.675195, 1.646379, 1.669562, 1.679141, 1.659838, 1.655856, 1.651063, 1.681848, 1.645883, 1.644214, 1.650446, 1.640248, 1.643969, 1.642128, 1.657071, 1.679336, 1.637675, 1.644788, 1.645058, 1.649178, 1.646682, 1.644970, 1.643439, 1.644505, 1.644607, 1.642318, 1.654475
Process 13: 2.038474, 1.853355, 1.698449, 1.711818, 1.682033, 1.702524, 1.715082, 1.695170, 1.690497, 1.687614, 1.716221, 1.681370, 1.679508, 1.686696, 1.676432, 1.679899, 1.677292, 1.694260, 1.713945, 1.674031, 1.679633, 1.681564, 1.686598, 1.683158, 1.681407, 1.679823, 1.681084, 1.681010, 1.678209, 1.688988
Process 14: 2.060356, 1.876124, 1.722023, 1.735728, 1.706740, 1.729723, 1.739968, 1.718369, 1.716231, 1.711279, 1.742448, 1.706187, 1.704657, 1.710798, 1.700562, 1.704441, 1.702750, 1.717401, 1.740022, 1.697898, 1.705176, 1.705508, 1.709758, 1.707178, 1.705412, 1.703885, 1.705066, 1.705147, 1.702722, 1.714856
Process 15: 2.095071, 1.910865, 1.753198, 1.773221, 1.740886, 1.763647, 1.773261, 1.752572, 1.750285, 1.745456, 1.773108, 1.740258, 1.735231, 1.741630, 1.734807, 1.738544, 1.733375, 1.751432, 1.770569, 1.732298, 1.739661, 1.739730, 1.744152, 1.741351, 1.739601, 1.738150, 1.739083, 1.739265, 1.736950, 1.748891
