MPI_insiderank_serial
Process 0: 10.479951, 10.054456, 10.017897, 9.975259, 10.038452, 9.957403, 9.961639, 9.965278, 9.958652, 9.931331, 10.042645, 9.941036, 9.975847, 9.987396, 10.009411, 9.954462, 10.025026, 9.980124, 10.002626, 9.981598, 9.993810, 9.959388, 10.046132, 9.946064, 10.001730, 9.990790, 9.997585, 9.983967, 10.034907, 9.974602
Process 1: 10.489422, 10.063419, 10.027292, 9.984952, 10.047444, 9.966801, 9.971708, 9.975502, 9.968270, 9.941740, 10.052997, 9.950808, 9.987590, 9.997257, 10.020019, 9.964895, 10.037330, 9.990669, 10.012637, 9.992261, 10.004060, 9.970229, 10.057099, 9.956537, 10.011126, 10.000919, 10.008645, 9.994848, 10.045428, 9.986025
