[eu-a2p-523:54237:0:54237]      cma_ep.c:81   process_vm_readv(pid=54231 {0x2b8349d80010,524288}-->{0x2aee6d93f600,524288}) returned -1: Bad address
==== backtrace (tid:  54237) ====
 0  /cluster/spack/apps/linux-centos7-x86_64/gcc-9.3.0/ucx-1.12.1-xfljgpcc4jht7wamy2hjr2mdvn7y3u5g/lib/libucs.so.0(ucs_handle_error+0x2a4) [0x2b832ebec574]
 1  /cluster/spack/apps/linux-centos7-x86_64/gcc-9.3.0/ucx-1.12.1-xfljgpcc4jht7wamy2hjr2mdvn7y3u5g/lib/libucs.so.0(ucs_fatal_error_message+0x50) [0x2b832ebe9310]
 2  /cluster/spack/apps/linux-centos7-x86_64/gcc-9.3.0/ucx-1.12.1-xfljgpcc4jht7wamy2hjr2mdvn7y3u5g/lib/libucs.so.0(ucs_log_default_handler+0xea0) [0x2b832ebee100]
 3  /cluster/spack/apps/linux-centos7-x86_64/gcc-9.3.0/ucx-1.12.1-xfljgpcc4jht7wamy2hjr2mdvn7y3u5g/lib/libucs.so.0(ucs_log_dispatch+0xd1) [0x2b832ebee2b1]
 4  /cluster/spack/apps/linux-centos7-x86_64/gcc-9.3.0/ucx-1.12.1-xfljgpcc4jht7wamy2hjr2mdvn7y3u5g/lib/ucx/libuct_cma.so.0(+0x2c93) [0x2b833a5f9c93]
 5  /cluster/spack/apps/linux-centos7-x86_64/gcc-9.3.0/ucx-1.12.1-xfljgpcc4jht7wamy2hjr2mdvn7y3u5g/lib/ucx/libuct_cma.so.0(uct_cma_ep_tx+0x25c) [0x2b833a5fa13c]
 6  /cluster/spack/apps/linux-centos7-x86_64/gcc-9.3.0/ucx-1.12.1-xfljgpcc4jht7wamy2hjr2mdvn7y3u5g/lib/libuct.so.0(uct_scopy_ep_progress_tx+0x63) [0x2b832e992203]
 7  /cluster/spack/apps/linux-centos7-x86_64/gcc-9.3.0/ucx-1.12.1-xfljgpcc4jht7wamy2hjr2mdvn7y3u5g/lib/libucs.so.0(ucs_arbiter_dispatch_nonempty+0xee) [0x2b832ebde40e]
 8  /cluster/spack/apps/linux-centos7-x86_64/gcc-9.3.0/ucx-1.12.1-xfljgpcc4jht7wamy2hjr2mdvn7y3u5g/lib/libuct.so.0(uct_scopy_iface_progress+0x59) [0x2b832e991b99]
 9  /cluster/spack/apps/linux-centos7-x86_64/gcc-9.3.0/ucx-1.12.1-xfljgpcc4jht7wamy2hjr2mdvn7y3u5g/lib/libucp.so.0(ucp_worker_progress+0x7a) [0x2b832e6882aa]
10  /cluster/spack/apps/linux-centos7-x86_64/gcc-9.3.0/openmpi-4.1.4-ce3rybsut3hyqo2i2sm5qwu2muxqny3x/lib/libmpi.so.40(mca_pml_ucx_recv+0x11f) [0x2b832c7d9f8f]
11  /cluster/spack/apps/linux-centos7-x86_64/gcc-9.3.0/openmpi-4.1.4-ce3rybsut3hyqo2i2sm5qwu2muxqny3x/lib/libmpi.so.40(MPI_Recv+0xf5) [0x2b832c656e45]
12  /cluster/scratch/galoisi/DPHPC/2022_hs_polybench_parallelization/src/seidel/OUT/./mpi_insiderank_serial.out() [0x401e48]
13  /lib64/libc.so.6(__libc_start_main+0xf5) [0x2b832cf4e555]
14  /cluster/scratch/galoisi/DPHPC/2022_hs_polybench_parallelization/src/seidel/OUT/./mpi_insiderank_serial.out() [0x401f8c]
=================================
[eu-a2p-523:54237] *** Process received signal ***
[eu-a2p-523:54237] Signal: Aborted (6)
[eu-a2p-523:54237] Signal code:  (-6)
[eu-a2p-523:54237] [ 0] /lib64/libpthread.so.0(+0xf630)[0x2b832cd1f630]
[eu-a2p-523:54237] [ 1] /lib64/libc.so.6(gsignal+0x37)[0x2b832cf62387]
[eu-a2p-523:54237] [ 2] /lib64/libc.so.6(abort+0x148)[0x2b832cf63a78]
[eu-a2p-523:54237] [ 3] /cluster/spack/apps/linux-centos7-x86_64/gcc-9.3.0/ucx-1.12.1-xfljgpcc4jht7wamy2hjr2mdvn7y3u5g/lib/libucs.so.0(ucs_fatal_error_message+0x55)[0x2b832ebe9315]
[eu-a2p-523:54237] [ 4] /cluster/spack/apps/linux-centos7-x86_64/gcc-9.3.0/ucx-1.12.1-xfljgpcc4jht7wamy2hjr2mdvn7y3u5g/lib/libucs.so.0(ucs_log_default_handler+0xea0)[0x2b832ebee100]
[eu-a2p-523:54237] [ 5] /cluster/spack/apps/linux-centos7-x86_64/gcc-9.3.0/ucx-1.12.1-xfljgpcc4jht7wamy2hjr2mdvn7y3u5g/lib/libucs.so.0(ucs_log_dispatch+0xd1)[0x2b832ebee2b1]
[eu-a2p-523:54237] [ 6] /cluster/spack/apps/linux-centos7-x86_64/gcc-9.3.0/ucx-1.12.1-xfljgpcc4jht7wamy2hjr2mdvn7y3u5g/lib/ucx/libuct_cma.so.0(+0x2c93)[0x2b833a5f9c93]
[eu-a2p-523:54237] [ 7] /cluster/spack/apps/linux-centos7-x86_64/gcc-9.3.0/ucx-1.12.1-xfljgpcc4jht7wamy2hjr2mdvn7y3u5g/lib/ucx/libuct_cma.so.0(uct_cma_ep_tx+0x25c)[0x2b833a5fa13c]
[eu-a2p-523:54237] [ 8] /cluster/spack/apps/linux-centos7-x86_64/gcc-9.3.0/ucx-1.12.1-xfljgpcc4jht7wamy2hjr2mdvn7y3u5g/lib/libuct.so.0(uct_scopy_ep_progress_tx+0x63)[0x2b832e992203]
[eu-a2p-523:54237] [ 9] /cluster/spack/apps/linux-centos7-x86_64/gcc-9.3.0/ucx-1.12.1-xfljgpcc4jht7wamy2hjr2mdvn7y3u5g/lib/libucs.so.0(ucs_arbiter_dispatch_nonempty+0xee)[0x2b832ebde40e]
[eu-a2p-523:54237] [10] /cluster/spack/apps/linux-centos7-x86_64/gcc-9.3.0/ucx-1.12.1-xfljgpcc4jht7wamy2hjr2mdvn7y3u5g/lib/libuct.so.0(uct_scopy_iface_progress+0x59)[0x2b832e991b99]
[eu-a2p-523:54237] [11] /cluster/spack/apps/linux-centos7-x86_64/gcc-9.3.0/ucx-1.12.1-xfljgpcc4jht7wamy2hjr2mdvn7y3u5g/lib/libucp.so.0(ucp_worker_progress+0x7a)[0x2b832e6882aa]
[eu-a2p-523:54237] [12] /cluster/spack/apps/linux-centos7-x86_64/gcc-9.3.0/openmpi-4.1.4-ce3rybsut3hyqo2i2sm5qwu2muxqny3x/lib/libmpi.so.40(mca_pml_ucx_recv+0x11f)[0x2b832c7d9f8f]
[eu-a2p-523:54237] [13] /cluster/spack/apps/linux-centos7-x86_64/gcc-9.3.0/openmpi-4.1.4-ce3rybsut3hyqo2i2sm5qwu2muxqny3x/lib/libmpi.so.40(MPI_Recv+0xf5)[0x2b832c656e45]
[eu-a2p-523:54237] [14] /cluster/scratch/galoisi/DPHPC/2022_hs_polybench_parallelization/src/seidel/OUT/./mpi_insiderank_serial.out[0x401e48]
[eu-a2p-523:54237] [15] /lib64/libc.so.6(__libc_start_main+0xf5)[0x2b832cf4e555]
[eu-a2p-523:54237] [16] /cluster/scratch/galoisi/DPHPC/2022_hs_polybench_parallelization/src/seidel/OUT/./mpi_insiderank_serial.out[0x401f8c]
[eu-a2p-523:54237] *** End of error message ***
slurmstepd: error: Detected 1 oom-kill event(s) in StepId=4309684.0. Some of your processes may have been killed by the cgroup out-of-memory handler.
srun: error: eu-a2p-523: task 0: Out Of Memory
slurmstepd: error: *** STEP 4309684.0 ON eu-a2p-523 CANCELLED AT 2022-12-14T19:47:43 DUE TO TIME LIMIT ***
slurmstepd: error: *** JOB 4309684 ON eu-a2p-523 CANCELLED AT 2022-12-14T19:47:43 DUE TO TIME LIMIT ***
srun: Job step aborted: Waiting up to 32 seconds for job step to finish.
slurmstepd: error: Detected 1 oom-kill event(s) in StepId=4309684.batch. Some of your processes may have been killed by the cgroup out-of-memory handler.
