srun: error: poll: Bad address
srun: error: eu-g1-039-2: tasks 1-2,4-6,8,11-12,14-23,25-30,33,40-45,47,49,51-52,54-55,57-61,63,65,67,69-71,73-75,77,79,81-82,86-89,91,94-95,97,99,101,103,107,109,111-117,119-123,125,127: Out Of Memory
slurmstepd: error: *** JOB 4309680 ON eu-g1-039-2 CANCELLED AT 2022-12-14T19:46:41 DUE TO TIME LIMIT ***
srun: Job step aborted: Waiting up to 32 seconds for job step to finish.
slurmstepd: error: Detected 3322 oom-kill event(s) in StepId=4309680.batch. Some of your processes may have been killed by the cgroup out-of-memory handler.
