MPI_insiderank_serial
Process 0: 7.855824, 7.284771, 7.197766, 7.142716, 7.166753, 7.118425, 7.118123, 7.167581, 7.115893, 7.096795, 7.112593, 7.110593, 7.126604, 7.113168, 7.086468, 7.118626, 7.106849, 7.086838, 7.077878, 7.165946, 7.079960, 7.112758, 7.115927, 7.096207, 7.149137, 7.099128, 7.082723, 7.114486, 7.165633, 7.088257
Process 1: 7.634974, 7.123519, 6.958401, 6.921200, 6.946959, 6.924231, 6.878761, 6.940375, 6.904984, 6.878023, 6.866837, 6.886085, 6.908695, 6.917648, 6.874439, 6.890709, 6.869041, 6.866784, 6.858575, 6.970215, 6.860640, 6.867516, 6.895675, 6.877927, 6.946667, 6.887417, 6.870743, 6.875572, 6.939362, 6.877936
Process 2: 7.734982, 7.164433, 7.075803, 7.004771, 7.055963, 7.007789, 6.986415, 7.047748, 6.996407, 6.984983, 6.989936, 6.992845, 7.016640, 7.001843, 6.970163, 6.999345, 6.984430, 6.967395, 6.963302, 7.038376, 6.969065, 6.988119, 6.996116, 6.985186, 7.029491, 6.988561, 6.971859, 6.991806, 7.047156, 6.977452
Process 3: 7.859543, 7.288450, 7.201774, 7.147075, 7.170554, 7.122358, 7.122225, 7.171154, 7.120027, 7.100378, 7.116497, 7.114624, 7.130036, 7.117034, 7.090236, 7.122700, 7.111150, 7.090346, 7.081632, 7.170028, 7.083314, 7.116909, 7.120028, 7.099876, 7.153302, 7.102547, 7.086522, 7.118584, 7.169724, 7.092198
