mpi_trmm_opt3
Process 0: 6.447172, 6.448514, 6.492763, 6.453786, 6.450282, 6.446498, 6.449739, 6.452566, 6.742089, 6.448504, 6.454987, 6.451777, 6.455277, 6.452977, 6.451488, 6.456915, 6.455918, 6.460291, 6.453404, 6.454535, 6.451904, 6.452821, 6.919161, 6.452041, 6.454607, 6.453457, 6.455344, 6.651947, 6.772552, 6.778791
Process 1: 6.428720, 6.430104, 6.474379, 6.435434, 6.431877, 6.428106, 6.431341, 6.434169, 6.723711, 6.429977, 6.436439, 6.433270, 6.436791, 6.434406, 6.432949, 6.438404, 6.437411, 6.441766, 6.434977, 6.436124, 6.433490, 6.434349, 6.900677, 6.433539, 6.436140, 6.434941, 6.436791, 6.633268, 6.753863, 6.760092
Process 2: 6.439640, 6.441049, 6.485265, 6.446349, 6.442803, 6.439033, 6.442241, 6.445094, 6.734627, 6.441016, 6.447502, 6.444322, 6.447834, 6.445500, 6.443999, 6.449458, 6.448423, 6.452829, 6.445881, 6.447047, 6.444408, 6.445349, 6.911678, 6.444576, 6.447145, 6.446013, 6.447856, 6.644394, 6.764965, 6.771271
Process 3: 6.450439, 6.451744, 6.496011, 6.457022, 6.453517, 6.449705, 6.452978, 6.455773, 6.745329, 6.451732, 6.458224, 6.454997, 6.458540, 6.456199, 6.454718, 6.460145, 6.459167, 6.463535, 6.456656, 6.457743, 6.455140, 6.456066, 6.922426, 6.455250, 6.457885, 6.456679, 6.458598, 6.655175, 6.775778, 6.782040
