MPI_insiderank_optimisedserial
Process 0: 1.249008, 1.372609, 1.017142, 1.097143, 1.219127, 1.113104, 1.178669, 1.086663, 1.208400, 1.118112, 1.067172, 1.079640, 0.998559, 1.137371, 0.974085, 1.056528, 1.133867, 1.015130, 1.146559, 1.019713, 1.064193, 1.035099, 1.095980, 1.027390, 0.985368, 1.160434, 0.967829, 1.079415, 1.047553, 1.068822
Process 1: 1.229240, 1.349994, 0.994193, 1.076089, 1.195841, 1.092483, 1.157600, 1.063371, 1.189969, 1.094895, 1.046014, 1.059181, 0.974780, 1.115773, 0.951993, 1.034950, 1.110722, 0.992971, 1.123117, 0.996113, 1.041395, 1.011135, 1.073242, 1.004854, 0.964010, 1.137576, 0.946016, 1.058512, 1.023284, 1.047519
Process 2: 1.235485, 1.359996, 1.004663, 1.085973, 1.204681, 1.100314, 1.166379, 1.073416, 1.197291, 1.106259, 1.054840, 1.068913, 0.986306, 1.125859, 0.962397, 1.044650, 1.122370, 1.003171, 1.132639, 1.007545, 1.051597, 1.022724, 1.084039, 1.016157, 0.974452, 1.147146, 0.957471, 1.068892, 1.035325, 1.057612
Process 3: 1.249820, 1.372605, 1.017143, 1.097143, 1.219126, 1.113103, 1.178668, 1.086663, 1.208399, 1.118111, 1.067173, 1.079640, 0.998557, 1.137370, 0.974083, 1.056527, 1.133866, 1.015128, 1.146560, 1.019713, 1.064190, 1.035098, 1.095979, 1.027389, 0.985367, 1.160433, 0.967828, 1.079414, 1.047553, 1.068821
