MPI_insiderank_optimisedserial
Process 0: 0.707207, 0.614816, 0.569862, 0.569895, 0.572650, 0.575243, 0.569850, 0.569750, 0.575905, 0.568486, 0.566215, 0.905627, 0.564614, 0.565857, 0.572734, 0.565087, 0.564963, 0.564749, 0.564216, 0.564754, 0.564068, 0.564318, 0.565206, 0.566454, 0.564441, 0.564021, 0.568561, 0.564583, 0.564717, 0.564231
Process 1: 0.580066, 0.488591, 0.444725, 0.444055, 0.449427, 0.450995, 0.444587, 0.442877, 0.449610, 0.442936, 0.443335, 0.782123, 0.441688, 0.442727, 0.447494, 0.441577, 0.441631, 0.440709, 0.440250, 0.439721, 0.440918, 0.441255, 0.441562, 0.448565, 0.439987, 0.440860, 0.447405, 0.439938, 0.440110, 0.439847
Process 2: 0.587276, 0.496233, 0.452422, 0.452030, 0.457461, 0.459404, 0.452273, 0.450580, 0.456138, 0.451264, 0.451475, 0.790001, 0.449475, 0.449810, 0.455182, 0.449800, 0.449389, 0.449244, 0.448560, 0.448010, 0.449658, 0.449335, 0.450267, 0.457052, 0.448188, 0.448525, 0.455591, 0.448068, 0.447635, 0.447629
Process 3: 0.594025, 0.502522, 0.458863, 0.458009, 0.463527, 0.465906, 0.458931, 0.457758, 0.462875, 0.457914, 0.458131, 0.796474, 0.455959, 0.455582, 0.461676, 0.456006, 0.455627, 0.455372, 0.454269, 0.454637, 0.456234, 0.455578, 0.456412, 0.462981, 0.454369, 0.454850, 0.463015, 0.453993, 0.454887, 0.454032
Process 4: 0.598678, 0.507653, 0.463526, 0.462950, 0.468635, 0.470653, 0.464059, 0.462709, 0.468511, 0.463117, 0.462642, 0.801100, 0.460976, 0.460003, 0.466641, 0.460588, 0.460585, 0.460161, 0.459419, 0.459697, 0.460921, 0.460696, 0.460583, 0.466836, 0.459567, 0.460173, 0.468804, 0.458483, 0.459932, 0.458885
Process 5: 0.602955, 0.512265, 0.468392, 0.467934, 0.473122, 0.474647, 0.468571, 0.467472, 0.473168, 0.467922, 0.467149, 0.805955, 0.465739, 0.464889, 0.470935, 0.464836, 0.465242, 0.464155, 0.463009, 0.464116, 0.465463, 0.465496, 0.465047, 0.471743, 0.464371, 0.464635, 0.474071, 0.462832, 0.464793, 0.463265
Process 6: 0.606571, 0.515282, 0.471684, 0.471365, 0.476980, 0.478819, 0.471657, 0.470758, 0.476648, 0.471360, 0.470307, 0.808932, 0.468783, 0.468511, 0.474291, 0.468165, 0.468524, 0.467737, 0.467001, 0.467446, 0.468896, 0.469294, 0.467995, 0.475441, 0.467379, 0.468529, 0.479133, 0.466901, 0.468238, 0.467643
Process 7: 0.612379, 0.520390, 0.476167, 0.475893, 0.480940, 0.482415, 0.476116, 0.476164, 0.482026, 0.475927, 0.474767, 0.813459, 0.473219, 0.472338, 0.479120, 0.472734, 0.472839, 0.472800, 0.472617, 0.472018, 0.473037, 0.473091, 0.472098, 0.479388, 0.471957, 0.472329, 0.483494, 0.473050, 0.472883, 0.471110
Process 8: 0.618112, 0.526126, 0.481138, 0.480806, 0.484411, 0.485781, 0.481121, 0.481123, 0.487037, 0.480645, 0.479395, 0.818274, 0.477807, 0.476791, 0.484478, 0.477872, 0.477560, 0.477914, 0.477643, 0.477058, 0.477491, 0.477384, 0.477777, 0.482288, 0.477115, 0.476199, 0.488205, 0.477921, 0.477858, 0.474417
Process 9: 0.623446, 0.531862, 0.487246, 0.486978, 0.487427, 0.492544, 0.487550, 0.486928, 0.493387, 0.487067, 0.485503, 0.824827, 0.483891, 0.482331, 0.490909, 0.483787, 0.483695, 0.483568, 0.483557, 0.483152, 0.483815, 0.483456, 0.484028, 0.485684, 0.482715, 0.482606, 0.492606, 0.483620, 0.483863, 0.480588
Process 10: 0.628398, 0.536565, 0.491449, 0.492061, 0.490700, 0.497023, 0.492019, 0.491531, 0.498057, 0.491856, 0.490031, 0.829232, 0.488114, 0.488120, 0.495376, 0.488159, 0.487902, 0.488159, 0.487998, 0.487803, 0.487722, 0.487717, 0.487486, 0.489636, 0.487642, 0.487180, 0.496395, 0.488128, 0.488236, 0.485392
Process 11: 0.633403, 0.541382, 0.496872, 0.497021, 0.498088, 0.502241, 0.497040, 0.496545, 0.503036, 0.496757, 0.497724, 0.834126, 0.492802, 0.491786, 0.500499, 0.493064, 0.492786, 0.492964, 0.492663, 0.492815, 0.492363, 0.492467, 0.491971, 0.494523, 0.492546, 0.492150, 0.500323, 0.492684, 0.493067, 0.490378
Process 12: 0.637694, 0.545893, 0.501239, 0.501410, 0.505839, 0.506380, 0.501313, 0.500998, 0.507380, 0.501002, 0.501113, 0.838420, 0.497264, 0.495306, 0.504950, 0.497581, 0.497110, 0.497250, 0.496869, 0.497473, 0.496749, 0.496861, 0.495886, 0.499252, 0.496983, 0.496489, 0.503877, 0.496987, 0.497298, 0.495011
Process 13: 0.642466, 0.550834, 0.505840, 0.505944, 0.510645, 0.511042, 0.505820, 0.505719, 0.511875, 0.505437, 0.504803, 0.842946, 0.501823, 0.500529, 0.509712, 0.502132, 0.501570, 0.501992, 0.501459, 0.501991, 0.501318, 0.501329, 0.500991, 0.503780, 0.501539, 0.501095, 0.507577, 0.501586, 0.501827, 0.499888
Process 14: 0.646800, 0.555070, 0.510152, 0.510233, 0.514747, 0.515495, 0.510239, 0.510023, 0.516226, 0.509760, 0.509048, 0.847216, 0.506052, 0.505115, 0.514024, 0.506372, 0.505880, 0.506096, 0.505727, 0.506279, 0.505524, 0.505650, 0.505306, 0.507853, 0.505902, 0.505473, 0.511269, 0.505857, 0.506125, 0.504085
Process 15: 0.651822, 0.559664, 0.514856, 0.515013, 0.519046, 0.520373, 0.514924, 0.514704, 0.520974, 0.514582, 0.513550, 0.851952, 0.510758, 0.510099, 0.518813, 0.511133, 0.510578, 0.510805, 0.510471, 0.510959, 0.510264, 0.510374, 0.510119, 0.512336, 0.510575, 0.510189, 0.515949, 0.510585, 0.510806, 0.508932
Process 16: 0.656023, 0.563893, 0.518943, 0.518893, 0.522838, 0.524522, 0.519015, 0.518731, 0.525003, 0.518625, 0.517455, 0.856010, 0.514928, 0.514507, 0.522919, 0.515231, 0.514562, 0.514864, 0.514513, 0.514915, 0.514412, 0.514386, 0.514481, 0.516328, 0.514614, 0.514265, 0.519825, 0.514578, 0.514805, 0.513119
Process 17: 0.660174, 0.568171, 0.523079, 0.523093, 0.526574, 0.528565, 0.523185, 0.522852, 0.529066, 0.522707, 0.521908, 0.860155, 0.518978, 0.518954, 0.526857, 0.519259, 0.518754, 0.518895, 0.518612, 0.519022, 0.518414, 0.518570, 0.518612, 0.520431, 0.518802, 0.518268, 0.524242, 0.518614, 0.518952, 0.517222
Process 18: 0.663673, 0.571654, 0.526506, 0.526604, 0.529724, 0.532015, 0.526645, 0.526335, 0.532583, 0.526175, 0.525251, 0.863611, 0.522399, 0.522609, 0.530349, 0.522678, 0.522152, 0.522288, 0.521980, 0.522525, 0.521763, 0.521991, 0.522117, 0.523877, 0.522217, 0.521696, 0.527549, 0.521981, 0.522413, 0.520948
Process 19: 0.667309, 0.575224, 0.530146, 0.530224, 0.533398, 0.535579, 0.530187, 0.529907, 0.536129, 0.529623, 0.528633, 0.867016, 0.525909, 0.526424, 0.533793, 0.526205, 0.525635, 0.525748, 0.525513, 0.525960, 0.525251, 0.525642, 0.525791, 0.527337, 0.525651, 0.525190, 0.531007, 0.525488, 0.525911, 0.524819
Process 20: 0.670533, 0.578462, 0.533326, 0.533426, 0.536515, 0.538802, 0.533364, 0.533147, 0.539359, 0.532746, 0.531645, 0.870126, 0.528985, 0.529864, 0.537033, 0.529275, 0.528746, 0.528899, 0.528582, 0.529023, 0.528431, 0.528577, 0.529192, 0.530429, 0.528748, 0.528336, 0.533880, 0.528676, 0.528977, 0.528195
Process 21: 0.674047, 0.581833, 0.536761, 0.536785, 0.540013, 0.542217, 0.536799, 0.536529, 0.542773, 0.536038, 0.534882, 0.873402, 0.532259, 0.533328, 0.540299, 0.532607, 0.532035, 0.532280, 0.531857, 0.532335, 0.531660, 0.531904, 0.532692, 0.533917, 0.532042, 0.531616, 0.537260, 0.532143, 0.532305, 0.531688
Process 22: 0.677370, 0.585316, 0.540330, 0.540288, 0.543208, 0.545609, 0.540284, 0.540096, 0.546222, 0.539416, 0.538388, 0.876715, 0.535578, 0.536835, 0.543790, 0.536098, 0.535351, 0.535741, 0.535250, 0.535810, 0.535066, 0.535366, 0.536248, 0.537372, 0.535459, 0.535075, 0.540736, 0.535627, 0.535796, 0.535169
Process 23: 0.681002, 0.588731, 0.543793, 0.543746, 0.546643, 0.549108, 0.543787, 0.543597, 0.549715, 0.542791, 0.541556, 0.880066, 0.539015, 0.540215, 0.547140, 0.539494, 0.538684, 0.539147, 0.538639, 0.539145, 0.538446, 0.538741, 0.539582, 0.540762, 0.538817, 0.538389, 0.543998, 0.538990, 0.539136, 0.538590
Process 24: 0.684096, 0.591977, 0.546846, 0.546813, 0.549649, 0.552168, 0.546806, 0.546642, 0.552795, 0.545807, 0.544934, 0.883232, 0.541993, 0.543215, 0.550437, 0.542650, 0.541653, 0.542339, 0.541808, 0.542500, 0.541629, 0.541703, 0.542749, 0.543784, 0.542140, 0.541576, 0.546936, 0.542154, 0.542440, 0.541934
Process 25: 0.687765, 0.595388, 0.550410, 0.550400, 0.553190, 0.555745, 0.550350, 0.550175, 0.556338, 0.549545, 0.548234, 0.886757, 0.545899, 0.547124, 0.553842, 0.546209, 0.545606, 0.545865, 0.545374, 0.545859, 0.545205, 0.545430, 0.546490, 0.547207, 0.545547, 0.545145, 0.550653, 0.545689, 0.545833, 0.545358
Process 26: 0.690712, 0.598460, 0.553425, 0.553408, 0.556177, 0.558738, 0.553363, 0.553196, 0.559356, 0.552461, 0.550919, 0.889678, 0.548619, 0.549860, 0.556730, 0.549106, 0.548302, 0.548745, 0.548246, 0.548771, 0.548098, 0.548321, 0.549270, 0.550279, 0.548448, 0.548036, 0.553287, 0.548591, 0.548726, 0.548228
Process 27: 0.694241, 0.601886, 0.556944, 0.556923, 0.559720, 0.562286, 0.556893, 0.556712, 0.562933, 0.555908, 0.554536, 0.893106, 0.552044, 0.553289, 0.560170, 0.552555, 0.551739, 0.552185, 0.551669, 0.552191, 0.551509, 0.551774, 0.553095, 0.554187, 0.551872, 0.551454, 0.556882, 0.552015, 0.552143, 0.551700
Process 28: 0.697379, 0.604981, 0.559995, 0.559976, 0.562763, 0.565287, 0.559921, 0.559760, 0.565963, 0.558833, 0.557447, 0.896005, 0.554984, 0.556234, 0.563089, 0.555461, 0.554670, 0.555104, 0.554594, 0.555107, 0.554436, 0.554678, 0.555583, 0.556817, 0.554805, 0.554392, 0.559799, 0.554944, 0.555075, 0.554612
Process 29: 0.701107, 0.608381, 0.563437, 0.563474, 0.566232, 0.568804, 0.563419, 0.563233, 0.569459, 0.562222, 0.560666, 0.899398, 0.558374, 0.559616, 0.566488, 0.558856, 0.558220, 0.558503, 0.557989, 0.558499, 0.557846, 0.558061, 0.558988, 0.560203, 0.558206, 0.557778, 0.562427, 0.558342, 0.558477, 0.558016
Process 30: 0.703932, 0.611262, 0.566302, 0.566350, 0.569106, 0.571659, 0.566289, 0.566126, 0.572360, 0.565006, 0.562724, 0.902163, 0.561135, 0.562419, 0.569237, 0.561633, 0.561756, 0.561284, 0.560757, 0.561279, 0.560607, 0.560831, 0.561746, 0.562992, 0.560971, 0.560542, 0.565083, 0.561112, 0.561239, 0.560785
Process 31: 0.707459, 0.614816, 0.569860, 0.569895, 0.572638, 0.575245, 0.569857, 0.569751, 0.575906, 0.568485, 0.566215, 0.905626, 0.564615, 0.565857, 0.572737, 0.565087, 0.564967, 0.564747, 0.564216, 0.564753, 0.564068, 0.564319, 0.565205, 0.566455, 0.564442, 0.564008, 0.568558, 0.564579, 0.564717, 0.564243
