MPI_insiderank_optimisedserial
Process 0: 0.517132, 0.329680, 0.282760, 0.281142, 0.278652, 0.275890, 0.275701, 0.275838, 0.275746, 0.275878, 0.286519, 0.279895, 0.276809, 0.276126, 0.276141, 0.276324, 0.276614, 0.276267, 0.277318, 0.277050, 0.276925, 0.286217, 0.283971, 0.281613, 0.278003, 0.276954, 0.277262, 0.277141, 0.277262, 0.282165
Process 1: 0.408177, 0.221989, 0.171377, 0.181547, 0.169441, 0.166771, 0.166622, 0.166778, 0.166840, 0.166925, 0.176640, 0.170480, 0.167132, 0.166855, 0.166899, 0.166896, 0.167152, 0.166951, 0.168761, 0.167268, 0.167160, 0.174409, 0.176668, 0.171662, 0.168451, 0.167546, 0.167839, 0.167768, 0.167840, 0.168971
Process 2: 0.409512, 0.225441, 0.174190, 0.182728, 0.171068, 0.168371, 0.168316, 0.168454, 0.168471, 0.168574, 0.178596, 0.172102, 0.168856, 0.168523, 0.168556, 0.168595, 0.168809, 0.168597, 0.170400, 0.168915, 0.168786, 0.176195, 0.178180, 0.173234, 0.170085, 0.169227, 0.169442, 0.169362, 0.169475, 0.170597
Process 3: 0.411458, 0.227006, 0.176909, 0.183978, 0.173020, 0.170289, 0.170234, 0.170321, 0.170354, 0.170485, 0.180593, 0.174021, 0.170730, 0.170467, 0.170454, 0.170481, 0.170742, 0.170509, 0.172297, 0.170850, 0.170675, 0.178124, 0.180021, 0.175194, 0.172029, 0.171135, 0.171418, 0.171272, 0.171371, 0.172515
Process 4: 0.413013, 0.228473, 0.178298, 0.184912, 0.174457, 0.171696, 0.171713, 0.171791, 0.171805, 0.171952, 0.182277, 0.175507, 0.172173, 0.171920, 0.171925, 0.171964, 0.172261, 0.171972, 0.173767, 0.172366, 0.172112, 0.179640, 0.181522, 0.176603, 0.173425, 0.172542, 0.172836, 0.172743, 0.172819, 0.173940
Process 5: 0.414688, 0.230436, 0.180358, 0.186072, 0.176423, 0.173788, 0.173691, 0.173767, 0.173795, 0.173992, 0.184202, 0.177575, 0.174187, 0.173941, 0.173982, 0.173925, 0.174275, 0.173972, 0.175830, 0.174336, 0.174160, 0.181656, 0.183385, 0.178635, 0.175449, 0.174538, 0.174871, 0.174758, 0.174816, 0.175981
Process 6: 0.416223, 0.231914, 0.181815, 0.186979, 0.178024, 0.175287, 0.175216, 0.175297, 0.175299, 0.175472, 0.185887, 0.179070, 0.175709, 0.175447, 0.175532, 0.175469, 0.175801, 0.175594, 0.177307, 0.175862, 0.175701, 0.183173, 0.184892, 0.180207, 0.176946, 0.176022, 0.176369, 0.176269, 0.176364, 0.178951
Process 7: 0.418342, 0.233762, 0.183846, 0.188045, 0.180031, 0.177283, 0.177222, 0.177354, 0.177339, 0.177466, 0.187665, 0.181062, 0.177724, 0.177427, 0.177488, 0.177480, 0.177782, 0.177553, 0.179336, 0.177915, 0.177704, 0.185167, 0.186785, 0.182222, 0.178954, 0.178049, 0.178360, 0.178284, 0.178382, 0.181468
Process 8: 0.420062, 0.235646, 0.185481, 0.189031, 0.181748, 0.178981, 0.178925, 0.179065, 0.179081, 0.179181, 0.189223, 0.182764, 0.179430, 0.179112, 0.179186, 0.179243, 0.179480, 0.179210, 0.181010, 0.179574, 0.179420, 0.186918, 0.188552, 0.183924, 0.180628, 0.179747, 0.180054, 0.179977, 0.180043, 0.183063
Process 9: 0.422018, 0.237267, 0.187264, 0.190057, 0.183448, 0.180680, 0.180626, 0.180782, 0.180778, 0.180875, 0.190987, 0.184432, 0.181155, 0.180851, 0.180851, 0.180950, 0.181183, 0.180939, 0.182694, 0.181261, 0.181169, 0.188643, 0.190259, 0.185611, 0.182299, 0.181448, 0.181800, 0.181667, 0.181704, 0.184833
Process 10: 0.423552, 0.238810, 0.188788, 0.191090, 0.185194, 0.182407, 0.182298, 0.182541, 0.182472, 0.182594, 0.192475, 0.186164, 0.182837, 0.182578, 0.182571, 0.182724, 0.182892, 0.182669, 0.184435, 0.183048, 0.182842, 0.190383, 0.191922, 0.187303, 0.184042, 0.183226, 0.183513, 0.183364, 0.183434, 0.187353
Process 11: 0.425216, 0.240577, 0.190616, 0.192127, 0.186955, 0.184167, 0.184057, 0.184270, 0.184240, 0.184315, 0.193980, 0.187934, 0.184566, 0.184313, 0.184318, 0.184452, 0.184639, 0.184391, 0.186165, 0.184782, 0.184624, 0.192167, 0.193637, 0.189005, 0.185760, 0.184957, 0.185259, 0.185127, 0.185146, 0.189701
Process 12: 0.427054, 0.242269, 0.192196, 0.193187, 0.188782, 0.186022, 0.185895, 0.186050, 0.186078, 0.186119, 0.195579, 0.189821, 0.186409, 0.186096, 0.186166, 0.186250, 0.186503, 0.186249, 0.187912, 0.186566, 0.186497, 0.193879, 0.195270, 0.190816, 0.187610, 0.186651, 0.187099, 0.186913, 0.186967, 0.191365
Process 13: 0.428882, 0.244019, 0.193982, 0.194246, 0.190557, 0.187789, 0.187696, 0.187849, 0.187889, 0.187948, 0.197324, 0.191610, 0.188217, 0.187901, 0.187972, 0.188095, 0.188311, 0.188052, 0.189706, 0.188371, 0.188314, 0.195630, 0.197063, 0.192598, 0.189404, 0.188458, 0.188892, 0.188708, 0.188776, 0.193128
Process 14: 0.430754, 0.245749, 0.195674, 0.195337, 0.192466, 0.189671, 0.189583, 0.189722, 0.189747, 0.189831, 0.198922, 0.193489, 0.190105, 0.189778, 0.189851, 0.189971, 0.190211, 0.189919, 0.191487, 0.190252, 0.190214, 0.197402, 0.199175, 0.194481, 0.191284, 0.190372, 0.190809, 0.190614, 0.190682, 0.194834
Process 15: 0.432839, 0.247551, 0.197457, 0.196402, 0.194239, 0.191389, 0.191345, 0.191521, 0.191537, 0.191604, 0.200589, 0.195233, 0.191881, 0.191589, 0.191627, 0.191813, 0.192015, 0.191691, 0.193175, 0.192058, 0.191967, 0.199131, 0.200780, 0.196278, 0.193067, 0.192118, 0.192600, 0.192376, 0.192459, 0.196558
Process 16: 0.434383, 0.249299, 0.198990, 0.197347, 0.195944, 0.193140, 0.193090, 0.193269, 0.193257, 0.193367, 0.202308, 0.196947, 0.193588, 0.193311, 0.193328, 0.193559, 0.193768, 0.193357, 0.194761, 0.193773, 0.193689, 0.200749, 0.202509, 0.198023, 0.194756, 0.193825, 0.194307, 0.194115, 0.194159, 0.198174
Process 17: 0.436402, 0.251013, 0.200948, 0.199082, 0.197848, 0.195017, 0.194954, 0.195156, 0.195089, 0.195285, 0.204185, 0.198863, 0.195455, 0.195227, 0.195209, 0.195410, 0.195665, 0.195265, 0.196551, 0.195672, 0.195594, 0.202531, 0.204255, 0.201486, 0.196658, 0.195683, 0.196156, 0.196046, 0.196009, 0.199928
Process 18: 0.437873, 0.253496, 0.202589, 0.200707, 0.199517, 0.196661, 0.196660, 0.196836, 0.196810, 0.196951, 0.205869, 0.200532, 0.197173, 0.196916, 0.196905, 0.197114, 0.197387, 0.196963, 0.198210, 0.197358, 0.197271, 0.204193, 0.205806, 0.203104, 0.198352, 0.197389, 0.197841, 0.197703, 0.197726, 0.201433
Process 19: 0.439812, 0.255780, 0.204459, 0.202704, 0.201482, 0.198630, 0.198654, 0.198789, 0.198764, 0.198915, 0.207850, 0.202520, 0.199179, 0.198907, 0.198918, 0.199140, 0.199351, 0.198941, 0.200143, 0.199323, 0.199236, 0.206043, 0.207713, 0.204975, 0.200314, 0.199390, 0.199822, 0.199638, 0.199686, 0.203283
Process 20: 0.441462, 0.257230, 0.206120, 0.204351, 0.203245, 0.200356, 0.200341, 0.200529, 0.200463, 0.200625, 0.209523, 0.204185, 0.200867, 0.200627, 0.200612, 0.200841, 0.201048, 0.200645, 0.201782, 0.201042, 0.200943, 0.207719, 0.209084, 0.206542, 0.202043, 0.201108, 0.201562, 0.201333, 0.201387, 0.204783
Process 21: 0.443836, 0.259090, 0.208025, 0.206314, 0.205194, 0.202378, 0.202329, 0.202541, 0.202471, 0.202615, 0.211486, 0.206159, 0.202850, 0.202639, 0.202623, 0.202830, 0.203086, 0.202619, 0.203733, 0.203059, 0.202929, 0.209629, 0.210989, 0.208506, 0.204051, 0.203090, 0.203533, 0.203341, 0.203330, 0.206622
Process 22: 0.445362, 0.260583, 0.209678, 0.207963, 0.206895, 0.204097, 0.204028, 0.204277, 0.204196, 0.204323, 0.213184, 0.207893, 0.204596, 0.204338, 0.204362, 0.204563, 0.204771, 0.204354, 0.205398, 0.204751, 0.204675, 0.211314, 0.212393, 0.210169, 0.205801, 0.204861, 0.205252, 0.205091, 0.205054, 0.208153
Process 23: 0.447207, 0.262382, 0.211591, 0.209865, 0.208883, 0.206092, 0.205994, 0.206271, 0.206195, 0.206307, 0.215168, 0.209894, 0.206574, 0.206323, 0.206370, 0.206573, 0.206730, 0.206323, 0.207299, 0.206715, 0.206683, 0.213215, 0.214308, 0.212134, 0.207760, 0.206852, 0.207245, 0.207074, 0.207070, 0.210051
Process 24: 0.449140, 0.264001, 0.213254, 0.211480, 0.210523, 0.207759, 0.207700, 0.207931, 0.207848, 0.207947, 0.216833, 0.211588, 0.208248, 0.207993, 0.208049, 0.208238, 0.208431, 0.207992, 0.208952, 0.208371, 0.208365, 0.214819, 0.215706, 0.213790, 0.209451, 0.208573, 0.208953, 0.208745, 0.208764, 0.211539
Process 25: 0.451018, 0.265856, 0.215235, 0.213465, 0.212595, 0.209757, 0.209707, 0.209951, 0.209844, 0.209984, 0.218798, 0.213583, 0.210275, 0.210001, 0.210025, 0.210251, 0.210423, 0.209984, 0.210936, 0.210402, 0.210348, 0.216753, 0.217600, 0.215810, 0.211452, 0.210582, 0.210947, 0.210730, 0.210783, 0.213375
Process 26: 0.452799, 0.267258, 0.216855, 0.215099, 0.214229, 0.211455, 0.211366, 0.211664, 0.211527, 0.211670, 0.220477, 0.215258, 0.211988, 0.211729, 0.211705, 0.211922, 0.212118, 0.211673, 0.212563, 0.212133, 0.212009, 0.218393, 0.219109, 0.217478, 0.213128, 0.212267, 0.212629, 0.212431, 0.212504, 0.214860
Process 27: 0.454652, 0.269071, 0.218830, 0.217142, 0.216277, 0.213539, 0.213403, 0.213694, 0.213580, 0.213716, 0.222482, 0.217304, 0.214026, 0.213779, 0.213761, 0.213948, 0.214156, 0.213694, 0.214534, 0.214192, 0.214082, 0.220399, 0.220992, 0.219491, 0.215195, 0.214337, 0.214635, 0.214495, 0.214544, 0.216675
Process 28: 0.456297, 0.270562, 0.220524, 0.218794, 0.217968, 0.215272, 0.215135, 0.215413, 0.215320, 0.215434, 0.224278, 0.219061, 0.215743, 0.215531, 0.215489, 0.215671, 0.215857, 0.215451, 0.216178, 0.215920, 0.215811, 0.222109, 0.222605, 0.221172, 0.216932, 0.216057, 0.216346, 0.216202, 0.216323, 0.218213
Process 29: 0.458353, 0.272405, 0.222501, 0.220772, 0.219988, 0.217278, 0.217182, 0.217410, 0.217369, 0.217445, 0.228316, 0.221112, 0.217803, 0.217528, 0.217509, 0.217711, 0.217873, 0.217486, 0.218195, 0.217949, 0.217884, 0.224137, 0.224430, 0.223223, 0.218986, 0.218100, 0.218382, 0.218239, 0.218336, 0.220187
Process 30: 0.460099, 0.273896, 0.224127, 0.222410, 0.221688, 0.218946, 0.218878, 0.219059, 0.219039, 0.219130, 0.230378, 0.222788, 0.219470, 0.219225, 0.219179, 0.219387, 0.219566, 0.219178, 0.219812, 0.219617, 0.219558, 0.225820, 0.226183, 0.224832, 0.220662, 0.219781, 0.220099, 0.219925, 0.220008, 0.221861
Process 31: 0.462685, 0.275771, 0.227796, 0.224437, 0.223735, 0.220982, 0.220932, 0.221116, 0.221091, 0.221174, 0.232365, 0.224822, 0.221564, 0.221271, 0.221237, 0.221434, 0.221618, 0.221217, 0.221812, 0.221686, 0.221609, 0.227878, 0.228105, 0.226882, 0.222706, 0.221827, 0.222145, 0.221964, 0.222085, 0.223895
Process 32: 0.464273, 0.277659, 0.229900, 0.226167, 0.225538, 0.222824, 0.222817, 0.222980, 0.222914, 0.223032, 0.234178, 0.226678, 0.223426, 0.223138, 0.223045, 0.223253, 0.223451, 0.223046, 0.223623, 0.223506, 0.223431, 0.230363, 0.230121, 0.228637, 0.224573, 0.223702, 0.223980, 0.223839, 0.223912, 0.225685
Process 33: 0.466330, 0.279580, 0.231896, 0.228159, 0.227592, 0.224861, 0.224810, 0.225010, 0.224990, 0.225064, 0.236084, 0.228750, 0.225459, 0.225150, 0.225102, 0.225287, 0.225510, 0.225087, 0.225711, 0.225534, 0.225500, 0.233266, 0.232086, 0.230681, 0.226605, 0.225717, 0.225950, 0.225870, 0.225931, 0.227696
Process 34: 0.467604, 0.280984, 0.233251, 0.229601, 0.229079, 0.226394, 0.226349, 0.226472, 0.226483, 0.226534, 0.237528, 0.230255, 0.226951, 0.226638, 0.226590, 0.226744, 0.226988, 0.226622, 0.227229, 0.227064, 0.227035, 0.234788, 0.233561, 0.232095, 0.228153, 0.227208, 0.227471, 0.227377, 0.227440, 0.229206
Process 35: 0.469705, 0.282848, 0.235260, 0.231638, 0.231128, 0.228379, 0.228360, 0.228504, 0.228483, 0.228559, 0.239407, 0.232272, 0.228954, 0.228659, 0.228587, 0.228805, 0.228999, 0.228640, 0.229288, 0.229121, 0.229076, 0.238039, 0.235660, 0.234117, 0.230162, 0.229212, 0.229498, 0.229398, 0.229458, 0.231270
Process 36: 0.470980, 0.284308, 0.236675, 0.233122, 0.232595, 0.229883, 0.229832, 0.229980, 0.229960, 0.230053, 0.240881, 0.233760, 0.230437, 0.230175, 0.230077, 0.230321, 0.230478, 0.230149, 0.230788, 0.230616, 0.230656, 0.240062, 0.236917, 0.235580, 0.231691, 0.230687, 0.230986, 0.230878, 0.230944, 0.232762
Process 37: 0.473298, 0.286151, 0.238675, 0.235102, 0.234604, 0.231900, 0.231859, 0.232035, 0.231966, 0.232063, 0.242859, 0.235768, 0.232443, 0.232203, 0.232092, 0.232303, 0.232541, 0.232162, 0.232801, 0.232681, 0.232643, 0.242085, 0.238962, 0.237586, 0.233696, 0.232729, 0.233035, 0.232923, 0.232967, 0.234760
Process 38: 0.474701, 0.287626, 0.240096, 0.236593, 0.236168, 0.233422, 0.233369, 0.233521, 0.233472, 0.233560, 0.244333, 0.237316, 0.233962, 0.233702, 0.233622, 0.233814, 0.234039, 0.233676, 0.234340, 0.234208, 0.234188, 0.243541, 0.240432, 0.239068, 0.235264, 0.234233, 0.234532, 0.234412, 0.234480, 0.236273
Process 39: 0.476802, 0.289533, 0.242051, 0.238546, 0.238161, 0.235412, 0.235354, 0.235486, 0.235497, 0.235571, 0.246264, 0.239307, 0.235949, 0.235687, 0.235642, 0.235810, 0.236019, 0.235679, 0.236335, 0.236218, 0.236177, 0.245506, 0.242463, 0.241042, 0.237286, 0.236218, 0.236527, 0.236411, 0.236479, 0.238248
Process 40: 0.478244, 0.291209, 0.243506, 0.242087, 0.239629, 0.236899, 0.236844, 0.236975, 0.236964, 0.237061, 0.247743, 0.240801, 0.237515, 0.237161, 0.237142, 0.237315, 0.237528, 0.237180, 0.237867, 0.237706, 0.237739, 0.246991, 0.243895, 0.242539, 0.238801, 0.237742, 0.238058, 0.237900, 0.238005, 0.239747
Process 41: 0.480006, 0.293100, 0.245482, 0.244066, 0.241593, 0.238899, 0.238795, 0.238921, 0.238911, 0.239027, 0.249698, 0.242773, 0.239471, 0.239136, 0.239098, 0.239269, 0.239469, 0.239172, 0.239830, 0.239693, 0.239687, 0.248922, 0.245836, 0.244486, 0.240772, 0.239731, 0.240058, 0.239915, 0.239943, 0.241704
Process 42: 0.481406, 0.294935, 0.246895, 0.245527, 0.243059, 0.240362, 0.240237, 0.240430, 0.240355, 0.240469, 0.251146, 0.244208, 0.240979, 0.240635, 0.240576, 0.240745, 0.241008, 0.240610, 0.241291, 0.241204, 0.241245, 0.250372, 0.247360, 0.245937, 0.242235, 0.241185, 0.241537, 0.241367, 0.241404, 0.243212
Process 43: 0.483529, 0.296375, 0.248783, 0.247415, 0.244962, 0.242272, 0.242138, 0.242312, 0.242247, 0.242355, 0.253052, 0.246117, 0.242878, 0.242510, 0.242476, 0.242638, 0.242921, 0.242500, 0.243183, 0.243145, 0.243139, 0.252279, 0.249233, 0.247851, 0.244132, 0.243062, 0.243442, 0.243281, 0.243301, 0.246123
Process 44: 0.484767, 0.297825, 0.250230, 0.248881, 0.246461, 0.243746, 0.243655, 0.243821, 0.243757, 0.243861, 0.254494, 0.247642, 0.244396, 0.244020, 0.244013, 0.244133, 0.244431, 0.244006, 0.244697, 0.244651, 0.244705, 0.253795, 0.250888, 0.249333, 0.245660, 0.244549, 0.244928, 0.244777, 0.244910, 0.248161
Process 45: 0.486941, 0.299682, 0.252117, 0.250759, 0.248394, 0.245685, 0.245554, 0.245729, 0.245691, 0.245762, 0.256366, 0.249575, 0.246328, 0.245923, 0.245925, 0.246045, 0.246328, 0.245948, 0.246597, 0.246553, 0.246632, 0.255710, 0.252526, 0.251302, 0.247570, 0.246491, 0.246882, 0.246737, 0.246846, 0.250096
Process 46: 0.488123, 0.301074, 0.253521, 0.252198, 0.249831, 0.247124, 0.247027, 0.247165, 0.247126, 0.247218, 0.257773, 0.251013, 0.247796, 0.247347, 0.247372, 0.247524, 0.247786, 0.247395, 0.248090, 0.247995, 0.248101, 0.257171, 0.254112, 0.252752, 0.249018, 0.248009, 0.248362, 0.248194, 0.248316, 0.251580
Process 47: 0.489994, 0.302954, 0.255465, 0.254150, 0.251785, 0.249046, 0.248941, 0.249085, 0.249049, 0.249153, 0.259674, 0.252927, 0.249783, 0.249273, 0.249282, 0.249465, 0.249724, 0.249315, 0.250015, 0.249910, 0.250036, 0.259097, 0.256121, 0.254667, 0.250944, 0.249939, 0.250308, 0.250102, 0.250234, 0.253512
Process 48: 0.492488, 0.304997, 0.256846, 0.255543, 0.253233, 0.250491, 0.250399, 0.250536, 0.250459, 0.250584, 0.261097, 0.254393, 0.251188, 0.250767, 0.250704, 0.250897, 0.251183, 0.250739, 0.251455, 0.251347, 0.251466, 0.260524, 0.257459, 0.256087, 0.252362, 0.251353, 0.251730, 0.251537, 0.251740, 0.255012
Process 49: 0.493610, 0.306441, 0.258764, 0.257458, 0.255185, 0.252413, 0.252295, 0.252449, 0.252368, 0.252476, 0.263005, 0.256306, 0.253153, 0.252670, 0.252615, 0.252792, 0.253088, 0.252643, 0.253359, 0.253268, 0.253366, 0.262416, 0.259163, 0.258030, 0.254273, 0.253256, 0.253624, 0.253521, 0.253647, 0.256898
Process 50: 0.494948, 0.307864, 0.260133, 0.258820, 0.256561, 0.253775, 0.253674, 0.253807, 0.253758, 0.253876, 0.264396, 0.257694, 0.254535, 0.254052, 0.254035, 0.254171, 0.254484, 0.254027, 0.254766, 0.254651, 0.254774, 0.263839, 0.260777, 0.259449, 0.255723, 0.254710, 0.255054, 0.254913, 0.255031, 0.258316
Process 51: 0.496989, 0.309658, 0.262042, 0.260703, 0.258447, 0.255670, 0.255571, 0.255696, 0.255672, 0.255756, 0.266305, 0.259615, 0.256495, 0.255950, 0.255948, 0.256056, 0.256344, 0.255939, 0.256719, 0.256538, 0.256664, 0.265715, 0.262611, 0.261372, 0.257619, 0.256613, 0.256978, 0.256792, 0.256968, 0.260272
Process 52: 0.498208, 0.311090, 0.263473, 0.262187, 0.259896, 0.257121, 0.257052, 0.257144, 0.257122, 0.257221, 0.267740, 0.261112, 0.257946, 0.257401, 0.257412, 0.257541, 0.257797, 0.257392, 0.258188, 0.257992, 0.258123, 0.267193, 0.264171, 0.262821, 0.259081, 0.258101, 0.258407, 0.258242, 0.258434, 0.262474
Process 53: 0.500292, 0.312927, 0.265968, 0.264571, 0.261823, 0.259053, 0.258947, 0.259015, 0.259012, 0.259113, 0.269897, 0.263013, 0.259913, 0.259322, 0.259297, 0.259435, 0.259687, 0.259297, 0.260101, 0.259894, 0.260010, 0.269093, 0.267211, 0.264715, 0.260968, 0.260011, 0.260317, 0.260223, 0.260315, 0.265599
Process 54: 0.502242, 0.314366, 0.267469, 0.266217, 0.263255, 0.260475, 0.260405, 0.260457, 0.260475, 0.260558, 0.271461, 0.264436, 0.261338, 0.260818, 0.260744, 0.260872, 0.261156, 0.260764, 0.261539, 0.261351, 0.261457, 0.270555, 0.268951, 0.266146, 0.262405, 0.261440, 0.261768, 0.261663, 0.261758, 0.266926
Process 55: 0.503384, 0.316675, 0.269665, 0.268135, 0.265145, 0.262430, 0.262289, 0.262958, 0.262752, 0.262726, 0.273412, 0.267045, 0.263704, 0.263290, 0.262626, 0.262953, 0.263635, 0.262642, 0.264029, 0.263480, 0.263737, 0.273006, 0.270737, 0.268303, 0.264501, 0.263631, 0.264137, 0.263579, 0.263678, 0.268890
Process 56: 0.505024, 0.318242, 0.271185, 0.269586, 0.266914, 0.264211, 0.264056, 0.264141, 0.264101, 0.264201, 0.274807, 0.268219, 0.265026, 0.264440, 0.264471, 0.264523, 0.264830, 0.264459, 0.265436, 0.265110, 0.265206, 0.274478, 0.272336, 0.269883, 0.266110, 0.265213, 0.265458, 0.264984, 0.265513, 0.270551
Process 57: 0.507450, 0.320035, 0.273000, 0.271428, 0.268867, 0.266137, 0.265937, 0.266038, 0.266009, 0.266093, 0.276663, 0.270093, 0.266950, 0.266325, 0.266361, 0.266434, 0.266719, 0.266403, 0.267345, 0.267076, 0.267130, 0.276359, 0.274169, 0.271731, 0.268024, 0.267129, 0.267359, 0.267148, 0.267420, 0.272385
Process 58: 0.508912, 0.321408, 0.274465, 0.272901, 0.270287, 0.267605, 0.267381, 0.267459, 0.267423, 0.267508, 0.278171, 0.271509, 0.268381, 0.267754, 0.267793, 0.267883, 0.268201, 0.267837, 0.268815, 0.268511, 0.268559, 0.277821, 0.275702, 0.273164, 0.269489, 0.268561, 0.268792, 0.268835, 0.268852, 0.273874
Process 59: 0.510697, 0.323211, 0.276311, 0.274679, 0.272169, 0.269438, 0.269231, 0.269307, 0.269268, 0.269376, 0.280004, 0.273382, 0.270256, 0.269639, 0.269651, 0.269756, 0.270064, 0.269758, 0.270716, 0.270415, 0.270418, 0.279684, 0.277526, 0.275025, 0.271422, 0.270413, 0.270666, 0.270641, 0.270710, 0.275667
Process 60: 0.512533, 0.325099, 0.277805, 0.276191, 0.273626, 0.270887, 0.270695, 0.270767, 0.270723, 0.270846, 0.281481, 0.274855, 0.271750, 0.271099, 0.271120, 0.271213, 0.271543, 0.271236, 0.272229, 0.271948, 0.271895, 0.281149, 0.279031, 0.276509, 0.272885, 0.271887, 0.272162, 0.272151, 0.272170, 0.277198
Process 61: 0.513907, 0.326505, 0.279613, 0.277965, 0.275449, 0.272736, 0.272521, 0.272632, 0.272555, 0.272671, 0.283334, 0.276686, 0.273616, 0.272945, 0.272942, 0.273079, 0.273382, 0.273061, 0.274093, 0.273813, 0.273746, 0.282975, 0.280679, 0.278347, 0.274752, 0.273726, 0.273977, 0.273962, 0.274045, 0.278985
Process 62: 0.515459, 0.327892, 0.281002, 0.279389, 0.276848, 0.274112, 0.273906, 0.274020, 0.273936, 0.274072, 0.284735, 0.278102, 0.275019, 0.274328, 0.274362, 0.274477, 0.274774, 0.274491, 0.275482, 0.275208, 0.275127, 0.284372, 0.282217, 0.279740, 0.276154, 0.275118, 0.275381, 0.275373, 0.275471, 0.280425
Process 63: 0.517348, 0.329681, 0.282764, 0.281140, 0.278652, 0.275892, 0.275702, 0.275839, 0.275746, 0.275878, 0.286516, 0.279897, 0.276810, 0.276127, 0.276153, 0.276325, 0.276613, 0.276268, 0.277319, 0.277050, 0.276926, 0.286217, 0.283969, 0.281614, 0.278002, 0.276955, 0.277262, 0.277142, 0.277262, 0.282165
