MPI_insiderank_optimisedserial
Process 0: 2.193370, 1.902659, 1.911858, 1.855736, 1.854540, 1.850165, 1.868292, 1.785201, 1.849632, 1.896600, 1.844279, 1.827434, 1.786098, 1.792412, 1.839746, 1.792015, 1.831147, 1.839852, 1.820048, 1.787038, 1.781405, 1.789381, 1.776671, 1.782224, 1.844324, 1.788302, 1.791388, 1.793614, 1.889501, 1.843714
Process 1: 2.054516, 1.760470, 1.812157, 1.707312, 1.742463, 1.746910, 1.712097, 1.674731, 1.737585, 1.795075, 1.722439, 1.670245, 1.673504, 1.671422, 1.726448, 1.671908, 1.723755, 1.718282, 1.671114, 1.678536, 1.660383, 1.660993, 1.668922, 1.661401, 1.729008, 1.667115, 1.669510, 1.691482, 1.767525, 1.724401
Process 2: 2.120323, 1.829868, 1.867086, 1.759925, 1.772849, 1.797004, 1.770071, 1.718590, 1.767981, 1.846652, 1.763335, 1.732994, 1.719664, 1.710905, 1.760053, 1.711876, 1.776691, 1.759130, 1.724633, 1.720782, 1.703158, 1.710561, 1.710025, 1.701861, 1.763470, 1.707492, 1.710427, 1.743791, 1.808340, 1.765097
Process 3: 2.201244, 1.910839, 1.920632, 1.862959, 1.862770, 1.859369, 1.877344, 1.792690, 1.858599, 1.905334, 1.853015, 1.836255, 1.792987, 1.800537, 1.847053, 1.799073, 1.838220, 1.847526, 1.829139, 1.794918, 1.788959, 1.797586, 1.785268, 1.789720, 1.852676, 1.797387, 1.799884, 1.800952, 1.898043, 1.852358
