MPI_insiderank_optimisedserial
Process 0: 0.737095, 0.710382, 0.531780, 0.526457, 0.515639, 0.524340, 0.517424, 0.515111, 0.512531, 0.543089, 0.514401, 0.514041, 0.512967, 0.510894, 0.511842, 0.513870, 0.605491, 0.571422, 0.519341, 0.528644, 0.522458, 0.528106, 0.519109, 0.507532, 0.521523, 0.536215, 0.567769, 0.527225, 0.529234, 0.512942
Process 1: 0.696712, 0.672142, 0.498198, 0.494993, 0.483273, 0.495712, 0.486131, 0.483718, 0.480982, 0.507277, 0.483369, 0.482001, 0.481219, 0.479858, 0.479935, 0.482562, 0.521407, 0.538503, 0.488674, 0.498633, 0.490414, 0.494317, 0.488908, 0.475387, 0.489426, 0.490588, 0.530690, 0.497951, 0.499176, 0.481266
Process 2: 0.702781, 0.678851, 0.503929, 0.500562, 0.489431, 0.498527, 0.491527, 0.490333, 0.485534, 0.513580, 0.488811, 0.488696, 0.486931, 0.484625, 0.486144, 0.488768, 0.527200, 0.546174, 0.492528, 0.502737, 0.497094, 0.497764, 0.493206, 0.480998, 0.495705, 0.493598, 0.536709, 0.502296, 0.503782, 0.486079
Process 3: 0.710293, 0.683563, 0.510536, 0.506079, 0.493862, 0.504364, 0.496927, 0.494362, 0.492139, 0.520307, 0.493619, 0.493823, 0.492704, 0.490807, 0.491226, 0.493400, 0.546359, 0.550421, 0.498032, 0.507993, 0.501607, 0.509078, 0.498135, 0.486701, 0.500486, 0.503749, 0.543442, 0.506409, 0.508236, 0.492166
Process 4: 0.715340, 0.692121, 0.515539, 0.510631, 0.499544, 0.508863, 0.503694, 0.499771, 0.496925, 0.526394, 0.499099, 0.498799, 0.497629, 0.495434, 0.496090, 0.499136, 0.552175, 0.556216, 0.503596, 0.513257, 0.507028, 0.511660, 0.503309, 0.492009, 0.505081, 0.506040, 0.549056, 0.512274, 0.513175, 0.497811
Process 5: 0.723505, 0.697124, 0.520876, 0.516655, 0.505040, 0.515362, 0.507273, 0.504659, 0.502493, 0.531708, 0.504084, 0.504004, 0.503086, 0.501240, 0.501375, 0.504160, 0.570487, 0.560939, 0.508600, 0.518373, 0.512008, 0.522038, 0.508720, 0.497480, 0.510830, 0.516810, 0.555280, 0.517158, 0.519177, 0.502923
Process 6: 0.731068, 0.703473, 0.526643, 0.521062, 0.509336, 0.518885, 0.513781, 0.509899, 0.507818, 0.537562, 0.509073, 0.509255, 0.507699, 0.506535, 0.506223, 0.508654, 0.587703, 0.566004, 0.513473, 0.523259, 0.517250, 0.525030, 0.514011, 0.502456, 0.516115, 0.526229, 0.561481, 0.521932, 0.523674, 0.508016
Process 7: 0.737834, 0.710382, 0.531780, 0.526464, 0.515639, 0.524341, 0.517425, 0.515111, 0.512532, 0.543089, 0.514403, 0.514042, 0.512968, 0.510895, 0.511842, 0.513869, 0.605491, 0.571422, 0.519342, 0.528646, 0.522462, 0.528108, 0.519113, 0.507535, 0.521525, 0.536213, 0.567761, 0.527245, 0.529236, 0.512942
