MPI_insiderank_optimisedserial
Process 0: 1.294821, 1.146406, 1.061480, 1.059642, 1.100353, 1.032677, 1.039031, 1.055367, 1.067264, 1.070928, 1.039838, 1.026808, 1.069649, 1.072586, 1.033298, 1.041269, 1.031126, 1.058335, 1.030846, 1.027908, 1.030774, 1.062449, 1.077443, 1.028156, 1.047249, 1.028878, 1.044674, 1.036244, 1.035223, 1.045850
Process 1: 1.193264, 1.066021, 0.991315, 0.975562, 1.029216, 0.967515, 0.972260, 0.982814, 1.005131, 1.000173, 0.975522, 0.959490, 0.985493, 1.006482, 0.969751, 0.972337, 0.966378, 0.991543, 0.967117, 0.962559, 0.963485, 0.979710, 1.010159, 0.963790, 0.979129, 0.965632, 0.973983, 0.970199, 0.971525, 0.969699
Process 2: 1.208801, 1.079876, 0.999137, 0.991425, 1.036344, 0.975135, 0.979039, 0.997992, 1.011945, 1.007429, 0.982510, 0.966722, 1.000630, 1.013469, 0.977314, 0.980155, 0.973936, 0.998217, 0.974540, 0.969851, 0.971662, 0.995453, 1.018776, 0.970961, 0.985838, 0.973000, 0.981739, 0.977046, 0.979208, 0.978806
Process 3: 1.227555, 1.097317, 1.011621, 1.008944, 1.049709, 0.989384, 0.994072, 1.015673, 1.023983, 1.022620, 0.995008, 0.980885, 1.018298, 1.026126, 0.990009, 0.992746, 0.986656, 1.012490, 0.987572, 0.983276, 0.988846, 1.012860, 1.030605, 0.984322, 1.001219, 0.985559, 0.996045, 0.991691, 0.992187, 1.001764
Process 4: 1.239502, 1.108262, 1.020065, 1.020225, 1.056158, 0.997210, 0.999820, 1.026769, 1.032444, 1.030517, 1.003276, 0.987340, 1.029521, 1.032288, 0.998160, 1.000933, 0.995966, 1.021004, 0.995983, 0.994432, 0.996505, 1.023611, 1.036978, 0.992418, 1.006759, 0.992895, 1.005053, 1.000179, 1.000115, 1.011585
Process 5: 1.257158, 1.125238, 1.034787, 1.037219, 1.073477, 1.011740, 1.016982, 1.038833, 1.046296, 1.045202, 1.019074, 1.004768, 1.046741, 1.050567, 1.012464, 1.015466, 1.010231, 1.037442, 1.009925, 1.007250, 1.009926, 1.040626, 1.055524, 1.006983, 1.025497, 1.008192, 1.018482, 1.015151, 1.014291, 1.024583
Process 6: 1.267276, 1.135324, 1.042834, 1.047661, 1.078605, 1.019536, 1.021980, 1.044948, 1.054411, 1.053097, 1.026374, 1.010462, 1.057234, 1.055792, 1.020542, 1.023672, 1.017959, 1.045379, 1.017913, 1.015711, 1.017544, 1.050672, 1.060986, 1.014829, 1.031008, 1.016000, 1.026721, 1.023824, 1.022545, 1.032925
Process 7: 1.296885, 1.147791, 1.062624, 1.061205, 1.101765, 1.034044, 1.040446, 1.056771, 1.068607, 1.072267, 1.041197, 1.028235, 1.071354, 1.073988, 1.034644, 1.042624, 1.032467, 1.059686, 1.032218, 1.029051, 1.031922, 1.063653, 1.078850, 1.029527, 1.048664, 1.030217, 1.045821, 1.037396, 1.036361, 1.047007
