MPI_insiderank_optimisedserial
Process 0: 2.194600, 1.804275, 1.662183, 1.631872, 1.704484, 1.684183, 1.680698, 1.681256, 1.643717, 1.678463, 1.648036, 1.635915, 1.640119, 1.617221, 1.671053, 1.641955, 1.632541, 1.633445, 1.621665, 1.651758, 1.649023, 1.643442, 1.633010, 1.645558, 1.641894, 1.634253, 1.628096, 1.642326, 1.618050, 1.653913
Process 1: 1.839939, 1.632879, 1.626941, 1.587759, 1.665634, 1.637283, 1.638618, 1.644300, 1.599445, 1.633230, 1.604120, 1.583469, 1.597497, 1.571560, 1.628949, 1.595018, 1.588407, 1.592478, 1.576705, 1.612935, 1.606433, 1.599713, 1.588763, 1.601652, 1.593637, 1.590766, 1.581240, 1.596242, 1.574257, 1.611457
Process 2: 2.168170, 1.652740, 1.645030, 1.610045, 1.687541, 1.660260, 1.660592, 1.665666, 1.623822, 1.657909, 1.626721, 1.609266, 1.619636, 1.596942, 1.652560, 1.616526, 1.613565, 1.614536, 1.601421, 1.634680, 1.629784, 1.622133, 1.611763, 1.623852, 1.617305, 1.611763, 1.604563, 1.623262, 1.597170, 1.633383
Process 3: 2.196127, 1.805563, 1.663690, 1.633427, 1.705883, 1.685597, 1.682216, 1.682672, 1.645338, 1.679998, 1.649640, 1.637328, 1.641748, 1.618786, 1.672528, 1.643287, 1.634055, 1.634976, 1.623175, 1.653129, 1.650600, 1.644955, 1.634538, 1.647089, 1.643468, 1.635695, 1.629602, 1.643860, 1.619609, 1.655373
