Process 0: 2.139807, 1.623270, 1.859416, 1.569648, 1.517324, 1.639887, 1.785493, 1.565300, 1.448109, 1.509096, 1.527133, 1.525364, 1.477955, 1.487379, 1.556435, 1.497740, 1.550737, 1.603990, 1.451586, 1.543155, 1.727757, 1.667903, 1.719926, 1.824990, 1.706239, 1.614083, 1.823109, 1.867342, 1.923682, 1.736615
Process 1: 2.364966, 1.712344, 1.605598, 1.847291, 1.577377, 1.550094, 1.587017, 1.760133, 1.528496, 1.510772, 1.470203, 1.567443, 1.498379, 1.500160, 1.557668, 1.447726, 1.585967, 1.475138, 1.603806, 1.517542, 1.701005, 1.702886, 1.722173, 1.819056, 1.708361, 1.638057, 1.784994, 1.891392, 1.882845, 1.779098
Process 2: 2.366902, 1.715996, 1.609254, 1.831845, 1.588810, 1.543191, 1.592494, 1.754912, 1.537923, 1.501132, 1.477609, 1.563929, 1.505054, 1.497476, 1.551192, 1.448944, 1.584801, 1.470517, 1.609695, 1.507795, 1.694617, 1.708305, 1.699823, 1.835549, 1.716125, 1.645392, 1.770811, 1.903594, 1.859020, 1.805955
Process 3: 2.399262, 1.695695, 1.600205, 1.845609, 1.572948, 1.553603, 1.583895, 1.762047, 1.526635, 1.512268, 1.466633, 1.571854, 1.500182, 1.500161, 1.554667, 1.449586, 1.580125, 1.477704, 1.605132, 1.523994, 1.696630, 1.705294, 1.716655, 1.820508, 1.711918, 1.639038, 1.796559, 1.887374, 1.879638, 1.777829
Process 4: 2.368319, 1.720525, 1.607302, 1.830266, 1.587759, 1.544941, 1.590527, 1.754354, 1.540396, 1.500804, 1.481747, 1.560994, 1.497366, 1.500514, 1.551578, 1.448108, 1.581664, 1.474055, 1.608745, 1.512301, 1.693725, 1.703439, 1.703939, 1.835470, 1.715637, 1.648322, 1.773658, 1.897010, 1.862576, 1.802051
Process 5: 2.399736, 1.695241, 1.596920, 1.843511, 1.582241, 1.546686, 1.589699, 1.762217, 1.527141, 1.507062, 1.466351, 1.583279, 1.487842, 1.502066, 1.556163, 1.445975, 1.591021, 1.483087, 1.588891, 1.527057, 1.701652, 1.700387, 1.716509, 1.871466, 1.656891, 1.642625, 1.785714, 1.890690, 1.877302, 1.791862
Process 6: 2.360390, 1.686788, 1.635552, 1.815296, 1.600827, 1.538043, 1.601250, 1.745354, 1.544453, 1.504949, 1.462963, 1.573310, 1.505960, 1.504137, 1.548474, 1.445060, 1.584357, 1.476431, 1.609494, 1.494305, 1.706183, 1.694033, 1.704773, 1.830445, 1.715833, 1.647152, 1.760493, 1.911025, 1.861094, 1.801357
Process 7: 2.394685, 1.666501, 1.622204, 1.830366, 1.586805, 1.545242, 1.596864, 1.752687, 1.527126, 1.506327, 1.462987, 1.579696, 1.497732, 1.499991, 1.554997, 1.446806, 1.587704, 1.478690, 1.603270, 1.508060, 1.723424, 1.682320, 1.729547, 1.804370, 1.715600, 1.640494, 1.783455, 1.889972, 1.887122, 1.775094
Process 8: 2.362337, 1.707487, 1.618673, 1.823572, 1.594196, 1.541240, 1.604636, 1.748414, 1.533509, 1.504566, 1.471271, 1.562622, 1.510025, 1.498262, 1.551891, 1.448316, 1.584571, 1.471830, 1.612742, 1.494309, 1.708010, 1.699585, 1.699440, 1.834041, 1.713859, 1.649559, 1.758433, 1.916770, 1.856488, 1.805766
Process 9: 2.396514, 1.681844, 1.605802, 1.842601, 1.581594, 1.548856, 1.587286, 1.763616, 1.525753, 1.511887, 1.466875, 1.570836, 1.497729, 1.500016, 1.555218, 1.451504, 1.586741, 1.471600, 1.606506, 1.511057, 1.707314, 1.698892, 1.723186, 1.818718, 1.708280, 1.640456, 1.782992, 1.892045, 1.880319, 1.783428
Process 10: 2.366022, 1.716115, 1.610347, 1.828353, 1.590928, 1.546062, 1.591079, 1.753194, 1.538797, 1.502052, 1.482078, 1.558314, 1.502883, 1.500740, 1.550451, 1.449071, 1.585436, 1.470338, 1.609664, 1.510702, 1.691752, 1.703180, 1.704413, 1.836062, 1.716109, 1.645386, 1.770340, 1.904085, 1.858583, 1.806625
Process 11: 2.394679, 1.708986, 1.599091, 1.845953, 1.575211, 1.552720, 1.585412, 1.764554, 1.519992, 1.518140, 1.460139, 1.581822, 1.490615, 1.510600, 1.547027, 1.451740, 1.589509, 1.469678, 1.611401, 1.521337, 1.698351, 1.704529, 1.720794, 1.815334, 1.716342, 1.625001, 1.802475, 1.885180, 1.875631, 1.784410
Process 12: 2.367168, 1.720096, 1.606367, 1.834370, 1.585830, 1.543741, 1.594837, 1.751389, 1.539730, 1.501158, 1.477277, 1.566287, 1.500029, 1.501164, 1.550497, 1.448365, 1.583808, 1.472365, 1.608583, 1.510124, 1.705097, 1.693382, 1.704019, 1.835600, 1.715602, 1.648353, 1.773918, 1.896815, 1.862268, 1.802986
Process 13: 2.399177, 1.708423, 1.594720, 1.844807, 1.576669, 1.554373, 1.583564, 1.767323, 1.518820, 1.515592, 1.466141, 1.578397, 1.492262, 1.504677, 1.550821, 1.451405, 1.595939, 1.467070, 1.608014, 1.519396, 1.708523, 1.696237, 1.722988, 1.819802, 1.704877, 1.629137, 1.798228, 1.887425, 1.874852, 1.790476
Process 14: 2.359269, 1.689161, 1.632028, 1.817524, 1.605598, 1.532800, 1.601641, 1.745508, 1.543928, 1.505823, 1.462395, 1.574036, 1.505818, 1.506000, 1.547415, 1.443615, 1.584569, 1.477173, 1.609706, 1.492824, 1.705577, 1.695526, 1.704471, 1.830447, 1.715148, 1.648132, 1.760499, 1.910729, 1.861059, 1.801703
Process 15: 2.383213, 1.683711, 1.629952, 1.824872, 1.582472, 1.544570, 1.603220, 1.750356, 1.522928, 1.516230, 1.456494, 1.581694, 1.499644, 1.505829, 1.550812, 1.449292, 1.602104, 1.462882, 1.611497, 1.499305, 1.721282, 1.689945, 1.730149, 1.799019, 1.709271, 1.641712, 1.793259, 1.881510, 1.880388, 1.782940
Process 16: 2.361233, 1.708436, 1.623190, 1.818875, 1.598409, 1.539734, 1.599162, 1.752987, 1.534707, 1.504813, 1.469981, 1.563725, 1.508300, 1.501348, 1.551417, 1.449309, 1.585846, 1.469019, 1.612213, 1.493976, 1.705271, 1.703118, 1.698227, 1.834406, 1.715679, 1.647057, 1.758725, 1.916244, 1.856900, 1.808471
Process 17: 2.394154, 1.684818, 1.625541, 1.831316, 1.580732, 1.554045, 1.593427, 1.757768, 1.519899, 1.521155, 1.460571, 1.569232, 1.503217, 1.505900, 1.550190, 1.457710, 1.590946, 1.468730, 1.610130, 1.495630, 1.725538, 1.698183, 1.727263, 1.798374, 1.708411, 1.630461, 1.794750, 1.892823, 1.870817, 1.783737
Process 18: 2.361523, 1.722189, 1.609330, 1.833514, 1.585729, 1.543788, 1.594174, 1.754463, 1.539372, 1.499271, 1.480614, 1.564151, 1.502582, 1.499473, 1.548263, 1.453007, 1.581643, 1.471033, 1.606225, 1.512156, 1.694313, 1.703633, 1.704107, 1.835296, 1.716697, 1.649336, 1.766802, 1.903133, 1.859289, 1.805506
Process 19: 2.400342, 1.707358, 1.600427, 1.844326, 1.572650, 1.556462, 1.583298, 1.762170, 1.521474, 1.519596, 1.459332, 1.580755, 1.493800, 1.509849, 1.546046, 1.454720, 1.591477, 1.467313, 1.610353, 1.520729, 1.703182, 1.701334, 1.720667, 1.814897, 1.714955, 1.624411, 1.802772, 1.885384, 1.877247, 1.784243
Process 20: 2.361688, 1.726848, 1.608194, 1.834563, 1.582972, 1.543975, 1.592852, 1.753811, 1.541553, 1.499649, 1.479684, 1.563897, 1.501634, 1.499588, 1.550013, 1.452369, 1.581946, 1.469730, 1.607429, 1.513002, 1.700935, 1.697686, 1.703542, 1.836022, 1.715834, 1.649610, 1.775006, 1.893221, 1.862347, 1.803253
Process 21: 2.400725, 1.707422, 1.599440, 1.841828, 1.576640, 1.557266, 1.581081, 1.766728, 1.517567, 1.518792, 1.466563, 1.576205, 1.493515, 1.508366, 1.546483, 1.456690, 1.591207, 1.466528, 1.608257, 1.522701, 1.706836, 1.696630, 1.721792, 1.819145, 1.707234, 1.627101, 1.800481, 1.887694, 1.875141, 1.786502
Process 22: 2.353643, 1.693432, 1.638850, 1.814710, 1.597760, 1.539536, 1.601091, 1.748423, 1.540883, 1.504033, 1.465879, 1.569660, 1.508052, 1.504666, 1.546780, 1.446091, 1.584130, 1.476561, 1.608872, 1.496325, 1.704610, 1.697129, 1.705134, 1.830470, 1.714078, 1.646998, 1.759697, 1.913247, 1.862162, 1.799652
Process 23: 2.367612, 1.698125, 1.632464, 1.822463, 1.582864, 1.545780, 1.603213, 1.751352, 1.520298, 1.518279, 1.454337, 1.584684, 1.494644, 1.508155, 1.550945, 1.451815, 1.598056, 1.465069, 1.617865, 1.494926, 1.725265, 1.688054, 1.739843, 1.785407, 1.709006, 1.640010, 1.796368, 1.879777, 1.883223, 1.780812
Process 24: 2.423019, 1.718145, 1.601078, 1.840226, 1.577679, 1.556991, 1.580384, 1.772697, 1.518776, 1.518744, 1.462425, 1.573722, 1.499364, 1.502967, 1.549903, 1.447032, 1.594154, 1.469968, 1.603807, 1.530043, 1.704214, 1.699252, 1.719657, 1.813441, 1.707797, 1.628676, 1.797992, 1.879971, 1.893535, 1.768109
Process 25: 2.426449, 1.715823, 1.602789, 1.847329, 1.571350, 1.555576, 1.578123, 1.774751, 1.520183, 1.516700, 1.463883, 1.578865, 1.492543, 1.502976, 1.551746, 1.448251, 1.592953, 1.469975, 1.610658, 1.533417, 1.700477, 1.712171, 1.722000, 1.795129, 1.711206, 1.624254, 1.818067, 1.861885, 1.907655, 1.763291
Process 26: 2.426531, 1.726676, 1.591461, 1.849553, 1.570229, 1.559332, 1.574899, 1.777509, 1.516214, 1.516749, 1.464445, 1.578207, 1.494402, 1.506247, 1.547476, 1.445235, 1.599012, 1.465407, 1.606695, 1.536903, 1.694862, 1.701745, 1.718825, 1.815126, 1.718553, 1.622959, 1.813563, 1.862114, 1.901569, 1.768846
Process 27: 2.431218, 1.723523, 1.592480, 1.854200, 1.564172, 1.561481, 1.573450, 1.777951, 1.517919, 1.516610, 1.462572, 1.586040, 1.487664, 1.503117, 1.550854, 1.450185, 1.591931, 1.467436, 1.616581, 1.533881, 1.689516, 1.719570, 1.720961, 1.795630, 1.721743, 1.613990, 1.830045, 1.854551, 1.908889, 1.754049
Process 28: 2.430559, 1.726882, 1.591783, 1.850303, 1.568948, 1.559970, 1.573338, 1.782079, 1.513965, 1.518611, 1.461855, 1.582247, 1.490179, 1.504360, 1.548719, 1.447411, 1.598369, 1.464705, 1.607896, 1.538310, 1.692191, 1.706611, 1.713109, 1.818405, 1.713950, 1.624809, 1.814686, 1.862516, 1.898818, 1.767843
Process 29: 2.435817, 1.718990, 1.592936, 1.852652, 1.566102, 1.560751, 1.573902, 1.781678, 1.513590, 1.519521, 1.460366, 1.584679, 1.488380, 1.503506, 1.550584, 1.450756, 1.594299, 1.466475, 1.616360, 1.529359, 1.695458, 1.720710, 1.717164, 1.797778, 1.718863, 1.616612, 1.829823, 1.853877, 1.908261, 1.754658
Process 30: 2.430316, 1.724846, 1.592508, 1.848833, 1.569700, 1.561328, 1.573178, 1.781169, 1.514891, 1.517508, 1.464148, 1.580891, 1.491153, 1.503446, 1.549567, 1.447430, 1.596975, 1.465682, 1.607765, 1.538126, 1.692677, 1.705961, 1.712847, 1.818412, 1.714268, 1.624995, 1.811727, 1.865436, 1.898749, 1.767832
Process 31: 2.425586, 1.707500, 1.610802, 1.843265, 1.573071, 1.555886, 1.580587, 1.767410, 1.523488, 1.515898, 1.461736, 1.577633, 1.493225, 1.503053, 1.549726, 1.452008, 1.593511, 1.471959, 1.609760, 1.536080, 1.690126, 1.714002, 1.732415, 1.784574, 1.713565, 1.626894, 1.822060, 1.859277, 1.908116, 1.747300
