slurmstepd: error: poll(): Bad address
slurmstepd: error: poll(): Bad address
srun: error: eu-a2p-446: task 0: Killed
slurmstepd: error: *** STEP 6321053.0 ON eu-a2p-446 CANCELLED AT 2023-01-11T21:54:36 DUE TO TIME LIMIT ***
slurmstepd: error: *** JOB 6321053 ON eu-a2p-446 CANCELLED AT 2023-01-11T21:54:36 DUE TO TIME LIMIT ***
