Process 0: 6.307016, 5.923505, 5.931460, 5.864452, 5.796950, 5.885435, 5.828788, 5.818596, 5.907529, 5.824953, 5.778933, 5.774400, 5.720713, 5.714962, 5.831304, 5.772682, 5.731496, 5.735127, 5.713356, 5.865748, 5.750939, 5.890959, 5.823662, 5.830343, 5.839532, 5.875063, 5.688990, 5.841764, 5.829093, 5.815589
Process 1: 4.711102, 6.015121, 5.894385, 5.920291, 5.804324, 5.860689, 5.907170, 5.771288, 5.865477, 5.843166, 5.800454, 5.812238, 5.715725, 5.752520, 5.733072, 5.850988, 5.704210, 5.734495, 5.730076, 5.772404, 5.807581, 5.838299, 5.917452, 5.789291, 5.790559, 5.899602, 5.758939, 5.799352, 5.849909, 5.802089
Process 2: 6.753840, 5.962154, 5.897989, 5.924784, 5.781779, 5.894354, 5.834649, 5.834437, 5.862522, 5.837570, 5.798784, 5.773967, 5.724268, 5.712554, 5.805706, 5.784679, 5.762050, 5.720283, 5.720017, 5.838149, 5.767042, 5.876252, 5.822302, 5.842080, 5.836429, 5.880354, 5.677837, 5.850788, 5.829232, 5.821071
Process 3: 6.754107, 5.962102, 5.899001, 5.920293, 5.767641, 5.921898, 5.822393, 5.837481, 5.850665, 5.851200, 5.790643, 5.789073, 5.710795, 5.708338, 5.810725, 5.790376, 5.754746, 5.726560, 5.722892, 5.839666, 5.759331, 5.884553, 5.813043, 5.856203, 5.817148, 5.889400, 5.674397, 5.855726, 5.835232, 5.820051
