MPI_insiderank_openmp_handopt_ssa
Process 0: 38.608782, 37.888028, 37.892047, 37.563199, 37.733403, 38.073783, 37.503884, 37.928141, 37.325967, 37.436809, 37.657724, 37.640556, 37.451281, 37.541251, 37.231170, 37.520747, 37.607213, 39.968319, 37.530535, 37.241943, 37.072815, 37.296881, 37.225581, 37.123081, 37.122519, 37.316514, 37.334122, 37.167156, 38.316832, 37.398034
Process 1: 38.618541, 37.902699, 37.901594, 37.574152, 37.743502, 38.083346, 37.517292, 37.938271, 37.335521, 37.446477, 37.667802, 37.650131, 37.461115, 37.550869, 37.240938, 37.530833, 37.617420, 39.977870, 37.540241, 37.251631, 37.082135, 37.306471, 37.235628, 37.132365, 37.132805, 37.326160, 37.343768, 37.177359, 38.326268, 37.407403
