MPI_insiderank_openmp_handopt_ssa
Process 0: 1.421776, 1.561412, 1.123501, 1.453618, 1.684786, 1.080684, 1.737685, 1.430146, 1.421936, 1.333458, 1.184823, 1.633823, 1.431914, 1.241702, 1.390868, 1.496320, 1.450447, 1.315003, 1.217676, 1.653246, 1.669405, 1.961676, 1.261888, 1.039817, 1.453565, 1.468846, 1.473765, 1.301792, 1.326113, 1.252780
Process 1: 1.247340, 1.213210, 0.923489, 1.298832, 1.099935, 0.879814, 1.025869, 1.040635, 1.084145, 1.133365, 1.001841, 1.251763, 1.084412, 1.060219, 1.167589, 1.168766, 1.094842, 1.138642, 1.027922, 1.277764, 1.035269, 0.896907, 1.078052, 0.869279, 1.274713, 1.088614, 1.131767, 1.121234, 1.134738, 1.087610
Process 2: 1.259952, 1.248342, 0.941833, 1.322743, 1.116772, 0.899893, 1.044636, 1.060399, 1.100583, 1.147058, 1.050701, 1.266829, 1.097495, 1.079551, 1.218660, 1.185026, 1.111060, 1.156204, 1.045346, 1.330855, 1.050636, 0.915087, 1.092568, 0.884177, 1.291923, 1.106634, 1.150279, 1.141157, 1.149660, 1.137426
Process 3: 1.292847, 1.274747, 0.976166, 1.356471, 1.141449, 0.930853, 1.103869, 1.087839, 1.122148, 1.170570, 1.101674, 1.292347, 1.120487, 1.102738, 1.309446, 1.209417, 1.131427, 1.177777, 1.072990, 1.453762, 1.080749, 0.937642, 1.113445, 0.906078, 1.318202, 1.125278, 1.167841, 1.162940, 1.174015, 1.171381
Process 4: 1.314043, 1.288357, 0.992976, 1.366415, 1.244496, 0.952266, 1.117047, 1.192000, 1.141263, 1.194749, 1.111283, 1.390476, 1.137972, 1.117405, 1.318387, 1.251605, 1.170639, 1.193118, 1.094948, 1.584576, 1.189224, 0.950466, 1.135561, 0.917773, 1.334366, 1.223842, 1.184731, 1.174836, 1.192202, 1.179982
Process 5: 1.349455, 1.308476, 1.014156, 1.382995, 1.329685, 0.976387, 1.136361, 1.273045, 1.168529, 1.215561, 1.127725, 1.472552, 1.162924, 1.138653, 1.334886, 1.339217, 1.184028, 1.217211, 1.113646, 1.603273, 1.273419, 0.972324, 1.156088, 0.940987, 1.357401, 1.308108, 1.203840, 1.198122, 1.214664, 1.196743
Process 6: 1.369596, 1.321829, 1.031265, 1.392001, 1.394695, 0.992701, 1.145574, 1.333899, 1.181130, 1.237964, 1.136218, 1.534626, 1.175438, 1.153714, 1.342538, 1.403989, 1.201429, 1.231347, 1.132202, 1.611323, 1.562117, 0.987781, 1.175612, 0.952879, 1.369723, 1.373606, 1.221466, 1.210389, 1.231312, 1.205316
Process 7: 1.384707, 1.356221, 1.050703, 1.403410, 1.461915, 1.011403, 1.156902, 1.396971, 1.207594, 1.269995, 1.146655, 1.596104, 1.202589, 1.172944, 1.352036, 1.461556, 1.224344, 1.254142, 1.152142, 1.619590, 1.631879, 1.004975, 1.198728, 0.974097, 1.393162, 1.435572, 1.245527, 1.235118, 1.250524, 1.215486
Process 8: 1.392570, 1.379723, 1.067067, 1.411879, 1.486203, 1.029307, 1.172328, 1.405518, 1.235026, 1.285577, 1.155338, 1.604630, 1.229911, 1.190967, 1.360681, 1.470085, 1.234589, 1.265088, 1.168226, 1.628072, 1.640171, 1.028682, 1.214662, 0.990286, 1.406545, 1.444110, 1.275808, 1.251243, 1.269541, 1.223659
Process 9: 1.403985, 1.456994, 1.086255, 1.422675, 1.566231, 1.044833, 1.189787, 1.414279, 1.309100, 1.302419, 1.166674, 1.615562, 1.306691, 1.206919, 1.371886, 1.480864, 1.318316, 1.283077, 1.189043, 1.637227, 1.651367, 1.346586, 1.231085, 1.008586, 1.424570, 1.453337, 1.354287, 1.269775, 1.294903, 1.234849
Process 10: 1.411289, 1.511806, 1.100591, 1.435643, 1.623266, 1.061513, 1.203208, 1.422554, 1.362935, 1.316594, 1.174466, 1.623719, 1.365959, 1.224547, 1.381138, 1.488644, 1.384496, 1.298118, 1.203982, 1.645706, 1.659625, 1.888367, 1.247340, 1.023968, 1.439561, 1.461508, 1.411068, 1.284569, 1.308872, 1.242727
Process 11: 1.423436, 1.562878, 1.125042, 1.455129, 1.686275, 1.082084, 1.739168, 1.431861, 1.423577, 1.334940, 1.186414, 1.635297, 1.433577, 1.243579, 1.392477, 1.497905, 1.452016, 1.316750, 1.219084, 1.654977, 1.671077, 1.963351, 1.263331, 1.041310, 1.455241, 1.470440, 1.475368, 1.303511, 1.327908, 1.254401
