MPI_insiderank_openmp_handopt_ssa
Process 0: 0.430533, 0.401754, 0.374119, 0.371167, 0.379490, 0.359743, 0.361367, 0.360801, 0.363420, 0.357739, 0.359906, 0.364469, 0.358638, 0.367326, 0.363009, 0.357473, 0.356260, 0.353725, 0.358878, 0.358006, 0.359660, 0.357588, 0.358328, 0.363369, 0.356950, 0.353217, 0.358792, 0.365683, 0.372051, 0.361735
Process 1: 0.399710, 0.369037, 0.342541, 0.343153, 0.344926, 0.330303, 0.334773, 0.331899, 0.336732, 0.331102, 0.331395, 0.335977, 0.331866, 0.333360, 0.334677, 0.330940, 0.328285, 0.324207, 0.330570, 0.330784, 0.332610, 0.329201, 0.329807, 0.335719, 0.330064, 0.325272, 0.330550, 0.336504, 0.338484, 0.334874
Process 2: 0.402645, 0.372758, 0.346244, 0.346902, 0.348195, 0.333813, 0.337954, 0.335706, 0.339898, 0.334226, 0.334472, 0.339846, 0.334851, 0.336774, 0.338058, 0.334077, 0.331915, 0.327778, 0.333889, 0.333975, 0.335728, 0.332806, 0.333142, 0.338955, 0.333469, 0.328791, 0.333831, 0.339749, 0.341881, 0.338291
Process 3: 0.407020, 0.377260, 0.349994, 0.350548, 0.352364, 0.337402, 0.341109, 0.339466, 0.343139, 0.337235, 0.338454, 0.343604, 0.338132, 0.340710, 0.341676, 0.337471, 0.335397, 0.331685, 0.337490, 0.337362, 0.339165, 0.336545, 0.336649, 0.342401, 0.336631, 0.332465, 0.337471, 0.343394, 0.345718, 0.341712
Process 4: 0.409239, 0.380348, 0.352964, 0.353341, 0.355388, 0.340604, 0.343839, 0.342601, 0.345807, 0.340253, 0.341668, 0.346700, 0.340691, 0.343837, 0.344608, 0.339752, 0.338303, 0.334748, 0.340320, 0.340210, 0.341873, 0.339585, 0.339787, 0.345547, 0.339497, 0.335398, 0.340703, 0.346748, 0.348663, 0.344514
Process 5: 0.413398, 0.384058, 0.356547, 0.356578, 0.359201, 0.343961, 0.346755, 0.345546, 0.348767, 0.343133, 0.344692, 0.349675, 0.343730, 0.347541, 0.347822, 0.342785, 0.341345, 0.337965, 0.343471, 0.343122, 0.344809, 0.342548, 0.343199, 0.348570, 0.342530, 0.338419, 0.343669, 0.350353, 0.352315, 0.347494
Process 6: 0.415625, 0.386502, 0.358943, 0.358696, 0.362024, 0.346512, 0.348808, 0.347770, 0.350873, 0.345256, 0.347083, 0.351853, 0.346053, 0.350358, 0.350075, 0.344809, 0.343481, 0.340110, 0.345653, 0.345199, 0.346857, 0.344769, 0.345523, 0.350714, 0.344568, 0.340638, 0.345857, 0.352808, 0.355057, 0.349399
Process 7: 0.419435, 0.390344, 0.362553, 0.361674, 0.366054, 0.349944, 0.351747, 0.350961, 0.353790, 0.348254, 0.350275, 0.355032, 0.349018, 0.354099, 0.353108, 0.347902, 0.346648, 0.343609, 0.348952, 0.348246, 0.349899, 0.347869, 0.348588, 0.353715, 0.347523, 0.343621, 0.349137, 0.355860, 0.358816, 0.352442
Process 8: 0.421784, 0.392746, 0.365120, 0.363785, 0.368724, 0.352038, 0.353868, 0.353176, 0.355990, 0.350475, 0.352356, 0.357105, 0.351289, 0.356722, 0.355502, 0.349902, 0.348778, 0.346017, 0.351284, 0.350439, 0.352189, 0.349935, 0.350731, 0.356139, 0.349546, 0.345707, 0.351234, 0.358198, 0.361552, 0.354341
Process 9: 0.425326, 0.396233, 0.368545, 0.366641, 0.372435, 0.355179, 0.356984, 0.356175, 0.358788, 0.353249, 0.355349, 0.360033, 0.354091, 0.360469, 0.358454, 0.352924, 0.351614, 0.349208, 0.354295, 0.353356, 0.355073, 0.353007, 0.353698, 0.358873, 0.352409, 0.348707, 0.354230, 0.361196, 0.365262, 0.357182
Process 10: 0.427828, 0.399001, 0.371411, 0.368809, 0.375786, 0.357395, 0.359034, 0.358332, 0.360944, 0.355422, 0.357440, 0.362064, 0.356177, 0.363655, 0.360564, 0.355182, 0.353855, 0.351202, 0.356715, 0.355399, 0.357162, 0.355171, 0.355826, 0.361025, 0.354540, 0.350802, 0.356601, 0.363243, 0.368434, 0.359342
Process 11: 0.430915, 0.401755, 0.374124, 0.371163, 0.379491, 0.359744, 0.361365, 0.360800, 0.363421, 0.357740, 0.359906, 0.364480, 0.358640, 0.367326, 0.363012, 0.357473, 0.356259, 0.353725, 0.358875, 0.358006, 0.359667, 0.357588, 0.358326, 0.363375, 0.356964, 0.353225, 0.358792, 0.365683, 0.372047, 0.361743
