MPI_insiderank_openmp_handopt_ssa
Process 0: 1.149335, 1.080333, 0.846968, 0.867153, 0.978045, 0.996089, 0.882371, 0.922562, 0.973990, 0.917290, 0.865735, 0.970014, 0.924266, 0.854679, 0.784559, 0.736344, 0.906828, 0.839213, 0.932576, 0.974088, 0.884648, 1.004016, 0.912274, 0.862728, 0.875080, 0.969662, 0.731226, 0.734559, 0.734051, 0.861528
Process 1: 1.081821, 1.006853, 0.772791, 0.783294, 0.903927, 0.922119, 0.807745, 0.846049, 0.903078, 0.846216, 0.789336, 0.890690, 0.854779, 0.781469, 0.705289, 0.665225, 0.834495, 0.769433, 0.847477, 0.899933, 0.814129, 0.933184, 0.838206, 0.791709, 0.808977, 0.900089, 0.656274, 0.664336, 0.666602, 0.787958
Process 2: 1.090841, 1.016169, 0.781484, 0.791738, 0.911840, 0.930728, 0.816251, 0.854098, 0.912713, 0.851771, 0.799335, 0.898859, 0.863134, 0.789081, 0.712513, 0.673071, 0.843101, 0.777756, 0.858096, 0.907834, 0.822269, 0.940638, 0.847655, 0.799875, 0.817811, 0.907779, 0.664310, 0.671167, 0.675148, 0.795095
Process 3: 1.099930, 1.025308, 0.790993, 0.809725, 0.921868, 0.940325, 0.824693, 0.863661, 0.921023, 0.861434, 0.807710, 0.908593, 0.873253, 0.798702, 0.722121, 0.681770, 0.852047, 0.787643, 0.875889, 0.917993, 0.831327, 0.950742, 0.856905, 0.809159, 0.826152, 0.917327, 0.673160, 0.680134, 0.683406, 0.805171
Process 4: 1.106621, 1.032348, 0.798818, 0.816490, 0.928747, 0.947610, 0.832045, 0.870094, 0.927800, 0.868144, 0.815449, 0.916078, 0.879736, 0.805673, 0.729415, 0.688405, 0.859019, 0.794751, 0.882170, 0.925044, 0.838737, 0.959246, 0.863998, 0.816249, 0.833855, 0.924029, 0.679859, 0.686036, 0.691374, 0.812354
Process 5: 1.114494, 1.040535, 0.807459, 0.825605, 0.937683, 0.956806, 0.840756, 0.878689, 0.936723, 0.877158, 0.829039, 0.925175, 0.887696, 0.814448, 0.738254, 0.696169, 0.867308, 0.802322, 0.891299, 0.933807, 0.846257, 0.967115, 0.872242, 0.827330, 0.840122, 0.932320, 0.689251, 0.696997, 0.698164, 0.821445
Process 6: 1.121051, 1.046799, 0.814303, 0.831410, 0.943600, 0.963551, 0.847638, 0.883448, 0.941884, 0.884436, 0.833286, 0.931905, 0.892408, 0.820233, 0.744382, 0.700832, 0.874353, 0.807347, 0.897244, 0.939932, 0.853062, 0.972367, 0.878797, 0.833351, 0.845915, 0.936893, 0.693718, 0.701777, 0.705004, 0.827991
Process 7: 1.126819, 1.054670, 0.822368, 0.839775, 0.951660, 0.973243, 0.855570, 0.892081, 0.950465, 0.892427, 0.842134, 0.941435, 0.901128, 0.828377, 0.752386, 0.709550, 0.882381, 0.816017, 0.905514, 0.948094, 0.860582, 0.980822, 0.886784, 0.839514, 0.851861, 0.945489, 0.702499, 0.710380, 0.710993, 0.836105
Process 8: 1.133145, 1.060679, 0.826954, 0.845595, 0.956853, 0.980039, 0.860983, 0.895698, 0.954478, 0.896878, 0.845859, 0.948212, 0.904578, 0.834307, 0.758342, 0.712962, 0.887163, 0.819586, 0.910911, 0.953037, 0.867410, 0.984300, 0.892213, 0.845875, 0.857916, 0.949595, 0.707053, 0.714670, 0.716829, 0.840719
Process 9: 1.138826, 1.068533, 0.834879, 0.853721, 0.964872, 0.987491, 0.869341, 0.905958, 0.962447, 0.904884, 0.854210, 0.957816, 0.912852, 0.842256, 0.766534, 0.721550, 0.895286, 0.827754, 0.919178, 0.961182, 0.874654, 0.992668, 0.900294, 0.851511, 0.863764, 0.957953, 0.715358, 0.723137, 0.722864, 0.848770
Process 10: 1.144308, 1.072448, 0.839039, 0.859183, 0.970107, 0.990533, 0.874525, 0.912951, 0.966446, 0.909151, 0.857562, 0.964426, 0.916295, 0.846806, 0.771548, 0.725107, 0.898606, 0.831176, 0.924212, 0.966342, 0.881304, 0.996000, 0.904332, 0.857238, 0.869656, 0.961355, 0.719537, 0.726486, 0.728158, 0.853558
Process 11: 1.149741, 1.080335, 0.846968, 0.867157, 0.978045, 0.996088, 0.882380, 0.922561, 0.973992, 0.917297, 0.865734, 0.970012, 0.924272, 0.854678, 0.784558, 0.736343, 0.906828, 0.839218, 0.932572, 0.974087, 0.884646, 1.004025, 0.912276, 0.862731, 0.875079, 0.969667, 0.731225, 0.734563, 0.734051, 0.861526
