MPI_insiderank_optimisedserial
Process 0: 2.512776, 0.828690, 0.940229, 0.605728, 0.653426, 0.623005, 0.674587, 2.790479, 0.635897, 2.052487, 0.635138, 0.656090, 2.278986, 0.628108, 0.624490, 0.652080, 0.636080, 0.643124, 2.715117, 0.618790, 0.612263, 0.621042, 0.624436, 2.879227, 0.654068, 0.648930, 0.646129, 0.703530, 0.620767, 0.640398
Process 1: 2.203323, 0.476842, 0.637245, 0.263748, 0.325406, 0.303695, 0.331124, 2.467076, 0.318883, 1.739923, 0.316824, 0.346885, 1.916162, 0.304469, 0.303988, 0.342219, 0.309501, 0.330406, 2.402743, 0.295144, 0.282470, 0.319439, 0.298573, 2.548951, 0.332211, 0.325287, 0.335452, 0.330049, 0.295481, 0.324992
Process 2: 2.207737, 0.482142, 0.643084, 0.268644, 0.328690, 0.307115, 0.335005, 2.471217, 0.322900, 1.746005, 0.321530, 0.349854, 1.922753, 0.309907, 0.307905, 0.347726, 0.313346, 0.335571, 2.407854, 0.299111, 0.286938, 0.325577, 0.303115, 2.553184, 0.335469, 0.329966, 0.342822, 0.335059, 0.299874, 0.330159
Process 3: 2.214054, 0.492195, 0.648406, 0.274892, 0.336869, 0.313938, 0.340965, 2.479962, 0.333406, 1.751187, 0.331503, 0.356304, 1.931336, 0.317407, 0.313952, 0.354347, 0.319938, 0.339299, 2.415202, 0.305562, 0.293467, 0.331944, 0.310922, 2.556352, 0.340387, 0.333666, 0.348450, 0.339438, 0.306636, 0.337375
Process 4: 2.218843, 0.495480, 0.652811, 0.279309, 0.339899, 0.318092, 0.346806, 2.484292, 0.338863, 1.753503, 0.335838, 0.364142, 1.935827, 0.320606, 0.318056, 0.357784, 0.323989, 0.343603, 2.418128, 0.310980, 0.297973, 0.335728, 0.315067, 2.561195, 0.347774, 0.340516, 0.351346, 0.345750, 0.314735, 0.342709
Process 5: 2.227244, 0.502759, 0.659420, 0.287331, 0.347331, 0.323111, 0.353350, 2.489939, 0.343927, 1.759750, 0.341949, 0.369635, 1.949324, 0.327094, 0.327661, 0.364460, 0.330748, 0.349135, 2.426391, 0.315520, 0.304094, 0.340440, 0.320089, 2.569368, 0.351792, 0.345396, 0.359249, 0.350213, 0.321227, 0.352320
Process 6: 2.229773, 0.505270, 0.662449, 0.292358, 0.355626, 0.328093, 0.356901, 2.492228, 0.348737, 1.763170, 0.344820, 0.372974, 1.960609, 0.329787, 0.331097, 0.368288, 0.334279, 0.353159, 2.431358, 0.320120, 0.307606, 0.343017, 0.325459, 2.572310, 0.354773, 0.347597, 0.361662, 0.353018, 0.323110, 0.353940
Process 7: 2.237032, 0.512301, 0.669289, 0.296271, 0.360723, 0.335982, 0.363448, 2.503765, 0.353466, 1.769185, 0.349964, 0.376589, 1.968979, 0.338531, 0.337570, 0.375443, 0.340950, 0.358626, 2.441644, 0.326178, 0.315478, 0.349211, 0.331534, 2.578679, 0.359829, 0.354217, 0.367294, 0.361521, 0.330868, 0.360129
Process 8: 2.240285, 0.515047, 0.672044, 0.303928, 0.363365, 0.340545, 0.366413, 2.506715, 0.356575, 1.771762, 0.353667, 0.383530, 1.972024, 0.341346, 0.347480, 0.377815, 0.343663, 0.362237, 2.444959, 0.329110, 0.317545, 0.355009, 0.333126, 2.581972, 0.364879, 0.360805, 0.371799, 0.366106, 0.333614, 0.362524
Process 9: 2.248605, 0.522500, 0.678515, 0.311881, 0.368723, 0.351942, 0.373364, 2.510460, 0.363102, 1.779091, 0.359422, 0.396273, 1.975722, 0.347867, 0.357298, 0.384259, 0.351283, 0.370475, 2.448936, 0.334783, 0.324183, 0.360546, 0.339527, 2.585282, 0.370490, 0.367945, 0.377424, 0.370801, 0.337181, 0.368775
Process 10: 2.251300, 0.524861, 0.681029, 0.315544, 0.372767, 0.357528, 0.376364, 2.512391, 0.365993, 1.782385, 0.363187, 0.400687, 1.978021, 0.351272, 0.361476, 0.388693, 0.354828, 0.374542, 2.450898, 0.338684, 0.326720, 0.364222, 0.342567, 2.592162, 0.374086, 0.370152, 0.380247, 0.374021, 0.339368, 0.372672
Process 11: 2.258025, 0.531816, 0.687925, 0.319382, 0.378250, 0.361284, 0.383439, 2.521085, 0.372415, 1.790379, 0.368399, 0.406849, 1.980977, 0.353924, 0.365692, 0.394465, 0.359808, 0.378496, 2.457481, 0.351138, 0.333358, 0.369458, 0.351750, 2.597315, 0.378277, 0.373909, 0.386520, 0.379947, 0.346690, 0.376277
Process 12: 2.263451, 0.534063, 0.690864, 0.322201, 0.380311, 0.364394, 0.386529, 2.525138, 0.375136, 1.792853, 0.373313, 0.412694, 1.983233, 0.357950, 0.369302, 0.401439, 0.362943, 0.382185, 2.462011, 0.356340, 0.336222, 0.372923, 0.356289, 2.601190, 0.382216, 0.383115, 0.389840, 0.385628, 0.348709, 0.383389
Process 13: 2.270234, 0.540648, 0.697219, 0.329029, 0.384077, 0.367624, 0.392728, 2.529428, 0.381663, 1.805393, 0.385456, 0.418049, 1.986018, 0.362842, 0.372854, 0.412432, 0.371287, 0.388303, 2.465744, 0.361198, 0.342678, 0.380275, 0.362367, 2.604094, 0.387195, 0.384654, 0.397572, 0.393644, 0.354817, 0.385748
Process 14: 2.273092, 0.543289, 0.699875, 0.334237, 0.387219, 0.371468, 0.395514, 2.531396, 0.384607, 1.810825, 0.387925, 0.424533, 1.989508, 0.367746, 0.375616, 0.416092, 0.373439, 0.390893, 2.467432, 0.365098, 0.345379, 0.386568, 0.364363, 2.608658, 0.391642, 0.386497, 0.400413, 0.398216, 0.360259, 0.389972
Process 15: 2.279507, 0.554323, 0.706595, 0.338448, 0.396120, 0.375187, 0.403830, 2.541040, 0.391568, 1.819028, 0.390537, 0.430992, 1.994515, 0.376486, 0.378716, 0.420774, 0.378201, 0.395495, 2.471406, 0.370271, 0.352769, 0.393706, 0.368126, 2.616908, 0.397076, 0.392814, 0.404930, 0.402053, 0.366484, 0.395046
Process 16: 2.282643, 0.557170, 0.708862, 0.340354, 0.398392, 0.377480, 0.405741, 2.545678, 0.393714, 1.831517, 0.392524, 0.433308, 2.001855, 0.379196, 0.382747, 0.423513, 0.380906, 0.399545, 2.478141, 0.372704, 0.355409, 0.401583, 0.369829, 2.619042, 0.400767, 0.396280, 0.407924, 0.405258, 0.369340, 0.398866
Process 17: 2.289866, 0.564070, 0.715309, 0.345071, 0.401949, 0.384102, 0.411834, 2.548230, 0.399807, 1.839046, 0.402461, 0.437137, 2.006575, 0.381473, 0.386553, 0.427701, 0.388368, 0.405273, 2.485293, 0.379155, 0.361124, 0.410181, 0.380081, 2.623648, 0.413729, 0.405489, 0.415024, 0.409312, 0.373025, 0.409029
Process 18: 2.294288, 0.567321, 0.717847, 0.355384, 0.405673, 0.386880, 0.414627, 2.549968, 0.404395, 1.841751, 0.404161, 0.439394, 2.016751, 0.385691, 0.388736, 0.429682, 0.391111, 0.410308, 2.487945, 0.382763, 0.363966, 0.418138, 0.384389, 2.627385, 0.418230, 0.408919, 0.417195, 0.412193, 0.375811, 0.412146
Process 19: 2.301407, 0.576419, 0.724511, 0.366222, 0.411012, 0.390852, 0.420500, 2.553677, 0.408930, 1.844142, 0.408113, 0.442722, 2.025372, 0.394403, 0.393033, 0.433064, 0.398854, 0.414888, 2.493169, 0.386873, 0.370475, 0.423872, 0.389412, 2.634444, 0.420467, 0.412384, 0.423401, 0.415333, 0.382411, 0.414696
Process 20: 2.305129, 0.580038, 0.727434, 0.369334, 0.417400, 0.392697, 0.424392, 2.561094, 0.413191, 1.846060, 0.411051, 0.444787, 2.030168, 0.397992, 0.397435, 0.434969, 0.401260, 0.419241, 2.497701, 0.389108, 0.373854, 0.426777, 0.391380, 2.640516, 0.422425, 0.414378, 0.426644, 0.420720, 0.388075, 0.417996
Process 21: 2.309679, 0.589416, 0.734401, 0.374510, 0.521979, 0.400783, 0.430229, 2.566856, 0.418969, 1.848911, 0.417702, 0.449293, 2.037183, 0.407851, 0.403371, 0.438539, 0.405324, 0.425865, 2.502886, 0.393165, 0.380617, 0.430974, 0.398834, 2.646830, 0.426215, 0.422391, 0.436223, 0.424574, 0.395295, 0.425296
Process 22: 2.313174, 0.592535, 0.738647, 0.384238, 0.527748, 0.404753, 0.436905, 2.568792, 0.423124, 1.851352, 0.419529, 0.451379, 2.040345, 0.412034, 0.407475, 0.441208, 0.410035, 0.429388, 2.510350, 0.396147, 0.388458, 0.434430, 0.403305, 2.648835, 0.434723, 0.424482, 0.438500, 0.427499, 0.398801, 0.428213
Process 23: 2.318210, 0.602341, 0.744943, 0.396897, 0.533397, 0.408792, 0.441413, 2.575596, 0.428629, 1.854117, 0.425009, 0.454298, 2.044932, 0.414859, 0.413524, 0.448737, 0.434765, 0.439620, 2.515984, 0.400391, 0.397679, 0.437781, 0.406705, 2.659659, 0.443896, 0.429949, 0.443241, 0.440554, 0.405239, 0.433641
Process 24: 2.322047, 0.606810, 0.749273, 0.405746, 0.537497, 0.414120, 0.445410, 2.582286, 0.433871, 1.856604, 0.434610, 0.457865, 2.051724, 0.417907, 0.418132, 0.451425, 0.437932, 0.441485, 2.518984, 0.404222, 0.401960, 0.439865, 0.409899, 2.664468, 0.447246, 0.434115, 0.449232, 0.448141, 0.408634, 0.439114
Process 25: 2.326312, 0.615561, 0.754708, 0.415898, 0.541985, 0.418889, 0.451101, 2.591167, 0.439514, 1.860433, 0.439849, 0.463099, 2.059766, 0.423668, 0.425522, 0.457201, 0.443531, 0.444822, 2.522945, 0.411004, 0.405494, 0.442225, 0.421369, 2.667767, 0.451206, 0.443370, 0.454661, 0.451905, 0.412738, 0.445364
Process 26: 2.330462, 0.619400, 0.759325, 0.421907, 0.545553, 0.421235, 0.455407, 2.597904, 0.446208, 1.863139, 0.442073, 0.467364, 2.066647, 0.430679, 0.429122, 0.465316, 0.449028, 0.450968, 2.525271, 0.415303, 0.408155, 0.444019, 0.424294, 2.675494, 0.453145, 0.447337, 0.457961, 0.454533, 0.417349, 0.449775
Process 27: 2.336930, 0.628331, 0.767611, 0.428426, 0.549656, 0.430351, 0.462370, 2.601175, 0.450420, 1.866487, 0.450806, 0.474293, 2.078074, 0.435201, 0.433811, 0.475771, 0.455017, 0.455824, 2.529027, 0.422877, 0.413289, 0.450807, 0.429051, 2.688611, 0.457459, 0.449922, 0.464716, 0.459482, 0.427627, 0.455631
Process 28: 2.341016, 0.632827, 0.771397, 0.431479, 0.552854, 0.434844, 0.469322, 2.603711, 0.457413, 1.871554, 0.453370, 0.477965, 2.084047, 0.441687, 0.439057, 0.479485, 0.457817, 0.460444, 2.532535, 0.427096, 0.416545, 0.453700, 0.431827, 2.693478, 0.465382, 0.457398, 0.468351, 0.465569, 0.432304, 0.462436
Process 29: 2.347036, 0.641217, 0.777172, 0.434012, 0.556153, 0.439610, 0.471731, 2.606643, 0.460936, 1.878931, 0.458003, 0.484740, 2.089015, 0.445662, 0.448473, 0.487228, 0.461450, 0.466890, 2.539996, 0.430838, 0.423758, 0.456827, 0.440690, 2.698417, 0.470332, 0.460300, 0.475899, 0.469334, 0.435025, 0.468817
Process 30: 2.352079, 0.645674, 0.781392, 0.436102, 0.558709, 0.441992, 0.479697, 2.610359, 0.465201, 1.886721, 0.462358, 0.488906, 2.091556, 0.448889, 0.451652, 0.492057, 0.464388, 0.471277, 2.545157, 0.436676, 0.427284, 0.459206, 0.443571, 2.702098, 0.474572, 0.464412, 0.479404, 0.471514, 0.439438, 0.473425
Process 31: 2.356817, 0.657349, 0.786852, 0.438348, 0.561041, 0.450927, 0.481801, 2.615881, 0.474391, 1.892850, 0.472064, 0.493972, 2.099610, 0.454353, 0.459359, 0.495245, 0.467744, 0.476255, 2.549960, 0.443087, 0.431481, 0.462263, 0.447663, 2.706058, 0.482809, 0.470569, 0.484745, 0.481098, 0.445204, 0.478231
Process 32: 2.362233, 0.660380, 0.790953, 0.440162, 0.563042, 0.454427, 0.486245, 2.619934, 0.476630, 1.896828, 0.475597, 0.496448, 2.103248, 0.458699, 0.462840, 0.497295, 0.469578, 0.480584, 2.554546, 0.445148, 0.438084, 0.464804, 0.451525, 2.709359, 0.487502, 0.474341, 0.488343, 0.484976, 0.449654, 0.481947
Process 33: 2.367763, 0.667505, 0.796979, 0.445129, 0.565506, 0.466185, 0.490907, 2.629301, 0.480011, 1.901818, 0.478076, 0.503827, 2.109178, 0.463878, 0.474145, 0.500231, 0.471984, 0.485933, 2.559429, 0.456738, 0.442272, 0.470293, 0.460105, 2.713324, 0.494300, 0.487270, 0.493746, 0.487863, 0.458192, 0.487371
Process 34: 2.371550, 0.675034, 0.800697, 0.447440, 0.566955, 0.471779, 0.495834, 2.633320, 0.485226, 1.905380, 0.481072, 0.507901, 2.113694, 0.471155, 0.482802, 0.502616, 0.474288, 0.489932, 2.562669, 0.461446, 0.445826, 0.474420, 0.465149, 2.715587, 0.498183, 0.492548, 0.497387, 0.490429, 0.461326, 0.491940
Process 35: 2.377952, 0.683997, 0.806549, 0.453831, 0.569390, 0.475870, 0.500565, 2.647823, 0.491875, 1.909177, 0.489720, 0.512001, 2.119416, 0.475223, 0.486975, 0.508449, 0.479830, 0.495541, 2.568629, 0.465397, 0.451449, 0.478753, 0.467566, 2.718112, 0.508707, 0.497105, 0.503132, 0.496786, 0.465490, 0.496469
Process 36: 2.382357, 0.688731, 0.810880, 0.459232, 0.571491, 0.478529, 0.505206, 2.652787, 0.495572, 1.913067, 0.492681, 0.516003, 2.123506, 0.477794, 0.489702, 0.512381, 0.486745, 0.499644, 2.572520, 0.468631, 0.455875, 0.482247, 0.470671, 2.721171, 0.512563, 0.500372, 0.507286, 0.499819, 0.468200, 0.501620
Process 37: 2.390034, 0.696067, 0.816545, 0.466345, 0.579229, 0.481691, 0.512462, 2.656518, 0.501327, 1.916847, 0.496204, 0.520570, 2.129186, 0.483343, 0.493696, 0.517519, 0.495756, 0.505205, 2.577051, 0.472193, 0.461364, 0.487529, 0.475801, 2.728379, 0.516092, 0.505433, 0.512508, 0.504224, 0.473885, 0.506576
Process 38: 2.393177, 0.701588, 0.820725, 0.468519, 0.581920, 0.483931, 0.517016, 2.659932, 0.505250, 1.919871, 0.499369, 0.526634, 2.133595, 0.487975, 0.497799, 0.521877, 0.503209, 0.509324, 2.583118, 0.475384, 0.464415, 0.491894, 0.480682, 2.735622, 0.518121, 0.508502, 0.516527, 0.508313, 0.477841, 0.511014
Process 39: 2.399137, 0.708780, 0.826961, 0.472838, 0.585403, 0.488427, 0.531122, 2.664401, 0.510545, 1.924823, 0.504787, 0.530345, 2.138645, 0.497456, 0.501668, 0.532074, 0.506615, 0.514678, 2.590790, 0.479623, 0.470049, 0.496886, 0.488512, 2.746112, 0.521776, 0.513006, 0.521740, 0.518686, 0.483239, 0.515551
Process 40: 2.402799, 0.715307, 0.830863, 0.478234, 0.587266, 0.492399, 0.541453, 2.670360, 0.514389, 1.930077, 0.513160, 0.534949, 2.143381, 0.499343, 0.504888, 0.535289, 0.509497, 0.518679, 2.593943, 0.484265, 0.474086, 0.500958, 0.491274, 2.753546, 0.526189, 0.516135, 0.525405, 0.525811, 0.488052, 0.521171
Process 41: 2.409507, 0.720677, 0.836253, 0.483635, 0.589273, 0.499074, 0.545254, 2.675624, 0.520076, 1.936395, 0.518463, 0.539850, 2.149313, 0.502748, 0.510953, 0.539732, 0.513737, 0.525838, 2.598301, 0.490979, 0.480408, 0.506010, 0.494673, 2.763454, 0.531728, 0.519535, 0.531012, 0.533123, 0.492968, 0.524951
Process 42: 2.412768, 0.726647, 0.842003, 0.487769, 0.590766, 0.503965, 0.548851, 2.678739, 0.528379, 1.940562, 0.519822, 0.544257, 2.153506, 0.512984, 0.514488, 0.542190, 0.517826, 0.528481, 2.603311, 0.493519, 0.485513, 0.510598, 0.499747, 2.768497, 0.534672, 0.524957, 0.535482, 0.537862, 0.498969, 0.530045
Process 43: 2.418064, 0.734124, 0.845648, 0.493456, 0.593466, 0.507948, 0.554175, 2.681779, 0.533396, 1.947168, 0.524689, 0.554414, 2.161856, 0.516752, 0.517975, 0.545167, 0.521461, 0.533753, 2.609625, 0.497337, 0.489891, 0.519452, 0.509703, 2.772629, 0.541002, 0.531828, 0.543315, 0.545108, 0.507667, 0.534657
Process 44: 2.422505, 0.738379, 0.850529, 0.498623, 0.596905, 0.511137, 0.556757, 2.684973, 0.537500, 1.953482, 0.531184, 0.557341, 2.167752, 0.518367, 0.520295, 0.549377, 0.524564, 0.537982, 2.613772, 0.501659, 0.493406, 0.522277, 0.514166, 2.775522, 0.548998, 0.540020, 0.545062, 0.552982, 0.511136, 0.539048
Process 45: 2.428146, 0.743730, 0.855147, 0.506604, 0.599745, 0.516896, 0.562610, 2.688374, 0.542349, 1.956503, 0.534647, 0.561933, 2.174944, 0.522880, 0.523538, 0.554611, 0.529137, 0.547000, 2.620782, 0.508886, 0.502727, 0.524733, 0.518268, 2.778506, 0.555648, 0.547171, 0.551257, 0.561500, 0.514445, 0.544492
Process 46: 2.431195, 0.748119, 0.859203, 0.512312, 0.602017, 0.521116, 0.566417, 2.691569, 0.547019, 1.958768, 0.538082, 0.566955, 2.179043, 0.529701, 0.527182, 0.558624, 0.533664, 0.548650, 2.626860, 0.513104, 0.505841, 0.528662, 0.519931, 2.780710, 0.558652, 0.552884, 0.556132, 0.570835, 0.516656, 0.548573
Process 47: 2.436453, 0.753310, 0.864881, 0.517067, 0.604077, 0.524305, 0.569061, 2.698109, 0.552229, 1.962654, 0.542610, 0.571100, 2.186792, 0.536172, 0.531889, 0.563083, 0.537134, 0.553703, 2.635625, 0.518293, 0.520316, 0.536592, 0.526963, 2.783266, 0.563892, 0.556996, 0.560025, 0.580318, 0.523322, 0.553180
Process 48: 2.440484, 0.758744, 0.869372, 0.525602, 0.605794, 0.527174, 0.571853, 2.702757, 0.554320, 1.965956, 0.549837, 0.575168, 2.190024, 0.542719, 0.535817, 0.567045, 0.540586, 0.558448, 2.640497, 0.522728, 0.528152, 0.538866, 0.530405, 2.789322, 0.568337, 0.560110, 0.564357, 0.586449, 0.526581, 0.559523
Process 49: 2.445713, 0.763753, 0.877884, 0.533303, 0.608449, 0.533560, 0.580738, 2.709606, 0.558202, 1.973030, 0.555163, 0.579665, 2.195713, 0.547464, 0.542721, 0.572637, 0.548490, 0.563999, 2.645439, 0.528917, 0.532754, 0.543173, 0.539927, 2.795767, 0.572397, 0.565514, 0.570270, 0.592039, 0.541163, 0.563653
Process 50: 2.451663, 0.767853, 0.880477, 0.537278, 0.610524, 0.539072, 0.586795, 2.713991, 0.563092, 1.978136, 0.556838, 0.584399, 2.201748, 0.552209, 0.546155, 0.577908, 0.552852, 0.568873, 2.648507, 0.533734, 0.536107, 0.547235, 0.545803, 2.809651, 0.576114, 0.569863, 0.573150, 0.597580, 0.544657, 0.566892
Process 51: 2.455258, 0.773510, 0.884062, 0.540783, 0.612732, 0.545658, 0.591447, 2.722039, 0.571664, 1.981442, 0.561506, 0.589642, 2.210989, 0.559096, 0.554363, 0.584605, 0.559348, 0.575571, 2.651855, 0.538505, 0.539079, 0.552684, 0.549014, 2.818719, 0.582136, 0.577461, 0.578713, 0.605901, 0.547096, 0.574843
Process 52: 2.460011, 0.777575, 0.888274, 0.544221, 0.614300, 0.549744, 0.597831, 2.727089, 0.575024, 1.985053, 0.569132, 0.596082, 2.216440, 0.567306, 0.559135, 0.590960, 0.564083, 0.581342, 2.654597, 0.541629, 0.543685, 0.565590, 0.554051, 2.822342, 0.588495, 0.579791, 0.584511, 0.613692, 0.551404, 0.579939
Process 53: 2.464322, 0.783189, 0.893590, 0.549677, 0.616807, 0.557053, 0.604263, 2.734560, 0.583690, 1.993876, 0.576534, 0.602210, 2.221806, 0.575651, 0.566425, 0.599186, 0.575151, 0.589713, 2.660782, 0.554318, 0.549136, 0.570113, 0.561784, 2.825831, 0.602628, 0.585960, 0.590502, 0.625512, 0.561762, 0.586229
Process 54: 2.468109, 0.786481, 0.897716, 0.555118, 0.618289, 0.561901, 0.609370, 2.740152, 0.588052, 1.997504, 0.579493, 0.607915, 2.228109, 0.578172, 0.572468, 0.606785, 0.579045, 0.594601, 2.666574, 0.556246, 0.554536, 0.573696, 0.566871, 2.832181, 0.605458, 0.593045, 0.595589, 0.634580, 0.564935, 0.591790
Process 55: 2.473844, 0.793268, 0.902679, 0.560414, 0.620669, 0.569065, 0.620406, 2.749081, 0.595453, 2.004068, 0.583056, 0.615347, 2.237205, 0.584002, 0.577145, 0.612704, 0.584641, 0.600490, 2.676209, 0.560849, 0.562353, 0.581757, 0.578192, 2.836983, 0.613064, 0.598939, 0.602083, 0.646892, 0.570033, 0.598794
Process 56: 2.479649, 0.797058, 0.911260, 0.565301, 0.622914, 0.579296, 0.623935, 2.754331, 0.602132, 2.010980, 0.591837, 0.620075, 2.245981, 0.594436, 0.587827, 0.620818, 0.595259, 0.607335, 2.680087, 0.568001, 0.572510, 0.589075, 0.586863, 2.842846, 0.617997, 0.605769, 0.609951, 0.655319, 0.576490, 0.605000
Process 57: 2.483957, 0.802248, 0.914487, 0.570283, 0.626619, 0.593406, 0.634066, 2.766476, 0.611291, 2.017590, 0.595993, 0.626133, 2.250466, 0.597291, 0.593075, 0.624610, 0.607209, 0.613619, 2.686110, 0.583958, 0.582653, 0.596209, 0.597908, 2.849494, 0.623261, 0.615602, 0.617103, 0.661331, 0.585203, 0.610977
Process 58: 2.488995, 0.806343, 0.917531, 0.577001, 0.630992, 0.597982, 0.639163, 2.773020, 0.615767, 2.022821, 0.601349, 0.632420, 2.253722, 0.602798, 0.600959, 0.628871, 0.616322, 0.619503, 2.691966, 0.590222, 0.589508, 0.599023, 0.600987, 2.855006, 0.631089, 0.623701, 0.620724, 0.668758, 0.590617, 0.619283
Process 59: 2.495445, 0.810525, 0.921673, 0.582549, 0.636598, 0.602397, 0.643249, 2.776602, 0.618310, 2.028716, 0.609948, 0.636082, 2.258733, 0.608795, 0.606125, 0.634344, 0.620492, 0.624869, 2.697057, 0.595788, 0.596872, 0.603225, 0.604425, 2.861489, 0.633493, 0.627343, 0.625622, 0.674816, 0.594026, 0.623166
Process 60: 2.499074, 0.815496, 0.926438, 0.587288, 0.640176, 0.606249, 0.646886, 2.779571, 0.622684, 2.037873, 0.614064, 0.641355, 2.261731, 0.616476, 0.610954, 0.638877, 0.623878, 0.629629, 2.701999, 0.602648, 0.601328, 0.609340, 0.609698, 2.866657, 0.637785, 0.630758, 0.630361, 0.680942, 0.597027, 0.628194
Process 61: 2.503733, 0.819952, 0.931868, 0.591772, 0.646813, 0.611121, 0.652390, 2.782496, 0.627065, 2.043646, 0.622186, 0.645301, 2.269348, 0.619527, 0.615502, 0.643169, 0.628510, 0.634320, 2.706359, 0.607852, 0.606983, 0.613541, 0.613541, 2.870847, 0.647119, 0.634535, 0.634886, 0.686971, 0.603127, 0.631329
Process 62: 2.508396, 0.824334, 0.935865, 0.598352, 0.651447, 0.618493, 0.665774, 2.787887, 0.631410, 2.048270, 0.630647, 0.651920, 2.274556, 0.623570, 0.620756, 0.647808, 0.632373, 0.639127, 2.710821, 0.613646, 0.609471, 0.619138, 0.617478, 2.874948, 0.651953, 0.639248, 0.639339, 0.696195, 0.614201, 0.636150
Process 63: 2.512760, 0.828685, 0.940228, 0.605726, 0.653439, 0.623000, 0.674582, 2.790487, 0.635903, 2.052486, 0.635138, 0.656089, 2.278986, 0.628108, 0.624499, 0.652082, 0.636077, 0.643119, 2.715118, 0.618791, 0.612266, 0.621056, 0.624433, 2.879224, 0.654072, 0.648928, 0.646145, 0.703531, 0.620767, 0.640400
