MPI_insiderank_optimisedserial
Process 0: 0.724194, 0.636907, 0.288684, 0.266197, 0.253106, 0.252703, 0.253915, 0.251453, 0.251253, 0.249119, 0.252179, 0.252267, 0.253664, 0.544575, 0.489918, 0.253111, 0.252753, 0.252650, 0.251730, 0.276551, 0.260019, 0.253495, 0.251182, 0.254404, 0.253611, 0.253459, 0.251219, 0.248460, 0.247141, 0.248901
Process 1: 0.596366, 0.300901, 0.181332, 0.169974, 0.155557, 0.155069, 0.155055, 0.153938, 0.153795, 0.152080, 0.153925, 0.153771, 0.155803, 0.153926, 0.391720, 0.155124, 0.154796, 0.154417, 0.153069, 0.176844, 0.161298, 0.154804, 0.151749, 0.155827, 0.155601, 0.155519, 0.152152, 0.151680, 0.148642, 0.150000
Process 2: 0.597925, 0.310375, 0.183060, 0.171571, 0.156869, 0.156403, 0.156460, 0.155484, 0.155236, 0.153453, 0.155169, 0.155008, 0.157084, 0.155152, 0.392964, 0.156403, 0.156048, 0.155867, 0.154493, 0.178137, 0.162200, 0.156226, 0.153277, 0.157213, 0.156891, 0.156725, 0.153778, 0.152920, 0.149902, 0.151345
Process 3: 0.600302, 0.319838, 0.185398, 0.173411, 0.158937, 0.158617, 0.158446, 0.157454, 0.157314, 0.155383, 0.157123, 0.157013, 0.159201, 0.157092, 0.395024, 0.158571, 0.158024, 0.157921, 0.156640, 0.180057, 0.164157, 0.158488, 0.155466, 0.159286, 0.158967, 0.158145, 0.155947, 0.154740, 0.151945, 0.153890
Process 4: 0.602269, 0.329321, 0.187305, 0.174959, 0.160533, 0.160040, 0.160130, 0.158921, 0.159005, 0.157004, 0.158657, 0.158535, 0.161021, 0.158708, 0.396601, 0.160216, 0.159553, 0.159448, 0.158270, 0.182836, 0.165717, 0.160194, 0.157026, 0.161018, 0.161086, 0.159822, 0.157627, 0.156525, 0.153793, 0.156543
Process 5: 0.604581, 0.338878, 0.189255, 0.176448, 0.162095, 0.161621, 0.161689, 0.160567, 0.160606, 0.158598, 0.160326, 0.160090, 0.162638, 0.160161, 0.398101, 0.161750, 0.161253, 0.161064, 0.159960, 0.184477, 0.167474, 0.161835, 0.158700, 0.162435, 0.162556, 0.161375, 0.159259, 0.158643, 0.155282, 0.157590
Process 6: 0.606502, 0.348387, 0.191243, 0.177977, 0.163608, 0.163158, 0.163347, 0.162141, 0.162098, 0.160159, 0.161856, 0.161713, 0.164063, 0.161860, 0.399877, 0.163343, 0.163012, 0.162680, 0.161307, 0.185985, 0.169366, 0.163433, 0.160347, 0.164104, 0.164120, 0.162958, 0.160810, 0.160507, 0.156848, 0.158812
Process 7: 0.608516, 0.358159, 0.193244, 0.179640, 0.165318, 0.164883, 0.164903, 0.163805, 0.163811, 0.161861, 0.163571, 0.163441, 0.165765, 0.163422, 0.401416, 0.165099, 0.165054, 0.164342, 0.162971, 0.187612, 0.170746, 0.165266, 0.162447, 0.165976, 0.165930, 0.164691, 0.162554, 0.161501, 0.158633, 0.160364
Process 8: 0.610762, 0.367757, 0.195377, 0.181394, 0.166973, 0.166556, 0.166567, 0.165527, 0.165390, 0.163379, 0.165271, 0.165052, 0.167348, 0.165144, 0.403042, 0.166845, 0.166540, 0.166020, 0.164620, 0.189270, 0.172404, 0.166941, 0.164096, 0.167739, 0.167900, 0.166485, 0.164311, 0.162746, 0.160281, 0.162074
Process 9: 0.612893, 0.377339, 0.197304, 0.182613, 0.168570, 0.168090, 0.167980, 0.166998, 0.166869, 0.164879, 0.166889, 0.166827, 0.169091, 0.166588, 0.404706, 0.168491, 0.168082, 0.167469, 0.166198, 0.190840, 0.174072, 0.168521, 0.165643, 0.169166, 0.169200, 0.168172, 0.166056, 0.164114, 0.161842, 0.163951
Process 10: 0.615814, 0.386762, 0.199377, 0.184306, 0.170235, 0.169788, 0.169765, 0.168816, 0.168613, 0.166616, 0.168562, 0.168806, 0.170955, 0.168718, 0.406600, 0.170176, 0.169853, 0.169266, 0.168011, 0.192724, 0.176328, 0.170506, 0.167514, 0.170894, 0.170886, 0.169936, 0.168011, 0.165931, 0.163566, 0.166879
Process 11: 0.617068, 0.396279, 0.201376, 0.185786, 0.171719, 0.171359, 0.171285, 0.170267, 0.170102, 0.168167, 0.170045, 0.170408, 0.172386, 0.170092, 0.408265, 0.171475, 0.171493, 0.170699, 0.169542, 0.194310, 0.178667, 0.172202, 0.169081, 0.172409, 0.172398, 0.171562, 0.169358, 0.167398, 0.165053, 0.168648
Process 12: 0.619327, 0.433799, 0.203703, 0.187505, 0.173636, 0.173089, 0.173142, 0.172059, 0.171883, 0.169926, 0.171806, 0.172233, 0.174231, 0.171847, 0.410095, 0.173249, 0.173627, 0.172617, 0.171508, 0.196111, 0.180358, 0.173971, 0.171322, 0.174303, 0.174596, 0.173425, 0.171287, 0.169330, 0.166820, 0.169867
Process 13: 0.621111, 0.443498, 0.205511, 0.188790, 0.174837, 0.174387, 0.174657, 0.173428, 0.173362, 0.171354, 0.173276, 0.173762, 0.175708, 0.173303, 0.411535, 0.174673, 0.174831, 0.173986, 0.172907, 0.197588, 0.181661, 0.175370, 0.172462, 0.175742, 0.175805, 0.175056, 0.172846, 0.170745, 0.168453, 0.170953
Process 14: 0.623238, 0.449146, 0.207550, 0.190380, 0.176739, 0.176101, 0.176462, 0.174946, 0.174969, 0.172833, 0.175011, 0.175418, 0.177346, 0.174920, 0.413134, 0.176190, 0.176432, 0.175568, 0.174820, 0.199415, 0.183142, 0.176969, 0.174299, 0.177287, 0.177210, 0.176636, 0.174453, 0.172332, 0.170101, 0.172388
Process 15: 0.626058, 0.485778, 0.210190, 0.192619, 0.178705, 0.178729, 0.179006, 0.177293, 0.177361, 0.175133, 0.177426, 0.177809, 0.179935, 0.177333, 0.416405, 0.178497, 0.178630, 0.177764, 0.176932, 0.202093, 0.185673, 0.179186, 0.176747, 0.179499, 0.179608, 0.179106, 0.176854, 0.174607, 0.172717, 0.174667
Process 16: 0.627798, 0.487003, 0.211648, 0.193872, 0.180167, 0.180250, 0.180300, 0.178563, 0.178661, 0.176187, 0.178943, 0.179090, 0.181130, 0.178884, 0.417841, 0.179844, 0.180819, 0.179047, 0.178279, 0.203809, 0.187308, 0.180770, 0.179222, 0.180730, 0.180655, 0.180249, 0.177673, 0.175775, 0.173903, 0.175989
Process 17: 0.629694, 0.487710, 0.213316, 0.195276, 0.181499, 0.181539, 0.181521, 0.179760, 0.179897, 0.177636, 0.180300, 0.180478, 0.182334, 0.180287, 0.418639, 0.181155, 0.182310, 0.180239, 0.179548, 0.205037, 0.189280, 0.182048, 0.180648, 0.181925, 0.182484, 0.181552, 0.179120, 0.177094, 0.175033, 0.177261
Process 18: 0.632291, 0.517061, 0.215576, 0.197090, 0.183328, 0.183286, 0.183423, 0.181733, 0.181756, 0.179323, 0.182121, 0.182578, 0.184244, 0.182407, 0.420210, 0.183294, 0.183716, 0.182175, 0.181998, 0.207109, 0.191394, 0.184129, 0.182083, 0.183873, 0.183816, 0.183597, 0.180965, 0.178820, 0.176866, 0.179358
Process 19: 0.633425, 0.517772, 0.217265, 0.198337, 0.184729, 0.184630, 0.184933, 0.183034, 0.183019, 0.180736, 0.183537, 0.183719, 0.185567, 0.183607, 0.421539, 0.184595, 0.184665, 0.183398, 0.182867, 0.208400, 0.192349, 0.185441, 0.183181, 0.185042, 0.185182, 0.184929, 0.182475, 0.180271, 0.178211, 0.180677
Process 20: 0.635908, 0.518829, 0.219393, 0.200216, 0.186408, 0.186437, 0.186656, 0.184907, 0.184881, 0.182549, 0.185404, 0.185725, 0.187251, 0.185585, 0.423387, 0.186459, 0.186394, 0.185383, 0.184569, 0.210247, 0.193974, 0.187371, 0.184775, 0.186940, 0.187030, 0.186982, 0.183946, 0.182275, 0.179921, 0.182422
Process 21: 0.637539, 0.519497, 0.221043, 0.201412, 0.187794, 0.187785, 0.188108, 0.186235, 0.186355, 0.184018, 0.186862, 0.187103, 0.188838, 0.186957, 0.425440, 0.187825, 0.187662, 0.186629, 0.185875, 0.211594, 0.195138, 0.188723, 0.186191, 0.188277, 0.188449, 0.187981, 0.185361, 0.183400, 0.181387, 0.183875
Process 22: 0.640391, 0.549070, 0.223032, 0.203277, 0.189612, 0.189604, 0.190084, 0.188148, 0.187996, 0.185714, 0.188956, 0.188912, 0.190575, 0.188717, 0.427643, 0.189585, 0.189442, 0.188496, 0.187640, 0.213475, 0.196992, 0.190439, 0.187923, 0.190305, 0.191314, 0.189684, 0.187045, 0.185228, 0.183117, 0.185564
Process 23: 0.641741, 0.549681, 0.224555, 0.204529, 0.190906, 0.191020, 0.191367, 0.189437, 0.189304, 0.187049, 0.190025, 0.190188, 0.191996, 0.200408, 0.428710, 0.191003, 0.190840, 0.189900, 0.189201, 0.214597, 0.198306, 0.191685, 0.189499, 0.191459, 0.192923, 0.190947, 0.188404, 0.186404, 0.184488, 0.186891
Process 24: 0.644604, 0.550694, 0.226663, 0.206449, 0.192649, 0.192815, 0.193185, 0.191314, 0.191192, 0.189042, 0.191993, 0.191960, 0.194152, 0.209354, 0.429974, 0.192871, 0.194215, 0.191844, 0.192502, 0.216838, 0.200479, 0.193690, 0.192349, 0.193468, 0.194755, 0.192835, 0.190514, 0.188217, 0.187050, 0.188779
Process 25: 0.646079, 0.551289, 0.228106, 0.207576, 0.193910, 0.194109, 0.194339, 0.192432, 0.192385, 0.190167, 0.193084, 0.193172, 0.195067, 0.217477, 0.430833, 0.194035, 0.195424, 0.193069, 0.193465, 0.217940, 0.201576, 0.194782, 0.193192, 0.194496, 0.195621, 0.194032, 0.191487, 0.189677, 0.187768, 0.189935
Process 26: 0.648717, 0.580239, 0.230498, 0.209516, 0.195866, 0.196121, 0.196197, 0.194403, 0.194311, 0.191925, 0.194925, 0.195059, 0.196960, 0.226502, 0.432603, 0.195934, 0.196553, 0.194839, 0.194652, 0.219850, 0.203655, 0.196792, 0.194380, 0.196599, 0.196875, 0.195946, 0.193394, 0.191259, 0.189556, 0.191915
Process 27: 0.649946, 0.580842, 0.231967, 0.210692, 0.197070, 0.197269, 0.197488, 0.195533, 0.195483, 0.193237, 0.196220, 0.196285, 0.198043, 0.234875, 0.433853, 0.197154, 0.197302, 0.196063, 0.195375, 0.220994, 0.204754, 0.197890, 0.195489, 0.197645, 0.197868, 0.197182, 0.194753, 0.192515, 0.190867, 0.193084
Process 28: 0.652040, 0.581492, 0.233586, 0.212180, 0.198676, 0.198863, 0.199126, 0.197097, 0.197057, 0.194805, 0.197874, 0.197874, 0.199613, 0.243054, 0.435514, 0.198730, 0.198451, 0.197640, 0.196735, 0.222277, 0.206350, 0.199597, 0.197056, 0.199256, 0.199434, 0.198810, 0.196915, 0.194112, 0.192520, 0.194667
Process 29: 0.654024, 0.582084, 0.235130, 0.213717, 0.200286, 0.200387, 0.200878, 0.198631, 0.198654, 0.196570, 0.199421, 0.199424, 0.201144, 0.251329, 0.437395, 0.200323, 0.200007, 0.199231, 0.198281, 0.223862, 0.207890, 0.201096, 0.198601, 0.200712, 0.201012, 0.200437, 0.198529, 0.195652, 0.194481, 0.196330
Process 30: 0.656057, 0.582664, 0.236552, 0.215254, 0.201814, 0.201920, 0.202288, 0.200116, 0.200433, 0.198075, 0.201168, 0.200976, 0.202718, 0.259761, 0.438747, 0.201926, 0.201570, 0.200803, 0.199797, 0.225555, 0.209426, 0.202378, 0.200164, 0.202203, 0.203145, 0.201921, 0.199637, 0.197148, 0.195584, 0.197823
Process 31: 0.658326, 0.583282, 0.238182, 0.216881, 0.203404, 0.203581, 0.203977, 0.201815, 0.201840, 0.199694, 0.202670, 0.202600, 0.204257, 0.268590, 0.440278, 0.203534, 0.203359, 0.202357, 0.201934, 0.227080, 0.211057, 0.203991, 0.201896, 0.203859, 0.204736, 0.203583, 0.201154, 0.198794, 0.197188, 0.199283
Process 32: 0.660151, 0.583775, 0.239495, 0.218246, 0.204776, 0.204923, 0.205378, 0.203160, 0.203207, 0.201100, 0.204022, 0.204065, 0.205611, 0.276573, 0.441657, 0.204735, 0.204811, 0.203756, 0.203622, 0.228446, 0.212481, 0.205359, 0.203304, 0.205248, 0.206173, 0.205028, 0.202629, 0.200228, 0.198595, 0.200708
Process 33: 0.662487, 0.584442, 0.241200, 0.219944, 0.206535, 0.206698, 0.207115, 0.204910, 0.204905, 0.202851, 0.205738, 0.205814, 0.207355, 0.284802, 0.443350, 0.206433, 0.206507, 0.205479, 0.205233, 0.230100, 0.214166, 0.207075, 0.205034, 0.207039, 0.207340, 0.206758, 0.204443, 0.201988, 0.200323, 0.202416
Process 34: 0.664525, 0.584995, 0.242682, 0.221382, 0.207892, 0.208077, 0.208547, 0.206283, 0.206346, 0.204293, 0.207135, 0.207282, 0.208743, 0.293375, 0.444823, 0.207853, 0.207913, 0.206888, 0.206108, 0.231534, 0.215535, 0.208469, 0.206469, 0.208480, 0.208685, 0.208213, 0.205794, 0.203567, 0.202328, 0.203836
Process 35: 0.666538, 0.585741, 0.244746, 0.223129, 0.209735, 0.209889, 0.210329, 0.208224, 0.208347, 0.206196, 0.208954, 0.209002, 0.210529, 0.301763, 0.446611, 0.209615, 0.209695, 0.208640, 0.207765, 0.234030, 0.217309, 0.210200, 0.208357, 0.210167, 0.210359, 0.209982, 0.207960, 0.205316, 0.204196, 0.205612
Process 36: 0.668460, 0.586280, 0.246081, 0.224540, 0.211081, 0.211212, 0.211712, 0.209514, 0.209739, 0.207571, 0.210479, 0.210544, 0.211934, 0.309594, 0.448023, 0.211039, 0.211036, 0.210117, 0.209003, 0.234836, 0.218737, 0.211532, 0.209602, 0.211368, 0.211710, 0.211430, 0.209326, 0.206704, 0.205070, 0.206953
Process 37: 0.670617, 0.587004, 0.248176, 0.226255, 0.212840, 0.212849, 0.213551, 0.211226, 0.211308, 0.209196, 0.212132, 0.212106, 0.213707, 0.318417, 0.449770, 0.212792, 0.212776, 0.211749, 0.210741, 0.236375, 0.220457, 0.213292, 0.211303, 0.213112, 0.213419, 0.213166, 0.210977, 0.208403, 0.206671, 0.208678
Process 38: 0.672539, 0.587605, 0.249493, 0.227633, 0.214302, 0.214271, 0.214951, 0.212633, 0.212655, 0.210610, 0.213543, 0.213568, 0.215135, 0.326757, 0.451214, 0.214248, 0.214180, 0.213004, 0.212224, 0.237899, 0.221757, 0.214849, 0.212696, 0.214509, 0.214940, 0.214635, 0.212385, 0.209801, 0.207924, 0.210124
Process 39: 0.674714, 0.588262, 0.251175, 0.229386, 0.215935, 0.215925, 0.216610, 0.214273, 0.214426, 0.212232, 0.215237, 0.215228, 0.216785, 0.336311, 0.452856, 0.215951, 0.215805, 0.214641, 0.214403, 0.239540, 0.223310, 0.216399, 0.214373, 0.216196, 0.216608, 0.216263, 0.213788, 0.211461, 0.209593, 0.211907
Process 40: 0.676762, 0.588844, 0.252624, 0.230806, 0.217461, 0.217358, 0.218131, 0.215772, 0.215941, 0.213754, 0.216727, 0.216698, 0.218269, 0.344552, 0.454373, 0.217949, 0.217335, 0.216136, 0.216248, 0.241591, 0.224756, 0.217858, 0.215896, 0.217677, 0.218126, 0.217795, 0.215256, 0.212953, 0.211044, 0.213425
Process 41: 0.679068, 0.589512, 0.254304, 0.232453, 0.219130, 0.219020, 0.219799, 0.217730, 0.217591, 0.215418, 0.218418, 0.218434, 0.219894, 0.353251, 0.456051, 0.219147, 0.218917, 0.217780, 0.217990, 0.242760, 0.226426, 0.219550, 0.217481, 0.219386, 0.219767, 0.219448, 0.216949, 0.214568, 0.212784, 0.215054
Process 42: 0.680791, 0.590163, 0.255797, 0.234031, 0.220758, 0.220512, 0.221358, 0.219236, 0.219181, 0.216993, 0.220000, 0.219877, 0.221518, 0.362186, 0.457644, 0.220669, 0.220530, 0.219358, 0.219633, 0.244371, 0.227975, 0.221133, 0.219021, 0.220968, 0.221348, 0.220886, 0.218595, 0.216127, 0.215147, 0.216615
Process 43: 0.682979, 0.590805, 0.257399, 0.235603, 0.222341, 0.222146, 0.222922, 0.220767, 0.220740, 0.218607, 0.221561, 0.221472, 0.223076, 0.371634, 0.459032, 0.222253, 0.222071, 0.220897, 0.221116, 0.245899, 0.229540, 0.222894, 0.220548, 0.222564, 0.222842, 0.222401, 0.220216, 0.217626, 0.216403, 0.218207
Process 44: 0.684972, 0.591425, 0.259141, 0.237186, 0.223841, 0.223841, 0.224528, 0.222311, 0.222259, 0.220066, 0.223068, 0.222988, 0.224682, 0.379911, 0.460618, 0.223783, 0.223697, 0.222476, 0.222690, 0.247473, 0.231040, 0.224220, 0.222084, 0.224335, 0.224391, 0.223891, 0.221838, 0.219181, 0.217590, 0.219733
Process 45: 0.687195, 0.592070, 0.260543, 0.238751, 0.225430, 0.225259, 0.226127, 0.223949, 0.223838, 0.221641, 0.224670, 0.224606, 0.226228, 0.388844, 0.462146, 0.225742, 0.225161, 0.224202, 0.224251, 0.250598, 0.232632, 0.225860, 0.223531, 0.225737, 0.225943, 0.225458, 0.223358, 0.220805, 0.219032, 0.221276
Process 46: 0.689033, 0.592658, 0.262017, 0.240240, 0.226931, 0.226834, 0.227917, 0.225455, 0.225295, 0.223072, 0.226152, 0.226237, 0.227725, 0.397427, 0.463659, 0.227071, 0.226585, 0.225776, 0.225706, 0.252089, 0.234145, 0.227310, 0.225072, 0.227208, 0.227447, 0.226931, 0.224948, 0.222344, 0.220366, 0.222777
Process 47: 0.691411, 0.593328, 0.263690, 0.241871, 0.228541, 0.228476, 0.229282, 0.227046, 0.226971, 0.224717, 0.227805, 0.227868, 0.229334, 0.405593, 0.465333, 0.228538, 0.228198, 0.227216, 0.227384, 0.253114, 0.235866, 0.229403, 0.226678, 0.228862, 0.229104, 0.228551, 0.226532, 0.223766, 0.222011, 0.224397
Process 48: 0.693239, 0.593985, 0.265179, 0.243368, 0.230034, 0.229899, 0.230728, 0.228513, 0.228435, 0.226191, 0.229306, 0.229369, 0.230931, 0.413992, 0.466760, 0.230064, 0.229702, 0.228772, 0.228821, 0.253941, 0.237346, 0.231381, 0.228156, 0.230498, 0.230661, 0.230019, 0.228019, 0.225174, 0.223504, 0.225915
Process 49: 0.695447, 0.594668, 0.266842, 0.245094, 0.231629, 0.231484, 0.232325, 0.230162, 0.230013, 0.227819, 0.230831, 0.230779, 0.232336, 0.422558, 0.468366, 0.231699, 0.231276, 0.230354, 0.230391, 0.255200, 0.238957, 0.232631, 0.229744, 0.232176, 0.232205, 0.231725, 0.229573, 0.226748, 0.225137, 0.227485
Process 50: 0.697294, 0.595220, 0.268216, 0.246376, 0.233029, 0.232887, 0.233769, 0.231554, 0.231391, 0.229271, 0.232227, 0.232160, 0.233731, 0.431869, 0.469735, 0.233734, 0.232706, 0.232021, 0.231769, 0.256647, 0.240312, 0.233686, 0.231121, 0.233435, 0.233718, 0.233117, 0.230974, 0.228131, 0.226561, 0.228953
Process 51: 0.699636, 0.629419, 0.269882, 0.247956, 0.234721, 0.234505, 0.235432, 0.233233, 0.233036, 0.230870, 0.233863, 0.233821, 0.235392, 0.440363, 0.471467, 0.235322, 0.234320, 0.233586, 0.233530, 0.258210, 0.241925, 0.235191, 0.232737, 0.235087, 0.235207, 0.234758, 0.232613, 0.229773, 0.228196, 0.230568
Process 52: 0.701534, 0.629907, 0.271569, 0.249394, 0.236146, 0.235943, 0.236902, 0.234673, 0.234428, 0.232290, 0.235281, 0.235359, 0.236876, 0.448825, 0.472909, 0.236433, 0.235847, 0.235042, 0.234924, 0.259932, 0.243355, 0.236607, 0.234269, 0.236568, 0.236525, 0.236081, 0.234065, 0.231235, 0.229612, 0.231798
Process 53: 0.703353, 0.630576, 0.273629, 0.251056, 0.237832, 0.237754, 0.238590, 0.236304, 0.236046, 0.233946, 0.236933, 0.237264, 0.238527, 0.458249, 0.474584, 0.237926, 0.237555, 0.236721, 0.236389, 0.263143, 0.245006, 0.238337, 0.235975, 0.238398, 0.238199, 0.237744, 0.235689, 0.232876, 0.231309, 0.233474
Process 54: 0.705567, 0.631185, 0.275191, 0.252555, 0.239451, 0.239204, 0.240226, 0.237849, 0.237533, 0.235474, 0.238504, 0.238603, 0.239992, 0.467163, 0.476156, 0.239402, 0.239166, 0.238295, 0.237877, 0.264208, 0.246557, 0.239866, 0.237567, 0.240577, 0.239733, 0.239300, 0.237270, 0.234435, 0.232813, 0.235067
Process 55: 0.707503, 0.631806, 0.276731, 0.254188, 0.240991, 0.240758, 0.241834, 0.239486, 0.239209, 0.237098, 0.240106, 0.240138, 0.241602, 0.475599, 0.477761, 0.240953, 0.240640, 0.240388, 0.239414, 0.265092, 0.248073, 0.242022, 0.239093, 0.242008, 0.241255, 0.240941, 0.238799, 0.236445, 0.234301, 0.236524
Process 56: 0.709825, 0.632352, 0.278106, 0.255579, 0.242437, 0.242108, 0.243321, 0.240862, 0.240516, 0.238474, 0.241506, 0.241556, 0.242960, 0.483996, 0.479241, 0.242455, 0.242165, 0.242252, 0.240827, 0.265959, 0.249508, 0.243486, 0.240530, 0.243014, 0.242747, 0.242484, 0.240079, 0.237567, 0.235812, 0.238014
Process 57: 0.711658, 0.632971, 0.279752, 0.257266, 0.244097, 0.243703, 0.244945, 0.242449, 0.242178, 0.240136, 0.243161, 0.243200, 0.244661, 0.492456, 0.480869, 0.244651, 0.243800, 0.243257, 0.242471, 0.267396, 0.251149, 0.244927, 0.242171, 0.244543, 0.244420, 0.243948, 0.241657, 0.239086, 0.237413, 0.239678
Process 58: 0.713538, 0.633436, 0.281154, 0.258695, 0.245496, 0.245179, 0.246382, 0.243891, 0.243650, 0.241541, 0.244581, 0.244672, 0.246114, 0.500379, 0.482343, 0.246375, 0.245207, 0.244656, 0.243984, 0.268897, 0.252602, 0.246096, 0.243643, 0.245885, 0.245842, 0.245422, 0.243084, 0.240572, 0.238843, 0.241185
Process 59: 0.715609, 0.634083, 0.282777, 0.260318, 0.247258, 0.246767, 0.247984, 0.245507, 0.245276, 0.243181, 0.246215, 0.246384, 0.247764, 0.508805, 0.483938, 0.247712, 0.246836, 0.246058, 0.245638, 0.270482, 0.254278, 0.247514, 0.245296, 0.247532, 0.247518, 0.247080, 0.244754, 0.242218, 0.240475, 0.242909
Process 60: 0.717914, 0.634763, 0.284408, 0.261862, 0.248693, 0.248327, 0.249576, 0.247058, 0.246834, 0.244729, 0.247771, 0.247953, 0.249320, 0.517356, 0.485636, 0.248984, 0.248392, 0.247591, 0.247405, 0.272101, 0.255727, 0.249069, 0.246875, 0.249072, 0.249147, 0.248781, 0.246283, 0.244164, 0.242095, 0.244695
Process 61: 0.720247, 0.635439, 0.285872, 0.263336, 0.250302, 0.249791, 0.251025, 0.248559, 0.248345, 0.246231, 0.249277, 0.249408, 0.250822, 0.526898, 0.487029, 0.250247, 0.249893, 0.249128, 0.248827, 0.273667, 0.257145, 0.250557, 0.248379, 0.251398, 0.250652, 0.251106, 0.247974, 0.245378, 0.243860, 0.245923
Process 62: 0.722147, 0.636176, 0.287286, 0.264788, 0.251672, 0.251262, 0.252471, 0.249994, 0.249816, 0.247709, 0.250738, 0.250845, 0.252288, 0.535910, 0.488453, 0.251675, 0.251330, 0.250639, 0.250232, 0.275134, 0.258582, 0.252021, 0.249801, 0.252878, 0.252187, 0.252543, 0.249609, 0.246951, 0.245517, 0.247438
Process 63: 0.724560, 0.636910, 0.288697, 0.266200, 0.253107, 0.252702, 0.253917, 0.251455, 0.251254, 0.249119, 0.252180, 0.252267, 0.253665, 0.544572, 0.489924, 0.253112, 0.252754, 0.252649, 0.251734, 0.276552, 0.260020, 0.253505, 0.251182, 0.254403, 0.253616, 0.253460, 0.251221, 0.248461, 0.247141, 0.248901
