MPI_insiderank_openmp_handopt
Process 0: 10.197083, 10.112863, 11.065243, 10.002560, 10.774546, 10.013752, 9.992485, 10.067684, 10.014350, 10.010823, 9.961755, 9.959538, 9.937095, 9.951505, 9.983250, 9.956080, 10.051398, 10.000306, 9.957463, 10.210638, 9.995107, 10.000085, 9.993228, 10.038218, 10.010813, 10.016894, 10.024694, 10.027679, 10.105287, 10.055060
Process 1: 9.830143, 9.739270, 9.618823, 9.609514, 9.672659, 9.615703, 9.609940, 9.693199, 9.643582, 9.611648, 9.588361, 9.590645, 9.571444, 9.563071, 9.610412, 9.566787, 9.529027, 9.624000, 9.591507, 9.620166, 9.624947, 9.611867, 9.586762, 9.653063, 9.636907, 9.624945, 9.642701, 9.625398, 9.600525, 9.672104
Process 2: 9.984884, 9.904779, 9.781878, 9.787983, 9.841197, 9.792500, 9.780059, 9.854627, 9.811630, 9.786897, 9.749776, 9.746651, 9.721135, 9.750784, 9.769210, 9.733944, 9.686391, 9.786836, 9.745419, 9.778335, 9.784115, 9.779206, 9.755265, 9.822393, 9.796584, 9.793398, 9.810146, 9.803713, 9.769671, 9.840723
Process 3: 10.201713, 10.117125, 11.071294, 10.006813, 10.780534, 10.018256, 9.997021, 10.072207, 10.018831, 10.015347, 9.966361, 9.964180, 9.941631, 9.956117, 9.987766, 9.960670, 10.055632, 10.004856, 9.961986, 10.215074, 9.999730, 10.004690, 9.997701, 10.042790, 10.015431, 10.021476, 10.029278, 10.032299, 10.109756, 10.059673
