MPI_insiderank_openmp_handopt
Process 0: 2.545523, 2.146985, 2.018781, 3.389571, 1.925443, 1.907826, 2.007997, 1.953949, 2.031698, 1.912733, 1.928630, 1.992630, 1.976063, 2.048812, 1.905202, 1.925221, 1.993170, 1.974760, 1.995175, 1.910028, 2.030448, 1.919039, 1.992134, 1.906101, 1.914811, 2.005507, 1.978632, 2.031709, 2.005021, 1.997157
Process 1: 1.839538, 1.464153, 1.316026, 2.691921, 1.217870, 1.209676, 1.346552, 1.251404, 1.322701, 1.211238, 1.214686, 1.332412, 1.317713, 1.315030, 1.208634, 1.219430, 1.286023, 1.286280, 1.309396, 1.214598, 1.324895, 1.218614, 1.304934, 1.212792, 1.206173, 1.304142, 1.323142, 1.323072, 1.294415, 1.304278
Process 2: 1.873327, 1.499252, 1.350536, 2.726176, 1.252255, 1.243650, 1.380710, 1.285807, 1.357656, 1.245097, 1.249245, 1.366304, 1.351617, 1.349280, 1.243172, 1.253916, 1.320333, 1.321014, 1.343294, 1.248914, 1.359561, 1.252201, 1.339164, 1.247017, 1.240707, 1.339234, 1.357524, 1.357201, 1.329202, 1.339247
Process 3: 1.908965, 1.533892, 1.385430, 2.761512, 1.287574, 1.278566, 1.415508, 1.320821, 1.391927, 1.280015, 1.284231, 1.401702, 1.387044, 1.384333, 1.277594, 1.289116, 1.355041, 1.355879, 1.377524, 1.282977, 1.394089, 1.287624, 1.373118, 1.281454, 1.275079, 1.373906, 1.392651, 1.392067, 1.363505, 1.373929
Process 4: 1.943349, 1.567361, 1.419212, 2.794942, 1.320390, 1.312051, 1.449694, 1.355019, 1.426439, 1.313226, 1.317889, 1.434733, 1.419448, 1.417720, 1.311709, 1.323423, 1.388438, 1.390440, 1.411692, 1.317346, 1.428363, 1.320352, 1.407685, 1.315396, 1.309459, 1.408160, 1.427011, 1.426708, 1.397728, 1.408049
Process 5: 1.979381, 1.601707, 1.453827, 2.830639, 1.355321, 1.347921, 1.484285, 1.389456, 1.459823, 1.349308, 1.352815, 1.470607, 1.454781, 1.454220, 1.345936, 1.358659, 1.424796, 1.425326, 1.446376, 1.351631, 1.463909, 1.356126, 1.442983, 1.350378, 1.344412, 1.443929, 1.461477, 1.461408, 1.432886, 1.443110
Process 6: 2.009863, 1.634735, 1.487292, 2.862745, 1.388089, 1.382769, 1.517610, 1.422356, 1.493555, 1.382120, 1.385291, 1.502135, 1.487206, 1.486694, 1.378684, 1.391215, 1.456936, 1.457586, 1.478968, 1.384617, 1.497073, 1.389127, 1.476156, 1.383030, 1.377681, 1.477008, 1.494422, 1.494326, 1.464660, 1.476422
Process 7: 2.043848, 1.666949, 1.517399, 2.896138, 1.417953, 1.414201, 1.546185, 1.452702, 1.525224, 1.412050, 1.416877, 1.533763, 1.518201, 1.517281, 1.409882, 1.422284, 1.489824, 1.488615, 1.509139, 1.415007, 1.525320, 1.421125, 1.504878, 1.412391, 1.406148, 1.507032, 1.524678, 1.522812, 1.493625, 1.507108
Process 8: 2.071044, 1.692024, 1.543661, 2.923971, 1.443924, 1.438297, 1.574709, 1.477977, 1.551761, 1.441634, 1.442185, 1.561919, 1.544647, 1.547397, 1.440740, 1.451587, 1.517028, 1.517587, 1.538303, 1.445923, 1.552719, 1.451419, 1.534169, 1.442026, 1.438002, 1.537244, 1.555396, 1.553429, 1.524098, 1.535399
Process 9: 2.103131, 1.722078, 1.574485, 2.955901, 1.474788, 1.474344, 1.606607, 1.509553, 1.586250, 1.472539, 1.474050, 1.592927, 1.576008, 1.577178, 1.467783, 1.480663, 1.548581, 1.548296, 1.567776, 1.473658, 1.585575, 1.483598, 1.566109, 1.473013, 1.469011, 1.563930, 1.587133, 1.584504, 1.557001, 1.562642
Process 10: 2.130971, 1.749840, 1.603169, 2.982891, 1.506123, 1.504997, 1.634820, 1.537459, 1.614422, 1.501993, 1.504912, 1.620452, 1.599883, 1.604759, 1.494415, 1.510399, 1.574048, 1.574559, 1.594097, 1.500155, 1.614904, 1.509280, 1.594954, 1.501630, 1.498580, 1.593185, 1.612626, 1.610979, 1.587759, 1.589560
Process 11: 2.159314, 1.777985, 1.630503, 3.008699, 1.535759, 1.529590, 1.661517, 1.564316, 1.638113, 1.529038, 1.534140, 1.649718, 1.624498, 1.627792, 1.520890, 1.533065, 1.601190, 1.601587, 1.621664, 1.524616, 1.641892, 1.536916, 1.623221, 1.528924, 1.528996, 1.622146, 1.640019, 1.639198, 1.616818, 1.614474
Process 12: 2.184236, 1.802678, 1.658669, 3.032104, 1.561422, 1.557024, 1.688124, 1.592238, 1.666887, 1.557168, 1.559378, 1.676531, 1.652044, 1.656112, 1.548398, 1.559975, 1.626312, 1.628642, 1.648877, 1.552128, 1.670469, 1.564754, 1.649617, 1.556303, 1.556090, 1.649366, 1.667013, 1.667598, 1.638831, 1.640167
Process 13: 2.210580, 1.830107, 1.684792, 3.060517, 1.589135, 1.585560, 1.715381, 1.616281, 1.691128, 1.582857, 1.587849, 1.704096, 1.680328, 1.682770, 1.576008, 1.589719, 1.654035, 1.656630, 1.677132, 1.580501, 1.696152, 1.591701, 1.672276, 1.579729, 1.584757, 1.671003, 1.688990, 1.693367, 1.662975, 1.667362
Process 14: 2.233732, 1.853369, 1.708545, 3.084078, 1.610876, 1.606412, 1.740309, 1.639545, 1.713024, 1.607982, 1.612717, 1.728658, 1.703073, 1.707939, 1.597363, 1.610878, 1.677766, 1.679642, 1.701030, 1.603511, 1.718689, 1.615541, 1.697967, 1.602344, 1.608516, 1.694342, 1.713958, 1.715747, 1.687265, 1.692726
Process 15: 2.260098, 1.877758, 1.727959, 3.112178, 1.637083, 1.632349, 1.765110, 1.664315, 1.735168, 1.631839, 1.639160, 1.757859, 1.728852, 1.728859, 1.620580, 1.633621, 1.705477, 1.703571, 1.727480, 1.630473, 1.741073, 1.637333, 1.722446, 1.626105, 1.634004, 1.718571, 1.735992, 1.739164, 1.709041, 1.716263
Process 16: 2.281459, 1.899791, 1.749428, 3.131795, 1.658118, 1.653279, 1.786150, 1.686994, 1.758923, 1.651116, 1.659355, 1.779552, 1.749862, 1.752901, 1.644369, 1.654805, 1.726730, 1.722728, 1.750969, 1.650545, 1.760885, 1.655979, 1.743165, 1.648812, 1.654100, 1.742137, 1.756889, 1.762670, 1.732542, 1.739340
Process 17: 2.304437, 1.922229, 1.772854, 3.153966, 1.682009, 1.677569, 1.808840, 1.710140, 1.779890, 1.672214, 1.683721, 1.795723, 1.765916, 1.776214, 1.667990, 1.675539, 1.749850, 1.744292, 1.774063, 1.667734, 1.784971, 1.680480, 1.768689, 1.672505, 1.671833, 1.765553, 1.779909, 1.784763, 1.754588, 1.763496
Process 18: 2.324600, 1.943884, 1.793413, 3.176598, 1.706693, 1.700351, 1.831297, 1.733912, 1.799271, 1.693425, 1.707177, 1.816956, 1.788356, 1.798258, 1.690290, 1.697849, 1.770260, 1.766883, 1.798090, 1.692109, 1.809323, 1.702234, 1.784954, 1.694878, 1.694866, 1.789673, 1.800565, 1.807965, 1.776703, 1.784727
Process 19: 2.350044, 1.967160, 1.815052, 3.202473, 1.729464, 1.721602, 1.855195, 1.754407, 1.822527, 1.713459, 1.728814, 1.838809, 1.810539, 1.818295, 1.711692, 1.722275, 1.793593, 1.789205, 1.819513, 1.716655, 1.827252, 1.723028, 1.806838, 1.716259, 1.717676, 1.810309, 1.821857, 1.829793, 1.797023, 1.806342
Process 20: 2.370189, 1.985088, 1.835566, 3.221412, 1.748531, 1.739909, 1.873592, 1.773863, 1.842214, 1.734642, 1.748112, 1.858216, 1.830734, 1.838986, 1.729786, 1.740223, 1.811595, 1.806198, 1.829461, 1.735585, 1.843309, 1.742220, 1.825623, 1.735725, 1.735097, 1.826468, 1.841250, 1.850751, 1.816733, 1.824430
Process 21: 2.390716, 2.005180, 1.855054, 3.241919, 1.768922, 1.755608, 1.893870, 1.795234, 1.861175, 1.753158, 1.765074, 1.872041, 1.850046, 1.858410, 1.744186, 1.758109, 1.828289, 1.824110, 1.848428, 1.750715, 1.863088, 1.761062, 1.842852, 1.752544, 1.751922, 1.842488, 1.863479, 1.869026, 1.836157, 1.843505
Process 22: 2.405910, 2.021587, 1.869908, 3.258261, 1.782613, 1.772056, 1.909936, 1.809553, 1.876519, 1.767845, 1.780167, 1.888997, 1.866394, 1.874740, 1.760258, 1.773679, 1.845819, 1.838499, 1.863962, 1.767171, 1.880523, 1.775074, 1.859063, 1.768929, 1.767858, 1.859095, 1.879194, 1.883493, 1.854305, 1.859498
Process 23: 2.425799, 2.037830, 1.887546, 3.274308, 1.799394, 1.787026, 1.927328, 1.828671, 1.894544, 1.785793, 1.798300, 1.907211, 1.885316, 1.890599, 1.778570, 1.792876, 1.864662, 1.854283, 1.880816, 1.784658, 1.900570, 1.791334, 1.875877, 1.785725, 1.785745, 1.876222, 1.895197, 1.899065, 1.871010, 1.877666
Process 24: 2.439115, 2.051963, 1.899562, 3.291400, 1.813080, 1.801172, 1.941113, 1.840671, 1.908500, 1.800229, 1.811916, 1.919905, 1.899523, 1.904698, 1.792340, 1.806149, 1.877733, 1.868159, 1.894851, 1.799113, 1.913344, 1.804162, 1.890179, 1.800547, 1.798394, 1.889127, 1.908932, 1.913781, 1.889234, 1.891949
Process 25: 2.451260, 2.064829, 1.913937, 3.307250, 1.827274, 1.815141, 1.955940, 1.855559, 1.922528, 1.812536, 1.826458, 1.934001, 1.915282, 1.919248, 1.805791, 1.819778, 1.890969, 1.883944, 1.909135, 1.811586, 1.927709, 1.818267, 1.903467, 1.813468, 1.813141, 1.902749, 1.925224, 1.928075, 1.901748, 1.905644
Process 26: 2.469914, 2.076926, 1.937548, 3.331779, 1.843915, 1.828239, 1.967985, 1.881550, 1.948688, 1.832915, 1.845254, 1.945050, 1.928707, 1.944545, 1.822609, 1.842567, 1.910496, 1.899722, 1.921222, 1.829365, 1.952534, 1.840300, 1.921207, 1.832926, 1.840464, 1.916906, 1.936477, 1.953768, 1.925193, 1.926216
Process 27: 2.498933, 2.105740, 1.968419, 3.349561, 1.874542, 1.859700, 1.977479, 1.913210, 1.975866, 1.863840, 1.875050, 1.956182, 1.941693, 1.975597, 1.852129, 1.873001, 1.939906, 1.925440, 1.948040, 1.860983, 1.984604, 1.872053, 1.952628, 1.862852, 1.866804, 1.947011, 1.946851, 1.981477, 1.953681, 1.956036
Process 28: 2.517102, 2.115898, 1.989673, 3.359916, 1.896364, 1.880879, 1.986174, 1.927105, 1.996897, 1.885440, 1.898031, 1.964717, 1.950472, 2.001672, 1.876721, 1.895450, 1.963289, 1.946279, 1.968228, 1.882729, 1.999986, 1.890580, 1.967770, 1.878146, 1.886453, 1.968561, 1.955861, 2.003272, 1.973637, 1.968004
Process 29: 2.529367, 2.130230, 2.002222, 3.372969, 1.908894, 1.891143, 1.994377, 1.939829, 2.011023, 1.896261, 1.911454, 1.974802, 1.960451, 2.028288, 1.889548, 1.908497, 1.977238, 1.959325, 1.980259, 1.895719, 2.012839, 1.903919, 1.978356, 1.891019, 1.899334, 1.982403, 1.965057, 2.016526, 1.982623, 1.981642
Process 30: 2.535723, 2.139930, 2.009648, 3.381524, 1.916332, 1.900343, 2.000848, 1.946790, 2.024615, 1.903625, 1.919462, 1.983441, 1.966845, 2.040562, 1.898078, 1.915975, 1.986011, 1.967609, 1.988054, 1.902904, 2.021297, 1.911922, 1.984996, 1.898972, 1.907638, 1.994803, 1.971481, 2.024605, 1.996896, 1.990030
Process 31: 2.546323, 2.146981, 2.018780, 3.389568, 1.925457, 1.907831, 2.007995, 1.953946, 2.031689, 1.912731, 1.928634, 1.992638, 1.976070, 2.048809, 1.905195, 1.925224, 1.993157, 1.974760, 1.995175, 1.910023, 2.030437, 1.919037, 1.992147, 1.906094, 1.914815, 2.005505, 1.978630, 2.031699, 2.005020, 1.997165
