MPI_insiderank_openmp_handopt
Process 0: 2.660127, 2.330372, 2.346374, 3.915564, 3.158651, 2.398154, 2.373453, 2.371607, 2.359446, 2.303432, 2.380695, 2.385556, 2.408484, 2.401628, 2.367849, 2.393778, 2.374289, 2.378416, 2.382453, 2.363645, 2.383094, 2.391496, 2.379277, 2.354843, 2.385321, 3.149383, 2.380526, 2.387322, 2.687388, 2.367824
Process 1: 2.006371, 1.731331, 1.685305, 3.232874, 2.519743, 1.755738, 1.733005, 1.719703, 1.726273, 1.633151, 1.724740, 1.745225, 1.759823, 1.739430, 1.717475, 1.736294, 1.710579, 1.714241, 1.731429, 1.706380, 1.740739, 1.727080, 1.725624, 1.703224, 1.731683, 2.496683, 1.731797, 1.721722, 2.035767, 1.707037
Process 2: 2.062921, 1.788438, 1.746233, 3.290650, 2.576621, 1.812889, 1.789381, 1.776686, 1.782981, 1.691665, 1.779899, 1.800917, 1.817491, 1.796113, 1.774309, 1.790668, 1.768296, 1.773980, 1.791860, 1.765862, 1.796616, 1.784858, 1.781413, 1.760136, 1.788173, 2.549836, 1.789424, 1.778534, 2.093943, 1.762392
Process 3: 2.120827, 1.838615, 1.817222, 3.356212, 2.633692, 1.865672, 1.852643, 1.832147, 1.837363, 1.749624, 1.834951, 1.858800, 1.882421, 1.853316, 1.831912, 1.847706, 1.826651, 1.832805, 1.852025, 1.818830, 1.853351, 1.840507, 1.838966, 1.817056, 1.844217, 2.607256, 1.845064, 1.836480, 2.151948, 1.820584
Process 4: 2.172384, 1.893199, 1.871569, 3.412298, 2.687031, 1.912478, 1.913102, 1.882530, 1.885408, 1.804765, 1.887753, 1.909017, 1.926976, 1.903502, 1.882311, 1.902496, 1.878273, 1.882700, 1.899842, 1.867609, 1.904742, 1.891546, 1.889622, 1.867321, 1.893897, 2.656324, 1.895744, 1.890463, 2.209950, 1.872878
Process 5: 2.222234, 2.114025, 1.926314, 3.472095, 2.748447, 1.964579, 1.971351, 1.938668, 1.930683, 1.864546, 1.947269, 1.963076, 1.979376, 1.960317, 1.945706, 1.961236, 1.932995, 1.942398, 1.963265, 1.927966, 1.955435, 1.946086, 1.943583, 1.922964, 1.945402, 2.711818, 1.948987, 1.948577, 2.258691, 1.929206
Process 6: 2.272938, 2.125191, 1.973213, 3.522091, 2.797232, 2.012721, 2.020780, 1.988323, 1.978912, 1.912643, 1.998503, 2.011875, 2.028999, 2.011850, 1.997754, 2.010446, 1.984069, 1.992304, 2.015606, 1.977948, 2.001419, 1.996719, 1.991946, 1.969833, 1.995042, 2.761231, 1.998491, 1.999573, 2.302052, 1.979004
Process 7: 2.328232, 2.139540, 2.020184, 3.577016, 2.850375, 2.068772, 2.071999, 2.049315, 2.033753, 1.967829, 2.052996, 2.067746, 2.082608, 2.066201, 2.054210, 2.068180, 2.040861, 2.051947, 2.073434, 2.035082, 2.059680, 2.051202, 2.045353, 2.024341, 2.048443, 2.817776, 2.053871, 2.054214, 2.358676, 2.033502
Process 8: 2.373638, 2.150522, 2.067114, 3.622040, 2.894459, 2.115293, 2.114579, 2.101363, 2.078275, 2.013119, 2.101112, 2.112318, 2.127536, 2.113726, 2.102327, 2.115500, 2.087943, 2.102568, 2.119350, 2.081645, 2.105169, 2.096592, 2.091263, 2.072218, 2.095650, 2.862883, 2.102037, 2.101524, 2.403539, 2.079945
Process 9: 2.424969, 2.164254, 2.112611, 3.671565, 2.941895, 2.161890, 2.161409, 2.149306, 2.126864, 2.063177, 2.148744, 2.164121, 2.175956, 2.162600, 2.149138, 2.165935, 2.137473, 2.148992, 2.169586, 2.130775, 2.155385, 2.145756, 2.140976, 2.119323, 2.147184, 2.912877, 2.148728, 2.150784, 2.453880, 2.131130
Process 10: 2.465958, 2.193882, 2.153771, 3.713328, 2.979689, 2.203696, 2.199176, 2.189977, 2.184354, 2.103216, 2.187241, 2.200493, 2.217282, 2.204192, 2.191259, 2.203234, 2.178528, 2.186812, 2.203225, 2.164316, 2.193823, 2.187806, 2.180546, 2.160843, 2.186353, 2.952619, 2.188215, 2.191376, 2.492791, 2.173019
Process 11: 2.510240, 2.238264, 2.197539, 3.762673, 3.022776, 2.247800, 2.240341, 2.226865, 2.261855, 2.154433, 2.229767, 2.243863, 2.260358, 2.249060, 2.230626, 2.246450, 2.223392, 2.230074, 2.249191, 2.216127, 2.237154, 2.232152, 2.226359, 2.204163, 2.232167, 2.997698, 2.232471, 2.235392, 2.536870, 2.216501
Process 12: 2.536317, 2.263691, 2.224045, 3.793363, 3.049506, 2.273899, 2.266867, 2.253141, 2.288094, 2.182589, 2.256076, 2.270314, 2.286743, 2.275025, 2.255975, 2.272670, 2.249727, 2.256251, 2.273614, 2.246626, 2.263431, 2.258783, 2.252919, 2.230220, 2.258479, 3.024277, 2.259186, 2.261257, 2.563350, 2.242893
Process 13: 2.614405, 2.287964, 2.297571, 3.872549, 3.110632, 2.350568, 2.325719, 2.323175, 2.315999, 2.259400, 2.324335, 2.337528, 2.360313, 2.353176, 2.319024, 2.345569, 2.326754, 2.329609, 2.334902, 2.319732, 2.335306, 2.336400, 2.329636, 2.306358, 2.337160, 3.101213, 2.332366, 2.338661, 2.638205, 2.320642
Process 14: 2.638594, 2.307877, 2.324037, 3.895624, 3.136523, 2.376028, 2.351044, 2.349563, 2.335763, 2.286271, 2.352161, 2.363457, 2.385991, 2.379206, 2.345469, 2.371356, 2.351945, 2.355879, 2.359958, 2.346101, 2.360608, 2.362749, 2.356818, 2.332375, 2.363078, 3.126883, 2.358070, 2.364446, 2.664585, 2.346193
Process 15: 2.662380, 2.332253, 2.347981, 3.917026, 3.160425, 2.399708, 2.375241, 2.373189, 2.361250, 2.304967, 2.382570, 2.387118, 2.410322, 2.403171, 2.369760, 2.395382, 2.376167, 2.379945, 2.384198, 2.365225, 2.384987, 2.393051, 2.381067, 2.356476, 2.387164, 3.150979, 2.382271, 2.388876, 2.689245, 2.369302
