MPI_insiderank_openmp_handopt
Process 0: 6.723077, 6.622154, 6.626548, 6.597232, 6.622744, 6.581989, 6.616000, 6.587985, 6.607802, 6.595429, 6.588568, 6.628320, 6.606304, 6.602726, 6.595149, 6.592035, 6.595749, 6.590604, 6.630306, 6.579607, 6.592102, 6.618677, 6.600871, 6.587064, 6.593580, 6.599712, 6.598335, 6.616952, 6.592755, 6.580834
Process 1: 6.638770, 6.536459, 6.540774, 6.514344, 6.540834, 6.496375, 6.532494, 6.503249, 6.520442, 6.511143, 6.504502, 6.544827, 6.516125, 6.515798, 6.510325, 6.508092, 6.512430, 6.506078, 6.546699, 6.495533, 6.508277, 6.534923, 6.513269, 6.503073, 6.508839, 6.515954, 6.514459, 6.533853, 6.508432, 6.496649
Process 2: 6.684319, 6.582612, 6.586868, 6.557203, 6.586833, 6.540294, 6.578956, 6.547814, 6.565248, 6.555300, 6.548649, 6.591466, 6.563817, 6.560175, 6.555051, 6.551696, 6.555660, 6.550587, 6.593535, 6.539815, 6.552435, 6.578296, 6.558272, 6.546876, 6.553522, 6.559735, 6.558351, 6.580303, 6.552559, 6.540765
Process 3: 6.724576, 6.623733, 6.628126, 6.598830, 6.624212, 6.583500, 6.617500, 6.589494, 6.609336, 6.596967, 6.590098, 6.629847, 6.608425, 6.604267, 6.596692, 6.593697, 6.597385, 6.592245, 6.631920, 6.581230, 6.593787, 6.620303, 6.602503, 6.588704, 6.595187, 6.601305, 6.600006, 6.618545, 6.594340, 6.582454
