MPI_insiderank_openmp_handopt
Process 0: 9.193520, 9.080759, 8.988234, 8.987440, 8.944720, 8.969982, 8.944401, 8.933465, 8.949067, 8.974650, 8.949998, 8.913559, 8.976010, 8.940663, 8.922795, 8.982687, 8.946187, 8.926374, 8.925425, 9.013527, 8.919123, 8.930757, 9.003529, 8.915845, 8.939743, 8.945904, 8.977092, 8.915878, 8.933838, 8.967438
Process 1: 8.996047, 8.855138, 8.784484, 8.767800, 8.757499, 8.750425, 8.759068, 8.730367, 8.727125, 8.770905, 8.764412, 8.710861, 8.772213, 8.720316, 8.718913, 8.798150, 8.742980, 8.706789, 8.721091, 8.826178, 8.715161, 8.726104, 8.782150, 8.711946, 8.756479, 8.719843, 8.758338, 8.712149, 8.749039, 8.763801
Process 2: 9.073848, 8.956332, 8.867671, 8.865025, 8.826342, 8.848021, 8.827567, 8.810634, 8.824729, 8.850936, 8.832755, 8.790740, 8.852047, 8.817852, 8.799393, 8.866956, 8.823019, 8.803485, 8.801795, 8.894981, 8.795768, 8.806788, 8.879614, 8.792425, 8.824216, 8.810879, 8.854680, 8.792859, 8.817635, 8.844342
Process 3: 9.196660, 9.083775, 8.991321, 8.990452, 8.947722, 8.972903, 8.947463, 8.936475, 8.952095, 8.977508, 8.953024, 8.916672, 8.979118, 8.943759, 8.925822, 8.985787, 8.949337, 8.929412, 8.928521, 9.016612, 8.922231, 8.933777, 9.006617, 8.919064, 8.942808, 8.948999, 8.979988, 8.918957, 8.937022, 8.970499
