MPI_insiderank_openmp_handopt
Process 0: 2.047501, 1.806150, 1.681317, 1.697561, 2.731019, 1.727453, 1.663299, 1.686562, 1.656975, 1.710107, 1.671425, 1.669265, 1.680883, 1.707300, 1.689522, 1.693041, 1.679431, 1.686403, 1.700997, 1.700731, 1.676190, 1.684761, 1.671324, 1.681645, 1.695461, 1.681112, 1.684575, 1.687168, 1.689774, 1.694038
Process 1: 1.631393, 1.382917, 1.273484, 1.276460, 2.327509, 1.278710, 1.248278, 1.271290, 1.244251, 1.278463, 1.274396, 1.256783, 1.264439, 1.285541, 1.273583, 1.277678, 1.267482, 1.282476, 1.291076, 1.268689, 1.277898, 1.259317, 1.269676, 1.276369, 1.275636, 1.266938, 1.264553, 1.265623, 1.277692, 1.267289
Process 2: 1.653659, 1.405579, 1.295528, 1.298791, 2.349921, 1.300864, 1.269819, 1.293655, 1.265937, 1.300763, 1.296312, 1.278406, 1.286180, 1.308024, 1.295846, 1.300534, 1.289055, 1.305529, 1.313324, 1.291686, 1.299812, 1.281786, 1.291422, 1.298014, 1.297891, 1.290120, 1.286550, 1.287043, 1.300338, 1.289206
Process 3: 1.676170, 1.427792, 1.316901, 1.320892, 2.373182, 1.321715, 1.291780, 1.315891, 1.287601, 1.323515, 1.318316, 1.300254, 1.307217, 1.328717, 1.318307, 1.322445, 1.311082, 1.326888, 1.335007, 1.313638, 1.321949, 1.303870, 1.313940, 1.318334, 1.320428, 1.312914, 1.308722, 1.309848, 1.323876, 1.311753
Process 4: 1.696999, 1.449814, 1.334742, 1.339542, 2.391883, 1.341975, 1.313418, 1.336966, 1.308441, 1.343686, 1.338504, 1.321498, 1.327479, 1.349239, 1.339581, 1.343189, 1.332982, 1.345493, 1.356243, 1.334379, 1.340879, 1.322791, 1.333659, 1.337928, 1.342248, 1.334802, 1.329331, 1.331193, 1.345361, 1.332839
Process 5: 1.719077, 1.470269, 1.353559, 1.360201, 2.412285, 1.364408, 1.333694, 1.358589, 1.329948, 1.362420, 1.358771, 1.340999, 1.347430, 1.370109, 1.362215, 1.364755, 1.355490, 1.365268, 1.377484, 1.353976, 1.362123, 1.341824, 1.354244, 1.356145, 1.364288, 1.355762, 1.350724, 1.351766, 1.366571, 1.353066
Process 6: 1.740400, 1.496118, 1.373002, 1.380618, 2.431152, 1.384775, 1.355029, 1.379754, 1.350860, 1.384280, 1.379228, 1.359408, 1.369747, 1.391086, 1.381118, 1.384300, 1.375816, 1.387056, 1.396180, 1.373884, 1.381056, 1.361172, 1.375985, 1.374033, 1.384674, 1.376884, 1.370438, 1.372274, 1.385351, 1.374980
Process 7: 1.755838, 1.515432, 1.394157, 1.397378, 2.447903, 1.397659, 1.371490, 1.394601, 1.363125, 1.399459, 1.394220, 1.377606, 1.388228, 1.405342, 1.396925, 1.400991, 1.390625, 1.402444, 1.412667, 1.395367, 1.398103, 1.383568, 1.390425, 1.395191, 1.397346, 1.394324, 1.389548, 1.388896, 1.400379, 1.395269
Process 8: 1.773397, 1.539093, 1.412448, 1.416435, 2.465279, 1.413241, 1.386814, 1.411548, 1.380919, 1.416161, 1.411343, 1.396984, 1.407963, 1.422099, 1.413753, 1.419311, 1.406354, 1.418103, 1.429613, 1.413556, 1.414128, 1.401820, 1.407889, 1.413198, 1.414089, 1.410302, 1.406931, 1.406571, 1.417231, 1.413873
Process 9: 1.790015, 1.559890, 1.428033, 1.433648, 2.482800, 1.431416, 1.405399, 1.430980, 1.398428, 1.430100, 1.428055, 1.416493, 1.427379, 1.437623, 1.431143, 1.438851, 1.422891, 1.431988, 1.445929, 1.433590, 1.428247, 1.419754, 1.423277, 1.433008, 1.431955, 1.425411, 1.425797, 1.424203, 1.434698, 1.430008
Process 10: 1.804015, 1.576791, 1.444631, 1.451578, 2.497682, 1.448454, 1.420487, 1.447670, 1.417013, 1.446516, 1.443524, 1.434632, 1.444136, 1.452914, 1.448554, 1.453866, 1.440093, 1.449074, 1.463472, 1.451513, 1.444506, 1.436993, 1.437643, 1.454034, 1.449919, 1.442374, 1.444852, 1.441218, 1.452433, 1.444784
Process 11: 1.819882, 1.590649, 1.464138, 1.469040, 2.513844, 1.465122, 1.439267, 1.463757, 1.433655, 1.459794, 1.459289, 1.451181, 1.462782, 1.470469, 1.467089, 1.470403, 1.456628, 1.463223, 1.478945, 1.468661, 1.458764, 1.453995, 1.452678, 1.468373, 1.469425, 1.457322, 1.463087, 1.457815, 1.469730, 1.462813
Process 12: 1.836695, 1.604679, 1.481727, 1.487591, 2.528984, 1.481011, 1.455282, 1.478483, 1.450370, 1.475534, 1.472941, 1.469415, 1.478910, 1.484679, 1.482611, 1.486366, 1.474762, 1.477319, 1.494183, 1.485958, 1.473540, 1.472159, 1.467768, 1.484877, 1.485350, 1.472297, 1.477560, 1.475027, 1.485348, 1.479670
Process 13: 1.853725, 1.617339, 1.498872, 1.505470, 2.547121, 1.495868, 1.473038, 1.495288, 1.467908, 1.491605, 1.485578, 1.485435, 1.494479, 1.495723, 1.501342, 1.507059, 1.492938, 1.491523, 1.511570, 1.501030, 1.489414, 1.489657, 1.481073, 1.503046, 1.502499, 1.488379, 1.495012, 1.494372, 1.505446, 1.497387
Process 14: 1.868051, 1.631931, 1.512665, 1.518961, 2.563934, 1.515446, 1.490925, 1.510568, 1.482358, 1.509554, 1.500495, 1.499782, 1.512271, 1.513471, 1.518063, 1.520904, 1.506092, 1.509177, 1.526701, 1.515509, 1.502877, 1.505694, 1.497053, 1.516603, 1.517653, 1.506217, 1.509173, 1.510058, 1.518175, 1.511614
Process 15: 1.885143, 1.647505, 1.527116, 1.535899, 2.578455, 1.534269, 1.508010, 1.525707, 1.500097, 1.524654, 1.517109, 1.514214, 1.527791, 1.529255, 1.533684, 1.538109, 1.520383, 1.524552, 1.541799, 1.533319, 1.519847, 1.521053, 1.512676, 1.533006, 1.535783, 1.521970, 1.526026, 1.525621, 1.533694, 1.527667
Process 16: 1.898896, 1.662155, 1.542944, 1.551781, 2.592162, 1.547525, 1.521602, 1.542237, 1.514698, 1.538425, 1.531566, 1.528269, 1.542307, 1.541265, 1.548994, 1.551874, 1.533334, 1.541534, 1.556319, 1.546815, 1.534198, 1.534583, 1.527462, 1.546411, 1.551829, 1.536571, 1.539935, 1.540856, 1.547132, 1.541016
Process 17: 1.916315, 1.677227, 1.559529, 1.565441, 2.605347, 1.561175, 1.535898, 1.554939, 1.528662, 1.551924, 1.544056, 1.542090, 1.556598, 1.555907, 1.561678, 1.565664, 1.548127, 1.554734, 1.570697, 1.561425, 1.547862, 1.551969, 1.541398, 1.559166, 1.566390, 1.550390, 1.554501, 1.555200, 1.560414, 1.556262
Process 18: 1.928694, 1.690649, 1.570103, 1.579687, 2.617997, 1.573710, 1.546107, 1.567347, 1.541596, 1.564330, 1.557257, 1.554837, 1.569030, 1.566800, 1.575766, 1.578048, 1.561812, 1.568815, 1.583612, 1.574374, 1.560032, 1.562573, 1.555863, 1.571715, 1.578693, 1.563755, 1.567799, 1.570648, 1.572973, 1.569384
Process 19: 1.942382, 1.704689, 1.580649, 1.592252, 2.629795, 1.585291, 1.557666, 1.581108, 1.555554, 1.577305, 1.570185, 1.567033, 1.580249, 1.578751, 1.588635, 1.589825, 1.574993, 1.582930, 1.597083, 1.587048, 1.572124, 1.575718, 1.569455, 1.583662, 1.590066, 1.580208, 1.580144, 1.585361, 1.585712, 1.583580
Process 20: 1.955402, 1.719358, 1.592527, 1.603992, 2.640038, 1.596438, 1.570098, 1.591833, 1.568034, 1.587845, 1.581847, 1.578575, 1.589910, 1.589962, 1.598547, 1.600705, 1.586576, 1.595145, 1.609727, 1.602560, 1.583863, 1.587408, 1.582601, 1.592783, 1.603689, 1.591581, 1.591520, 1.597838, 1.598421, 1.598408
Process 21: 1.967285, 1.731411, 1.606398, 1.619552, 2.652407, 1.609277, 1.585324, 1.608282, 1.582109, 1.599532, 1.593398, 1.592720, 1.605272, 1.600280, 1.611203, 1.616114, 1.603143, 1.605885, 1.623893, 1.618489, 1.595699, 1.602290, 1.595401, 1.606907, 1.616069, 1.602392, 1.605369, 1.609799, 1.613987, 1.611986
Process 22: 1.976174, 1.742395, 1.617173, 1.630104, 2.664351, 1.620527, 1.595824, 1.620586, 1.592284, 1.609725, 1.603521, 1.604519, 1.614766, 1.611875, 1.622157, 1.627342, 1.616509, 1.615330, 1.638271, 1.629864, 1.607536, 1.616018, 1.605467, 1.619489, 1.631291, 1.610845, 1.617113, 1.622241, 1.624856, 1.624319
Process 23: 1.992746, 1.754264, 1.627514, 1.640692, 2.675798, 1.630881, 1.608566, 1.632736, 1.605154, 1.621452, 1.617081, 1.616881, 1.624892, 1.625274, 1.634361, 1.638713, 1.626006, 1.630282, 1.648568, 1.645709, 1.621667, 1.629563, 1.619298, 1.631971, 1.643850, 1.626102, 1.628308, 1.633467, 1.635341, 1.637985
Process 24: 2.003417, 1.765324, 1.639949, 1.651744, 2.686378, 1.643639, 1.618126, 1.645001, 1.613064, 1.637775, 1.628188, 1.627141, 1.636638, 1.637227, 1.643293, 1.648617, 1.634273, 1.641709, 1.657429, 1.655488, 1.630999, 1.641059, 1.627185, 1.643796, 1.653854, 1.636094, 1.638874, 1.641362, 1.644913, 1.645933
Process 25: 2.017689, 1.773023, 1.649477, 1.662124, 2.696323, 1.657407, 1.632105, 1.655052, 1.624655, 1.651562, 1.636834, 1.636503, 1.647794, 1.654146, 1.652905, 1.659450, 1.645467, 1.652234, 1.667979, 1.667508, 1.645169, 1.652849, 1.638256, 1.650770, 1.663381, 1.646795, 1.649720, 1.650465, 1.655490, 1.659552
Process 26: 2.021821, 1.781375, 1.655471, 1.670665, 2.704617, 1.674208, 1.638552, 1.660979, 1.630825, 1.659839, 1.644405, 1.643948, 1.655228, 1.660277, 1.660649, 1.667557, 1.652730, 1.660012, 1.675505, 1.675574, 1.651216, 1.658466, 1.645585, 1.657056, 1.670434, 1.654695, 1.658147, 1.658232, 1.662912, 1.665064
Process 27: 2.028979, 1.786544, 1.662032, 1.678221, 2.711883, 1.689639, 1.644263, 1.666789, 1.637727, 1.674541, 1.651931, 1.650046, 1.662270, 1.673577, 1.668710, 1.674377, 1.659581, 1.667346, 1.681883, 1.681838, 1.656793, 1.665428, 1.652262, 1.663673, 1.677321, 1.661541, 1.664987, 1.665448, 1.670450, 1.671721
Process 28: 2.033881, 1.793142, 1.668186, 1.684260, 2.717889, 1.703757, 1.650132, 1.672030, 1.643871, 1.684283, 1.658242, 1.656145, 1.667787, 1.686927, 1.674167, 1.679770, 1.665416, 1.673210, 1.687924, 1.687619, 1.662939, 1.671052, 1.658298, 1.668312, 1.681932, 1.667387, 1.671405, 1.670527, 1.676565, 1.676578
Process 29: 2.039451, 1.797739, 1.673327, 1.689290, 2.722873, 1.715581, 1.655212, 1.677098, 1.648886, 1.700249, 1.663235, 1.661244, 1.672904, 1.696343, 1.680244, 1.684814, 1.671222, 1.678225, 1.692919, 1.692642, 1.667941, 1.676640, 1.663363, 1.673340, 1.686527, 1.672953, 1.676480, 1.676857, 1.681695, 1.683282
Process 30: 2.043374, 1.802045, 1.676936, 1.693051, 2.726633, 1.722924, 1.658925, 1.681125, 1.652617, 1.705883, 1.666991, 1.664908, 1.676525, 1.702621, 1.683670, 1.688652, 1.674978, 1.681984, 1.696624, 1.696369, 1.671738, 1.680376, 1.666970, 1.677300, 1.690802, 1.676715, 1.680195, 1.681312, 1.685405, 1.688107
Process 31: 2.048187, 1.806148, 1.681315, 1.697568, 2.731026, 1.727450, 1.663299, 1.686566, 1.656985, 1.710107, 1.671416, 1.669264, 1.680886, 1.707300, 1.689520, 1.693047, 1.679430, 1.686398, 1.701001, 1.700727, 1.676190, 1.684774, 1.671323, 1.681643, 1.695460, 1.681116, 1.684565, 1.687167, 1.689775, 1.694042
