[1671040048.645321] [eu-g1-023-2:38925:0]           ib_md.c:349  UCX  ERROR ibv_reg_mr(address=0x2b2349b8f000, length=37773312, access=0xf) failed: Cannot allocate memory
[1671040048.645710] [eu-g1-023-2:38925:0]           mpool.c:226  UCX  ERROR Failed to allocate memory pool (name=rc_recv_desc) chunk: Input/output error
slurmstepd: error: poll(): Bad address
[1671040048.600895] [eu-g1-023-2:38914:0]        mm_posix.c:192  UCX  ERROR   Failed to write 65536 bytes. Cannot allocate memory
[1671040048.600896] [eu-g1-023-2:38920:0]        mm_posix.c:192  UCX  ERROR   Failed to write 49264 bytes. Cannot allocate memory
[1671040048.665377] [eu-g1-023-2:38914:0]         uct_mem.c:155  UCX  ERROR   failed to allocate 4292720 bytes using md posix for mm_recv_desc: Input/output error
[1671040048.665387] [eu-g1-023-2:38914:0]           mpool.c:226  UCX  ERROR Failed to allocate memory pool (name=mm_recv_desc) chunk: Input/output error
[1671040048.665392] [eu-g1-023-2:38914:0]        mm_iface.c:793  UCX  ERROR failed to get the first receive descriptor
[1671040048.665478] [eu-g1-023-2:38920:0]         uct_mem.c:155  UCX  ERROR   failed to allocate 4292720 bytes using md posix for mm_recv_desc: Input/output error
[1671040048.665486] [eu-g1-023-2:38920:0]           mpool.c:226  UCX  ERROR Failed to allocate memory pool (name=mm_recv_desc) chunk: Input/output error
[1671040048.665489] [eu-g1-023-2:38920:0]        mm_iface.c:793  UCX  ERROR failed to get the first receive descriptor
[eu-g1-023-2:38914] pml_ucx.c:309  Error: Failed to create UCP worker
[eu-g1-023-2:38920] pml_ucx.c:309  Error: Failed to create UCP worker
[1671040048.670503] [eu-g1-023-2:38980:0]           ib_md.c:349  UCX  ERROR ibv_reg_mr(address=0x2b6db1e6a000, length=37773312, access=0xf) failed: Cannot allocate memory
[1671040048.670641] [eu-g1-023-2:38980:0]           mpool.c:226  UCX  ERROR Failed to allocate memory pool (name=rc_recv_desc) chunk: Input/output error
[1671040048.673267] [eu-g1-023-2:38947:0]           ib_md.c:349  UCX  ERROR ibv_reg_mr(address=0x2b8c54e18000, length=37773312, access=0xf) failed: Cannot allocate memory
[1671040048.675455] [eu-g1-023-2:38947:0]           mpool.c:226  UCX  ERROR Failed to allocate memory pool (name=rc_recv_desc) chunk: Input/output error
[1671040048.600895] [eu-g1-023-2:38969:0]        mm_posix.c:192  UCX  ERROR   Failed to write 65536 bytes. Cannot allocate memory
[1671040048.600894] [eu-g1-023-2:38971:0]        mm_posix.c:192  UCX  ERROR   Failed to write 65536 bytes. Cannot allocate memory
[1671040048.678631] [eu-g1-023-2:38971:0]         uct_mem.c:155  UCX  ERROR   failed to allocate 4292720 bytes using md posix for mm_recv_desc: Input/output error
[1671040048.678643] [eu-g1-023-2:38971:0]           mpool.c:226  UCX  ERROR Failed to allocate memory pool (name=mm_recv_desc) chunk: Input/output error
[1671040048.678647] [eu-g1-023-2:38971:0]        mm_iface.c:793  UCX  ERROR failed to get the first receive descriptor
[eu-g1-023-2:38971] pml_ucx.c:309  Error: Failed to create UCP worker
slurmstepd: error: poll(): Bad address
[1671040048.678814] [eu-g1-023-2:38969:0]         uct_mem.c:155  UCX  ERROR   failed to allocate 4292720 bytes using md posix for mm_recv_desc: Input/output error
[1671040048.678821] [eu-g1-023-2:38969:0]           mpool.c:226  UCX  ERROR Failed to allocate memory pool (name=mm_recv_desc) chunk: Input/output error
[1671040048.678824] [eu-g1-023-2:38969:0]        mm_iface.c:793  UCX  ERROR failed to get the first receive descriptor
[eu-g1-023-2:38969] pml_ucx.c:309  Error: Failed to create UCP worker
[1671040048.573194] [eu-g1-023-2:38964:0]        mm_posix.c:192  UCX  ERROR   Failed to write 65536 bytes. Cannot allocate memory
[1671040048.679864] [eu-g1-023-2:38964:0]         uct_mem.c:155  UCX  ERROR   failed to allocate 4292720 bytes using md posix for mm_recv_desc: Input/output error
[1671040048.679874] [eu-g1-023-2:38964:0]           mpool.c:226  UCX  ERROR Failed to allocate memory pool (name=mm_recv_desc) chunk: Input/output error
[1671040048.679877] [eu-g1-023-2:38964:0]        mm_iface.c:793  UCX  ERROR failed to get the first receive descriptor
[eu-g1-023-2:38964] pml_ucx.c:309  Error: Failed to create UCP worker
[1671040048.573193] [eu-g1-023-2:38958:0]        mm_posix.c:192  UCX  ERROR   Failed to write 65536 bytes. Cannot allocate memory
[1671040048.573203] [eu-g1-023-2:38970:0]         ib_mlx5.h:681  UCX  ERROR mlx5dv_devx_umem_reg() failed: Cannot allocate memory
[1671040048.680239] [eu-g1-023-2:38958:0]         uct_mem.c:155  UCX  ERROR   failed to allocate 4292720 bytes using md posix for mm_recv_desc: Input/output error
[1671040048.680244] [eu-g1-023-2:38958:0]           mpool.c:226  UCX  ERROR Failed to allocate memory pool (name=mm_recv_desc) chunk: Input/output error
[1671040048.680247] [eu-g1-023-2:38958:0]        mm_iface.c:793  UCX  ERROR failed to get the first receive descriptor
[eu-g1-023-2:38958] pml_ucx.c:309  Error: Failed to create UCP worker
[eu-g1-023-2:38970] pml_ucx.c:309  Error: Failed to create UCP worker
[1671040048.878748] [eu-g1-023-2:38974:0]           ib_md.c:349  UCX  ERROR ibv_reg_mr(address=0x2b872d2b8000, length=37773312, access=0xf) failed: Cannot allocate memory
[1671040049.042134] [eu-g1-023-2:38974:0]           mpool.c:226  UCX  ERROR Failed to allocate memory pool (name=rc_recv_desc) chunk: Input/output error
[1671040049.437782] [eu-g1-023-2:38980:0]           ib_md.c:349  UCX  ERROR ibv_reg_mr(address=0x2b6db4295000, length=37773312, access=0xf) failed: Cannot allocate memory
[1671040049.437801] [eu-g1-023-2:38980:0]           mpool.c:226  UCX  ERROR Failed to allocate memory pool (name=rc_recv_desc) chunk: Input/output error
[1671040049.474147] [eu-g1-023-2:38947:0]           ib_md.c:349  UCX  ERROR ibv_reg_mr(address=0x2b8c57243000, length=37773312, access=0xf) failed: Cannot allocate memory
[1671040049.474177] [eu-g1-023-2:38947:0]           mpool.c:226  UCX  ERROR Failed to allocate memory pool (name=rc_recv_desc) chunk: Input/output error
[1671040049.490401] [eu-g1-023-2:38930:0]         ib_mlx5.h:681  UCX  ERROR mlx5dv_devx_umem_reg() failed: Cannot allocate memory
[1671040049.440046] [eu-g1-023-2:38937:0]           ib_md.c:349  UCX  ERROR ibv_reg_mr(address=0x2ad1c9ec3000, length=544768, access=0xf) failed: Cannot allocate memory
[1671040049.587813] [eu-g1-023-2:38937:0]           mpool.c:226  UCX  ERROR Failed to allocate memory pool (name=ud_recv_skb) chunk: Input/output error
[1671040049.424735] [eu-g1-023-2:38941:0]           ib_md.c:349  UCX  ERROR ibv_reg_mr(address=0x2ab5e821f000, length=37773312, access=0xf) failed: Cannot allocate memory
[1671040049.424745] [eu-g1-023-2:38933:0]           ib_md.c:349  UCX  ERROR ibv_reg_mr(address=0x2abac6cd6000, length=37773312, access=0xf) failed: Cannot allocate memory
[1671040049.588761] [eu-g1-023-2:38933:0]           mpool.c:226  UCX  ERROR Failed to allocate memory pool (name=rc_recv_desc) chunk: Input/output error
[1671040049.588804] [eu-g1-023-2:38941:0]           mpool.c:226  UCX  ERROR Failed to allocate memory pool (name=rc_recv_desc) chunk: Input/output error
[eu-g1-023-2:38930] pml_ucx.c:309  Error: Failed to create UCP worker
[1671040050.191467] [eu-g1-023-2:38933:0]           ib_md.c:349  UCX  ERROR ibv_reg_mr(address=0x2abac9101000, length=37773312, access=0xf) failed: Cannot allocate memory
[1671040050.192303] [eu-g1-023-2:38933:0]           mpool.c:226  UCX  ERROR Failed to allocate memory pool (name=rc_recv_desc) chunk: Input/output error
[1671040050.191463] [eu-g1-023-2:38941:0]           ib_md.c:349  UCX  ERROR ibv_reg_mr(address=0x2ab5ea64a000, length=37773312, access=0xf) failed: Cannot allocate memory
[1671040050.192247] [eu-g1-023-2:38941:0]           mpool.c:226  UCX  ERROR Failed to allocate memory pool (name=rc_recv_desc) chunk: Input/output error
[1671040050.782636] [eu-g1-023-2:38974:0]           ib_md.c:349  UCX  ERROR ibv_reg_mr(address=0x2b872f6e3000, length=37773312, access=0xf) failed: Cannot allocate memory
[1671040050.782682] [eu-g1-023-2:38949:0]           ib_md.c:349  UCX  ERROR ibv_reg_mr(address=0x2b80bedfd000, length=37773312, access=0xf) failed: Cannot allocate memory
[1671040050.783179] [eu-g1-023-2:38960:0]           ib_md.c:349  UCX  ERROR ibv_reg_mr(address=0x2b1475a80000, length=37773312, access=0xf) failed: Cannot allocate memory
[1671040050.771765] [eu-g1-023-2:38928:0]           ib_md.c:349  UCX  ERROR ibv_reg_mr(address=0x2b8cbc8d6000, length=37773312, access=0xf) failed: Cannot allocate memory
[1671040050.771920] [eu-g1-023-2:38932:0]           ib_md.c:349  UCX  ERROR ibv_reg_mr(address=0x2b847c4bd000, length=37773312, access=0xf) failed: Cannot allocate memory
[1671040050.771787] [eu-g1-023-2:38934:0]           ib_md.c:349  UCX  ERROR ibv_reg_mr(address=0x2afa60000000, length=37773312, access=0xf) failed: Cannot allocate memory
[1671040050.771860] [eu-g1-023-2:38936:0]           ib_md.c:349  UCX  ERROR ibv_reg_mr(address=0x2b4ac5ad4000, length=37773312, access=0xf) failed: Cannot allocate memory
[1671040050.785953] [eu-g1-023-2:38974:0]           mpool.c:226  UCX  ERROR Failed to allocate memory pool (name=rc_recv_desc) chunk: Input/output error
[1671040050.786309] [eu-g1-023-2:38949:0]           mpool.c:226  UCX  ERROR Failed to allocate memory pool (name=rc_recv_desc) chunk: Input/output error
[1671040050.786832] [eu-g1-023-2:38934:0]           mpool.c:226  UCX  ERROR Failed to allocate memory pool (name=rc_recv_desc) chunk: Input/output error
[1671040050.786896] [eu-g1-023-2:38960:0]           mpool.c:226  UCX  ERROR Failed to allocate memory pool (name=rc_recv_desc) chunk: Input/output error
[1671040050.787123] [eu-g1-023-2:38928:0]           mpool.c:226  UCX  ERROR Failed to allocate memory pool (name=rc_recv_desc) chunk: Input/output error
[1671040050.788052] [eu-g1-023-2:38936:0]           mpool.c:226  UCX  ERROR Failed to allocate memory pool (name=rc_recv_desc) chunk: Input/output error
[1671040050.788226] [eu-g1-023-2:38932:0]           mpool.c:226  UCX  ERROR Failed to allocate memory pool (name=rc_recv_desc) chunk: Input/output error
srun: error: eu-g1-023-2: tasks 2-4,10-11,15,23-24,26,34,36,40-41,49,51,59,62: Killed
slurmstepd: error: *** STEP 4309687.0 ON eu-g1-023-2 CANCELLED AT 2022-12-14T19:47:43 DUE TO TIME LIMIT ***
slurmstepd: error: *** JOB 4309687 ON eu-g1-023-2 CANCELLED AT 2022-12-14T19:47:43 DUE TO TIME LIMIT ***
srun: Job step aborted: Waiting up to 32 seconds for job step to finish.
