MPI_insiderank_serial
Process 0: 11.277281, 14.364532, 10.866287, 10.810272, 10.844713, 10.730741, 10.873602, 10.799174, 10.713396, 10.662550, 10.734215, 10.737245, 10.762465, 10.694367, 10.694502, 10.842536, 10.837089, 10.700136, 10.682222, 10.710547, 10.656109, 10.739980, 10.743542, 10.748745, 10.684505, 10.692940, 10.646008, 10.724087, 10.728225, 10.783859
Process 1: 11.296103, 14.381147, 10.880525, 10.824662, 10.856073, 10.745057, 10.887770, 10.811747, 10.725893, 10.674200, 10.748056, 10.747848, 10.774534, 10.706030, 10.710175, 10.855436, 10.849838, 10.712130, 10.694202, 10.724064, 10.667151, 10.752221, 10.756292, 10.760756, 10.696867, 10.706256, 10.658381, 10.737222, 10.741299, 10.796506
