MPI_insiderank_serial
Process 0: 4.007968, 3.702550, 3.761510, 3.693313, 4.634089, 3.693055, 3.738893, 3.725989, 3.679510, 4.605189, 3.692976, 3.695482, 3.702794, 3.738103, 3.714068, 3.685563, 3.688582, 3.699355, 3.692329, 3.699045, 3.702666, 3.710782, 3.703291, 3.684106, 3.679388, 3.681896, 3.679964, 3.695806, 3.694553, 3.719132
Process 1: 3.249358, 2.952658, 3.024128, 2.949271, 3.904676, 2.952031, 2.992946, 2.976629, 2.949468, 3.863988, 2.949330, 2.961112, 2.983050, 2.991535, 2.971865, 2.948489, 2.948510, 2.965149, 2.950720, 2.965573, 2.983376, 2.977020, 2.968981, 2.953505, 2.946734, 2.944098, 2.947362, 2.962526, 2.961662, 2.981328
Process 2: 3.366716, 3.075241, 3.156629, 3.070974, 4.036391, 3.073444, 3.113583, 3.104242, 3.082213, 3.985456, 3.070140, 3.082497, 3.090464, 3.140375, 3.094431, 3.070465, 3.069112, 3.087098, 3.071028, 3.087061, 3.089953, 3.098825, 3.089411, 3.087476, 3.067157, 3.065621, 3.067540, 3.083815, 3.082278, 3.102781
Process 3: 3.485246, 3.198176, 3.279785, 3.195166, 4.155401, 3.197590, 3.239533, 3.237412, 3.201414, 4.110111, 3.196009, 3.206616, 3.215768, 3.262918, 3.222118, 3.198693, 3.194580, 3.210570, 3.196403, 3.210611, 3.215522, 3.222140, 3.216385, 3.204307, 3.192308, 3.197203, 3.192892, 3.207524, 3.207576, 3.226557
Process 4: 3.600617, 3.319162, 3.405428, 3.316362, 4.266463, 3.318701, 3.359922, 3.358140, 3.312254, 4.230817, 3.315996, 3.327990, 3.335178, 3.370312, 3.344169, 3.335157, 3.314312, 3.331412, 3.316058, 3.331633, 3.334938, 3.343313, 3.336219, 3.316746, 3.312028, 3.332524, 3.312698, 3.328492, 3.327290, 3.347631
Process 5: 3.754745, 3.453623, 3.522650, 3.441381, 4.395147, 3.450523, 3.487355, 3.483378, 3.438002, 4.363275, 3.441494, 3.452720, 3.460822, 3.494905, 3.471035, 3.451551, 3.446956, 3.456545, 3.441481, 3.456502, 3.460842, 3.468174, 3.461670, 3.441574, 3.437542, 3.448800, 3.438083, 3.453262, 3.452806, 3.473044
Process 6: 3.887657, 3.580695, 3.632542, 3.561810, 4.512014, 3.579552, 3.607635, 3.603677, 3.557790, 4.491852, 3.561874, 3.573299, 3.580883, 3.616057, 3.592094, 3.563084, 3.575502, 3.577176, 3.561393, 3.577065, 3.580555, 3.588684, 3.581564, 3.561917, 3.557663, 3.559660, 3.557596, 3.573799, 3.573011, 3.597137
Process 7: 4.012074, 3.706011, 3.765390, 3.697107, 4.638083, 3.696996, 3.742843, 3.729581, 3.683410, 4.609058, 3.696894, 3.699235, 3.706671, 3.741855, 3.717951, 3.689254, 3.692505, 3.703188, 3.696155, 3.702842, 3.706438, 3.714446, 3.707094, 3.687974, 3.683387, 3.685773, 3.683861, 3.699589, 3.698494, 3.722848
