slurmstepd: error: poll(): Bad address
slurmstepd: error: poll(): Bad address
srun: error: eu-a2p-505: task 0: Killed
slurmstepd: error: *** STEP 4309676.0 ON eu-a2p-505 CANCELLED AT 2022-12-14T19:46:41 DUE TO TIME LIMIT ***
slurmstepd: error: *** JOB 4309676 ON eu-a2p-505 CANCELLED AT 2022-12-14T19:46:41 DUE TO TIME LIMIT ***
srun: Job step aborted: Waiting up to 32 seconds for job step to finish.
