MPI_insiderank_serial
Process 0: 0.541281, 0.438864, 0.399990, 0.424797, 0.369450, 0.302823, 0.298077, 0.301555, 0.300371, 0.333844, 0.299408, 0.297879, 0.299317, 0.299495, 0.298495, 0.297766, 0.298015, 0.299723, 0.301519, 0.301881, 0.300914, 0.308014, 0.305382, 0.302177, 0.300086, 0.299773, 0.299104, 0.298712, 0.297199, 0.298820
Process 1: 0.383167, 0.278455, 0.242719, 0.244764, 0.242032, 0.185502, 0.180937, 0.184260, 0.182606, 0.216863, 0.182516, 0.180659, 0.182457, 0.182370, 0.181459, 0.180706, 0.180893, 0.182612, 0.182155, 0.184611, 0.183842, 0.190555, 0.188388, 0.185425, 0.183269, 0.182955, 0.182183, 0.181752, 0.179814, 0.181530
Process 2: 0.385468, 0.281005, 0.245142, 0.247760, 0.244264, 0.187185, 0.182789, 0.186135, 0.184480, 0.218496, 0.184148, 0.182424, 0.184086, 0.184095, 0.183150, 0.182449, 0.182748, 0.184252, 0.184062, 0.186403, 0.185439, 0.192076, 0.190012, 0.187099, 0.184711, 0.184640, 0.183746, 0.183492, 0.181555, 0.183357
Process 3: 0.388008, 0.283748, 0.247967, 0.251161, 0.246967, 0.189408, 0.185048, 0.188127, 0.186696, 0.220727, 0.186371, 0.184546, 0.186019, 0.186677, 0.185331, 0.184717, 0.184788, 0.186482, 0.185955, 0.188438, 0.187685, 0.194155, 0.192155, 0.188967, 0.186746, 0.186859, 0.185952, 0.185687, 0.183714, 0.185286
Process 4: 0.390627, 0.286278, 0.250349, 0.254365, 0.249242, 0.191477, 0.186867, 0.189944, 0.188525, 0.222532, 0.188062, 0.186410, 0.187816, 0.188714, 0.187085, 0.186423, 0.186569, 0.188767, 0.187614, 0.190251, 0.189312, 0.195946, 0.193872, 0.190645, 0.188566, 0.188595, 0.187653, 0.187426, 0.185390, 0.187008
Process 5: 0.393079, 0.288791, 0.252979, 0.257523, 0.251614, 0.193454, 0.188785, 0.191891, 0.190383, 0.224464, 0.189996, 0.188280, 0.189877, 0.190011, 0.189007, 0.188324, 0.188491, 0.190567, 0.189560, 0.192181, 0.191409, 0.197855, 0.195894, 0.192612, 0.190543, 0.190421, 0.189641, 0.189331, 0.187534, 0.188975
Process 6: 0.395736, 0.291315, 0.255541, 0.260386, 0.254112, 0.195055, 0.190679, 0.193765, 0.192289, 0.226310, 0.191864, 0.190127, 0.191688, 0.191781, 0.190976, 0.190214, 0.190426, 0.192191, 0.191492, 0.194098, 0.193212, 0.199788, 0.197714, 0.194883, 0.192511, 0.192327, 0.191552, 0.191299, 0.189440, 0.191415
Process 7: 0.398482, 0.293907, 0.258136, 0.263599, 0.256382, 0.196892, 0.192602, 0.195702, 0.194104, 0.228145, 0.193971, 0.192056, 0.193556, 0.193683, 0.192831, 0.192080, 0.192280, 0.193952, 0.193478, 0.195976, 0.195178, 0.201665, 0.199652, 0.196740, 0.194399, 0.194182, 0.193441, 0.193075, 0.191319, 0.192844
Process 8: 0.400857, 0.296355, 0.260540, 0.266716, 0.258717, 0.198688, 0.194424, 0.197589, 0.195939, 0.229972, 0.195617, 0.193852, 0.195404, 0.195592, 0.194664, 0.193896, 0.194113, 0.195774, 0.195272, 0.197857, 0.197011, 0.203499, 0.201467, 0.198285, 0.196202, 0.196031, 0.195300, 0.194906, 0.193132, 0.194633
Process 9: 0.403329, 0.299126, 0.263250, 0.269877, 0.261259, 0.200803, 0.196504, 0.199685, 0.198087, 0.232088, 0.197739, 0.195976, 0.197582, 0.197838, 0.196726, 0.196052, 0.196192, 0.197954, 0.197438, 0.200089, 0.198997, 0.205627, 0.203603, 0.200407, 0.198412, 0.198085, 0.197386, 0.197000, 0.195292, 0.196716
Process 10: 0.405964, 0.301532, 0.265629, 0.272769, 0.263450, 0.203053, 0.198189, 0.201513, 0.199877, 0.233839, 0.199442, 0.197683, 0.199585, 0.199497, 0.198463, 0.197760, 0.198251, 0.199981, 0.199084, 0.201755, 0.200711, 0.207391, 0.205315, 0.202115, 0.200111, 0.199811, 0.199186, 0.198807, 0.197069, 0.198464
Process 11: 0.408518, 0.304202, 0.268415, 0.275920, 0.265430, 0.204676, 0.200202, 0.203471, 0.201843, 0.235832, 0.201487, 0.199676, 0.201290, 0.201469, 0.200490, 0.199761, 0.200057, 0.201740, 0.201078, 0.203724, 0.202897, 0.210080, 0.207317, 0.204227, 0.202090, 0.201834, 0.201168, 0.200664, 0.198980, 0.200860
Process 12: 0.411332, 0.306675, 0.271039, 0.279010, 0.268008, 0.206437, 0.202063, 0.205393, 0.203662, 0.237743, 0.203369, 0.201603, 0.203172, 0.203348, 0.202344, 0.201568, 0.201863, 0.203543, 0.202966, 0.205571, 0.204728, 0.211943, 0.209228, 0.206082, 0.203919, 0.203711, 0.203062, 0.202567, 0.200935, 0.202551
Process 13: 0.413803, 0.309344, 0.273587, 0.282069, 0.270150, 0.208398, 0.204030, 0.207327, 0.205621, 0.239669, 0.205361, 0.203980, 0.205247, 0.205462, 0.204403, 0.203688, 0.203920, 0.205481, 0.204998, 0.207619, 0.206653, 0.213884, 0.211311, 0.208029, 0.205904, 0.205716, 0.205204, 0.204691, 0.202973, 0.204440
Process 14: 0.416520, 0.311783, 0.275738, 0.284383, 0.272422, 0.210195, 0.205802, 0.209264, 0.207419, 0.241471, 0.207133, 0.205415, 0.207382, 0.207144, 0.206139, 0.205390, 0.205633, 0.207276, 0.206827, 0.209377, 0.208338, 0.215757, 0.213055, 0.209866, 0.207786, 0.207552, 0.206788, 0.206326, 0.204598, 0.206139
Process 15: 0.418946, 0.314398, 0.278692, 0.287167, 0.274930, 0.212517, 0.208038, 0.211284, 0.209642, 0.243691, 0.209359, 0.207560, 0.209349, 0.209311, 0.208438, 0.207634, 0.207942, 0.209592, 0.209074, 0.211571, 0.210643, 0.217892, 0.215255, 0.212046, 0.209817, 0.209808, 0.209003, 0.208565, 0.206749, 0.208314
Process 16: 0.421772, 0.316919, 0.280812, 0.289919, 0.277153, 0.214283, 0.209701, 0.213060, 0.211372, 0.245393, 0.210981, 0.209274, 0.210881, 0.211022, 0.210110, 0.209353, 0.209626, 0.211268, 0.211031, 0.213394, 0.212523, 0.219595, 0.216904, 0.213772, 0.211705, 0.211567, 0.210718, 0.210271, 0.208742, 0.210207
Process 17: 0.424135, 0.319522, 0.283435, 0.292851, 0.279335, 0.216070, 0.211593, 0.214909, 0.213231, 0.247232, 0.212836, 0.211591, 0.212735, 0.212936, 0.211978, 0.211940, 0.211407, 0.213186, 0.212983, 0.215163, 0.214503, 0.221512, 0.218743, 0.215587, 0.213392, 0.213467, 0.212618, 0.212274, 0.210450, 0.212010
Process 18: 0.426866, 0.322577, 0.285916, 0.295873, 0.281802, 0.218071, 0.213576, 0.216899, 0.215147, 0.249138, 0.214781, 0.213152, 0.214720, 0.214862, 0.213950, 0.213211, 0.213408, 0.215028, 0.214961, 0.217078, 0.216262, 0.223352, 0.220792, 0.217470, 0.215390, 0.215355, 0.214526, 0.214028, 0.212286, 0.213951
Process 19: 0.429116, 0.324675, 0.288216, 0.298696, 0.284069, 0.219840, 0.215397, 0.218672, 0.216998, 0.251037, 0.216617, 0.214932, 0.216653, 0.216651, 0.215778, 0.214973, 0.215271, 0.217005, 0.216783, 0.218857, 0.218001, 0.225233, 0.222731, 0.219353, 0.217243, 0.217138, 0.216296, 0.215871, 0.214111, 0.215799
Process 20: 0.432164, 0.327519, 0.290636, 0.301798, 0.286590, 0.221886, 0.217388, 0.220680, 0.219081, 0.253136, 0.218565, 0.216960, 0.218634, 0.218640, 0.217708, 0.216947, 0.217206, 0.218924, 0.218796, 0.220878, 0.220097, 0.227171, 0.224582, 0.221327, 0.219159, 0.219202, 0.218321, 0.218107, 0.216073, 0.217752
Process 21: 0.434482, 0.329772, 0.293259, 0.304675, 0.288307, 0.223628, 0.219144, 0.222453, 0.220999, 0.254956, 0.220638, 0.218909, 0.220402, 0.220450, 0.219713, 0.218810, 0.219086, 0.220735, 0.220645, 0.222669, 0.221922, 0.229075, 0.226340, 0.223148, 0.221009, 0.220928, 0.220091, 0.219767, 0.218082, 0.219559
Process 22: 0.437392, 0.332903, 0.296005, 0.307693, 0.291032, 0.225698, 0.221160, 0.224428, 0.222845, 0.256852, 0.222407, 0.221207, 0.222390, 0.222448, 0.221480, 0.220850, 0.221028, 0.222914, 0.222638, 0.224729, 0.223843, 0.231031, 0.228335, 0.225157, 0.223067, 0.222883, 0.222188, 0.221721, 0.220226, 0.221566
Process 23: 0.439645, 0.335017, 0.298339, 0.310506, 0.293070, 0.227483, 0.222951, 0.226268, 0.224611, 0.258725, 0.224206, 0.222626, 0.224234, 0.224277, 0.223358, 0.222576, 0.222949, 0.224579, 0.224544, 0.226517, 0.225723, 0.233045, 0.230271, 0.226961, 0.224917, 0.224856, 0.224042, 0.223727, 0.221984, 0.223570
Process 24: 0.442401, 0.337981, 0.300992, 0.313540, 0.295567, 0.229567, 0.225015, 0.228394, 0.226831, 0.260666, 0.226191, 0.224667, 0.226243, 0.226305, 0.225387, 0.224592, 0.224977, 0.226604, 0.226587, 0.228581, 0.227602, 0.234838, 0.232365, 0.228894, 0.226967, 0.226721, 0.226001, 0.225562, 0.223711, 0.225359
Process 25: 0.444724, 0.340241, 0.303612, 0.316692, 0.297790, 0.231531, 0.226861, 0.230226, 0.228910, 0.262611, 0.228285, 0.226512, 0.228108, 0.228278, 0.227249, 0.226774, 0.226870, 0.228540, 0.228388, 0.230472, 0.229695, 0.236727, 0.234116, 0.230805, 0.228788, 0.228550, 0.227784, 0.227907, 0.225603, 0.227437
Process 26: 0.447814, 0.343504, 0.306329, 0.319783, 0.300174, 0.233244, 0.228721, 0.232136, 0.230592, 0.264599, 0.230092, 0.228388, 0.230043, 0.230208, 0.229126, 0.228785, 0.228721, 0.230297, 0.230256, 0.232374, 0.231488, 0.238592, 0.236072, 0.232801, 0.230777, 0.230515, 0.229710, 0.229654, 0.227501, 0.229266
Process 27: 0.449986, 0.345355, 0.308656, 0.322721, 0.302019, 0.235048, 0.230557, 0.233905, 0.232285, 0.266410, 0.231863, 0.230768, 0.231846, 0.231968, 0.230936, 0.230363, 0.230519, 0.232202, 0.232128, 0.234183, 0.233343, 0.240464, 0.237879, 0.234676, 0.232580, 0.232319, 0.231558, 0.231272, 0.229388, 0.230964
Process 28: 0.452625, 0.347976, 0.311330, 0.325789, 0.303926, 0.236917, 0.232344, 0.235914, 0.234125, 0.268228, 0.233700, 0.232289, 0.233769, 0.233776, 0.232795, 0.232120, 0.232364, 0.234065, 0.233944, 0.236118, 0.235164, 0.242288, 0.239738, 0.236513, 0.234414, 0.234158, 0.233587, 0.233012, 0.231251, 0.232839
Process 29: 0.455052, 0.350771, 0.314014, 0.328741, 0.305960, 0.239140, 0.234586, 0.238026, 0.236379, 0.270414, 0.236118, 0.234315, 0.235934, 0.236015, 0.235040, 0.234340, 0.234589, 0.236247, 0.236165, 0.238255, 0.237365, 0.244510, 0.241869, 0.238693, 0.236572, 0.236369, 0.235628, 0.235206, 0.233411, 0.235030
Process 30: 0.457733, 0.353094, 0.316341, 0.331561, 0.307696, 0.240755, 0.236214, 0.239614, 0.238298, 0.271978, 0.237826, 0.235913, 0.237504, 0.237617, 0.236745, 0.236024, 0.236247, 0.237839, 0.237760, 0.239875, 0.238948, 0.246176, 0.243561, 0.240326, 0.238177, 0.238030, 0.237242, 0.236863, 0.235032, 0.236676
Process 31: 0.460252, 0.356225, 0.319320, 0.334744, 0.309626, 0.242699, 0.238170, 0.241577, 0.240039, 0.273879, 0.239519, 0.237788, 0.239377, 0.239510, 0.238512, 0.238144, 0.238064, 0.239772, 0.239705, 0.241810, 0.240857, 0.248028, 0.245466, 0.242221, 0.240088, 0.239913, 0.239130, 0.239028, 0.236918, 0.238535
Process 32: 0.462587, 0.358658, 0.321135, 0.337780, 0.311393, 0.244519, 0.239898, 0.243327, 0.241701, 0.275731, 0.241267, 0.239689, 0.241180, 0.241320, 0.240314, 0.239704, 0.239889, 0.241607, 0.241465, 0.243592, 0.242625, 0.249804, 0.247244, 0.244041, 0.241915, 0.241705, 0.241232, 0.240614, 0.238715, 0.240348
Process 33: 0.465260, 0.361469, 0.323637, 0.340734, 0.313378, 0.246476, 0.241967, 0.245743, 0.243680, 0.277713, 0.243261, 0.241658, 0.243180, 0.243288, 0.242383, 0.241645, 0.241891, 0.243610, 0.243434, 0.245554, 0.244642, 0.251798, 0.249276, 0.245973, 0.243844, 0.243671, 0.243213, 0.242570, 0.240715, 0.242412
Process 34: 0.467843, 0.364074, 0.325991, 0.343681, 0.315133, 0.248258, 0.243742, 0.247300, 0.245431, 0.279546, 0.245056, 0.243464, 0.244966, 0.245118, 0.244096, 0.243428, 0.243647, 0.245392, 0.245217, 0.247473, 0.246481, 0.253583, 0.250977, 0.247762, 0.245615, 0.245599, 0.244834, 0.244344, 0.242506, 0.244174
Process 35: 0.470377, 0.366804, 0.328683, 0.346909, 0.317088, 0.250154, 0.245622, 0.249060, 0.247846, 0.281509, 0.247196, 0.245350, 0.246927, 0.247067, 0.246132, 0.245453, 0.245667, 0.247398, 0.247200, 0.249395, 0.248451, 0.255612, 0.253004, 0.249747, 0.247609, 0.247475, 0.246705, 0.246331, 0.244481, 0.246159
Process 36: 0.473010, 0.369304, 0.331129, 0.349853, 0.318952, 0.252031, 0.247447, 0.250840, 0.249602, 0.283249, 0.248857, 0.247209, 0.248895, 0.248863, 0.247900, 0.247321, 0.247472, 0.249177, 0.249167, 0.251269, 0.250166, 0.257399, 0.254793, 0.251571, 0.249393, 0.249253, 0.248505, 0.248202, 0.246344, 0.247968
Process 37: 0.475477, 0.371935, 0.333798, 0.352998, 0.320816, 0.254015, 0.249490, 0.252864, 0.251729, 0.285219, 0.250834, 0.249184, 0.250776, 0.250820, 0.250018, 0.249290, 0.249481, 0.251139, 0.251426, 0.253174, 0.252253, 0.259382, 0.256784, 0.253545, 0.251418, 0.251269, 0.250532, 0.250180, 0.248240, 0.249949
Process 38: 0.477930, 0.374515, 0.336294, 0.355872, 0.322678, 0.255844, 0.251317, 0.254787, 0.253468, 0.287014, 0.252610, 0.250968, 0.252548, 0.252562, 0.251855, 0.251031, 0.251219, 0.252910, 0.253598, 0.254905, 0.253971, 0.261169, 0.258576, 0.255275, 0.253214, 0.253130, 0.252584, 0.251978, 0.250022, 0.251712
Process 39: 0.480479, 0.376951, 0.338824, 0.358644, 0.324583, 0.257932, 0.253435, 0.256874, 0.255563, 0.289050, 0.254594, 0.252995, 0.254554, 0.254674, 0.253703, 0.253029, 0.253226, 0.254903, 0.255400, 0.256933, 0.256051, 0.263170, 0.260532, 0.257290, 0.255258, 0.255449, 0.254340, 0.253947, 0.252010, 0.253714
Process 40: 0.482925, 0.379500, 0.341271, 0.361511, 0.326381, 0.259598, 0.255115, 0.258485, 0.257255, 0.290842, 0.256430, 0.254784, 0.256326, 0.256482, 0.255451, 0.254786, 0.254959, 0.256677, 0.257687, 0.258687, 0.257772, 0.264930, 0.262257, 0.259019, 0.256932, 0.257051, 0.256062, 0.255735, 0.253804, 0.255511
Process 41: 0.485581, 0.382483, 0.343920, 0.364683, 0.328323, 0.261473, 0.256980, 0.260347, 0.259107, 0.292673, 0.258352, 0.256714, 0.258240, 0.258303, 0.257330, 0.256711, 0.256884, 0.258579, 0.259634, 0.260674, 0.259707, 0.266874, 0.264219, 0.260913, 0.258818, 0.258763, 0.257980, 0.257652, 0.255722, 0.257408
Process 42: 0.488317, 0.384837, 0.346300, 0.367175, 0.330171, 0.263312, 0.258793, 0.262195, 0.260960, 0.294594, 0.260148, 0.258549, 0.260069, 0.260113, 0.259279, 0.258532, 0.258731, 0.260404, 0.261516, 0.262525, 0.261503, 0.268807, 0.266031, 0.262811, 0.260790, 0.260564, 0.259813, 0.259443, 0.257566, 0.259252
Process 43: 0.490868, 0.387535, 0.349013, 0.370298, 0.332207, 0.265355, 0.260830, 0.264224, 0.263081, 0.296671, 0.262215, 0.260524, 0.262196, 0.262176, 0.261507, 0.260576, 0.260779, 0.262511, 0.263432, 0.264529, 0.263650, 0.270840, 0.268137, 0.264922, 0.262793, 0.262590, 0.261942, 0.261510, 0.259672, 0.261252
Process 44: 0.493235, 0.390061, 0.351343, 0.373148, 0.333995, 0.266969, 0.262578, 0.265935, 0.264597, 0.298212, 0.263825, 0.262162, 0.263806, 0.264086, 0.262936, 0.262229, 0.262479, 0.264042, 0.265091, 0.266160, 0.265165, 0.272501, 0.269808, 0.266487, 0.264364, 0.264266, 0.263588, 0.263172, 0.261323, 0.262870
Process 45: 0.495781, 0.393099, 0.354036, 0.376315, 0.335923, 0.269074, 0.264667, 0.267999, 0.266734, 0.300293, 0.265904, 0.264240, 0.265831, 0.265894, 0.264976, 0.264339, 0.264514, 0.266155, 0.267304, 0.268237, 0.267318, 0.274444, 0.271896, 0.268555, 0.266440, 0.266571, 0.265637, 0.265219, 0.263358, 0.264941
Process 46: 0.498088, 0.395800, 0.356516, 0.378593, 0.337693, 0.270766, 0.266271, 0.269702, 0.268322, 0.302088, 0.267597, 0.265900, 0.267499, 0.267578, 0.266686, 0.266046, 0.266240, 0.267827, 0.269109, 0.269941, 0.268996, 0.276163, 0.273561, 0.270333, 0.268164, 0.268096, 0.267351, 0.266932, 0.265055, 0.266655
Process 47: 0.501136, 0.398489, 0.359151, 0.381421, 0.339579, 0.272708, 0.268214, 0.271684, 0.270400, 0.304060, 0.269565, 0.267888, 0.269478, 0.269508, 0.268656, 0.267963, 0.268244, 0.269794, 0.271140, 0.271912, 0.270999, 0.278121, 0.275458, 0.272357, 0.270744, 0.269956, 0.269284, 0.268802, 0.267002, 0.268685
Process 48: 0.503251, 0.400925, 0.362013, 0.383889, 0.341400, 0.274538, 0.269985, 0.273414, 0.272069, 0.305869, 0.271311, 0.269640, 0.271213, 0.271506, 0.270421, 0.269673, 0.269933, 0.271601, 0.273238, 0.273642, 0.272651, 0.279995, 0.277254, 0.273979, 0.272063, 0.271748, 0.271075, 0.270557, 0.268759, 0.270357
Process 49: 0.505854, 0.403520, 0.364192, 0.386884, 0.343363, 0.276558, 0.272079, 0.275517, 0.274172, 0.307834, 0.273435, 0.271778, 0.273304, 0.273510, 0.272472, 0.271760, 0.272017, 0.273639, 0.275385, 0.275721, 0.274752, 0.282049, 0.279277, 0.276031, 0.273954, 0.273789, 0.273119, 0.272662, 0.270803, 0.272442
Process 50: 0.508486, 0.405932, 0.366643, 0.389622, 0.345141, 0.278217, 0.273779, 0.277142, 0.275782, 0.309439, 0.275122, 0.273430, 0.274923, 0.275124, 0.274149, 0.273388, 0.273653, 0.275368, 0.277251, 0.277393, 0.276415, 0.283610, 0.280982, 0.277692, 0.275573, 0.275545, 0.274839, 0.274440, 0.272611, 0.274176
Process 51: 0.511182, 0.408568, 0.369218, 0.392728, 0.347098, 0.280242, 0.275767, 0.279114, 0.277890, 0.311438, 0.277030, 0.275421, 0.277030, 0.277163, 0.276247, 0.275419, 0.275664, 0.277351, 0.279212, 0.279394, 0.278479, 0.285619, 0.283032, 0.280293, 0.277696, 0.277635, 0.276876, 0.276426, 0.274636, 0.276265
Process 52: 0.513359, 0.411001, 0.371719, 0.395386, 0.348958, 0.281971, 0.277552, 0.280895, 0.279647, 0.313248, 0.278739, 0.277177, 0.278688, 0.278784, 0.277910, 0.277180, 0.277406, 0.279032, 0.280888, 0.281107, 0.280216, 0.287349, 0.284774, 0.281945, 0.279332, 0.279303, 0.278516, 0.278106, 0.276309, 0.277831
Process 53: 0.516205, 0.413608, 0.374330, 0.398260, 0.350772, 0.283989, 0.279502, 0.282859, 0.281694, 0.315287, 0.280792, 0.279145, 0.280693, 0.280857, 0.279907, 0.279254, 0.279454, 0.281057, 0.282835, 0.283101, 0.282194, 0.289378, 0.286676, 0.283511, 0.281597, 0.281287, 0.280521, 0.280110, 0.278210, 0.279857
Process 54: 0.518707, 0.416120, 0.376798, 0.401074, 0.352637, 0.285813, 0.281426, 0.284738, 0.283486, 0.317139, 0.282626, 0.280934, 0.282506, 0.282901, 0.281743, 0.281112, 0.281283, 0.282919, 0.284683, 0.284974, 0.284015, 0.291271, 0.288604, 0.285371, 0.283295, 0.283180, 0.282330, 0.281999, 0.280069, 0.281676
Process 55: 0.521323, 0.418758, 0.379466, 0.404236, 0.354588, 0.287957, 0.283438, 0.286701, 0.285598, 0.319174, 0.284644, 0.283191, 0.284698, 0.284748, 0.283807, 0.283068, 0.283264, 0.285194, 0.286727, 0.286960, 0.286091, 0.293265, 0.290520, 0.287305, 0.285215, 0.285182, 0.284316, 0.284004, 0.282079, 0.283708
Process 56: 0.523598, 0.421226, 0.381829, 0.406779, 0.356320, 0.289547, 0.285010, 0.288312, 0.287122, 0.320741, 0.286276, 0.284647, 0.286199, 0.286300, 0.285447, 0.284674, 0.284879, 0.286781, 0.288381, 0.288668, 0.287644, 0.294925, 0.292234, 0.288937, 0.286849, 0.286795, 0.285941, 0.285635, 0.283719, 0.285391
Process 57: 0.526157, 0.423802, 0.384865, 0.409734, 0.358274, 0.291490, 0.286966, 0.290295, 0.289156, 0.322759, 0.288330, 0.286620, 0.288147, 0.288291, 0.287456, 0.286675, 0.286831, 0.288538, 0.290346, 0.290692, 0.289652, 0.296946, 0.294154, 0.291190, 0.288833, 0.288716, 0.287912, 0.287600, 0.285697, 0.287654
Process 58: 0.528833, 0.426229, 0.387121, 0.412448, 0.360070, 0.293299, 0.288784, 0.292095, 0.290997, 0.324646, 0.290190, 0.288416, 0.290056, 0.290179, 0.289259, 0.288559, 0.288725, 0.290391, 0.292186, 0.292614, 0.291510, 0.298740, 0.296032, 0.293088, 0.290779, 0.290643, 0.289769, 0.289496, 0.287699, 0.289283
Process 59: 0.531480, 0.428808, 0.389454, 0.415194, 0.362096, 0.295251, 0.290781, 0.294073, 0.292940, 0.326512, 0.292061, 0.290390, 0.292130, 0.292132, 0.291114, 0.290429, 0.290622, 0.292276, 0.294135, 0.294493, 0.293534, 0.300646, 0.298111, 0.294764, 0.292674, 0.292519, 0.291709, 0.291356, 0.289565, 0.291114
Process 60: 0.534006, 0.431396, 0.392168, 0.417893, 0.363971, 0.297225, 0.292603, 0.295989, 0.294783, 0.328427, 0.293961, 0.292290, 0.294040, 0.294028, 0.293029, 0.292379, 0.292553, 0.294204, 0.296008, 0.296347, 0.295442, 0.302555, 0.299843, 0.296617, 0.294563, 0.294426, 0.293668, 0.293250, 0.291360, 0.293000
Process 61: 0.536518, 0.433939, 0.394896, 0.420343, 0.366006, 0.299213, 0.294647, 0.298093, 0.296839, 0.330474, 0.296007, 0.294303, 0.295930, 0.296064, 0.295087, 0.294441, 0.294576, 0.296483, 0.298060, 0.298420, 0.297378, 0.304590, 0.301925, 0.298663, 0.296599, 0.296387, 0.295719, 0.295273, 0.293430, 0.295034
Process 62: 0.539055, 0.436495, 0.397314, 0.422681, 0.367848, 0.301036, 0.296548, 0.299972, 0.298714, 0.332367, 0.297876, 0.296191, 0.297786, 0.297942, 0.296962, 0.296295, 0.296510, 0.298435, 0.299929, 0.300325, 0.299257, 0.306468, 0.303805, 0.300548, 0.298494, 0.298267, 0.297587, 0.297149, 0.295325, 0.297252
Process 63: 0.541369, 0.438866, 0.399977, 0.424808, 0.369452, 0.302820, 0.298081, 0.301556, 0.300372, 0.333847, 0.299408, 0.297880, 0.299317, 0.299495, 0.298496, 0.297766, 0.298014, 0.299723, 0.301519, 0.301882, 0.300913, 0.308017, 0.305385, 0.302181, 0.300087, 0.299774, 0.299104, 0.298715, 0.297199, 0.298819
