MPI_insiderank_serial
Process 0: 0.488478, 0.281107, 0.250576, 0.257100, 0.256587, 0.254277, 0.251296, 0.251915, 0.251894, 0.251871, 0.284399, 0.252244, 0.250601, 0.251625, 0.250416, 0.250104, 0.250616, 0.250555, 0.250045, 0.250528, 0.250025, 0.250165, 0.250659, 0.250702, 0.250400, 0.250271, 0.271544, 0.456111, 0.252066, 0.250495
Process 1: 0.353408, 0.149192, 0.119029, 0.123151, 0.124066, 0.122320, 0.118983, 0.119203, 0.118739, 0.119181, 0.118594, 0.120163, 0.118594, 0.119436, 0.118694, 0.118328, 0.118677, 0.118579, 0.118527, 0.118719, 0.118337, 0.118371, 0.118818, 0.118818, 0.118637, 0.118582, 0.139710, 0.324429, 0.119925, 0.118785
Process 2: 0.354514, 0.150140, 0.119917, 0.124037, 0.124939, 0.123190, 0.119872, 0.120091, 0.119613, 0.120079, 0.119485, 0.121050, 0.119472, 0.120361, 0.119589, 0.119206, 0.119568, 0.119460, 0.119411, 0.119603, 0.119226, 0.119250, 0.119718, 0.119696, 0.119525, 0.119464, 0.140602, 0.325333, 0.120839, 0.119681
Process 3: 0.355177, 0.151324, 0.121115, 0.125281, 0.126140, 0.124395, 0.121067, 0.121274, 0.120862, 0.121261, 0.120687, 0.122251, 0.120684, 0.121589, 0.120790, 0.120401, 0.120763, 0.120651, 0.120601, 0.120795, 0.120420, 0.120458, 0.120912, 0.120893, 0.120720, 0.120661, 0.141773, 0.326544, 0.122050, 0.120881
Process 4: 0.356694, 0.152243, 0.122015, 0.126184, 0.127037, 0.125296, 0.121968, 0.122189, 0.121765, 0.122167, 0.121591, 0.123196, 0.121587, 0.122495, 0.121696, 0.121296, 0.121672, 0.121557, 0.121504, 0.121700, 0.121341, 0.121361, 0.121817, 0.121787, 0.121618, 0.121567, 0.142702, 0.327461, 0.122944, 0.121795
Process 5: 0.357710, 0.153423, 0.123271, 0.127401, 0.128222, 0.126478, 0.123161, 0.123409, 0.122970, 0.123361, 0.122796, 0.124375, 0.122773, 0.123702, 0.122899, 0.122498, 0.122860, 0.122757, 0.122700, 0.122899, 0.122551, 0.122560, 0.123017, 0.122991, 0.122822, 0.122757, 0.143917, 0.328686, 0.124127, 0.122985
Process 6: 0.358786, 0.154399, 0.124169, 0.128296, 0.129135, 0.127391, 0.124096, 0.124326, 0.123881, 0.124252, 0.123706, 0.125282, 0.123680, 0.124607, 0.123814, 0.123408, 0.123765, 0.123670, 0.123615, 0.123806, 0.123454, 0.123453, 0.123935, 0.123899, 0.123738, 0.123681, 0.144849, 0.329573, 0.125025, 0.123918
Process 7: 0.359908, 0.155579, 0.125356, 0.129508, 0.130305, 0.128629, 0.125291, 0.125525, 0.125080, 0.125464, 0.124933, 0.126474, 0.124862, 0.125807, 0.125009, 0.124623, 0.124960, 0.124873, 0.124794, 0.125004, 0.124648, 0.124685, 0.125129, 0.125121, 0.124999, 0.124869, 0.146005, 0.330771, 0.126253, 0.125107
Process 8: 0.361006, 0.156579, 0.126302, 0.130450, 0.131259, 0.129595, 0.126253, 0.126495, 0.126034, 0.126421, 0.125899, 0.127420, 0.125825, 0.126794, 0.125967, 0.125565, 0.125921, 0.125824, 0.125750, 0.125966, 0.125647, 0.125663, 0.126136, 0.126077, 0.125950, 0.125836, 0.146983, 0.331734, 0.127210, 0.126070
Process 9: 0.362478, 0.157733, 0.127442, 0.131612, 0.132392, 0.130707, 0.127408, 0.127631, 0.127182, 0.127562, 0.127048, 0.128574, 0.126957, 0.127934, 0.127109, 0.126713, 0.127067, 0.127010, 0.126934, 0.127138, 0.126790, 0.126825, 0.127302, 0.127222, 0.127099, 0.126970, 0.148124, 0.332922, 0.128335, 0.127209
Process 10: 0.363011, 0.158674, 0.128396, 0.132612, 0.133342, 0.131677, 0.128361, 0.128594, 0.128149, 0.128519, 0.128011, 0.129531, 0.127912, 0.128896, 0.128102, 0.127707, 0.128057, 0.127959, 0.127891, 0.128092, 0.127749, 0.127779, 0.128257, 0.128171, 0.128067, 0.127932, 0.149082, 0.333866, 0.129291, 0.128194
Process 11: 0.364579, 0.159789, 0.129541, 0.133764, 0.134502, 0.132795, 0.129507, 0.129750, 0.129300, 0.129698, 0.129148, 0.130661, 0.129053, 0.130082, 0.129248, 0.128847, 0.129199, 0.129129, 0.129021, 0.129215, 0.128886, 0.128925, 0.129405, 0.129313, 0.129211, 0.129072, 0.150217, 0.335029, 0.130455, 0.129319
Process 12: 0.365237, 0.160773, 0.130498, 0.134726, 0.135484, 0.133761, 0.130469, 0.130696, 0.130248, 0.130647, 0.130119, 0.131613, 0.130020, 0.131029, 0.130203, 0.129813, 0.130166, 0.130091, 0.129986, 0.130181, 0.129853, 0.129889, 0.130354, 0.130276, 0.130196, 0.130043, 0.151174, 0.335963, 0.131399, 0.130275
Process 13: 0.366690, 0.161895, 0.131635, 0.135859, 0.136653, 0.134894, 0.131598, 0.131817, 0.131406, 0.131792, 0.131224, 0.132770, 0.131214, 0.132164, 0.131338, 0.130927, 0.131295, 0.131220, 0.131109, 0.131316, 0.130988, 0.131024, 0.131499, 0.131414, 0.131318, 0.131170, 0.152317, 0.337127, 0.132532, 0.131403
Process 14: 0.367626, 0.162868, 0.132577, 0.136826, 0.137612, 0.135859, 0.132565, 0.132819, 0.132372, 0.132726, 0.132192, 0.133736, 0.132160, 0.133125, 0.132282, 0.131902, 0.132274, 0.132188, 0.132075, 0.132281, 0.131943, 0.131998, 0.132463, 0.132375, 0.132283, 0.132139, 0.153333, 0.338054, 0.133513, 0.132378
Process 15: 0.369577, 0.163997, 0.133735, 0.137991, 0.138751, 0.136991, 0.133698, 0.133953, 0.133495, 0.133872, 0.133303, 0.134872, 0.133313, 0.134263, 0.133402, 0.133049, 0.133423, 0.133321, 0.133214, 0.133391, 0.133067, 0.133138, 0.133587, 0.133490, 0.133411, 0.133285, 0.154438, 0.339205, 0.134647, 0.133541
Process 16: 0.369793, 0.165062, 0.134682, 0.138947, 0.139714, 0.137939, 0.134698, 0.134912, 0.134460, 0.134822, 0.134266, 0.135823, 0.134273, 0.135230, 0.134365, 0.134002, 0.134396, 0.134277, 0.134184, 0.134348, 0.134026, 0.134103, 0.134555, 0.134444, 0.134415, 0.134268, 0.155394, 0.340171, 0.135628, 0.134493
Process 17: 0.371707, 0.166185, 0.135806, 0.140066, 0.140853, 0.139126, 0.135802, 0.136027, 0.135583, 0.135954, 0.135391, 0.136953, 0.135413, 0.136347, 0.135474, 0.135135, 0.135506, 0.135424, 0.135317, 0.135462, 0.135135, 0.135226, 0.135706, 0.135602, 0.135519, 0.135407, 0.156521, 0.341315, 0.136764, 0.135622
Process 18: 0.372781, 0.167116, 0.136780, 0.141040, 0.141824, 0.140086, 0.137044, 0.137000, 0.136554, 0.136914, 0.136363, 0.137911, 0.136387, 0.137328, 0.136442, 0.136111, 0.136491, 0.136376, 0.136330, 0.136493, 0.136157, 0.136220, 0.136680, 0.136574, 0.136502, 0.136362, 0.157498, 0.342296, 0.137721, 0.136595
Process 19: 0.373815, 0.168234, 0.137907, 0.142172, 0.142948, 0.141209, 0.138199, 0.138129, 0.137704, 0.138054, 0.137542, 0.139038, 0.137516, 0.138463, 0.137583, 0.137256, 0.137656, 0.137535, 0.137440, 0.137625, 0.137266, 0.137357, 0.137792, 0.137690, 0.137621, 0.137515, 0.158624, 0.343423, 0.138854, 0.137725
Process 20: 0.374710, 0.169199, 0.138877, 0.143169, 0.143909, 0.142180, 0.139171, 0.139107, 0.138676, 0.139043, 0.138505, 0.140010, 0.138488, 0.139440, 0.138567, 0.138249, 0.138630, 0.138498, 0.138406, 0.138590, 0.138229, 0.138336, 0.138749, 0.138656, 0.138587, 0.138490, 0.159592, 0.344379, 0.139827, 0.138684
Process 21: 0.375946, 0.170311, 0.140008, 0.144296, 0.145031, 0.143305, 0.140307, 0.140227, 0.139803, 0.140175, 0.139626, 0.141135, 0.139630, 0.140622, 0.139700, 0.139369, 0.139753, 0.139614, 0.139530, 0.139703, 0.139344, 0.139474, 0.139854, 0.139783, 0.139704, 0.139614, 0.160713, 0.345509, 0.140948, 0.139797
Process 22: 0.376899, 0.171305, 0.140979, 0.145267, 0.146031, 0.144276, 0.141292, 0.141204, 0.140800, 0.141141, 0.140603, 0.142115, 0.140642, 0.141609, 0.140669, 0.140338, 0.140741, 0.140586, 0.140502, 0.140673, 0.140317, 0.140442, 0.140823, 0.140763, 0.140688, 0.140608, 0.161687, 0.346454, 0.141923, 0.140771
Process 23: 0.378061, 0.172419, 0.142111, 0.146407, 0.147172, 0.145409, 0.142425, 0.142334, 0.141954, 0.142276, 0.141719, 0.143282, 0.141778, 0.142728, 0.141799, 0.141472, 0.141858, 0.141717, 0.141608, 0.141794, 0.141465, 0.141588, 0.141947, 0.141897, 0.141810, 0.141742, 0.162814, 0.347647, 0.143050, 0.141907
Process 24: 0.378396, 0.173428, 0.143088, 0.147381, 0.148135, 0.146369, 0.143393, 0.143345, 0.142906, 0.144148, 0.142688, 0.144246, 0.142744, 0.143701, 0.142773, 0.142426, 0.142830, 0.142681, 0.142578, 0.142753, 0.142406, 0.142540, 0.142920, 0.142867, 0.142780, 0.142719, 0.163797, 0.348574, 0.144026, 0.142858
Process 25: 0.379609, 0.174592, 0.144256, 0.148502, 0.149265, 0.147484, 0.144552, 0.144476, 0.144040, 0.145350, 0.143818, 0.145379, 0.143862, 0.144833, 0.143919, 0.143572, 0.143976, 0.143819, 0.143705, 0.143890, 0.143560, 0.143683, 0.144033, 0.144002, 0.143948, 0.143898, 0.164914, 0.349715, 0.145158, 0.144012
Process 26: 0.380433, 0.175556, 0.145222, 0.149468, 0.150245, 0.148478, 0.145528, 0.145455, 0.145018, 0.146315, 0.144790, 0.146351, 0.144832, 0.145801, 0.144881, 0.144539, 0.144943, 0.144788, 0.144651, 0.144841, 0.144533, 0.144654, 0.144993, 0.145028, 0.144929, 0.144859, 0.165885, 0.350669, 0.146155, 0.144974
Process 27: 0.381661, 0.176683, 0.146347, 0.150642, 0.151390, 0.149623, 0.146664, 0.146580, 0.146157, 0.147485, 0.145936, 0.147501, 0.145968, 0.146945, 0.146018, 0.145674, 0.146083, 0.145917, 0.145772, 0.145973, 0.145679, 0.145826, 0.146138, 0.146168, 0.146031, 0.145997, 0.167036, 0.351883, 0.147297, 0.146099
Process 28: 0.382559, 0.177657, 0.147307, 0.151589, 0.152347, 0.150579, 0.147619, 0.147553, 0.147122, 0.148439, 0.146918, 0.148471, 0.146945, 0.147901, 0.146995, 0.146625, 0.147073, 0.146912, 0.146763, 0.146957, 0.146657, 0.146787, 0.147110, 0.147121, 0.147000, 0.146961, 0.167986, 0.352826, 0.148260, 0.147077
Process 29: 0.383753, 0.178775, 0.148423, 0.152768, 0.153468, 0.151699, 0.148719, 0.148662, 0.148225, 0.149563, 0.148029, 0.149585, 0.148058, 0.149025, 0.148149, 0.147781, 0.148207, 0.148020, 0.147872, 0.148072, 0.147769, 0.147892, 0.148209, 0.148229, 0.148105, 0.148065, 0.169104, 0.353933, 0.149376, 0.148176
Process 30: 0.384611, 0.179694, 0.149345, 0.153674, 0.154392, 0.152621, 0.149651, 0.149584, 0.149146, 0.150478, 0.148957, 0.150511, 0.148982, 0.150016, 0.149044, 0.148714, 0.149129, 0.148951, 0.148807, 0.148989, 0.148694, 0.148820, 0.149136, 0.149161, 0.149044, 0.148998, 0.170035, 0.354865, 0.150299, 0.149101
Process 31: 0.386574, 0.180759, 0.150430, 0.154744, 0.155500, 0.153704, 0.150734, 0.150684, 0.150224, 0.151563, 0.150037, 0.151590, 0.150088, 0.151085, 0.150139, 0.149793, 0.150207, 0.150024, 0.149877, 0.150076, 0.149770, 0.149906, 0.150228, 0.150261, 0.150134, 0.150089, 0.171125, 0.355978, 0.151395, 0.150195
Process 32: 0.386724, 0.181793, 0.151408, 0.155721, 0.156510, 0.154680, 0.151716, 0.151668, 0.151230, 0.152538, 0.151034, 0.152582, 0.151099, 0.152054, 0.151106, 0.150765, 0.151186, 0.151005, 0.150851, 0.151048, 0.150752, 0.150886, 0.151210, 0.151223, 0.151112, 0.151066, 0.172101, 0.356929, 0.152367, 0.151163
Process 33: 0.388763, 0.182823, 0.152476, 0.156783, 0.157570, 0.155728, 0.152803, 0.152733, 0.152302, 0.153594, 0.152076, 0.153653, 0.152149, 0.153122, 0.152162, 0.151823, 0.152253, 0.152068, 0.151908, 0.152121, 0.151819, 0.151943, 0.152257, 0.152280, 0.152181, 0.152136, 0.173164, 0.358053, 0.153429, 0.152229
Process 34: 0.388693, 0.183730, 0.153437, 0.157710, 0.158500, 0.156654, 0.153708, 0.153696, 0.153218, 0.154516, 0.185839, 0.154583, 0.153080, 0.154040, 0.153081, 0.152745, 0.153190, 0.153008, 0.152842, 0.153042, 0.152752, 0.152868, 0.153187, 0.153201, 0.153115, 0.153050, 0.174148, 0.358942, 0.154353, 0.153162
Process 35: 0.390707, 0.184820, 0.154523, 0.158802, 0.159596, 0.157731, 0.154821, 0.154784, 0.154302, 0.155581, 0.187001, 0.155650, 0.154143, 0.155122, 0.154163, 0.153822, 0.154248, 0.154080, 0.153919, 0.154119, 0.153818, 0.153953, 0.154266, 0.154289, 0.154226, 0.154165, 0.175232, 0.359990, 0.155432, 0.154273
Process 36: 0.390591, 0.185776, 0.155456, 0.159753, 0.160537, 0.158712, 0.155763, 0.155727, 0.155237, 0.156527, 0.187989, 0.156584, 0.155082, 0.156065, 0.155103, 0.154762, 0.155202, 0.155028, 0.154853, 0.155081, 0.154758, 0.154889, 0.155227, 0.155260, 0.155162, 0.155106, 0.176193, 0.360938, 0.156411, 0.155203
Process 37: 0.392769, 0.186841, 0.156558, 0.160846, 0.161637, 0.159793, 0.156848, 0.156807, 0.156342, 0.157617, 0.189116, 0.157681, 0.156193, 0.157151, 0.156201, 0.155856, 0.156312, 0.156134, 0.155961, 0.156213, 0.155886, 0.156014, 0.156349, 0.156354, 0.156260, 0.156207, 0.177309, 0.362075, 0.157516, 0.156300
Process 38: 0.393075, 0.187796, 0.157472, 0.161757, 0.162570, 0.160716, 0.157768, 0.157770, 0.157280, 0.158541, 0.190069, 0.158605, 0.157108, 0.158069, 0.157130, 0.156773, 0.157227, 0.157094, 0.156922, 0.157125, 0.156801, 0.156930, 0.157266, 0.157269, 0.157175, 0.157113, 0.178245, 0.362991, 0.158410, 0.157215
Process 39: 0.394846, 0.188846, 0.158574, 0.162896, 0.163651, 0.161809, 0.158838, 0.158968, 0.158362, 0.159663, 0.191184, 0.159680, 0.158190, 0.159148, 0.158236, 0.157900, 0.158306, 0.158176, 0.157995, 0.158189, 0.157886, 0.158019, 0.158350, 0.158350, 0.158267, 0.158206, 0.179352, 0.364115, 0.159535, 0.158309
Process 40: 0.394838, 0.189853, 0.159497, 0.163832, 0.164582, 0.162736, 0.159786, 0.159914, 0.159287, 0.160583, 0.192146, 0.160618, 0.159105, 0.160124, 0.159169, 0.158831, 0.159232, 0.159102, 0.158918, 0.159126, 0.158810, 0.158938, 0.159276, 0.159282, 0.159192, 0.159128, 0.180306, 0.364966, 0.160460, 0.159243
Process 41: 0.396243, 0.190917, 0.160584, 0.164932, 0.165717, 0.163826, 0.160864, 0.161011, 0.160386, 0.161659, 0.193255, 0.161716, 0.160235, 0.161202, 0.160243, 0.159918, 0.160322, 0.160185, 0.160013, 0.160193, 0.159889, 0.160040, 0.160392, 0.160362, 0.160279, 0.160207, 0.181406, 0.366092, 0.161564, 0.160329
Process 42: 0.396852, 0.191840, 0.161524, 0.165870, 0.166669, 0.164759, 0.161828, 0.161990, 0.161370, 0.162614, 0.194265, 0.162681, 0.161173, 0.162151, 0.161187, 0.160868, 0.161261, 0.161152, 0.160947, 0.161142, 0.160840, 0.160982, 0.161329, 0.161319, 0.161223, 0.161153, 0.182377, 0.367029, 0.162512, 0.161276
Process 43: 0.398046, 0.192880, 0.162588, 0.166947, 0.167727, 0.165839, 0.162889, 0.163119, 0.162439, 0.163671, 0.195355, 0.163743, 0.162234, 0.163215, 0.162266, 0.161938, 0.162330, 0.162217, 0.162018, 0.162230, 0.161916, 0.162065, 0.162398, 0.162385, 0.162297, 0.162234, 0.183496, 0.368121, 0.163604, 0.162360
Process 44: 0.399298, 0.193833, 0.163567, 0.167880, 0.168655, 0.166777, 0.163839, 0.164079, 0.163367, 0.164604, 0.196344, 0.164684, 0.163175, 0.164148, 0.163193, 0.162876, 0.163271, 0.163155, 0.162950, 0.163175, 0.162849, 0.162996, 0.163337, 0.163319, 0.163246, 0.163162, 0.184452, 0.369035, 0.164546, 0.163289
Process 45: 0.400231, 0.194914, 0.164665, 0.168959, 0.169752, 0.167851, 0.164960, 0.165173, 0.164438, 0.165683, 0.197488, 0.165766, 0.164242, 0.165231, 0.164276, 0.163956, 0.164353, 0.164230, 0.164037, 0.164267, 0.163940, 0.164084, 0.164411, 0.164409, 0.164369, 0.164279, 0.185557, 0.370134, 0.165648, 0.164407
Process 46: 0.401473, 0.195878, 0.165579, 0.169919, 0.170684, 0.168819, 0.165897, 0.166117, 0.165386, 0.166630, 0.198479, 0.166721, 0.165199, 0.166177, 0.165211, 0.164890, 0.165297, 0.165191, 0.164984, 0.165223, 0.164878, 0.165031, 0.165392, 0.165385, 0.165304, 0.165223, 0.186507, 0.371076, 0.166578, 0.165355
Process 47: 0.402373, 0.196960, 0.166675, 0.171010, 0.171774, 0.169923, 0.166986, 0.167234, 0.166479, 0.167718, 0.199592, 0.167814, 0.166289, 0.167263, 0.166307, 0.165986, 0.167039, 0.166282, 0.166073, 0.166335, 0.166019, 0.166150, 0.166483, 0.166472, 0.166399, 0.166320, 0.187621, 0.372236, 0.167686, 0.166455
Process 48: 0.403544, 0.197945, 0.167627, 0.171958, 0.172725, 0.170870, 0.167919, 0.168177, 0.167418, 0.168666, 0.200582, 0.168763, 0.167245, 0.168218, 0.167255, 0.166934, 0.167371, 0.167274, 0.167076, 0.167291, 0.166965, 0.167100, 0.167435, 0.167409, 0.167345, 0.167267, 0.188601, 0.373139, 0.168638, 0.167390
Process 49: 0.404540, 0.199009, 0.168704, 0.173090, 0.173798, 0.171949, 0.169011, 0.169269, 0.168492, 0.169787, 0.201692, 0.169839, 0.168322, 0.169297, 0.168368, 0.168063, 0.168443, 0.168349, 0.168158, 0.168374, 0.168049, 0.168181, 0.168509, 0.168484, 0.168424, 0.168355, 0.189689, 0.374236, 0.169721, 0.168482
Process 50: 0.405508, 0.199951, 0.169641, 0.174034, 0.174740, 0.172917, 0.169959, 0.170220, 0.169460, 0.170728, 0.202689, 0.170786, 0.169275, 0.170296, 0.169317, 0.169009, 0.169396, 0.169305, 0.169102, 0.169323, 0.169001, 0.169128, 0.169453, 0.169438, 0.169370, 0.169294, 0.190660, 0.375191, 0.170662, 0.169428
Process 51: 0.406356, 0.201017, 0.170724, 0.175108, 0.175857, 0.173981, 0.171045, 0.171313, 0.170528, 0.171821, 0.203781, 0.171863, 0.170374, 0.171373, 0.170397, 0.170107, 0.170466, 0.170374, 0.170184, 0.170406, 0.170069, 0.170208, 0.170528, 0.170507, 0.170447, 0.170382, 0.191753, 0.376229, 0.171739, 0.170509
Process 52: 0.407689, 0.201988, 0.171668, 0.176059, 0.176806, 0.174931, 0.171992, 0.172271, 0.171522, 0.172769, 0.204760, 0.172826, 0.171330, 0.172317, 0.171350, 0.171035, 0.171419, 0.171317, 0.171142, 0.171348, 0.171018, 0.171158, 0.171476, 0.171457, 0.171391, 0.171322, 0.192724, 0.377187, 0.172693, 0.171454
Process 53: 0.408480, 0.203049, 0.172764, 0.177149, 0.177906, 0.176037, 0.173084, 0.173421, 0.172617, 0.173870, 0.206082, 0.173926, 0.172421, 0.173415, 0.172432, 0.172135, 0.172516, 0.172421, 0.172226, 0.172447, 0.172110, 0.172246, 0.172571, 0.172558, 0.172490, 0.172422, 0.193873, 0.378326, 0.173785, 0.172556
Process 54: 0.409784, 0.204021, 0.173731, 0.178086, 0.178836, 0.176967, 0.174077, 0.174356, 0.173552, 0.174804, 0.207093, 0.174865, 0.173355, 0.174344, 0.173366, 0.173072, 0.173445, 0.173345, 0.173158, 0.173380, 0.173044, 0.173174, 0.173511, 0.173503, 0.173427, 0.173361, 0.194819, 0.379233, 0.174708, 0.173493
Process 55: 0.410703, 0.205097, 0.174820, 0.179174, 0.179979, 0.178050, 0.175154, 0.175461, 0.174631, 0.175898, 0.208231, 0.175951, 0.174441, 0.175430, 0.174451, 0.174155, 0.174530, 0.174430, 0.174249, 0.174466, 0.174125, 0.174261, 0.174598, 0.174584, 0.174548, 0.174471, 0.195929, 0.380315, 0.175842, 0.174585
Process 56: 0.411994, 0.206117, 0.175758, 0.180110, 0.180971, 0.179044, 0.176103, 0.176401, 0.175574, 0.176846, 0.209205, 0.176893, 0.175380, 0.176375, 0.175392, 0.175097, 0.175480, 0.175365, 0.175189, 0.175410, 0.175072, 0.175202, 0.175569, 0.175564, 0.175489, 0.175418, 0.196898, 0.381263, 0.176791, 0.175539
Process 57: 0.412812, 0.207168, 0.176834, 0.181194, 0.182079, 0.180108, 0.177186, 0.177488, 0.176643, 0.177921, 0.210328, 0.177981, 0.176459, 0.177453, 0.176478, 0.176177, 0.176557, 0.176452, 0.176300, 0.176529, 0.176179, 0.176303, 0.176655, 0.176658, 0.176573, 0.176495, 0.197987, 0.382386, 0.177858, 0.176613
Process 58: 0.414048, 0.208116, 0.177792, 0.182170, 0.183058, 0.181082, 0.178165, 0.178466, 0.177618, 0.178936, 0.211320, 0.178943, 0.177431, 0.178429, 0.177443, 0.177158, 0.177563, 0.177473, 0.177280, 0.177500, 0.177151, 0.177273, 0.177622, 0.177625, 0.177551, 0.177455, 0.198984, 0.383361, 0.178835, 0.177590
Process 59: 0.414891, 0.209167, 0.178880, 0.183274, 0.184163, 0.182163, 0.179250, 0.179551, 0.178700, 0.180014, 0.212448, 0.180013, 0.178511, 0.179511, 0.178564, 0.178268, 0.178628, 0.178556, 0.178361, 0.178608, 0.178234, 0.178356, 0.178704, 0.178707, 0.178631, 0.178541, 0.200081, 0.384470, 0.179918, 0.178655
Process 60: 0.416214, 0.210151, 0.179833, 0.184231, 0.185127, 0.183124, 0.180208, 0.180511, 0.179651, 0.180970, 0.213408, 0.180973, 0.179471, 0.180510, 0.179508, 0.179222, 0.179590, 0.179523, 0.179318, 0.179538, 0.179190, 0.179312, 0.179657, 0.179671, 0.179584, 0.179494, 0.201065, 0.385413, 0.180870, 0.179620
Process 61: 0.417763, 0.211204, 0.180923, 0.185318, 0.186276, 0.184203, 0.181310, 0.181621, 0.180788, 0.182067, 0.214522, 0.182055, 0.180601, 0.181606, 0.180602, 0.180319, 0.180688, 0.180602, 0.180405, 0.180629, 0.180280, 0.180392, 0.180742, 0.180766, 0.180670, 0.180583, 0.202162, 0.386478, 0.181954, 0.180708
Process 62: 0.417727, 0.212186, 0.181882, 0.186279, 0.187242, 0.185175, 0.182277, 0.182590, 0.181746, 0.183019, 0.215492, 0.183025, 0.181566, 0.182561, 0.181553, 0.181287, 0.181644, 0.181561, 0.181364, 0.181598, 0.181240, 0.181349, 0.181702, 0.181714, 0.181642, 0.181541, 0.203149, 0.387453, 0.182907, 0.181669
Process 63: 0.419117, 0.213309, 0.182976, 0.187361, 0.188355, 0.186277, 0.183385, 0.183750, 0.182837, 0.184125, 0.216611, 0.184130, 0.182649, 0.183657, 0.182651, 0.182371, 0.182746, 0.182650, 0.182456, 0.182674, 0.182341, 0.182442, 0.182800, 0.182809, 0.182730, 0.182631, 0.204298, 0.388601, 0.184012, 0.182768
Process 64: 0.420624, 0.214434, 0.184007, 0.188354, 0.189342, 0.187270, 0.184413, 0.184750, 0.183845, 0.185113, 0.217656, 0.185123, 0.183644, 0.184666, 0.183647, 0.183361, 0.183734, 0.183653, 0.183449, 0.183670, 0.183332, 0.183444, 0.183795, 0.183804, 0.183739, 0.183656, 0.205323, 0.389562, 0.185007, 0.183787
Process 65: 0.421504, 0.215460, 0.185075, 0.189428, 0.190435, 0.188374, 0.185473, 0.185816, 0.184924, 0.186204, 0.218739, 0.186199, 0.184715, 0.185727, 0.184721, 0.184425, 0.184810, 0.184732, 0.184523, 0.184726, 0.184393, 0.184517, 0.184863, 0.184913, 0.184841, 0.184721, 0.206386, 0.390684, 0.186112, 0.184847
Process 66: 0.422857, 0.216414, 0.186031, 0.190399, 0.191396, 0.189329, 0.186431, 0.186786, 0.185884, 0.187153, 0.219709, 0.187158, 0.185679, 0.186700, 0.185690, 0.185387, 0.185771, 0.185690, 0.185483, 0.185704, 0.185371, 0.185523, 0.185856, 0.185879, 0.185803, 0.185684, 0.207379, 0.391699, 0.187061, 0.185809
Process 67: 0.424048, 0.217467, 0.187118, 0.191617, 0.192523, 0.190418, 0.187505, 0.187888, 0.186996, 0.188251, 0.220806, 0.188258, 0.186764, 0.187785, 0.186775, 0.186472, 0.186859, 0.186831, 0.186603, 0.186804, 0.186468, 0.186598, 0.186940, 0.186963, 0.186881, 0.186764, 0.208476, 0.392731, 0.188159, 0.186887
Process 68: 0.424998, 0.218461, 0.188075, 0.192629, 0.193491, 0.191376, 0.188468, 0.188848, 0.187953, 0.189231, 0.221786, 0.189218, 0.187716, 0.188759, 0.187728, 0.187434, 0.187841, 0.187771, 0.187550, 0.187766, 0.187430, 0.187556, 0.187903, 0.187915, 0.187835, 0.187725, 0.209478, 0.393724, 0.189112, 0.187838
Process 69: 0.425293, 0.219523, 0.189188, 0.193777, 0.194609, 0.192463, 0.189561, 0.189963, 0.189068, 0.190329, 0.222890, 0.190321, 0.188821, 0.189877, 0.188838, 0.188563, 0.188947, 0.188868, 0.188653, 0.188866, 0.188546, 0.188652, 0.189005, 0.189018, 0.188937, 0.188823, 0.210565, 0.394843, 0.190228, 0.188936
Process 70: 0.427120, 0.220528, 0.190142, 0.194754, 0.195615, 0.193426, 0.190537, 0.190925, 0.190016, 0.191452, 0.223880, 0.191269, 0.189775, 0.190842, 0.189789, 0.189516, 0.189903, 0.189831, 0.189614, 0.189848, 0.189505, 0.189606, 0.189963, 0.189973, 0.189886, 0.189772, 0.211537, 0.395776, 0.191174, 0.189894
Process 71: 0.428286, 0.221592, 0.191245, 0.195867, 0.196731, 0.194514, 0.191617, 0.192022, 0.191139, 0.192561, 0.224976, 0.192364, 0.190881, 0.191930, 0.190894, 0.190611, 0.190995, 0.190911, 0.190713, 0.190920, 0.190631, 0.190703, 0.191054, 0.191064, 0.190987, 0.190870, 0.212621, 0.396878, 0.192263, 0.190991
Process 72: 0.429031, 0.222634, 0.192210, 0.196854, 0.197699, 0.195479, 0.192590, 0.193039, 0.192104, 0.193518, 0.225970, 0.193386, 0.191846, 0.192904, 0.191850, 0.191586, 0.191982, 0.191901, 0.191687, 0.191889, 0.191614, 0.191659, 0.192024, 0.192037, 0.191949, 0.191856, 0.213644, 0.397841, 0.193247, 0.191955
Process 73: 0.429616, 0.223687, 0.193334, 0.197954, 0.198797, 0.196549, 0.193672, 0.194134, 0.193175, 0.194616, 0.227087, 0.194453, 0.192925, 0.193983, 0.192934, 0.192654, 0.193062, 0.192963, 0.192752, 0.192968, 0.192702, 0.192727, 0.193096, 0.193101, 0.193020, 0.192919, 0.214705, 0.398902, 0.194311, 0.193040
Process 74: 0.431121, 0.224700, 0.194301, 0.198958, 0.199786, 0.197544, 0.194698, 0.195135, 0.194179, 0.195597, 0.228108, 0.195453, 0.193926, 0.194981, 0.193928, 0.193647, 0.194060, 0.193970, 0.193744, 0.193958, 0.193701, 0.193716, 0.194092, 0.194100, 0.194061, 0.193965, 0.215712, 0.399910, 0.195305, 0.194073
Process 75: 0.432310, 0.225758, 0.195388, 0.200047, 0.200885, 0.198651, 0.195792, 0.196226, 0.195260, 0.196688, 0.229202, 0.196532, 0.195002, 0.196056, 0.195009, 0.194714, 0.195136, 0.195046, 0.194832, 0.195036, 0.194792, 0.194806, 0.195165, 0.195188, 0.195126, 0.195030, 0.216772, 0.401009, 0.196399, 0.195157
Process 76: 0.433331, 0.226760, 0.196366, 0.201031, 0.201851, 0.199642, 0.196775, 0.197201, 0.196230, 0.197649, 0.230196, 0.197506, 0.195980, 0.197030, 0.195978, 0.195695, 0.196113, 0.196033, 0.195794, 0.196022, 0.195800, 0.195818, 0.196188, 0.196171, 0.196107, 0.196013, 0.217764, 0.401996, 0.197396, 0.196125
Process 77: 0.434193, 0.227824, 0.197462, 0.202145, 0.202964, 0.200725, 0.197883, 0.198331, 0.197313, 0.198775, 0.231295, 0.198594, 0.197075, 0.198130, 0.197078, 0.196791, 0.197210, 0.197160, 0.196923, 0.197164, 0.196900, 0.196906, 0.197275, 0.197257, 0.197192, 0.197101, 0.218846, 0.403051, 0.198460, 0.197232
Process 78: 0.435251, 0.228814, 0.198431, 0.203145, 0.203930, 0.201700, 0.198846, 0.199346, 0.198284, 0.199772, 0.232284, 0.199559, 0.198040, 0.199099, 0.198086, 0.197788, 0.198187, 0.198149, 0.197890, 0.198137, 0.197879, 0.197894, 0.198242, 0.198219, 0.198166, 0.198068, 0.219837, 0.404068, 0.199435, 0.198211
Process 79: 0.436276, 0.229899, 0.199541, 0.204271, 0.205032, 0.202801, 0.199956, 0.200471, 0.199403, 0.200871, 0.233379, 0.200669, 0.199149, 0.200222, 0.199170, 0.198897, 0.199296, 0.199240, 0.198993, 0.199250, 0.198984, 0.198987, 0.199354, 0.199322, 0.199273, 0.199173, 0.220929, 0.405188, 0.200550, 0.199296
Process 80: 0.437023, 0.230935, 0.200521, 0.205255, 0.206053, 0.203776, 0.200947, 0.201438, 0.200374, 0.201845, 0.234380, 0.201646, 0.200137, 0.201216, 0.200149, 0.199881, 0.200277, 0.200218, 0.199975, 0.200218, 0.199956, 0.199964, 0.200341, 0.200312, 0.200255, 0.200144, 0.221923, 0.406159, 0.201537, 0.200283
Process 81: 0.439138, 0.231997, 0.201608, 0.206597, 0.207130, 0.204868, 0.202023, 0.202533, 0.201508, 0.202928, 0.235478, 0.202775, 0.201272, 0.202310, 0.201243, 0.200968, 0.201400, 0.201300, 0.201063, 0.201308, 0.201045, 0.201041, 0.201422, 0.201397, 0.201333, 0.201224, 0.222994, 0.407277, 0.202635, 0.201366
Process 82: 0.439520, 0.232982, 0.202590, 0.207590, 0.208110, 0.205853, 0.203081, 0.203537, 0.202486, 0.203915, 0.236492, 0.203769, 0.202266, 0.203300, 0.202232, 0.201953, 0.202412, 0.202290, 0.202047, 0.202308, 0.202033, 0.202032, 0.202413, 0.202384, 0.202320, 0.202213, 0.224012, 0.408247, 0.203626, 0.202354
Process 83: 0.440898, 0.234251, 0.203923, 0.208688, 0.209430, 0.206933, 0.204264, 0.204636, 0.203665, 0.205014, 0.237639, 0.204860, 0.203363, 0.204392, 0.203544, 0.203266, 0.203505, 0.203508, 0.203164, 0.203608, 0.203129, 0.203131, 0.203501, 0.203468, 0.203420, 0.203390, 0.225094, 0.409319, 0.204918, 0.203523
Process 84: 0.441561, 0.235313, 0.204911, 0.209668, 0.210420, 0.207960, 0.205262, 0.205700, 0.204661, 0.205993, 0.238656, 0.205839, 0.204343, 0.205401, 0.204327, 0.204254, 0.204492, 0.204500, 0.204155, 0.204586, 0.204112, 0.204260, 0.204483, 0.204487, 0.204584, 0.204428, 0.226076, 0.410327, 0.205754, 0.204493
Process 85: 0.442238, 0.236367, 0.206009, 0.210800, 0.211540, 0.209245, 0.206361, 0.206814, 0.205780, 0.207098, 0.239760, 0.207152, 0.205455, 0.206529, 0.205423, 0.205346, 0.205602, 0.205614, 0.205276, 0.205486, 0.205219, 0.205383, 0.205615, 0.205661, 0.205713, 0.205557, 0.227167, 0.411596, 0.206856, 0.205611
Process 86: 0.444034, 0.237377, 0.206963, 0.211766, 0.212508, 0.210228, 0.207518, 0.207794, 0.206752, 0.208072, 0.240751, 0.208124, 0.206435, 0.207499, 0.206581, 0.206312, 0.206784, 0.206589, 0.206283, 0.206490, 0.206234, 0.206377, 0.206812, 0.206633, 0.206675, 0.206520, 0.228136, 0.412594, 0.208011, 0.206579
Process 87: 0.445420, 0.238429, 0.208037, 0.212994, 0.213597, 0.211330, 0.208626, 0.209075, 0.207834, 0.209218, 0.241865, 0.209205, 0.207737, 0.208605, 0.207657, 0.207390, 0.207714, 0.207705, 0.207389, 0.207587, 0.207343, 0.207486, 0.207712, 0.207731, 0.207759, 0.207618, 0.229224, 0.413690, 0.208902, 0.207670
Process 88: 0.446410, 0.239463, 0.209004, 0.213999, 0.214571, 0.212307, 0.209615, 0.209883, 0.208806, 0.210191, 0.242867, 0.210188, 0.208493, 0.209598, 0.208648, 0.208402, 0.208912, 0.208704, 0.208564, 0.208709, 0.208323, 0.208456, 0.208695, 0.208714, 0.208743, 0.208591, 0.230215, 0.414630, 0.210072, 0.208847
Process 89: 0.447867, 0.240511, 0.210079, 0.215664, 0.215699, 0.213394, 0.210816, 0.210979, 0.209889, 0.211298, 0.243973, 0.211273, 0.209612, 0.210726, 0.209828, 0.209494, 0.209802, 0.209771, 0.209446, 0.209821, 0.209425, 0.209532, 0.209779, 0.209803, 0.209822, 0.209664, 0.231313, 0.415739, 0.211172, 0.209731
Process 90: 0.448586, 0.241489, 0.211055, 0.216779, 0.216907, 0.214390, 0.211792, 0.212177, 0.211852, 0.212289, 0.244986, 0.212271, 0.210859, 0.211703, 0.210823, 0.210470, 0.210981, 0.210764, 0.210419, 0.210801, 0.210426, 0.210529, 0.210943, 0.210802, 0.210801, 0.210654, 0.232319, 0.416721, 0.212149, 0.210930
Process 91: 0.449422, 0.242545, 0.212166, 0.217888, 0.217774, 0.215511, 0.212862, 0.213333, 0.213011, 0.213389, 0.246304, 0.213371, 0.211923, 0.212772, 0.211906, 0.211556, 0.212070, 0.211838, 0.211517, 0.211890, 0.211519, 0.211595, 0.212021, 0.211875, 0.211905, 0.211735, 0.233426, 0.417827, 0.213303, 0.211846
Process 92: 0.450733, 0.243758, 0.213134, 0.218891, 0.218760, 0.216488, 0.213849, 0.214303, 0.214015, 0.214382, 0.247316, 0.214356, 0.212910, 0.213752, 0.212881, 0.212530, 0.213025, 0.212822, 0.212497, 0.212881, 0.212501, 0.212581, 0.213031, 0.212844, 0.212868, 0.212722, 0.234414, 0.418782, 0.214295, 0.212824
Process 93: 0.452265, 0.244623, 0.214265, 0.220005, 0.219876, 0.217618, 0.214958, 0.215460, 0.215326, 0.215484, 0.248238, 0.215647, 0.213999, 0.214872, 0.213974, 0.213635, 0.214181, 0.213919, 0.213607, 0.213980, 0.213621, 0.213703, 0.214165, 0.213958, 0.214025, 0.213831, 0.235512, 0.419844, 0.215386, 0.213997
Process 94: 0.452959, 0.245849, 0.215224, 0.221007, 0.221077, 0.218669, 0.215964, 0.216468, 0.216219, 0.216473, 0.249240, 0.216872, 0.215013, 0.215869, 0.214941, 0.214635, 0.215156, 0.215118, 0.214596, 0.214959, 0.214611, 0.214705, 0.215135, 0.215190, 0.214996, 0.214831, 0.236507, 0.420805, 0.216476, 0.214979
Process 95: 0.453704, 0.246724, 0.216329, 0.222120, 0.222007, 0.219793, 0.217099, 0.217596, 0.217359, 0.217586, 0.250367, 0.218001, 0.216155, 0.217012, 0.216061, 0.215762, 0.216360, 0.216010, 0.215734, 0.216270, 0.215762, 0.215878, 0.216308, 0.216116, 0.216119, 0.215966, 0.237644, 0.421991, 0.217648, 0.216115
Process 96: 0.455423, 0.248029, 0.217348, 0.223372, 0.223055, 0.220830, 0.218138, 0.218638, 0.218397, 0.218626, 0.251401, 0.218846, 0.217191, 0.218054, 0.217115, 0.216998, 0.217467, 0.217318, 0.216800, 0.217535, 0.216817, 0.216933, 0.217341, 0.217154, 0.217145, 0.217021, 0.238672, 0.423225, 0.218686, 0.217151
Process 97: 0.456092, 0.249006, 0.218480, 0.224492, 0.224176, 0.221932, 0.219282, 0.219785, 0.219750, 0.219817, 0.252520, 0.219972, 0.218388, 0.219172, 0.218290, 0.217946, 0.218596, 0.218191, 0.217941, 0.218670, 0.217957, 0.218093, 0.218469, 0.218290, 0.218282, 0.218150, 0.239794, 0.424154, 0.219832, 0.218305
Process 98: 0.457397, 0.250127, 0.219431, 0.225463, 0.225296, 0.223046, 0.220233, 0.220742, 0.220728, 0.220774, 0.253489, 0.221090, 0.219342, 0.220347, 0.219435, 0.219119, 0.219539, 0.219351, 0.218902, 0.219612, 0.218912, 0.219053, 0.219419, 0.219428, 0.219242, 0.219110, 0.240750, 0.425252, 0.220991, 0.219279
Process 99: 0.458191, 0.251233, 0.220561, 0.226613, 0.226531, 0.224323, 0.221361, 0.221884, 0.221873, 0.221913, 0.254617, 0.222359, 0.220536, 0.221711, 0.220557, 0.220040, 0.220676, 0.220485, 0.220045, 0.220528, 0.220053, 0.220211, 0.220556, 0.220656, 0.220383, 0.220249, 0.241867, 0.426167, 0.221939, 0.220432
Process 100: 0.458834, 0.252206, 0.221523, 0.227596, 0.227503, 0.225292, 0.222325, 0.222884, 0.222845, 0.222888, 0.255613, 0.223367, 0.221508, 0.222691, 0.221509, 0.221183, 0.221641, 0.221438, 0.221022, 0.221503, 0.221015, 0.221192, 0.221527, 0.221617, 0.221355, 0.221229, 0.242848, 0.427165, 0.223100, 0.221424
Process 101: 0.460200, 0.253335, 0.222661, 0.228831, 0.228620, 0.226438, 0.223476, 0.224047, 0.224176, 0.224024, 0.256770, 0.224514, 0.222676, 0.223822, 0.222431, 0.222321, 0.222807, 0.222583, 0.222194, 0.222665, 0.222162, 0.222351, 0.222691, 0.222783, 0.222509, 0.222396, 0.244002, 0.428166, 0.224238, 0.222570
Process 102: 0.461496, 0.254360, 0.223661, 0.229832, 0.229574, 0.227412, 0.224485, 0.225015, 0.225136, 0.224994, 0.257765, 0.225467, 0.223624, 0.224776, 0.223390, 0.223274, 0.223749, 0.223565, 0.223179, 0.223618, 0.223135, 0.223338, 0.223646, 0.223749, 0.223488, 0.223382, 0.244964, 0.429136, 0.225184, 0.223594
Process 103: 0.463149, 0.255459, 0.224814, 0.230983, 0.230791, 0.228619, 0.225616, 0.226168, 0.226084, 0.226145, 0.258922, 0.226604, 0.224790, 0.225908, 0.224533, 0.224423, 0.224890, 0.224743, 0.224313, 0.224764, 0.224286, 0.224486, 0.224788, 0.224954, 0.224677, 0.224553, 0.246099, 0.430259, 0.226352, 0.224756
Process 104: 0.463569, 0.256492, 0.225793, 0.231985, 0.231765, 0.229592, 0.226603, 0.227155, 0.227055, 0.227128, 0.259910, 0.227582, 0.225772, 0.226901, 0.225525, 0.225390, 0.225870, 0.225707, 0.225296, 0.225758, 0.225272, 0.225512, 0.225817, 0.225973, 0.225669, 0.225545, 0.247086, 0.431251, 0.227316, 0.225753
Process 105: 0.464704, 0.257625, 0.226932, 0.233154, 0.232902, 0.230719, 0.227720, 0.228287, 0.228200, 0.228240, 0.261025, 0.228700, 0.226893, 0.228004, 0.226663, 0.226529, 0.226994, 0.226893, 0.226440, 0.226915, 0.226422, 0.226632, 0.226938, 0.227085, 0.226784, 0.226682, 0.248179, 0.432446, 0.228440, 0.226857
Process 106: 0.465918, 0.258584, 0.227927, 0.234177, 0.233900, 0.231724, 0.228729, 0.229299, 0.229199, 0.229296, 0.262041, 0.229706, 0.227894, 0.229003, 0.227688, 0.227561, 0.228035, 0.227900, 0.227451, 0.227931, 0.227437, 0.227640, 0.227947, 0.228090, 0.227790, 0.227691, 0.249193, 0.433423, 0.229446, 0.227877
Process 107: 0.466704, 0.259677, 0.229059, 0.235283, 0.235023, 0.232840, 0.229860, 0.230427, 0.230340, 0.230415, 0.263166, 0.230827, 0.229017, 0.230163, 0.228872, 0.228682, 0.229154, 0.229027, 0.228582, 0.229061, 0.228572, 0.228757, 0.229074, 0.229215, 0.228931, 0.228828, 0.250306, 0.434553, 0.230580, 0.229005
Process 108: 0.467985, 0.260698, 0.230038, 0.236547, 0.236063, 0.233821, 0.230837, 0.231410, 0.231370, 0.231400, 0.264161, 0.231810, 0.230002, 0.231145, 0.229853, 0.229664, 0.230146, 0.230007, 0.229566, 0.230039, 0.229564, 0.229732, 0.230055, 0.230202, 0.229916, 0.229812, 0.251279, 0.435537, 0.231566, 0.229993
Process 109: 0.468766, 0.261825, 0.231196, 0.237812, 0.237204, 0.234967, 0.231974, 0.232561, 0.232506, 0.232545, 0.265284, 0.232978, 0.231188, 0.232286, 0.231023, 0.230807, 0.231292, 0.231149, 0.230702, 0.231195, 0.230693, 0.230873, 0.231204, 0.231344, 0.231057, 0.230956, 0.252398, 0.436682, 0.232709, 0.231125
Process 110: 0.469630, 0.262811, 0.232185, 0.238819, 0.238195, 0.235959, 0.232967, 0.233597, 0.233495, 0.233543, 0.266288, 0.233978, 0.232182, 0.233277, 0.232016, 0.231795, 0.232295, 0.232141, 0.231702, 0.232196, 0.231691, 0.231860, 0.232208, 0.232346, 0.232065, 0.231942, 0.253420, 0.437687, 0.233706, 0.232134
Process 111: 0.470930, 0.263931, 0.233396, 0.239961, 0.239339, 0.237096, 0.234176, 0.234775, 0.234647, 0.234684, 0.267444, 0.235117, 0.233327, 0.234411, 0.233172, 0.232939, 0.233443, 0.233295, 0.232837, 0.233337, 0.232832, 0.233001, 0.233378, 0.233489, 0.233200, 0.233091, 0.254553, 0.438848, 0.234860, 0.233270
Process 112: 0.472156, 0.265031, 0.234398, 0.240978, 0.240342, 0.238121, 0.235168, 0.235775, 0.235655, 0.235697, 0.268440, 0.236119, 0.234343, 0.235424, 0.234205, 0.233957, 0.234472, 0.234309, 0.233844, 0.234349, 0.233844, 0.234005, 0.234450, 0.234493, 0.234242, 0.234125, 0.255560, 0.439841, 0.235909, 0.234327
Process 113: 0.473226, 0.266155, 0.235536, 0.242101, 0.241488, 0.239251, 0.236296, 0.236908, 0.236798, 0.236817, 0.269551, 0.237242, 0.235478, 0.236556, 0.235324, 0.235075, 0.235589, 0.235444, 0.234971, 0.235467, 0.234966, 0.235129, 0.235634, 0.235665, 0.235352, 0.235256, 0.256651, 0.440996, 0.237027, 0.235474
Process 114: 0.474347, 0.267128, 0.236534, 0.243145, 0.242495, 0.240255, 0.237304, 0.237916, 0.237804, 0.237826, 0.270538, 0.238243, 0.236465, 0.237561, 0.236320, 0.236079, 0.236598, 0.236483, 0.235974, 0.236494, 0.236004, 0.236164, 0.236626, 0.236669, 0.236353, 0.236269, 0.257647, 0.442023, 0.238027, 0.236468
Process 115: 0.475319, 0.268252, 0.237676, 0.244284, 0.243626, 0.241391, 0.238435, 0.239052, 0.238938, 0.238984, 0.271657, 0.239374, 0.237664, 0.238687, 0.237470, 0.237232, 0.237763, 0.237660, 0.237148, 0.237624, 0.237132, 0.237293, 0.237765, 0.237802, 0.237516, 0.237395, 0.258772, 0.443175, 0.239175, 0.237594
Process 116: 0.476119, 0.269271, 0.238671, 0.245285, 0.244642, 0.242399, 0.239437, 0.240056, 0.239941, 0.239986, 0.272662, 0.240383, 0.238596, 0.239740, 0.238514, 0.238259, 0.238770, 0.238660, 0.238154, 0.238628, 0.238149, 0.238300, 0.238775, 0.238808, 0.238517, 0.238397, 0.259772, 0.444177, 0.240174, 0.238603
Process 117: 0.477458, 0.270412, 0.239823, 0.246435, 0.245816, 0.243552, 0.240572, 0.241200, 0.241130, 0.241138, 0.273794, 0.241555, 0.239839, 0.240877, 0.239665, 0.239400, 0.239910, 0.239816, 0.239296, 0.239784, 0.239287, 0.239438, 0.239918, 0.239958, 0.239669, 0.239558, 0.260904, 0.445320, 0.241328, 0.239752
Process 118: 0.478784, 0.271404, 0.240815, 0.247434, 0.246811, 0.244534, 0.241574, 0.242202, 0.242118, 0.242127, 0.274771, 0.242550, 0.240872, 0.241862, 0.240660, 0.240389, 0.240895, 0.240809, 0.240292, 0.240782, 0.240280, 0.240434, 0.240910, 0.240966, 0.240649, 0.240549, 0.261903, 0.446319, 0.242319, 0.240755
Process 119: 0.479492, 0.272540, 0.241951, 0.248575, 0.247957, 0.245672, 0.242698, 0.243348, 0.243261, 0.243262, 0.275888, 0.243702, 0.242002, 0.242999, 0.241800, 0.241531, 0.242033, 0.241945, 0.241428, 0.241913, 0.241413, 0.241571, 0.242040, 0.242098, 0.241794, 0.241682, 0.263020, 0.447457, 0.243456, 0.241897
Process 120: 0.480856, 0.273578, 0.242966, 0.249585, 0.248976, 0.246683, 0.243710, 0.244361, 0.244279, 0.244281, 0.276939, 0.244720, 0.243014, 0.244025, 0.242808, 0.242560, 0.243040, 0.242957, 0.242444, 0.242935, 0.242423, 0.242584, 0.243063, 0.243123, 0.242821, 0.242701, 0.264082, 0.448482, 0.244483, 0.242915
Process 121: 0.481866, 0.274744, 0.244143, 0.250705, 0.250101, 0.247813, 0.244880, 0.245503, 0.245420, 0.245409, 0.278068, 0.245838, 0.244149, 0.245150, 0.243959, 0.243685, 0.244174, 0.244086, 0.243590, 0.244067, 0.243569, 0.243727, 0.244204, 0.244247, 0.243972, 0.243861, 0.265223, 0.449645, 0.245628, 0.244089
Process 122: 0.483006, 0.275738, 0.245195, 0.251734, 0.251143, 0.248888, 0.245906, 0.246534, 0.246457, 0.246446, 0.279086, 0.246875, 0.245208, 0.246190, 0.244995, 0.244719, 0.245213, 0.245135, 0.244628, 0.245120, 0.244606, 0.244760, 0.245226, 0.245308, 0.245030, 0.244897, 0.266243, 0.450662, 0.246690, 0.245115
Process 123: 0.484025, 0.276856, 0.246315, 0.252878, 0.252262, 0.249998, 0.247035, 0.247658, 0.247581, 0.247566, 0.280202, 0.247991, 0.246307, 0.247306, 0.246126, 0.245831, 0.246338, 0.246250, 0.245756, 0.246268, 0.245751, 0.245904, 0.246396, 0.246429, 0.246148, 0.246018, 0.267339, 0.451829, 0.247808, 0.246230
Process 124: 0.485170, 0.277886, 0.247344, 0.253903, 0.253283, 0.251032, 0.248059, 0.248678, 0.248612, 0.248582, 0.281181, 0.249030, 0.247343, 0.248331, 0.247134, 0.246858, 0.247418, 0.247304, 0.246819, 0.247271, 0.246759, 0.246925, 0.247412, 0.247448, 0.247170, 0.247034, 0.268352, 0.452841, 0.248842, 0.247254
Process 125: 0.486498, 0.279028, 0.248484, 0.255025, 0.254434, 0.252169, 0.249198, 0.249813, 0.249747, 0.249771, 0.282326, 0.250152, 0.248480, 0.249463, 0.248318, 0.248003, 0.248515, 0.248446, 0.247950, 0.248423, 0.247925, 0.248068, 0.248548, 0.248583, 0.248301, 0.248178, 0.269476, 0.453978, 0.249957, 0.248399
Process 126: 0.487320, 0.280038, 0.249499, 0.256060, 0.255501, 0.253226, 0.250226, 0.250858, 0.250807, 0.250791, 0.283320, 0.251177, 0.249477, 0.250559, 0.249337, 0.249042, 0.249535, 0.249467, 0.248972, 0.249446, 0.248953, 0.249076, 0.249570, 0.249603, 0.249323, 0.249206, 0.270490, 0.455015, 0.250992, 0.249430
Process 127: 0.488268, 0.281107, 0.250578, 0.257100, 0.256587, 0.254275, 0.251294, 0.251914, 0.251894, 0.251871, 0.284399, 0.252244, 0.250601, 0.251621, 0.250417, 0.250105, 0.250613, 0.250553, 0.250044, 0.250528, 0.250025, 0.250160, 0.250658, 0.250701, 0.250400, 0.250270, 0.271543, 0.456111, 0.252060, 0.250495
