MPI_insiderank_serial
Process 0: 1.902292, 1.393173, 1.337632, 1.353092, 1.332763, 1.332370, 1.325279, 1.361800, 1.333075, 1.328257, 1.334931, 1.336178, 1.330802, 1.349295, 1.347293, 1.325695, 1.326296, 1.329400, 1.329515, 1.347255, 1.367000, 1.333433, 1.347243, 1.346701, 1.348137, 1.342290, 1.347226, 1.338152, 1.345254, 1.340084
Process 1: 1.666223, 1.155600, 1.100144, 1.111049, 1.093891, 1.098316, 1.088647, 1.118500, 1.096636, 1.089190, 1.097241, 1.099452, 1.092989, 1.111547, 1.106592, 1.089771, 1.086276, 1.093622, 1.088511, 1.112885, 1.126728, 1.097090, 1.101052, 1.106553, 1.108317, 1.107361, 1.111153, 1.102255, 1.108624, 1.103844
Process 2: 1.682995, 1.172567, 1.115699, 1.128509, 1.111671, 1.114466, 1.105884, 1.135328, 1.112671, 1.106864, 1.113024, 1.114294, 1.111270, 1.128401, 1.122216, 1.106097, 1.103590, 1.110317, 1.105115, 1.129593, 1.141714, 1.112378, 1.116128, 1.121667, 1.124564, 1.122302, 1.127480, 1.118122, 1.123776, 1.119849
Process 3: 1.699951, 1.188976, 1.133637, 1.146073, 1.129107, 1.132224, 1.122317, 1.153779, 1.130252, 1.122995, 1.130807, 1.132578, 1.126061, 1.144976, 1.140150, 1.123466, 1.121663, 1.126189, 1.121420, 1.145752, 1.159667, 1.129949, 1.132541, 1.139367, 1.140808, 1.139069, 1.143942, 1.134996, 1.141342, 1.136764
Process 4: 1.716136, 1.206610, 1.149944, 1.162054, 1.145225, 1.147830, 1.139916, 1.170307, 1.146487, 1.139688, 1.147262, 1.148477, 1.143753, 1.161401, 1.155903, 1.139382, 1.137869, 1.143417, 1.138369, 1.163168, 1.175510, 1.145524, 1.149400, 1.155603, 1.158778, 1.156635, 1.159639, 1.151950, 1.157442, 1.152422
Process 5: 1.733316, 1.222802, 1.167766, 1.179713, 1.162752, 1.166047, 1.155996, 1.187301, 1.164145, 1.160649, 1.164451, 1.165548, 1.159969, 1.178461, 1.173866, 1.157185, 1.155137, 1.159844, 1.154900, 1.179600, 1.193322, 1.163552, 1.166107, 1.172997, 1.174553, 1.172014, 1.177514, 1.168742, 1.174913, 1.170330
Process 6: 1.748556, 1.239564, 1.182971, 1.195472, 1.178970, 1.181119, 1.173259, 1.204216, 1.180741, 1.176202, 1.180596, 1.181055, 1.176701, 1.194993, 1.190209, 1.172895, 1.171043, 1.177373, 1.172027, 1.197227, 1.208981, 1.179602, 1.182986, 1.188656, 1.191561, 1.189836, 1.193301, 1.185622, 1.190818, 1.186128
Process 7: 1.769100, 1.257344, 1.202829, 1.215508, 1.198708, 1.201542, 1.191752, 1.220854, 1.200426, 1.192830, 1.200943, 1.202230, 1.195593, 1.213998, 1.209642, 1.189861, 1.191047, 1.198044, 1.191405, 1.215818, 1.228199, 1.199205, 1.199758, 1.208654, 1.208037, 1.205971, 1.212399, 1.202468, 1.210627, 1.206723
Process 8: 1.783623, 1.274015, 1.217258, 1.230334, 1.213783, 1.215756, 1.207798, 1.238664, 1.215919, 1.209696, 1.215401, 1.216459, 1.211845, 1.230245, 1.223919, 1.206618, 1.206132, 1.211416, 1.206982, 1.230496, 1.243327, 1.213754, 1.220850, 1.223520, 1.225744, 1.226099, 1.228297, 1.220760, 1.226156, 1.220997
Process 9: 1.801758, 1.290784, 1.235423, 1.248187, 1.231384, 1.234044, 1.224148, 1.256888, 1.231018, 1.226519, 1.238806, 1.234577, 1.229791, 1.247742, 1.242121, 1.223217, 1.224046, 1.227917, 1.224353, 1.248956, 1.261334, 1.231653, 1.237827, 1.241488, 1.243885, 1.243515, 1.245623, 1.240252, 1.243364, 1.238533
Process 10: 1.815998, 1.307362, 1.249997, 1.263413, 1.246325, 1.248232, 1.240756, 1.271394, 1.247821, 1.243074, 1.250912, 1.250335, 1.245233, 1.263319, 1.257380, 1.240178, 1.238827, 1.244563, 1.241192, 1.263313, 1.276355, 1.246744, 1.256339, 1.256347, 1.259277, 1.257765, 1.260773, 1.254065, 1.258811, 1.255027
Process 11: 1.835584, 1.324716, 1.266022, 1.285256, 1.265101, 1.267848, 1.258122, 1.290079, 1.265637, 1.259885, 1.269268, 1.268292, 1.263304, 1.281595, 1.275683, 1.256921, 1.257529, 1.262685, 1.258393, 1.283198, 1.294954, 1.265372, 1.275076, 1.275203, 1.277591, 1.275003, 1.279356, 1.271030, 1.277694, 1.272520
Process 12: 1.849415, 1.339184, 1.280647, 1.299523, 1.279848, 1.282045, 1.274323, 1.304978, 1.281009, 1.278442, 1.284591, 1.284315, 1.278555, 1.296277, 1.291052, 1.273957, 1.272694, 1.278951, 1.275263, 1.296851, 1.309811, 1.280325, 1.290988, 1.290153, 1.292405, 1.291611, 1.294750, 1.287997, 1.292218, 1.287157
Process 13: 1.869837, 1.358940, 1.299608, 1.319704, 1.299846, 1.302256, 1.291907, 1.323849, 1.298645, 1.298004, 1.304369, 1.303004, 1.299155, 1.316495, 1.310251, 1.293710, 1.292610, 1.295412, 1.291946, 1.316854, 1.328517, 1.298931, 1.309823, 1.308855, 1.311121, 1.308483, 1.312813, 1.304556, 1.310468, 1.305956
Process 14: 1.884058, 1.373142, 1.314108, 1.333792, 1.314043, 1.314844, 1.307970, 1.340455, 1.315543, 1.311331, 1.317937, 1.317388, 1.312699, 1.330217, 1.325629, 1.308547, 1.306812, 1.311815, 1.306893, 1.330060, 1.344325, 1.315416, 1.324559, 1.323283, 1.329341, 1.325177, 1.327784, 1.320968, 1.325695, 1.320992
Process 15: 1.902898, 1.393171, 1.337629, 1.353095, 1.332765, 1.332367, 1.325279, 1.361799, 1.333083, 1.328263, 1.334928, 1.336188, 1.330807, 1.349295, 1.347296, 1.325699, 1.326296, 1.329402, 1.329514, 1.347253, 1.367000, 1.333432, 1.347243, 1.346703, 1.348143, 1.342288, 1.347226, 1.338153, 1.345254, 1.340087
