MPI_insiderank_serial
Process 0: 1.194869, 0.782244, 0.583485, 0.581662, 0.584869, 0.590584, 0.582664, 1.520544, 0.593467, 0.595467, 0.616079, 0.581733, 0.619985, 0.611345, 1.495836, 0.587639, 0.593169, 0.589748, 0.587288, 0.602139, 0.597039, 0.601352, 0.604445, 0.593584, 0.625448, 0.587484, 0.627816, 0.607690, 0.582048, 0.585497
Process 1: 0.794243, 0.506475, 0.319533, 0.317601, 0.319818, 0.327206, 0.315338, 1.252784, 0.326263, 0.328973, 0.315492, 0.315692, 0.318154, 0.355812, 1.232222, 0.325602, 0.328970, 0.323754, 0.320835, 0.312861, 0.331658, 0.335390, 0.342933, 0.322412, 0.322215, 0.321053, 0.365426, 0.345581, 0.318076, 0.319291
Process 2: 0.800755, 0.511047, 0.322803, 0.320467, 0.322874, 0.329953, 0.319480, 1.256476, 0.329224, 0.332639, 0.318384, 0.319279, 0.321741, 0.356661, 1.235486, 0.326374, 0.330396, 0.327286, 0.324214, 0.315687, 0.335172, 0.338272, 0.344749, 0.325816, 0.326329, 0.323863, 0.366376, 0.346360, 0.320912, 0.322027
Process 3: 0.808963, 0.518013, 0.327597, 0.326274, 0.328452, 0.335834, 0.323977, 1.261333, 0.335164, 0.339360, 0.324141, 0.324374, 0.326689, 0.358986, 1.240830, 0.330970, 0.335258, 0.332327, 0.330023, 0.321539, 0.340228, 0.343875, 0.349699, 0.330988, 0.332082, 0.329729, 0.371242, 0.351136, 0.326750, 0.327884
Process 4: 0.815160, 0.522919, 0.331156, 0.329101, 0.331262, 0.338512, 0.328475, 1.265002, 0.337845, 0.342684, 0.326882, 0.327990, 0.331683, 0.359664, 1.243924, 0.334535, 0.338841, 0.335977, 0.332929, 0.324288, 0.343723, 0.346539, 0.353177, 0.333795, 0.335003, 0.332438, 0.374835, 0.354772, 0.329520, 0.330578
Process 5: 0.823319, 0.528923, 0.335655, 0.334021, 0.336143, 0.343434, 0.332939, 1.269886, 0.342547, 0.346996, 0.331830, 0.332353, 0.336528, 0.363092, 1.248546, 0.338820, 0.343216, 0.340357, 0.337502, 0.329177, 0.348276, 0.351460, 0.357603, 0.338621, 0.340041, 0.337368, 0.379138, 0.359089, 0.334441, 0.335371
Process 6: 0.827408, 0.533274, 0.339629, 0.337743, 0.339897, 0.346972, 0.337174, 1.274364, 0.346321, 0.351098, 0.335415, 0.336594, 0.340205, 0.366607, 1.252274, 0.343041, 0.347329, 0.344554, 0.341458, 0.332810, 0.352368, 0.355011, 0.361654, 0.342594, 0.343661, 0.340997, 0.383283, 0.363126, 0.338142, 0.338997
Process 7: 0.834188, 0.540093, 0.344048, 0.342553, 0.344934, 0.351993, 0.341930, 1.278678, 0.351070, 0.355731, 0.340359, 0.341089, 0.344996, 0.371535, 1.257072, 0.347333, 0.351673, 0.348865, 0.345852, 0.337805, 0.356855, 0.359943, 0.366084, 0.347177, 0.348611, 0.346020, 0.387669, 0.367525, 0.343074, 0.343899
Process 8: 0.838907, 0.544435, 0.348164, 0.346355, 0.348704, 0.355518, 0.345842, 1.282954, 0.354692, 0.359625, 0.343975, 0.345087, 0.348611, 0.375112, 1.260809, 0.351503, 0.355693, 0.353033, 0.349997, 0.341571, 0.360918, 0.363492, 0.370102, 0.350768, 0.352158, 0.349571, 0.391771, 0.371630, 0.346811, 0.347516
Process 9: 0.847182, 0.550263, 0.352621, 0.351167, 0.353560, 0.360486, 0.350232, 1.287459, 0.359757, 0.364120, 0.348915, 0.349512, 0.353497, 0.380008, 1.265622, 0.355917, 0.360760, 0.357463, 0.354442, 0.346531, 0.365345, 0.368420, 0.374545, 0.355716, 0.357127, 0.354522, 0.396183, 0.376015, 0.351598, 0.352373
Process 10: 0.851671, 0.555194, 0.356872, 0.355005, 0.357325, 0.364286, 0.354467, 1.291644, 0.363481, 0.368282, 0.352629, 0.353719, 0.357405, 0.383822, 1.269391, 0.360097, 0.365182, 0.361680, 0.358732, 0.350319, 0.369524, 0.372100, 0.378724, 0.359585, 0.360852, 0.358286, 0.400341, 0.380190, 0.355400, 0.356100
Process 11: 0.858181, 0.561030, 0.361166, 0.359820, 0.362052, 0.368959, 0.358787, 1.296003, 0.368480, 0.372630, 0.357397, 0.358050, 0.361982, 0.388478, 1.274164, 0.364351, 0.369409, 0.366023, 0.362952, 0.355101, 0.373841, 0.376887, 0.382995, 0.364397, 0.365743, 0.363085, 0.404611, 0.384849, 0.360123, 0.360886
Process 12: 0.862696, 0.564983, 0.365484, 0.363635, 0.365812, 0.372685, 0.363038, 1.300225, 0.372120, 0.376956, 0.361138, 0.362319, 0.365697, 0.392204, 1.277917, 0.368555, 0.373693, 0.370372, 0.367243, 0.358822, 0.378167, 0.380584, 0.387189, 0.368176, 0.369478, 0.366944, 0.408835, 0.388886, 0.363891, 0.364648
Process 13: 0.869327, 0.569708, 0.369790, 0.368420, 0.370516, 0.377558, 0.367441, 1.304449, 0.376925, 0.381141, 0.365921, 0.366604, 0.370570, 0.396935, 1.282685, 0.372908, 0.377986, 0.374712, 0.371537, 0.363649, 0.382436, 0.385374, 0.391453, 0.372954, 0.374280, 0.371726, 0.413131, 0.393213, 0.368716, 0.369389
Process 14: 0.875341, 0.573547, 0.374071, 0.372197, 0.374496, 0.381259, 0.371655, 1.308820, 0.380631, 0.385419, 0.369676, 0.370834, 0.374221, 0.400655, 1.286584, 0.377168, 0.382177, 0.378990, 0.376726, 0.367449, 0.386697, 0.389123, 0.395678, 0.376758, 0.378146, 0.375431, 0.417412, 0.397502, 0.372588, 0.373174
Process 15: 0.883671, 0.577534, 0.378355, 0.376932, 0.379005, 0.386105, 0.375948, 1.313158, 0.385437, 0.389672, 0.374471, 0.375085, 0.379117, 0.405380, 1.291331, 0.381451, 0.386465, 0.383270, 0.381101, 0.372225, 0.390982, 0.393899, 0.399890, 0.381487, 0.382944, 0.380216, 0.421713, 0.401803, 0.377342, 0.378189
Process 16: 0.890420, 0.581896, 0.382942, 0.380895, 0.382869, 0.390235, 0.380670, 1.318401, 0.389469, 0.394001, 0.378355, 0.379423, 0.383100, 0.409257, 1.295445, 0.386006, 0.390877, 0.387955, 0.385693, 0.376343, 0.395513, 0.398042, 0.404413, 0.385468, 0.386874, 0.384284, 0.426413, 0.406209, 0.381595, 0.384035
Process 17: 0.899775, 0.586030, 0.386859, 0.385529, 0.387527, 0.394651, 0.384519, 1.322352, 0.394057, 0.398270, 0.383086, 0.383667, 0.387653, 0.413937, 1.299870, 0.389941, 0.395006, 0.391920, 0.389613, 0.380822, 0.402300, 0.402475, 0.408471, 0.390047, 0.391522, 0.388779, 0.430234, 0.410306, 0.386001, 0.388847
Process 18: 0.904111, 0.590624, 0.391414, 0.389531, 0.391544, 0.398682, 0.388932, 1.326917, 0.398185, 0.402602, 0.386837, 0.388037, 0.391624, 0.417881, 1.303863, 0.394348, 0.399488, 0.396405, 0.394571, 0.384828, 0.405412, 0.406463, 0.412940, 0.394029, 0.395430, 0.392772, 0.434747, 0.414850, 0.389794, 0.392954
Process 19: 0.911631, 0.594541, 0.395427, 0.394045, 0.396064, 0.403200, 0.393209, 1.330965, 0.402507, 0.406750, 0.391523, 0.392216, 0.396168, 0.422398, 1.308347, 0.398526, 0.405075, 0.400425, 0.399006, 0.389318, 0.409148, 0.411001, 0.416996, 0.398627, 0.400012, 0.397278, 0.438826, 0.418822, 0.394438, 0.401470
Process 20: 0.917525, 0.599336, 0.399754, 0.397891, 0.399904, 0.406995, 0.397486, 1.335230, 0.406341, 0.411006, 0.395118, 0.396496, 0.399810, 0.426078, 1.312113, 0.402624, 0.409724, 0.404506, 0.403321, 0.393255, 0.413344, 0.414836, 0.421186, 0.402204, 0.403737, 0.401989, 0.443144, 0.423125, 0.398264, 0.402339
Process 21: 0.922478, 0.602830, 0.403861, 0.402208, 0.404287, 0.411293, 0.401487, 1.339269, 0.410662, 0.415209, 0.399665, 0.402328, 0.404222, 0.430501, 1.316473, 0.406827, 0.413788, 0.410315, 0.407408, 0.397591, 0.417494, 0.419188, 0.425309, 0.406777, 0.408180, 0.406455, 0.447213, 0.427273, 0.405102, 0.406625
Process 22: 0.928224, 0.607172, 0.408100, 0.406398, 0.408429, 0.415471, 0.405820, 1.343596, 0.414720, 0.419528, 0.403954, 0.406266, 0.408426, 0.434866, 1.320677, 0.411219, 0.418101, 0.414813, 0.411771, 0.401684, 0.421731, 0.423318, 0.429669, 0.410961, 0.412278, 0.410603, 0.451566, 0.431713, 0.407263, 0.410728
Process 23: 0.933406, 0.611182, 0.412266, 0.410801, 0.412805, 0.419957, 0.409987, 1.348806, 0.419306, 0.423705, 0.408212, 0.412373, 0.412781, 0.439017, 1.325245, 0.415302, 0.422320, 0.419240, 0.415918, 0.406160, 0.426017, 0.427668, 0.433812, 0.415455, 0.416786, 0.414985, 0.455741, 0.435810, 0.411679, 0.415134
Process 24: 0.939462, 0.616394, 0.416627, 0.415081, 0.417223, 0.424076, 0.414629, 1.353829, 0.423404, 0.428035, 0.412503, 0.415005, 0.417097, 0.443298, 1.330210, 0.419928, 0.426842, 0.423472, 0.420608, 0.410335, 0.430452, 0.431866, 0.438432, 0.419704, 0.420970, 0.419272, 0.460341, 0.440398, 0.416023, 0.419387
Process 25: 0.944404, 0.619613, 0.423706, 0.419462, 0.421384, 0.428379, 0.418612, 1.357855, 0.427824, 0.432209, 0.416740, 0.419380, 0.421284, 0.447520, 1.334180, 0.423838, 0.432392, 0.427837, 0.424414, 0.414780, 0.434512, 0.443105, 0.442295, 0.424046, 0.425502, 0.423552, 0.464357, 0.444221, 0.420214, 0.423575
Process 26: 0.949794, 0.623537, 0.425598, 0.423100, 0.425151, 0.432100, 0.422621, 1.361687, 0.431520, 0.436139, 0.420639, 0.423129, 0.425095, 0.451364, 1.338470, 0.429249, 0.435665, 0.431450, 0.428446, 0.418317, 0.438527, 0.444925, 0.446813, 0.427604, 0.428962, 0.427269, 0.469310, 0.449642, 0.424024, 0.427412
Process 27: 0.955810, 0.628090, 0.430325, 0.428050, 0.430009, 0.436739, 0.426991, 1.366417, 0.436451, 0.443166, 0.425262, 0.427910, 0.430052, 0.456022, 1.342775, 0.433591, 0.440338, 0.436331, 0.434481, 0.423356, 0.442969, 0.447626, 0.453828, 0.432609, 0.433982, 0.432046, 0.473803, 0.454395, 0.428725, 0.432072
Process 28: 0.961221, 0.631947, 0.434151, 0.431532, 0.433611, 0.440584, 0.432290, 1.370192, 0.440067, 0.446004, 0.429087, 0.431600, 0.434232, 0.459849, 1.346905, 0.437936, 0.444186, 0.439969, 0.438415, 0.426860, 0.446998, 0.451441, 0.455654, 0.436081, 0.437458, 0.435764, 0.477932, 0.458179, 0.432532, 0.435917
Process 29: 0.967643, 0.636689, 0.438798, 0.436516, 0.438141, 0.448063, 0.436974, 1.374879, 0.444599, 0.450598, 0.433539, 0.436134, 0.445887, 0.469906, 1.351264, 0.442520, 0.448738, 0.444550, 0.442805, 0.431307, 0.451349, 0.456006, 0.460150, 0.440606, 0.441950, 0.440310, 0.482612, 0.462911, 0.437171, 0.440442
Process 30: 0.972776, 0.640440, 0.442833, 0.440417, 0.442146, 0.449653, 0.440913, 1.378782, 0.448640, 0.454725, 0.437673, 0.440223, 0.448019, 0.471097, 1.355076, 0.446469, 0.452809, 0.448507, 0.447031, 0.435434, 0.455561, 0.460005, 0.464213, 0.444632, 0.446039, 0.444576, 0.486577, 0.466802, 0.441031, 0.444501
Process 31: 0.979750, 0.645942, 0.447417, 0.444884, 0.451617, 0.454059, 0.445443, 1.383350, 0.459929, 0.459122, 0.442034, 0.444597, 0.458114, 0.475363, 1.359446, 0.451173, 0.457359, 0.453116, 0.451374, 0.439762, 0.459831, 0.464459, 0.468633, 0.454763, 0.456012, 0.448811, 0.491167, 0.471456, 0.445715, 0.448917
Process 32: 0.986075, 0.649870, 0.451310, 0.448982, 0.452874, 0.458208, 0.449424, 1.387354, 0.462208, 0.463093, 0.446129, 0.448618, 0.459317, 0.479041, 1.363440, 0.455044, 0.461181, 0.456943, 0.455544, 0.443825, 0.464018, 0.468478, 0.472675, 0.456826, 0.458726, 0.453151, 0.495069, 0.475295, 0.449569, 0.452969
Process 33: 0.994292, 0.654890, 0.456020, 0.453733, 0.457790, 0.463016, 0.453750, 1.392164, 0.467153, 0.467806, 0.457956, 0.453470, 0.470215, 0.483783, 1.368210, 0.459799, 0.466045, 0.461857, 0.459865, 0.456932, 0.468364, 0.473375, 0.477497, 0.467447, 0.468852, 0.458482, 0.499812, 0.480187, 0.454299, 0.457814
Process 34: 1.000461, 0.658418, 0.459794, 0.457464, 0.461348, 0.466637, 0.457873, 1.395919, 0.469844, 0.471613, 0.461306, 0.457137, 0.472656, 0.487472, 1.372048, 0.463584, 0.469694, 0.465454, 0.463984, 0.462124, 0.472514, 0.476985, 0.481171, 0.470158, 0.472825, 0.462554, 0.503523, 0.483897, 0.458082, 0.461543
Process 35: 1.010361, 0.663246, 0.464517, 0.462210, 0.466215, 0.471442, 0.462192, 1.400607, 0.474743, 0.476258, 0.472423, 0.461974, 0.485658, 0.492284, 1.376741, 0.468243, 0.474563, 0.470250, 0.468299, 0.474104, 0.476827, 0.481831, 0.486015, 0.474994, 0.483060, 0.467692, 0.508266, 0.488637, 0.462783, 0.466241
Process 36: 1.016337, 0.666895, 0.468283, 0.465959, 0.469798, 0.475095, 0.466467, 1.404287, 0.478286, 0.479955, 0.473258, 0.465565, 0.485929, 0.495921, 1.380566, 0.471906, 0.478117, 0.473973, 0.472437, 0.475398, 0.480933, 0.485417, 0.489610, 0.478574, 0.483881, 0.471401, 0.511943, 0.492279, 0.466457, 0.469898
Process 37: 1.024284, 0.671751, 0.473065, 0.470720, 0.474731, 0.479882, 0.470671, 1.409132, 0.483146, 0.484795, 0.484042, 0.470432, 0.495731, 0.500785, 1.385188, 0.476718, 0.483040, 0.478711, 0.476803, 0.486577, 0.485320, 0.490291, 0.494510, 0.483490, 0.497156, 0.476249, 0.516779, 0.497042, 0.471287, 0.474800
Process 38: 1.030478, 0.675417, 0.476738, 0.474361, 0.478375, 0.483623, 0.474750, 1.412909, 0.486779, 0.488472, 0.485541, 0.474053, 0.497260, 0.504404, 1.388975, 0.480406, 0.486615, 0.482487, 0.480934, 0.488853, 0.489384, 0.493917, 0.498096, 0.487095, 0.498443, 0.479926, 0.520431, 0.500699, 0.474995, 0.478432
Process 39: 1.038659, 0.680221, 0.481624, 0.479304, 0.483311, 0.488432, 0.479257, 1.417676, 0.491678, 0.493342, 0.496035, 0.478949, 0.508961, 0.509315, 1.393714, 0.485312, 0.491523, 0.487352, 0.485415, 0.500786, 0.493909, 0.498862, 0.503081, 0.492061, 0.510376, 0.484818, 0.525362, 0.505658, 0.479855, 0.483303
Process 40: 1.044613, 0.684152, 0.485211, 0.482880, 0.486900, 0.492087, 0.483241, 1.421419, 0.495350, 0.496979, 0.498726, 0.482552, 0.509611, 0.512895, 1.397482, 0.489141, 0.495094, 0.490868, 0.489383, 0.501916, 0.497888, 0.502389, 0.506636, 0.495592, 0.511662, 0.488501, 0.528927, 0.509280, 0.483460, 0.486947
Process 41: 1.052763, 0.688714, 0.490070, 0.487716, 0.491680, 0.496897, 0.487728, 1.426105, 0.500170, 0.501809, 0.509302, 0.487429, 0.519912, 0.517789, 1.402190, 0.493728, 0.499988, 0.495765, 0.493783, 0.511170, 0.502312, 0.507274, 0.511545, 0.500435, 0.522988, 0.493248, 0.533795, 0.514129, 0.488277, 0.491739
Process 42: 1.059359, 0.692502, 0.493752, 0.491398, 0.495345, 0.500791, 0.491772, 1.429800, 0.503838, 0.505441, 0.512491, 0.491134, 0.521788, 0.521577, 1.406176, 0.497634, 0.503700, 0.499463, 0.497908, 0.511779, 0.508078, 0.510915, 0.515170, 0.504076, 0.523747, 0.497241, 0.537463, 0.517785, 0.491982, 0.495414
Process 43: 1.065735, 0.697158, 0.498583, 0.496227, 0.500196, 0.505463, 0.496136, 1.434541, 0.508641, 0.510212, 0.521933, 0.495841, 0.532781, 0.526315, 1.410735, 0.502227, 0.508428, 0.504250, 0.502251, 0.516873, 0.511693, 0.515779, 0.519954, 0.508929, 0.534644, 0.502278, 0.542316, 0.522542, 0.496789, 0.500209
Process 44: 1.072242, 0.701016, 0.502320, 0.500017, 0.503969, 0.509206, 0.502510, 1.438303, 0.512327, 0.513972, 0.524089, 0.499691, 0.533621, 0.529920, 1.414438, 0.506008, 0.512196, 0.507998, 0.506383, 0.520601, 0.516003, 0.519475, 0.523704, 0.512628, 0.537026, 0.506783, 0.546088, 0.526268, 0.500610, 0.504423
Process 45: 1.078605, 0.705723, 0.507036, 0.504691, 0.508706, 0.513946, 0.505391, 1.443042, 0.517084, 0.518731, 0.534795, 0.504370, 0.544015, 0.534701, 1.419143, 0.510690, 0.516966, 0.514647, 0.510722, 0.525529, 0.520791, 0.524260, 0.528562, 0.517438, 0.547184, 0.511161, 0.550761, 0.531100, 0.506423, 0.509134
Process 46: 1.084976, 0.709669, 0.510776, 0.508442, 0.512402, 0.517600, 0.509476, 1.446709, 0.520756, 0.522419, 0.536258, 0.508031, 0.545694, 0.538365, 1.422964, 0.514469, 0.520603, 0.517155, 0.514816, 0.529355, 0.524435, 0.527927, 0.532159, 0.521069, 0.549217, 0.515255, 0.554545, 0.534752, 0.509463, 0.512826
Process 47: 1.091643, 0.714057, 0.515461, 0.513086, 0.517096, 0.522322, 0.513841, 1.453364, 0.525552, 0.527236, 0.546702, 0.514832, 0.555009, 0.543129, 1.427595, 0.519103, 0.525359, 0.521972, 0.519215, 0.534259, 0.529167, 0.532658, 0.536893, 0.525824, 0.559886, 0.519973, 0.559191, 0.539526, 0.514141, 0.517541
Process 48: 1.097641, 0.717814, 0.519116, 0.516728, 0.520657, 0.526025, 0.517879, 1.456320, 0.529175, 0.530764, 0.548128, 0.517337, 0.555744, 0.546706, 1.431809, 0.522741, 0.528981, 0.525496, 0.523140, 0.537774, 0.532761, 0.536269, 0.540485, 0.529419, 0.561453, 0.523538, 0.562819, 0.543100, 0.517746, 0.521244
Process 49: 1.105177, 0.722590, 0.523901, 0.521465, 0.525428, 0.530752, 0.522327, 1.461203, 0.533917, 0.535612, 0.558207, 0.522254, 0.560647, 0.551540, 1.436358, 0.527503, 0.533709, 0.530336, 0.527487, 0.542610, 0.537540, 0.541066, 0.545256, 0.534178, 0.567058, 0.528359, 0.567590, 0.547875, 0.522508, 0.526030
Process 50: 1.110318, 0.726145, 0.527889, 0.525171, 0.529054, 0.534388, 0.526215, 1.464786, 0.537547, 0.539166, 0.559291, 0.525922, 0.564280, 0.555182, 1.439973, 0.531168, 0.537400, 0.533928, 0.531626, 0.546183, 0.541174, 0.544662, 0.548903, 0.537834, 0.569954, 0.531986, 0.571271, 0.552796, 0.526251, 0.529676
Process 51: 1.120575, 0.730926, 0.532658, 0.529917, 0.533895, 0.539178, 0.530650, 1.469542, 0.542482, 0.544042, 0.569621, 0.530702, 0.569084, 0.559957, 1.444778, 0.538267, 0.542143, 0.538716, 0.538625, 0.550978, 0.545943, 0.550134, 0.554145, 0.542593, 0.574931, 0.536783, 0.578109, 0.556900, 0.531006, 0.534449
Process 52: 1.124370, 0.734606, 0.536417, 0.533669, 0.537559, 0.542900, 0.534687, 1.473302, 0.546280, 0.548028, 0.570687, 0.534379, 0.572817, 0.563668, 1.448487, 0.540347, 0.545828, 0.542417, 0.540478, 0.554716, 0.549629, 0.553613, 0.557467, 0.546318, 0.578569, 0.540597, 0.580609, 0.560642, 0.534762, 0.538237
Process 53: 1.132025, 0.739257, 0.541070, 0.540943, 0.542273, 0.547643, 0.539063, 1.478003, 0.550807, 0.552745, 0.574342, 0.539137, 0.577469, 0.568396, 1.453225, 0.544995, 0.550556, 0.547157, 0.545213, 0.559448, 0.554385, 0.558425, 0.562134, 0.551016, 0.583364, 0.545226, 0.585341, 0.565354, 0.539426, 0.542867
Process 54: 1.138451, 0.742941, 0.544647, 0.542585, 0.545906, 0.551546, 0.543661, 1.481558, 0.554358, 0.556332, 0.577030, 0.542681, 0.581184, 0.572488, 1.456850, 0.548624, 0.554117, 0.550752, 0.548906, 0.563035, 0.557979, 0.561956, 0.565786, 0.554800, 0.586890, 0.548835, 0.588880, 0.568956, 0.542980, 0.546589
Process 55: 1.145802, 0.749699, 0.549490, 0.547432, 0.550686, 0.556326, 0.548067, 1.486307, 0.559165, 0.561207, 0.581813, 0.547489, 0.585872, 0.578753, 1.461585, 0.553349, 0.558912, 0.555547, 0.553265, 0.567806, 0.562746, 0.566759, 0.570519, 0.559389, 0.591751, 0.553596, 0.593787, 0.573722, 0.547843, 0.551228
Process 56: 1.150539, 0.751788, 0.553098, 0.550983, 0.555218, 0.559977, 0.551939, 1.489987, 0.562767, 0.564772, 0.585436, 0.551094, 0.589577, 0.580821, 1.465226, 0.556978, 0.562560, 0.559183, 0.557356, 0.571348, 0.566374, 0.570370, 0.574200, 0.563312, 0.595286, 0.557290, 0.597276, 0.577305, 0.551403, 0.554901
Process 57: 1.158150, 0.756568, 0.557874, 0.555823, 0.559223, 0.564689, 0.556797, 1.494751, 0.568969, 0.569575, 0.590187, 0.555935, 0.594266, 0.585506, 1.469974, 0.561749, 0.567369, 0.563941, 0.561656, 0.576170, 0.571157, 0.575196, 0.578824, 0.569693, 0.600082, 0.562013, 0.602088, 0.582081, 0.556210, 0.559692
Process 58: 1.164577, 0.760643, 0.562020, 0.559946, 0.563427, 0.568892, 0.560993, 1.498877, 0.571765, 0.573782, 0.594344, 0.560133, 0.598502, 0.591505, 1.474215, 0.565996, 0.571505, 0.568107, 0.565857, 0.580322, 0.575303, 0.579953, 0.583062, 0.571901, 0.604194, 0.566117, 0.606161, 0.586306, 0.560399, 0.563839
Process 59: 1.171213, 0.764795, 0.566095, 0.564259, 0.567569, 0.573150, 0.565110, 1.503046, 0.575921, 0.577915, 0.598544, 0.564217, 0.602618, 0.593898, 1.478373, 0.570148, 0.575696, 0.572294, 0.570059, 0.584504, 0.579482, 0.584240, 0.587302, 0.576130, 0.608304, 0.570346, 0.610378, 0.590461, 0.564527, 0.568014
Process 60: 1.177732, 0.768931, 0.570296, 0.568276, 0.571712, 0.577300, 0.569354, 1.507240, 0.580219, 0.582050, 0.602699, 0.568390, 0.606721, 0.598075, 1.482490, 0.574316, 0.579864, 0.576438, 0.574167, 0.588658, 0.583689, 0.588381, 0.591487, 0.580327, 0.612413, 0.574345, 0.614564, 0.594628, 0.568750, 0.572184
Process 61: 1.183796, 0.773134, 0.574443, 0.572532, 0.575982, 0.581539, 0.573580, 1.511527, 0.584358, 0.586296, 0.606973, 0.572684, 0.611019, 0.602315, 1.486785, 0.578518, 0.584137, 0.580730, 0.578358, 0.592941, 0.587890, 0.592367, 0.595618, 0.584315, 0.616369, 0.578351, 0.618718, 0.598815, 0.572971, 0.576408
Process 62: 1.188980, 0.777461, 0.578829, 0.577398, 0.580852, 0.586368, 0.578501, 1.516328, 0.589314, 0.591204, 0.611877, 0.577570, 0.615851, 0.607181, 1.491696, 0.583520, 0.589012, 0.585618, 0.583107, 0.597863, 0.592798, 0.597119, 0.600332, 0.589139, 0.621432, 0.583227, 0.623511, 0.603399, 0.577978, 0.581325
Process 63: 1.195641, 0.782251, 0.583486, 0.581664, 0.584870, 0.590586, 0.582666, 1.520545, 0.593469, 0.595473, 0.616079, 0.581733, 0.619985, 0.611338, 1.495846, 0.587639, 0.593169, 0.589758, 0.587288, 0.602143, 0.597041, 0.601356, 0.604445, 0.593584, 0.625449, 0.587486, 0.627815, 0.607693, 0.582048, 0.585498
