MPI_insiderank_serial
Process 0: 10.247857, 10.003437, 9.929681, 9.955331, 9.994013, 10.013389, 9.898409, 9.927619, 9.933450, 9.914381, 9.887368, 9.963557, 9.885548, 9.913480, 9.925908, 9.923837, 9.869687, 9.931727, 9.865137, 9.903936, 9.909293, 9.888839, 9.862849, 9.943109, 9.865111, 9.886277, 9.903975, 9.898251, 9.862939, 9.927474
Process 1: 10.250394, 10.006349, 9.934405, 9.959628, 10.000671, 10.018189, 9.903467, 9.933032, 9.937294, 9.918068, 9.891259, 9.967415, 9.889088, 9.917049, 9.929949, 9.927330, 9.874561, 9.936669, 9.870049, 9.908878, 9.914227, 9.893730, 9.867782, 9.947991, 9.870018, 9.891131, 9.908858, 9.903074, 9.867847, 9.932358
