MPI_insiderank_optimisedserial
Process 0: 3.436977, 3.417035, 3.357317, 3.342142, 3.276322, 3.368039, 3.310113, 3.281786, 3.285721, 3.372465, 3.277304, 3.314129, 3.275320, 3.278797, 3.322452, 3.325320, 3.308536, 3.276276, 3.280692, 3.309769, 3.274907, 3.274841, 3.298212, 3.306852, 3.321769, 3.333256, 3.284617, 3.276103, 3.287962, 3.276433
Process 1: 3.282097, 3.273572, 3.219885, 3.216893, 3.156374, 3.205970, 3.185121, 3.162135, 3.142267, 3.209137, 3.144743, 3.188726, 3.142919, 3.158716, 3.190035, 3.175271, 3.176253, 3.143955, 3.148613, 3.183964, 3.142516, 3.142487, 3.178458, 3.174527, 3.188968, 3.183031, 3.152351, 3.143610, 3.155823, 3.143843
Process 2: 3.370533, 3.337721, 3.288983, 3.272964, 3.218301, 3.291917, 3.240997, 3.223993, 3.205100, 3.304058, 3.207885, 3.244999, 3.205870, 3.221023, 3.253020, 3.245838, 3.239176, 3.206960, 3.211530, 3.240313, 3.205399, 3.205385, 3.240537, 3.237314, 3.252071, 3.253981, 3.215197, 3.206679, 3.218649, 3.206962
Process 3: 3.441083, 3.421111, 3.361368, 3.346125, 3.280556, 3.372013, 3.314098, 3.285840, 3.290038, 3.376464, 3.281301, 3.318213, 3.279596, 3.282803, 3.326460, 3.329443, 3.312717, 3.280305, 3.284689, 3.313884, 3.279019, 3.278829, 3.302185, 3.310990, 3.325947, 3.337272, 3.288626, 3.280399, 3.291986, 3.280411
