[1671040318.579051] [eu-a2p-507:118064:0]           ib_md.c:349  UCX  ERROR ibv_reg_mr(address=0x2b0d78f48000, length=544768, access=0xf) failed: Cannot allocate memory
[1671040318.579354] [eu-a2p-507:118064:0]           mpool.c:226  UCX  ERROR Failed to allocate memory pool (name=ud_recv_skb) chunk: Input/output error
[1671040318.581175] [eu-a2p-507:118065:0]           ib_md.c:349  UCX  ERROR ibv_reg_mr(address=0x2aac010ea000, length=37773312, access=0xf) failed: Cannot allocate memory
[1671040318.579911] [eu-a2p-507:118066:0]           ib_md.c:349  UCX  ERROR ibv_reg_mr(address=0x2b0cb37dd000, length=37773312, access=0xf) failed: Cannot allocate memory
[1671040318.580921] [eu-a2p-507:118066:0]           mpool.c:226  UCX  ERROR Failed to allocate memory pool (name=rc_recv_desc) chunk: Input/output error
[1671040318.581752] [eu-a2p-507:118083:0]           ib_md.c:349  UCX  ERROR ibv_reg_mr(address=0x2afc86c24000, length=37773312, access=0xf) failed: Cannot allocate memory
[1671040318.581853] [eu-a2p-507:118071:0]           ib_md.c:349  UCX  ERROR ibv_reg_mr(address=0x2b457c75a000, length=37773312, access=0xf) failed: Cannot allocate memory
[1671040318.581954] [eu-a2p-507:118082:0]           ib_md.c:349  UCX  ERROR ibv_reg_mr(address=0x2ae90c000000, length=37773312, access=0xf) failed: Cannot allocate memory
[1671040318.582348] [eu-a2p-507:118065:0]           mpool.c:226  UCX  ERROR Failed to allocate memory pool (name=rc_recv_desc) chunk: Input/output error
[1671040318.582448] [eu-a2p-507:118079:0]           ib_md.c:349  UCX  ERROR ibv_reg_mr(address=0x2abd0cf41000, length=37773312, access=0xf) failed: Cannot allocate memory
[1671040318.583025] [eu-a2p-507:118083:0]           mpool.c:226  UCX  ERROR Failed to allocate memory pool (name=rc_recv_desc) chunk: Input/output error
[1671040318.583243] [eu-a2p-507:118071:0]           mpool.c:226  UCX  ERROR Failed to allocate memory pool (name=rc_recv_desc) chunk: Input/output error
[1671040318.583359] [eu-a2p-507:118082:0]           mpool.c:226  UCX  ERROR Failed to allocate memory pool (name=rc_recv_desc) chunk: Input/output error
[1671040318.583954] [eu-a2p-507:118079:0]           mpool.c:226  UCX  ERROR Failed to allocate memory pool (name=rc_recv_desc) chunk: Input/output error
[1671040318.584162] [eu-a2p-507:118084:0]           ib_md.c:349  UCX  ERROR ibv_reg_mr(address=0x2b03f9d42000, length=37773312, access=0xf) failed: Cannot allocate memory
[1671040318.585377] [eu-a2p-507:118058:0]           ib_md.c:349  UCX  ERROR ibv_reg_mr(address=0x2b8193f78000, length=37773312, access=0xf) failed: Cannot allocate memory
[1671040318.585612] [eu-a2p-507:118053:0]           ib_md.c:349  UCX  ERROR ibv_reg_mr(address=0x2b37a2659000, length=37773312, access=0xf) failed: Cannot allocate memory
[1671040318.585681] [eu-a2p-507:118084:0]           mpool.c:226  UCX  ERROR Failed to allocate memory pool (name=rc_recv_desc) chunk: Input/output error
[1671040318.585981] [eu-a2p-507:118060:0]           ib_md.c:349  UCX  ERROR ibv_reg_mr(address=0x2af2f8308000, length=37773312, access=0xf) failed: Cannot allocate memory
[1671040318.586050] [eu-a2p-507:118070:0]           ib_md.c:349  UCX  ERROR ibv_reg_mr(address=0x2acdfa341000, length=37773312, access=0xf) failed: Cannot allocate memory
[1671040318.586007] [eu-a2p-507:118080:0]           ib_md.c:349  UCX  ERROR ibv_reg_mr(address=0x2b75fdc35000, length=37773312, access=0xf) failed: Cannot allocate memory
[1671040318.586139] [eu-a2p-507:118076:0]           ib_md.c:349  UCX  ERROR ibv_reg_mr(address=0x2ad0d115b000, length=37773312, access=0xf) failed: Cannot allocate memory
[1671040318.586591] [eu-a2p-507:118058:0]           mpool.c:226  UCX  ERROR Failed to allocate memory pool (name=rc_recv_desc) chunk: Input/output error
[1671040318.586829] [eu-a2p-507:118075:0]           ib_md.c:349  UCX  ERROR ibv_reg_mr(address=0x2aac26341000, length=37773312, access=0xf) failed: Cannot allocate memory
[1671040318.588258] [eu-a2p-507:118053:0]           mpool.c:226  UCX  ERROR Failed to allocate memory pool (name=rc_recv_desc) chunk: Input/output error
[1671040318.588435] [eu-a2p-507:118076:0]           mpool.c:226  UCX  ERROR Failed to allocate memory pool (name=rc_recv_desc) chunk: Input/output error
[1671040318.589060] [eu-a2p-507:118060:0]           mpool.c:226  UCX  ERROR Failed to allocate memory pool (name=rc_recv_desc) chunk: Input/output error
[1671040318.589287] [eu-a2p-507:118070:0]           mpool.c:226  UCX  ERROR Failed to allocate memory pool (name=rc_recv_desc) chunk: Input/output error
[1671040318.589411] [eu-a2p-507:118075:0]           mpool.c:226  UCX  ERROR Failed to allocate memory pool (name=rc_recv_desc) chunk: Input/output error
[1671040318.589498] [eu-a2p-507:118080:0]           mpool.c:226  UCX  ERROR Failed to allocate memory pool (name=rc_recv_desc) chunk: Input/output error
[1671040319.981164] [eu-a2p-507:118060:0]           ib_md.c:349  UCX  ERROR ibv_reg_mr(address=0x2af2f88a0000, length=37773312, access=0xf) failed: Cannot allocate memory
[1671040319.982111] [eu-a2p-507:118060:0]           mpool.c:226  UCX  ERROR Failed to allocate memory pool (name=rc_recv_desc) chunk: Input/output error
[1671040319.981165] [eu-a2p-507:118070:0]           ib_md.c:349  UCX  ERROR ibv_reg_mr(address=0x2acdfa8d9000, length=37773312, access=0xf) failed: Cannot allocate memory
[1671040319.982104] [eu-a2p-507:118070:0]           mpool.c:226  UCX  ERROR Failed to allocate memory pool (name=rc_recv_desc) chunk: Input/output error
slurmstepd: error: poll(): Bad address
[1671040319.902238] [eu-a2p-507:118077:0]           ib_md.c:349  UCX  ERROR ibv_reg_mr(address=0x2ab8a4650000, length=544768, access=0xf) failed: Cannot allocate memory
[1671040319.986351] [eu-a2p-507:118077:0]           mpool.c:226  UCX  ERROR Failed to allocate memory pool (name=ud_recv_skb) chunk: Input/output error
[1671040320.081068] [eu-a2p-507:118082:0]           ib_md.c:349  UCX  ERROR ibv_reg_mr(address=0x2ae90e70e000, length=544768, access=0xf) failed: Cannot allocate memory
[1671040320.081089] [eu-a2p-507:118082:0]           mpool.c:226  UCX  ERROR Failed to allocate memory pool (name=ud_recv_skb) chunk: Input/output error
[1671040320.101401] [eu-a2p-507:118053:0]           ib_md.c:349  UCX  ERROR ibv_reg_mr(address=0x2b37a2bf1000, length=37773312, access=0xf) failed: Cannot allocate memory
[1671040320.101399] [eu-a2p-507:118075:0]           ib_md.c:349  UCX  ERROR ibv_reg_mr(address=0x2aac268d9000, length=37773312, access=0xf) failed: Cannot allocate memory
[1671040320.101057] [eu-a2p-507:118076:0]           ib_md.c:349  UCX  ERROR ibv_reg_mr(address=0x2ad0d16f3000, length=37773312, access=0xf) failed: Cannot allocate memory
[1671040320.103891] [eu-a2p-507:118076:0]           mpool.c:226  UCX  ERROR Failed to allocate memory pool (name=rc_recv_desc) chunk: Input/output error
[1671040320.105693] [eu-a2p-507:118075:0]           mpool.c:226  UCX  ERROR Failed to allocate memory pool (name=rc_recv_desc) chunk: Input/output error
[1671040320.105779] [eu-a2p-507:118053:0]           mpool.c:226  UCX  ERROR Failed to allocate memory pool (name=rc_recv_desc) chunk: Input/output error
slurmstepd: error: Detected 5 oom-kill event(s) in StepId=4309719.0. Some of your processes may have been killed by the cgroup out-of-memory handler.
srun: error: eu-a2p-507: tasks 8,10-11,24: Out Of Memory
[1671040325.208761] [eu-a2p-507:118070:0]           ib_md.c:349  UCX  ERROR ibv_reg_mr(address=0x2acdfaae7000, length=37773312, access=0xf) failed: Cannot allocate memory
[1671040325.210767] [eu-a2p-507:118070:0]           mpool.c:226  UCX  ERROR Failed to allocate memory pool (name=rc_recv_desc) chunk: Input/output error
[1671040325.209228] [eu-a2p-507:118058:0]           ib_md.c:349  UCX  ERROR ibv_reg_mr(address=0x2b8194186000, length=37773312, access=0xf) failed: Cannot allocate memory
[1671040325.211940] [eu-a2p-507:118058:0]           mpool.c:226  UCX  ERROR Failed to allocate memory pool (name=rc_recv_desc) chunk: Input/output error
[1671040325.209131] [eu-a2p-507:118065:0]           ib_md.c:349  UCX  ERROR ibv_reg_mr(address=0x2aac012f8000, length=37773312, access=0xf) failed: Cannot allocate memory
[1671040325.211570] [eu-a2p-507:118065:0]           mpool.c:226  UCX  ERROR Failed to allocate memory pool (name=rc_recv_desc) chunk: Input/output error
slurmstepd: error: *** STEP 4309719.0 ON eu-a2p-507 CANCELLED AT 2022-12-14T19:52:21 DUE TO TIME LIMIT ***
slurmstepd: error: *** JOB 4309719 ON eu-a2p-507 CANCELLED AT 2022-12-14T19:52:21 DUE TO TIME LIMIT ***
srun: Job step aborted: Waiting up to 32 seconds for job step to finish.
slurmstepd: error: Detected 13 oom-kill event(s) in StepId=4309719.batch. Some of your processes may have been killed by the cgroup out-of-memory handler.
