MPI_insiderank_optimisedserial
Process 0: 4.257479, 3.832863, 3.730308, 3.786799, 3.703821, 3.667621, 3.662043, 3.720569, 3.686644, 3.756145, 3.761913, 3.700173, 3.713537, 3.723538, 3.712602, 3.758040, 3.731881, 3.691948, 3.693614, 3.624712, 3.714245, 3.695409, 3.700322, 3.709832, 3.781848, 3.708295, 3.717130, 3.689376, 3.701647, 3.740536
Process 1: 4.263533, 3.838848, 3.736238, 3.793021, 3.709660, 3.673744, 3.668601, 3.726896, 3.692641, 3.762636, 3.768191, 3.707030, 3.720154, 3.730008, 3.719008, 3.764759, 3.737931, 3.698025, 3.699888, 3.630919, 3.720674, 3.701573, 3.706743, 3.716021, 3.788263, 3.714665, 3.723231, 3.695680, 3.708057, 3.746540
