[1671040158.277536] [eu-g1-044-2:61949:0]           ib_md.c:349  UCX  ERROR ibv_reg_mr(address=0x2b0bd40a4000, length=37773312, access=0xf) failed: Cannot allocate memory
[1671040158.278525] [eu-g1-044-2:61949:0]           mpool.c:226  UCX  ERROR Failed to allocate memory pool (name=rc_recv_desc) chunk: Input/output error
slurmstepd: error: Detected 54 oom-kill event(s) in StepId=4309702.0. Some of your processes may have been killed by the cgroup out-of-memory handler.
srun: error: eu-g1-044-2: task 31: Out Of Memory
slurmstepd: error: execve(/cluster/slurm/adm/scripts/task-epilog.sh): Argument list too long
slurmstepd: error: --task-epilog failed status=32512
[1671040184.798036] [eu-g1-044-2:61952:0]           ib_md.c:349  UCX  ERROR ibv_reg_mr(address=0x2ab2ccc60000, length=37773312, access=0xf) failed: Cannot allocate memory
[1671040184.798069] [eu-g1-044-2:61956:0]           ib_md.c:349  UCX  ERROR ibv_reg_mr(address=0x2b16dd174000, length=37773312, access=0xf) failed: Cannot allocate memory
[1671040184.798077] [eu-g1-044-2:61930:0]           ib_md.c:349  UCX  ERROR ibv_reg_mr(address=0x2ac641e57000, length=37773312, access=0xf) failed: Cannot allocate memory
[1671040184.798035] [eu-g1-044-2:61940:0]           ib_md.c:349  UCX  ERROR ibv_reg_mr(address=0x2b6d12ec2000, length=37773312, access=0xf) failed: Cannot allocate memory
[1671040184.798069] [eu-g1-044-2:61954:0]           ib_md.c:349  UCX  ERROR ibv_reg_mr(address=0x2b6158184000, length=37773312, access=0xf) failed: Cannot allocate memory
[1671040193.723292] [eu-g1-044-2:61930:0]           mpool.c:226  UCX  ERROR Failed to allocate memory pool (name=rc_recv_desc) chunk: Input/output error
[1671040193.723438] [eu-g1-044-2:61940:0]           mpool.c:226  UCX  ERROR Failed to allocate memory pool (name=rc_recv_desc) chunk: Input/output error
[1671040193.723460] [eu-g1-044-2:61956:0]           mpool.c:226  UCX  ERROR Failed to allocate memory pool (name=rc_recv_desc) chunk: Input/output error
[1671040193.723496] [eu-g1-044-2:61954:0]           mpool.c:226  UCX  ERROR Failed to allocate memory pool (name=rc_recv_desc) chunk: Input/output error
[1671040193.723610] [eu-g1-044-2:61952:0]           mpool.c:226  UCX  ERROR Failed to allocate memory pool (name=rc_recv_desc) chunk: Input/output error
[1671040194.872386] [eu-g1-044-2:61938:0]           ib_md.c:349  UCX  ERROR ibv_reg_mr(address=0x2ae095573000, length=37773312, access=0xf) failed: Cannot allocate memory
[1671040194.875673] [eu-g1-044-2:61938:0]           mpool.c:226  UCX  ERROR Failed to allocate memory pool (name=rc_recv_desc) chunk: Input/output error
slurmstepd: error: *** STEP 4309702.0 ON eu-g1-044-2 CANCELLED AT 2022-12-14T19:49:16 DUE TO TIME LIMIT ***
slurmstepd: error: *** JOB 4309702 ON eu-g1-044-2 CANCELLED AT 2022-12-14T19:49:16 DUE TO TIME LIMIT ***
slurmstepd: error: Detected 158 oom-kill event(s) in StepId=4309702.batch. Some of your processes may have been killed by the cgroup out-of-memory handler.
