MPI_insiderank_optimisedserial
Process 0: 3.117969, 2.806038, 2.885806, 2.767287, 2.683990, 2.669530, 2.694965, 2.655856, 2.761252, 2.666994, 2.672107, 2.646992, 2.713071, 2.721456, 2.715974, 2.673822, 2.605764, 2.691450, 2.617170, 2.669144, 2.602292, 2.608757, 2.707290, 2.638311, 2.675869, 2.622787, 2.637940, 2.611677, 2.656464, 2.624981
Process 1: 3.010883, 2.748838, 2.828855, 2.675503, 2.627832, 2.597804, 2.573141, 2.581639, 2.703736, 2.592861, 2.549526, 2.572799, 2.639419, 2.665295, 2.642498, 2.602217, 2.531044, 2.599728, 2.544098, 2.597343, 2.530553, 2.535324, 2.651848, 2.564816, 2.603446, 2.549314, 2.566338, 2.538051, 2.564939, 2.551016
Process 2: 3.033457, 2.759637, 2.839360, 2.717278, 2.638292, 2.628574, 2.607333, 2.605201, 2.714425, 2.616355, 2.583966, 2.596347, 2.662691, 2.675636, 2.665573, 2.632495, 2.555127, 2.641414, 2.566446, 2.628048, 2.561144, 2.557975, 2.666480, 2.587535, 2.634671, 2.572109, 2.596719, 2.560916, 2.606724, 2.574228
Process 3: 3.123176, 2.809554, 2.889686, 2.771503, 2.688012, 2.672484, 2.699483, 2.658871, 2.765072, 2.670833, 2.676559, 2.650634, 2.716911, 2.725411, 2.719902, 2.677486, 2.608932, 2.695747, 2.621141, 2.672857, 2.605988, 2.612743, 2.710939, 2.642278, 2.679718, 2.626785, 2.641612, 2.615622, 2.660552, 2.628984
