slurmstepd: error: Detected 11 oom-kill event(s) in StepId=4309712.0. Some of your processes may have been killed by the cgroup out-of-memory handler.
[eu-a2p-504:12836:0:12836] Caught signal 7 (Bus error: nonexistent physical address)
==== backtrace (tid:  12836) ====
 0  /cluster/spack/apps/linux-centos7-x86_64/gcc-9.3.0/ucx-1.12.1-xfljgpcc4jht7wamy2hjr2mdvn7y3u5g/lib/libucs.so.0(ucs_handle_error+0x2a4) [0x2b0bfe3c4574]
 1  /cluster/spack/apps/linux-centos7-x86_64/gcc-9.3.0/ucx-1.12.1-xfljgpcc4jht7wamy2hjr2mdvn7y3u5g/lib/libucs.so.0(+0x2f777) [0x2b0bfe3c4777]
 2  /cluster/spack/apps/linux-centos7-x86_64/gcc-9.3.0/ucx-1.12.1-xfljgpcc4jht7wamy2hjr2mdvn7y3u5g/lib/libucs.so.0(+0x2fa36) [0x2b0bfe3c4a36]
 3  /lib64/libpthread.so.0(+0xf630) [0x2b0bfc4f7630]
 4  /lib64/ld-linux-x86-64.so.2(+0x9e03) [0x2b0bfbb59e03]
 5  /lib64/ld-linux-x86-64.so.2(+0xa09f) [0x2b0bfbb5a09f]
 6  /lib64/ld-linux-x86-64.so.2(+0xedee) [0x2b0bfbb5edee]
 7  /lib64/ld-linux-x86-64.so.2(+0x16aaa) [0x2b0bfbb66aaa]
 8  /lib64/libnvidia-ml.so.1(+0xcd47e) [0x2b0c000bb47e]
 9  /lib64/libnvidia-ml.so.1(+0xc9f49) [0x2b0c000b7f49]
10  /lib64/libnvidia-ml.so.1(+0xca880) [0x2b0c000b8880]
11  /lib64/libnvidia-ml.so.1(+0xabcbd) [0x2b0c00099cbd]
12  /lib64/libnvidia-ml.so.1(nvmlInitWithFlags+0x387) [0x2b0c00001767]
13  /cluster/spack/apps/linux-centos7-x86_64/gcc-9.3.0/hwloc-2.7.1-b3hwjg6o4yiod7gzxftifm7msweyeep7/lib/libhwloc.so.15(+0x345f3) [0x2b0bff7255f3]
14  /cluster/spack/apps/linux-centos7-x86_64/gcc-9.3.0/hwloc-2.7.1-b3hwjg6o4yiod7gzxftifm7msweyeep7/lib/libhwloc.so.15(+0x92ae) [0x2b0bff6fa2ae]
15  /cluster/spack/apps/linux-centos7-x86_64/gcc-9.3.0/hwloc-2.7.1-b3hwjg6o4yiod7gzxftifm7msweyeep7/lib/libhwloc.so.15(hwloc_topology_load+0x760) [0x2b0bff702b50]
16  /cluster/spack/apps/linux-centos7-x86_64/gcc-9.3.0/openmpi-4.1.4-ce3rybsut3hyqo2i2sm5qwu2muxqny3x/lib/libopen-pal.so.40(opal_hwloc_base_get_topology+0x1174) [0x2b0bfda6bb64]
17  /cluster/spack/apps/linux-centos7-x86_64/gcc-9.3.0/openmpi-4.1.4-ce3rybsut3hyqo2i2sm5qwu2muxqny3x/lib/libopen-rte.so.40(orte_ess_base_proc_binding+0xb7f) [0x2b0bfcd7164f]
18  /cluster/spack/apps/linux-centos7-x86_64/gcc-9.3.0/openmpi-4.1.4-ce3rybsut3hyqo2i2sm5qwu2muxqny3x/lib/libopen-rte.so.40(+0x7474e) [0x2b0bfcd7774e]
19  /cluster/spack/apps/linux-centos7-x86_64/gcc-9.3.0/openmpi-4.1.4-ce3rybsut3hyqo2i2sm5qwu2muxqny3x/lib/libopen-rte.so.40(orte_init+0x2b0) [0x2b0bfcde7ab0]
20  /cluster/spack/apps/linux-centos7-x86_64/gcc-9.3.0/openmpi-4.1.4-ce3rybsut3hyqo2i2sm5qwu2muxqny3x/lib/libmpi.so.40(ompi_mpi_init+0x243) [0x2b0bfbffdd43]
21  /cluster/spack/apps/linux-centos7-x86_64/gcc-9.3.0/openmpi-4.1.4-ce3rybsut3hyqo2i2sm5qwu2muxqny3x/lib/libmpi.so.40(PMPI_Init+0x5f) [0x2b0bfbe26eef]
22  /cluster/scratch/galoisi/DPHPC/2022_hs_polybench_parallelization/src/seidel/OUT/./mpi_insiderank_optimisedserial.out() [0x400e83]
23  /lib64/libc.so.6(__libc_start_main+0xf5) [0x2b0bfc726555]
24  /cluster/scratch/galoisi/DPHPC/2022_hs_polybench_parallelization/src/seidel/OUT/./mpi_insiderank_optimisedserial.out() [0x401efc]
=================================
srun: error: eu-a2p-504: task 56: Out Of Memory
[eu-a2p-504:12893:0:12893] Caught signal 7 (Bus error: nonexistent physical address)
==== backtrace (tid:  12893) ====
 0  /cluster/spack/apps/linux-centos7-x86_64/gcc-9.3.0/ucx-1.12.1-xfljgpcc4jht7wamy2hjr2mdvn7y3u5g/lib/libucs.so.0(ucs_handle_error+0x2a4) [0x2b06a42e5574]
 1  /cluster/spack/apps/linux-centos7-x86_64/gcc-9.3.0/ucx-1.12.1-xfljgpcc4jht7wamy2hjr2mdvn7y3u5g/lib/libucs.so.0(+0x2f777) [0x2b06a42e5777]
 2  /cluster/spack/apps/linux-centos7-x86_64/gcc-9.3.0/ucx-1.12.1-xfljgpcc4jht7wamy2hjr2mdvn7y3u5g/lib/libucs.so.0(+0x2fa36) [0x2b06a42e5a36]
 3  /lib64/libpthread.so.0(+0xf630) [0x2b06a2418630]
 4  /lib64/ld-linux-x86-64.so.2(+0x9e03) [0x2b06a1a7ae03]
 5  /lib64/ld-linux-x86-64.so.2(+0xa09f) [0x2b06a1a7b09f]
 6  /lib64/ld-linux-x86-64.so.2(+0xbc26) [0x2b06a1a7cc26]
 7  /lib64/ld-linux-x86-64.so.2(+0x1466c) [0x2b06a1a8566c]
 8  /lib64/ld-linux-x86-64.so.2(+0xf7d4) [0x2b06a1a807d4]
 9  /lib64/ld-linux-x86-64.so.2(+0x13b8b) [0x2b06a1a84b8b]
10  /lib64/libdl.so.2(+0xfab) [0x2b06a71f3fab]
11  /lib64/ld-linux-x86-64.so.2(+0xf7d4) [0x2b06a1a807d4]
12  /lib64/libdl.so.2(+0x15ad) [0x2b06a71f45ad]
13  /lib64/libdl.so.2(dlopen+0x31) [0x2b06a71f4041]
14  /cluster/spack/apps/linux-centos7-x86_64/gcc-9.3.0/ucx-1.12.1-xfljgpcc4jht7wamy2hjr2mdvn7y3u5g/lib/libucs.so.0(+0x3a8cd) [0x2b06a42f08cd]
15  /cluster/spack/apps/linux-centos7-x86_64/gcc-9.3.0/ucx-1.12.1-xfljgpcc4jht7wamy2hjr2mdvn7y3u5g/lib/libucs.so.0(ucs_load_modules+0x2d3) [0x2b06a42f1033]
16  /cluster/spack/apps/linux-centos7-x86_64/gcc-9.3.0/ucx-1.12.1-xfljgpcc4jht7wamy2hjr2mdvn7y3u5g/lib/libuct.so.0(uct_query_components+0x2a) [0x2b06a4080eaa]
17  /cluster/spack/apps/linux-centos7-x86_64/gcc-9.3.0/ucx-1.12.1-xfljgpcc4jht7wamy2hjr2mdvn7y3u5g/lib/libucp.so.0(+0x1b417) [0x2b06a3d54417]
18  /cluster/spack/apps/linux-centos7-x86_64/gcc-9.3.0/ucx-1.12.1-xfljgpcc4jht7wamy2hjr2mdvn7y3u5g/lib/libucp.so.0(ucp_init_version+0xeb) [0x2b06a3d5576b]
19  /cluster/spack/apps/linux-centos7-x86_64/gcc-9.3.0/openmpi-4.1.4-ce3rybsut3hyqo2i2sm5qwu2muxqny3x/lib/libmpi.so.40(mca_pml_ucx_open+0x123) [0x2b06a1ed56d3]
20  /cluster/spack/apps/linux-centos7-x86_64/gcc-9.3.0/openmpi-4.1.4-ce3rybsut3hyqo2i2sm5qwu2muxqny3x/lib/libopen-pal.so.40(mca_base_framework_components_open+0x16b) [0x2b06a39461fb]
21  /cluster/spack/apps/linux-centos7-x86_64/gcc-9.3.0/openmpi-4.1.4-ce3rybsut3hyqo2i2sm5qwu2muxqny3x/lib/libmpi.so.40(+0x23c017) [0x2b06a1ed1017]
22  /cluster/spack/apps/linux-centos7-x86_64/gcc-9.3.0/openmpi-4.1.4-ce3rybsut3hyqo2i2sm5qwu2muxqny3x/lib/libopen-pal.so.40(mca_base_framework_open+0x81) [0x2b06a3950171]
23  /cluster/spack/apps/linux-centos7-x86_64/gcc-9.3.0/openmpi-4.1.4-ce3rybsut3hyqo2i2sm5qwu2muxqny3x/lib/libmpi.so.40(ompi_mpi_init+0x69b) [0x2b06a1f1f19b]
24  /cluster/spack/apps/linux-centos7-x86_64/gcc-9.3.0/openmpi-4.1.4-ce3rybsut3hyqo2i2sm5qwu2muxqny3x/lib/libmpi.so.40(PMPI_Init+0x5f) [0x2b06a1d47eef]
25  /cluster/scratch/galoisi/DPHPC/2022_hs_polybench_parallelization/src/seidel/OUT/./mpi_insiderank_optimisedserial.out() [0x400e83]
26  /lib64/libc.so.6(__libc_start_main+0xf5) [0x2b06a2647555]
27  /cluster/scratch/galoisi/DPHPC/2022_hs_polybench_parallelization/src/seidel/OUT/./mpi_insiderank_optimisedserial.out() [0x401efc]
=================================
[1671040351.741096] [eu-a2p-504:12792:0]        mm_posix.c:192  UCX  ERROR   Failed to write 65536 bytes. Cannot allocate memory
[1671040351.741062] [eu-a2p-504:12884:0]        mm_posix.c:192  UCX  ERROR   Failed to write 65536 bytes. Cannot allocate memory
[1671040352.133757] [eu-a2p-504:12884:0]         uct_mem.c:155  UCX  ERROR   failed to allocate 4292720 bytes using md posix for mm_recv_desc: Input/output error
[1671040352.133787] [eu-a2p-504:12884:0]           mpool.c:226  UCX  ERROR Failed to allocate memory pool (name=mm_recv_desc) chunk: Input/output error
[1671040352.133794] [eu-a2p-504:12884:0]        mm_iface.c:793  UCX  ERROR failed to get the first receive descriptor
[1671040352.133759] [eu-a2p-504:12792:0]         uct_mem.c:155  UCX  ERROR   failed to allocate 4292720 bytes using md posix for mm_recv_desc: Input/output error
[1671040352.133788] [eu-a2p-504:12792:0]           mpool.c:226  UCX  ERROR Failed to allocate memory pool (name=mm_recv_desc) chunk: Input/output error
[1671040352.133794] [eu-a2p-504:12792:0]        mm_iface.c:793  UCX  ERROR failed to get the first receive descriptor
[eu-a2p-504:12884] pml_ucx.c:309  Error: Failed to create UCP worker
[eu-a2p-504:12792] pml_ucx.c:309  Error: Failed to create UCP worker
[1671040363.650221] [eu-a2p-504:12812:0]         ib_mlx5.h:681  UCX  ERROR mlx5dv_devx_umem_reg() failed: Cannot allocate memory
[1671040363.650223] [eu-a2p-504:12861:0]         ib_mlx5.h:681  UCX  ERROR mlx5dv_devx_umem_reg() failed: Cannot allocate memory
[eu-a2p-504:12861] pml_ucx.c:309  Error: Failed to create UCP worker
[1671040368.205815] [eu-a2p-504:12838:0]         ib_mlx5.h:681  UCX  ERROR mlx5dv_devx_umem_reg() failed: Cannot allocate memory
[eu-a2p-504:12812] pml_ucx.c:309  Error: Failed to create UCP worker
[eu-a2p-504:12838] pml_ucx.c:309  Error: Failed to create UCP worker
[1671040373.802332] [eu-a2p-504:12781:0]           ib_md.c:349  UCX  ERROR ibv_reg_mr(address=0x2b038d5da000, length=37773312, access=0xf) failed: Cannot allocate memory
[1671040373.802670] [eu-a2p-504:12786:0]           ib_md.c:349  UCX  ERROR ibv_reg_mr(address=0x2aca69cb7000, length=37773312, access=0xf) failed: Cannot allocate memory
[1671040373.802355] [eu-a2p-504:12789:0]           ib_md.c:349  UCX  ERROR ibv_reg_mr(address=0x2b11e4e3f000, length=37773312, access=0xf) failed: Cannot allocate memory
[1671040373.802672] [eu-a2p-504:12796:0]           ib_md.c:349  UCX  ERROR ibv_reg_mr(address=0x2b2ec0102000, length=37773312, access=0xf) failed: Cannot allocate memory
[1671040373.802672] [eu-a2p-504:12802:0]           ib_md.c:349  UCX  ERROR ibv_reg_mr(address=0x2b95193ec000, length=37773312, access=0xf) failed: Cannot allocate memory
[1671040373.802368] [eu-a2p-504:12803:0]           ib_md.c:349  UCX  ERROR ibv_reg_mr(address=0x2b33c1d39000, length=37773312, access=0xf) failed: Cannot allocate memory
[1671040373.802643] [eu-a2p-504:12816:0]           ib_md.c:349  UCX  ERROR ibv_reg_mr(address=0x2af6607a3000, length=37773312, access=0xf) failed: Cannot allocate memory
[1671040373.802419] [eu-a2p-504:12820:0]           ib_md.c:349  UCX  ERROR ibv_reg_mr(address=0x2b0847939000, length=37773312, access=0xf) failed: Cannot allocate memory
[1671040373.802411] [eu-a2p-504:12822:0]           ib_md.c:349  UCX  ERROR ibv_reg_mr(address=0x2b521c000000, length=37773312, access=0xf) failed: Cannot allocate memory
[1671040373.802669] [eu-a2p-504:12830:0]           ib_md.c:349  UCX  ERROR ibv_reg_mr(address=0x2acb97099000, length=37773312, access=0xf) failed: Cannot allocate memory
[1671040373.802670] [eu-a2p-504:12855:0]           ib_md.c:349  UCX  ERROR ibv_reg_mr(address=0x2b1ffe156000, length=37773312, access=0xf) failed: Cannot allocate memory
[1671040373.802666] [eu-a2p-504:12867:0]           ib_md.c:349  UCX  ERROR ibv_reg_mr(address=0x2ba26b538000, length=37773312, access=0xf) failed: Cannot allocate memory
[1671040373.802666] [eu-a2p-504:12875:0]           ib_md.c:349  UCX  ERROR ibv_reg_mr(address=0x2b0ada341000, length=37773312, access=0xf) failed: Cannot allocate memory
[1671040373.802657] [eu-a2p-504:12879:0]           ib_md.c:349  UCX  ERROR ibv_reg_mr(address=0x2b6293019000, length=37773312, access=0xf) failed: Cannot allocate memory
[1671040373.802640] [eu-a2p-504:12883:0]           ib_md.c:349  UCX  ERROR ibv_reg_mr(address=0x2ba1b049b000, length=37773312, access=0xf) failed: Cannot allocate memory
[1671040373.802640] [eu-a2p-504:12887:0]           ib_md.c:349  UCX  ERROR ibv_reg_mr(address=0x2b6ec8832000, length=37773312, access=0xf) failed: Cannot allocate memory
[1671040373.802640] [eu-a2p-504:12889:0]           ib_md.c:349  UCX  ERROR ibv_reg_mr(address=0x2b53947a3000, length=37773312, access=0xf) failed: Cannot allocate memory
[1671040373.802644] [eu-a2p-504:12891:0]           ib_md.c:349  UCX  ERROR ibv_reg_mr(address=0x2abebb6a1000, length=37773312, access=0xf) failed: Cannot allocate memory
[1671040373.802720] [eu-a2p-504:12907:0]           ib_md.c:349  UCX  ERROR ibv_reg_mr(address=0x2b05c9ebe000, length=37773312, access=0xf) failed: Cannot allocate memory
[1671040373.802642] [eu-a2p-504:12824:0]           ib_md.c:349  UCX  ERROR ibv_reg_mr(address=0x2b07d4e3f000, length=37773312, access=0xf) failed: Cannot allocate memory
[1671040373.802402] [eu-a2p-504:12881:0]           ib_md.c:349  UCX  ERROR ibv_reg_mr(address=0x2acc96b5b000, length=37773312, access=0xf) failed: Cannot allocate memory
[1671040373.802945] [eu-a2p-504:12890:0]           ib_md.c:349  UCX  ERROR ibv_reg_mr(address=0x2b2999cb7000, length=37773312, access=0xf) failed: Cannot allocate memory
[1671040373.802749] [eu-a2p-504:12901:0]           ib_md.c:349  UCX  ERROR ibv_reg_mr(address=0x2b912515b000, length=37773312, access=0xf) failed: Cannot allocate memory
[1671040373.802749] [eu-a2p-504:12903:0]           ib_md.c:349  UCX  ERROR ibv_reg_mr(address=0x2ae8d166c000, length=37773312, access=0xf) failed: Cannot allocate memory
[1671040373.803224] [eu-a2p-504:12786:0]           mpool.c:226  UCX  ERROR Failed to allocate memory pool (name=rc_recv_desc) chunk: Input/output error
[1671040373.803185] [eu-a2p-504:12802:0]           mpool.c:226  UCX  ERROR Failed to allocate memory pool (name=rc_recv_desc) chunk: Input/output error
[1671040373.803248] [eu-a2p-504:12796:0]           mpool.c:226  UCX  ERROR Failed to allocate memory pool (name=rc_recv_desc) chunk: Input/output error
[1671040373.803263] [eu-a2p-504:12803:0]           mpool.c:226  UCX  ERROR Failed to allocate memory pool (name=rc_recv_desc) chunk: Input/output error
[1671040373.803245] [eu-a2p-504:12855:0]           mpool.c:226  UCX  ERROR Failed to allocate memory pool (name=rc_recv_desc) chunk: Input/output error
[1671040373.803245] [eu-a2p-504:12867:0]           mpool.c:226  UCX  ERROR Failed to allocate memory pool (name=rc_recv_desc) chunk: Input/output error
[1671040373.803245] [eu-a2p-504:12875:0]           mpool.c:226  UCX  ERROR Failed to allocate memory pool (name=rc_recv_desc) chunk: Input/output error
[1671040373.803252] [eu-a2p-504:12889:0]           mpool.c:226  UCX  ERROR Failed to allocate memory pool (name=rc_recv_desc) chunk: Input/output error
[1671040373.803223] [eu-a2p-504:12844:0]           ib_md.c:349  UCX  ERROR ibv_reg_mr(address=0x2b686223d000, length=37773312, access=0xf) failed: Cannot allocate memory
[1671040373.803281] [eu-a2p-504:12887:0]           mpool.c:226  UCX  ERROR Failed to allocate memory pool (name=rc_recv_desc) chunk: Input/output error
[1671040373.803317] [eu-a2p-504:12890:0]           mpool.c:226  UCX  ERROR Failed to allocate memory pool (name=rc_recv_desc) chunk: Input/output error
[1671040373.803364] [eu-a2p-504:12903:0]           mpool.c:226  UCX  ERROR Failed to allocate memory pool (name=rc_recv_desc) chunk: Input/output error
[1671040373.803430] [eu-a2p-504:12844:0]           mpool.c:226  UCX  ERROR Failed to allocate memory pool (name=rc_recv_desc) chunk: Input/output error
[1671040373.803746] [eu-a2p-504:12789:0]           mpool.c:226  UCX  ERROR Failed to allocate memory pool (name=rc_recv_desc) chunk: Input/output error
[1671040373.803740] [eu-a2p-504:12820:0]           mpool.c:226  UCX  ERROR Failed to allocate memory pool (name=rc_recv_desc) chunk: Input/output error
[1671040373.803740] [eu-a2p-504:12822:0]           mpool.c:226  UCX  ERROR Failed to allocate memory pool (name=rc_recv_desc) chunk: Input/output error
[1671040373.803740] [eu-a2p-504:12824:0]           mpool.c:226  UCX  ERROR Failed to allocate memory pool (name=rc_recv_desc) chunk: Input/output error
[1671040373.803741] [eu-a2p-504:12830:0]           mpool.c:226  UCX  ERROR Failed to allocate memory pool (name=rc_recv_desc) chunk: Input/output error
[1671040373.803800] [eu-a2p-504:12781:0]           mpool.c:226  UCX  ERROR Failed to allocate memory pool (name=rc_recv_desc) chunk: Input/output error
[1671040373.803850] [eu-a2p-504:12880:0]           ib_md.c:349  UCX  ERROR ibv_reg_mr(address=0x2acb18286000, length=37773312, access=0xf) failed: Cannot allocate memory
[1671040373.803940] [eu-a2p-504:12816:0]           mpool.c:226  UCX  ERROR Failed to allocate memory pool (name=rc_recv_desc) chunk: Input/output error
[1671040373.803961] [eu-a2p-504:12880:0]           mpool.c:226  UCX  ERROR Failed to allocate memory pool (name=rc_recv_desc) chunk: Input/output error
[1671040373.804050] [eu-a2p-504:12808:0]           ib_md.c:349  UCX  ERROR ibv_reg_mr(address=0x2ba1f64d5000, length=37773312, access=0xf) failed: Cannot allocate memory
[1671040373.804054] [eu-a2p-504:12858:0]           ib_md.c:349  UCX  ERROR ibv_reg_mr(address=0x2b4d7d915000, length=37773312, access=0xf) failed: Cannot allocate memory
[1671040373.804157] [eu-a2p-504:12808:0]           mpool.c:226  UCX  ERROR Failed to allocate memory pool (name=rc_recv_desc) chunk: Input/output error
[1671040373.804698] [eu-a2p-504:12883:0]           mpool.c:226  UCX  ERROR Failed to allocate memory pool (name=rc_recv_desc) chunk: Input/output error
[1671040373.804673] [eu-a2p-504:12891:0]           mpool.c:226  UCX  ERROR Failed to allocate memory pool (name=rc_recv_desc) chunk: Input/output error
[1671040373.804808] [eu-a2p-504:12879:0]           mpool.c:226  UCX  ERROR Failed to allocate memory pool (name=rc_recv_desc) chunk: Input/output error
[1671040373.804844] [eu-a2p-504:12907:0]           mpool.c:226  UCX  ERROR Failed to allocate memory pool (name=rc_recv_desc) chunk: Input/output error
[1671040373.804855] [eu-a2p-504:12881:0]           mpool.c:226  UCX  ERROR Failed to allocate memory pool (name=rc_recv_desc) chunk: Input/output error
[1671040373.805165] [eu-a2p-504:12901:0]           mpool.c:226  UCX  ERROR Failed to allocate memory pool (name=rc_recv_desc) chunk: Input/output error
[1671040373.805260] [eu-a2p-504:12898:0]           ib_md.c:349  UCX  ERROR ibv_reg_mr(address=0x2ab298000000, length=37773312, access=0xf) failed: Cannot allocate memory
[1671040373.805328] [eu-a2p-504:12866:0]           ib_md.c:349  UCX  ERROR ibv_reg_mr(address=0x2b4295ab2000, length=37773312, access=0xf) failed: Cannot allocate memory
[1671040373.805398] [eu-a2p-504:12898:0]           mpool.c:226  UCX  ERROR Failed to allocate memory pool (name=rc_recv_desc) chunk: Input/output error
[1671040373.805446] [eu-a2p-504:12866:0]           mpool.c:226  UCX  ERROR Failed to allocate memory pool (name=rc_recv_desc) chunk: Input/output error
[1671040373.805416] [eu-a2p-504:12827:0]           ib_md.c:349  UCX  ERROR ibv_reg_mr(address=0x2b41e069f000, length=37773312, access=0xf) failed: Cannot allocate memory
[1671040373.805796] [eu-a2p-504:12870:0]           ib_md.c:349  UCX  ERROR ibv_reg_mr(address=0x2b664e4d5000, length=37773312, access=0xf) failed: Cannot allocate memory
[1671040373.805878] [eu-a2p-504:12870:0]           mpool.c:226  UCX  ERROR Failed to allocate memory pool (name=rc_recv_desc) chunk: Input/output error
[1671040373.806018] [eu-a2p-504:12858:0]           mpool.c:226  UCX  ERROR Failed to allocate memory pool (name=rc_recv_desc) chunk: Input/output error
[1671040373.806185] [eu-a2p-504:12827:0]           mpool.c:226  UCX  ERROR Failed to allocate memory pool (name=rc_recv_desc) chunk: Input/output error
[1671040373.806195] [eu-a2p-504:12874:0]           ib_md.c:349  UCX  ERROR ibv_reg_mr(address=0x2afda711b000, length=37773312, access=0xf) failed: Cannot allocate memory
[1671040373.806853] [eu-a2p-504:12823:0]           ib_md.c:349  UCX  ERROR ibv_reg_mr(address=0x2ae928000000, length=37773312, access=0xf) failed: Cannot allocate memory
[1671040373.807084] [eu-a2p-504:12900:0]           ib_md.c:349  UCX  ERROR ibv_reg_mr(address=0x2b8350102000, length=37773312, access=0xf) failed: Cannot allocate memory
[1671040373.807385] [eu-a2p-504:12900:0]           mpool.c:226  UCX  ERROR Failed to allocate memory pool (name=rc_recv_desc) chunk: Input/output error
[1671040373.807664] [eu-a2p-504:12823:0]           mpool.c:226  UCX  ERROR Failed to allocate memory pool (name=rc_recv_desc) chunk: Input/output error
[1671040373.807998] [eu-a2p-504:12819:0]           ib_md.c:349  UCX  ERROR ibv_reg_mr(address=0x2af24f837000, length=37773312, access=0xf) failed: Cannot allocate memory
[1671040373.808019] [eu-a2p-504:12874:0]           mpool.c:226  UCX  ERROR Failed to allocate memory pool (name=rc_recv_desc) chunk: Input/output error
[1671040373.808668] [eu-a2p-504:12819:0]           mpool.c:226  UCX  ERROR Failed to allocate memory pool (name=rc_recv_desc) chunk: Input/output error
[1671040375.809767] [eu-a2p-504:12903:0]           ib_md.c:349  UCX  ERROR ibv_reg_mr(address=0x2ae8d16ee000, length=544768, access=0xf) failed: Cannot allocate memory
[1671040375.809782] [eu-a2p-504:12803:0]           ib_md.c:349  UCX  ERROR ibv_reg_mr(address=0x2b33c1dbb000, length=544768, access=0xf) failed: Cannot allocate memory
[1671040375.810901] [eu-a2p-504:12867:0]           ib_md.c:349  UCX  ERROR ibv_reg_mr(address=0x2ba26b5ba000, length=544768, access=0xf) failed: Cannot allocate memory
[1671040375.810920] [eu-a2p-504:12875:0]           ib_md.c:349  UCX  ERROR ibv_reg_mr(address=0x2b0ada3c3000, length=544768, access=0xf) failed: Cannot allocate memory
[1671040375.811609] [eu-a2p-504:12875:0]           mpool.c:226  UCX  ERROR Failed to allocate memory pool (name=ud_recv_skb) chunk: Input/output error
[1671040375.811613] [eu-a2p-504:12903:0]           mpool.c:226  UCX  ERROR Failed to allocate memory pool (name=ud_recv_skb) chunk: Input/output error
[1671040375.811631] [eu-a2p-504:12803:0]           mpool.c:226  UCX  ERROR Failed to allocate memory pool (name=ud_recv_skb) chunk: Input/output error
[1671040375.812306] [eu-a2p-504:12866:0]           ib_md.c:349  UCX  ERROR ibv_reg_mr(address=0x2b4295b34000, length=544768, access=0xf) failed: Cannot allocate memory
[1671040375.813615] [eu-a2p-504:12867:0]           mpool.c:226  UCX  ERROR Failed to allocate memory pool (name=ud_recv_skb) chunk: Input/output error
[1671040375.813634] [eu-a2p-504:12866:0]           mpool.c:226  UCX  ERROR Failed to allocate memory pool (name=ud_recv_skb) chunk: Input/output error
[1671040375.816075] [eu-a2p-504:12809:0]           ib_md.c:349  UCX  ERROR ibv_reg_mr(address=0x2b2cf77a5000, length=37773312, access=0xf) failed: Cannot allocate memory
[1671040375.816066] [eu-a2p-504:12902:0]           ib_md.c:349  UCX  ERROR ibv_reg_mr(address=0x2b2fd4419000, length=37773312, access=0xf) failed: Cannot allocate memory
[1671040375.816078] [eu-a2p-504:12794:0]           ib_md.c:349  UCX  ERROR ibv_reg_mr(address=0x2b54f0ab8000, length=37773312, access=0xf) failed: Cannot allocate memory
[1671040375.816273] [eu-a2p-504:12791:0]           ib_md.c:349  UCX  ERROR ibv_reg_mr(address=0x2b20fd3ec000, length=37773312, access=0xf) failed: Cannot allocate memory
[1671040375.816268] [eu-a2p-504:12798:0]           ib_md.c:349  UCX  ERROR ibv_reg_mr(address=0x2ae54c308000, length=37773312, access=0xf) failed: Cannot allocate memory
[1671040375.816273] [eu-a2p-504:12814:0]           ib_md.c:349  UCX  ERROR ibv_reg_mr(address=0x2b7c8851b000, length=37773312, access=0xf) failed: Cannot allocate memory
[1671040375.816271] [eu-a2p-504:12826:0]           ib_md.c:349  UCX  ERROR ibv_reg_mr(address=0x2b9258206000, length=37773312, access=0xf) failed: Cannot allocate memory
[1671040375.818670] [eu-a2p-504:12794:0]           mpool.c:226  UCX  ERROR Failed to allocate memory pool (name=rc_recv_desc) chunk: Input/output error
[1671040375.818674] [eu-a2p-504:12798:0]           mpool.c:226  UCX  ERROR Failed to allocate memory pool (name=rc_recv_desc) chunk: Input/output error
[1671040375.818676] [eu-a2p-504:12814:0]           mpool.c:226  UCX  ERROR Failed to allocate memory pool (name=rc_recv_desc) chunk: Input/output error
[1671040375.818673] [eu-a2p-504:12826:0]           mpool.c:226  UCX  ERROR Failed to allocate memory pool (name=rc_recv_desc) chunk: Input/output error
[1671040375.818665] [eu-a2p-504:12902:0]           mpool.c:226  UCX  ERROR Failed to allocate memory pool (name=rc_recv_desc) chunk: Input/output error
[1671040375.818776] [eu-a2p-504:12809:0]           mpool.c:226  UCX  ERROR Failed to allocate memory pool (name=rc_recv_desc) chunk: Input/output error
[1671040375.818887] [eu-a2p-504:12791:0]           mpool.c:226  UCX  ERROR Failed to allocate memory pool (name=rc_recv_desc) chunk: Input/output error
[1671040378.225702] [eu-a2p-504:12824:0]         ib_mlx5.h:681  UCX  ERROR mlx5dv_devx_umem_reg() failed: Cannot allocate memory
[1671040378.625055] [eu-a2p-504:12796:0]         ib_mlx5.h:681  UCX  ERROR mlx5dv_devx_umem_reg() failed: Cannot allocate memory
slurmstepd: error: execve(/cluster/slurm/adm/scripts/task-epilog.sh): Argument list too long
slurmstepd: error: --task-epilog failed status=32512
[1671040379.381409] [eu-a2p-504:12858:0]         ib_mlx5.h:681  UCX  ERROR mlx5dv_devx_umem_reg() failed: Cannot allocate memory
[1671040380.491328] [eu-a2p-504:12794:0]           ib_md.c:349  UCX  ERROR ibv_reg_mr(address=0x2b54f1050000, length=37773312, access=0xf) failed: Cannot allocate memory
[1671040380.502577] [eu-a2p-504:12867:0]           ib_md.c:349  UCX  ERROR ibv_reg_mr(address=0x2ba26cc72000, length=37773312, access=0xf) failed: Cannot allocate memory
[1671040380.568007] [eu-a2p-504:12844:0]         ib_mlx5.h:681  UCX  ERROR mlx5dv_devx_umem_reg() failed: Cannot allocate memory
[1671040380.577858] [eu-a2p-504:12867:0]           mpool.c:226  UCX  ERROR Failed to allocate memory pool (name=rc_recv_desc) chunk: Input/output error
[1671040380.585130] [eu-a2p-504:12794:0]           mpool.c:226  UCX  ERROR Failed to allocate memory pool (name=rc_recv_desc) chunk: Input/output error
[1671040381.652379] [eu-a2p-504:12794:0]           ib_md.c:349  UCX  ERROR ibv_reg_mr(address=0x2b54f10d2000, length=544768, access=0xf) failed: Cannot allocate memory
[1671040381.681153] [eu-a2p-504:12823:0]           ib_md.c:349  UCX  ERROR ibv_reg_mr(address=0x2ae928184000, length=37773312, access=0xf) failed: Cannot allocate memory
[1671040381.980984] [eu-a2p-504:12823:0]           mpool.c:226  UCX  ERROR Failed to allocate memory pool (name=rc_recv_desc) chunk: Input/output error
[1671040380.990713] [eu-a2p-504:12870:0]         ib_mlx5.h:681  UCX  ERROR mlx5dv_devx_umem_reg() failed: Cannot allocate memory
[1671040381.633932] [eu-a2p-504:12890:0]           ib_md.c:349  UCX  ERROR ibv_reg_mr(address=0x2b299a24f000, length=37773312, access=0xf) failed: Cannot allocate memory
[1671040381.688391] [eu-a2p-504:12898:0]           ib_md.c:349  UCX  ERROR ibv_reg_mr(address=0x2ab298598000, length=37773312, access=0xf) failed: Cannot allocate memory
[1671040381.979301] [eu-a2p-504:12898:0]           mpool.c:226  UCX  ERROR Failed to allocate memory pool (name=rc_recv_desc) chunk: Input/output error
[1671040381.688323] [eu-a2p-504:12900:0]           ib_md.c:349  UCX  ERROR ibv_reg_mr(address=0x2b835069a000, length=37773312, access=0xf) failed: Cannot allocate memory
[1671040381.978370] [eu-a2p-504:12900:0]           mpool.c:226  UCX  ERROR Failed to allocate memory pool (name=rc_recv_desc) chunk: Input/output error
[1671040381.093262] [eu-a2p-504:12901:0]         ib_mlx5.h:681  UCX  ERROR mlx5dv_devx_umem_reg() failed: Cannot allocate memory
[1671040381.986391] [eu-a2p-504:12890:0]           mpool.c:226  UCX  ERROR Failed to allocate memory pool (name=rc_recv_desc) chunk: Input/output error
[1671040381.987145] [eu-a2p-504:12794:0]           mpool.c:226  UCX  ERROR Failed to allocate memory pool (name=ud_recv_skb) chunk: Input/output error
[1671040383.334722] [eu-a2p-504:12879:0]           ib_md.c:349  UCX  ERROR ibv_reg_mr(address=0x2b62935b1000, length=37773312, access=0xf) failed: Cannot allocate memory
[1671040383.801944] [eu-a2p-504:12794:0]           ib_md.c:349  UCX  ERROR ibv_reg_mr(address=0x2b54f10d2000, length=19034112, access=0xf) failed: Cannot allocate memory
[1671040383.562411] [eu-a2p-504:12814:0]           ib_md.c:349  UCX  ERROR ibv_reg_mr(address=0x2b7c88ab3000, length=37773312, access=0xf) failed: Cannot allocate memory
[1671040383.335327] [eu-a2p-504:12816:0]           ib_md.c:349  UCX  ERROR ibv_reg_mr(address=0x2af660d3b000, length=37773312, access=0xf) failed: Cannot allocate memory
[1671040383.335256] [eu-a2p-504:12826:0]           ib_md.c:349  UCX  ERROR ibv_reg_mr(address=0x2b925879e000, length=37773312, access=0xf) failed: Cannot allocate memory
[1671040383.832378] [eu-a2p-504:12879:0]           mpool.c:226  UCX  ERROR Failed to allocate memory pool (name=rc_recv_desc) chunk: Input/output error
[1671040383.335027] [eu-a2p-504:12887:0]           ib_md.c:349  UCX  ERROR ibv_reg_mr(address=0x2b6ec8dca000, length=37773312, access=0xf) failed: Cannot allocate memory
[1671040383.334875] [eu-a2p-504:12891:0]           ib_md.c:349  UCX  ERROR ibv_reg_mr(address=0x2abebbc39000, length=37773312, access=0xf) failed: Cannot allocate memory
[1671040383.832904] [eu-a2p-504:12794:0]           mpool.c:226  UCX  ERROR Failed to allocate memory pool (name=ud_recv_skb) chunk: Input/output error
[1671040383.832883] [eu-a2p-504:12814:0]           mpool.c:226  UCX  ERROR Failed to allocate memory pool (name=rc_recv_desc) chunk: Input/output error
[1671040383.835816] [eu-a2p-504:12826:0]           mpool.c:226  UCX  ERROR Failed to allocate memory pool (name=rc_recv_desc) chunk: Input/output error
[1671040383.836402] [eu-a2p-504:12891:0]           mpool.c:226  UCX  ERROR Failed to allocate memory pool (name=rc_recv_desc) chunk: Input/output error
[1671040383.836724] [eu-a2p-504:12816:0]           mpool.c:226  UCX  ERROR Failed to allocate memory pool (name=rc_recv_desc) chunk: Input/output error
[1671040383.837554] [eu-a2p-504:12887:0]           mpool.c:226  UCX  ERROR Failed to allocate memory pool (name=rc_recv_desc) chunk: Input/output error
[eu-a2p-504:12858] pml_ucx.c:309  Error: Failed to create UCP worker
[eu-a2p-504:12870] pml_ucx.c:309  Error: Failed to create UCP worker
[eu-a2p-504:12844] pml_ucx.c:309  Error: Failed to create UCP worker
[eu-a2p-504:12824] pml_ucx.c:309  Error: Failed to create UCP worker
[eu-a2p-504:12901] pml_ucx.c:309  Error: Failed to create UCP worker
[eu-a2p-504:12796] pml_ucx.c:309  Error: Failed to create UCP worker
[1671040386.251500] [eu-a2p-504:12883:0]           ib_md.c:349  UCX  ERROR ibv_reg_mr(address=0x2ba1b3047000, length=37773312, access=0xf) failed: Cannot allocate memory
[1671040387.165487] [eu-a2p-504:12814:0]           ib_md.c:349  UCX  ERROR ibv_reg_mr(address=0x2b7c88cc1000, length=37773312, access=0xf) failed: Cannot allocate memory
[1671040387.168309] [eu-a2p-504:12814:0]           mpool.c:226  UCX  ERROR Failed to allocate memory pool (name=rc_recv_desc) chunk: Input/output error
[1671040386.372938] [eu-a2p-504:12816:0]           ib_md.c:349  UCX  ERROR ibv_reg_mr(address=0x2af660f49000, length=37773312, access=0xf) failed: Cannot allocate memory
[1671040387.166501] [eu-a2p-504:12816:0]           mpool.c:226  UCX  ERROR Failed to allocate memory pool (name=rc_recv_desc) chunk: Input/output error
[1671040386.276307] [eu-a2p-504:12826:0]           ib_md.c:349  UCX  ERROR ibv_reg_mr(address=0x2b925adb2000, length=37773312, access=0xf) failed: Cannot allocate memory
[1671040387.168310] [eu-a2p-504:12826:0]           mpool.c:226  UCX  ERROR Failed to allocate memory pool (name=rc_recv_desc) chunk: Input/output error
[1671040387.177498] [eu-a2p-504:12883:0]           mpool.c:226  UCX  ERROR Failed to allocate memory pool (name=rc_recv_desc) chunk: Input/output error
slurmstepd: error: *** STEP 4309712.0 ON eu-a2p-504 CANCELLED AT 2022-12-14T19:51:19 DUE TO TIME LIMIT ***
slurmstepd: error: *** JOB 4309712 ON eu-a2p-504 CANCELLED AT 2022-12-14T19:51:19 DUE TO TIME LIMIT ***
srun: Job step aborted: Waiting up to 32 seconds for job step to finish.
slurmstepd: error: Detected 579 oom-kill event(s) in StepId=4309712.batch. Some of your processes may have been killed by the cgroup out-of-memory handler.
