MPI_insiderank_serial
Process 0: 0.835500, 0.838075, 0.811726, 0.810475, 0.808519, 0.808645, 0.811191, 0.810286, 0.808317, 0.808306, 0.809429, 0.808565, 0.812901, 0.808509, 0.808848, 0.813615, 0.811115, 0.808892, 0.813048, 0.808913, 0.809479, 0.811656, 0.809774, 0.812474, 0.812767, 0.809224, 0.812281, 0.808826, 0.811118, 0.808920
Process 1: 0.750449, 0.752741, 0.723688, 0.722968, 0.722958, 0.723034, 0.723160, 0.722803, 0.722934, 0.722909, 0.723005, 0.722926, 0.723040, 0.722989, 0.723040, 0.723100, 0.723034, 0.722990, 0.722981, 0.722836, 0.722910, 0.723015, 0.722839, 0.722918, 0.722823, 0.723274, 0.723052, 0.722730, 0.722918, 0.722846
Process 2: 0.758953, 0.761168, 0.730062, 0.729347, 0.729419, 0.729501, 0.729525, 0.729357, 0.729415, 0.729359, 0.729441, 0.729432, 0.729412, 0.729447, 0.729489, 0.729383, 0.729428, 0.731409, 0.729504, 0.729322, 0.729375, 0.729395, 0.729348, 0.729272, 0.729220, 0.731687, 0.729406, 0.729230, 0.729317, 0.729283
Process 3: 0.765414, 0.767702, 0.736476, 0.735787, 0.736050, 0.736236, 0.735901, 0.735640, 0.735785, 0.735704, 0.737058, 0.737856, 0.736021, 0.735940, 0.735832, 0.735814, 0.735854, 0.737958, 0.735889, 0.735653, 0.736396, 0.735931, 0.737734, 0.735950, 0.737413, 0.738226, 0.736806, 0.737632, 0.735903, 0.737710
Process 4: 0.771883, 0.774177, 0.745036, 0.744389, 0.744567, 0.744695, 0.744500, 0.742164, 0.742266, 0.742285, 0.745515, 0.744694, 0.744628, 0.744414, 0.742644, 0.742406, 0.744450, 0.744354, 0.744403, 0.742234, 0.744853, 0.744528, 0.744255, 0.744522, 0.744272, 0.744620, 0.745410, 0.744291, 0.744499, 0.744350
Process 5: 0.780296, 0.782516, 0.753427, 0.752745, 0.752929, 0.753131, 0.752863, 0.750524, 0.750644, 0.750673, 0.753932, 0.752991, 0.752964, 0.752816, 0.751075, 0.750781, 0.752803, 0.752681, 0.752846, 0.750605, 0.753265, 0.752901, 0.752579, 0.752892, 0.752620, 0.752953, 0.753742, 0.752630, 0.752854, 0.752645
Process 6: 0.788767, 0.791036, 0.760615, 0.759254, 0.759515, 0.759652, 0.759351, 0.759201, 0.757220, 0.757213, 0.760482, 0.759576, 0.761593, 0.759417, 0.759602, 0.757300, 0.759280, 0.759229, 0.759315, 0.757123, 0.759814, 0.759394, 0.759132, 0.760661, 0.759166, 0.759497, 0.760242, 0.759170, 0.759313, 0.759218
Process 7: 0.795338, 0.797627, 0.769077, 0.767703, 0.767924, 0.768088, 0.767821, 0.767647, 0.765662, 0.765679, 0.768892, 0.767993, 0.770022, 0.767816, 0.768137, 0.765553, 0.765709, 0.765623, 0.767656, 0.765595, 0.766196, 0.765828, 0.766497, 0.769114, 0.765569, 0.765879, 0.766656, 0.765535, 0.765742, 0.765582
Process 8: 0.803737, 0.805945, 0.777555, 0.776211, 0.776424, 0.776566, 0.776325, 0.776119, 0.774153, 0.774158, 0.777385, 0.776479, 0.778514, 0.776305, 0.776614, 0.773965, 0.774130, 0.774013, 0.776093, 0.774076, 0.774594, 0.774246, 0.774899, 0.777592, 0.773990, 0.774286, 0.775076, 0.773946, 0.774167, 0.773990
Process 9: 0.810271, 0.812539, 0.786097, 0.784749, 0.783020, 0.783152, 0.782874, 0.782672, 0.780714, 0.780729, 0.783957, 0.783061, 0.785117, 0.782886, 0.783234, 0.780464, 0.780682, 0.780582, 0.784636, 0.780651, 0.781173, 0.780757, 0.781469, 0.784166, 0.780494, 0.780892, 0.781625, 0.780518, 0.780685, 0.780608
Process 10: 0.816644, 0.818973, 0.792671, 0.791360, 0.789413, 0.789550, 0.789255, 0.789062, 0.789075, 0.789102, 0.790353, 0.789454, 0.791509, 0.789317, 0.789666, 0.787220, 0.789100, 0.786952, 0.791151, 0.787013, 0.787551, 0.787138, 0.787833, 0.790526, 0.786882, 0.787317, 0.788033, 0.786896, 0.789104, 0.787012
Process 11: 0.823096, 0.825297, 0.798974, 0.797687, 0.795733, 0.795872, 0.795564, 0.797463, 0.795583, 0.795592, 0.796675, 0.795804, 0.797887, 0.795761, 0.796097, 0.795723, 0.795541, 0.793281, 0.797455, 0.793356, 0.793873, 0.793773, 0.794172, 0.796862, 0.794927, 0.793641, 0.794413, 0.793252, 0.795535, 0.793342
Process 12: 0.829420, 0.831751, 0.805367, 0.804122, 0.802182, 0.802288, 0.802022, 0.803911, 0.801987, 0.802014, 0.803089, 0.802229, 0.806524, 0.802154, 0.802502, 0.804238, 0.801986, 0.799716, 0.803887, 0.799767, 0.800292, 0.802293, 0.800576, 0.803283, 0.803448, 0.800051, 0.802920, 0.799665, 0.801981, 0.799766
Process 13: 0.835767, 0.838077, 0.811735, 0.810469, 0.808510, 0.808643, 0.811191, 0.810262, 0.808317, 0.808305, 0.809427, 0.808564, 0.812899, 0.808507, 0.808848, 0.813613, 0.811114, 0.808892, 0.813047, 0.808910, 0.809479, 0.811655, 0.809773, 0.812473, 0.812766, 0.809223, 0.812279, 0.808825, 0.811116, 0.808920
