MPI_insiderank_serial
Process 0: 0.888357, 0.892159, 0.860724, 0.858011, 0.861070, 0.871216, 0.860278, 0.859184, 0.858557, 0.862756, 0.858109, 0.861560, 0.862439, 0.861507, 0.866551, 0.862572, 0.860533, 0.860478, 0.863075, 0.863413, 0.863412, 0.863831, 0.862649, 0.860307, 0.858047, 0.861700, 0.860925, 0.863784, 0.866738, 0.861831
Process 1: 0.794293, 0.791004, 0.759676, 0.759776, 0.764781, 0.768190, 0.758794, 0.763035, 0.773198, 0.761576, 0.760005, 0.762765, 0.762567, 0.765889, 0.768601, 0.758504, 0.761546, 0.762812, 0.766654, 0.765118, 0.762768, 0.767143, 0.761467, 0.759093, 0.760307, 0.762673, 0.762664, 0.767114, 0.769989, 0.765117
Process 2: 0.803582, 0.800150, 0.768853, 0.768972, 0.774095, 0.777328, 0.767982, 0.771591, 0.779946, 0.770714, 0.769185, 0.771945, 0.771727, 0.775081, 0.777802, 0.767684, 0.770730, 0.770731, 0.775843, 0.774277, 0.771947, 0.776332, 0.770635, 0.768264, 0.769471, 0.771841, 0.771838, 0.774014, 0.779191, 0.774305
Process 3: 0.812852, 0.809403, 0.778056, 0.778217, 0.780901, 0.786578, 0.777219, 0.780784, 0.786889, 0.779950, 0.778434, 0.781187, 0.780984, 0.784458, 0.787049, 0.776868, 0.779955, 0.779955, 0.785092, 0.783518, 0.781313, 0.785589, 0.779855, 0.777488, 0.778729, 0.781093, 0.781197, 0.783218, 0.788461, 0.783551
Process 4: 0.822266, 0.818471, 0.787108, 0.787313, 0.789563, 0.795617, 0.786328, 0.790034, 0.793845, 0.789036, 0.787678, 0.790288, 0.790258, 0.791148, 0.794904, 0.785957, 0.789049, 0.789030, 0.794337, 0.792611, 0.789992, 0.794677, 0.788920, 0.786549, 0.787816, 0.790171, 0.789422, 0.792300, 0.797560, 0.792638
Process 5: 0.828939, 0.827812, 0.796452, 0.796702, 0.798905, 0.804970, 0.795690, 0.799064, 0.800620, 0.798343, 0.795879, 0.799682, 0.798842, 0.799377, 0.801781, 0.795310, 0.798422, 0.798357, 0.801209, 0.802025, 0.799319, 0.804088, 0.798268, 0.795896, 0.797233, 0.799539, 0.798745, 0.801620, 0.806974, 0.802041
Process 6: 0.835853, 0.836893, 0.805555, 0.804950, 0.808012, 0.814045, 0.804996, 0.808258, 0.807558, 0.807443, 0.804959, 0.807976, 0.807923, 0.808471, 0.809915, 0.804387, 0.807720, 0.807441, 0.810065, 0.810321, 0.808408, 0.810826, 0.807345, 0.804984, 0.804988, 0.808838, 0.807828, 0.810711, 0.813714, 0.808857
Process 7: 0.845277, 0.846349, 0.814979, 0.814442, 0.817503, 0.823505, 0.814299, 0.817432, 0.816728, 0.816897, 0.814444, 0.817445, 0.817424, 0.817951, 0.819091, 0.813813, 0.817007, 0.816918, 0.819535, 0.819795, 0.817887, 0.820309, 0.816799, 0.814428, 0.814448, 0.818116, 0.817313, 0.820182, 0.823188, 0.818320
Process 8: 0.854565, 0.855516, 0.824153, 0.823620, 0.826685, 0.832657, 0.823443, 0.826576, 0.825867, 0.826056, 0.823602, 0.826624, 0.826586, 0.827125, 0.828619, 0.823009, 0.826174, 0.826085, 0.828706, 0.828968, 0.827044, 0.829499, 0.825972, 0.823611, 0.823643, 0.827297, 0.826494, 0.829360, 0.832354, 0.827496
Process 9: 0.863694, 0.864804, 0.833459, 0.832861, 0.835930, 0.841933, 0.832693, 0.835730, 0.835052, 0.835334, 0.832820, 0.835863, 0.835834, 0.836356, 0.837890, 0.832278, 0.835416, 0.835319, 0.837949, 0.838208, 0.836284, 0.838736, 0.835249, 0.832893, 0.832862, 0.836537, 0.835728, 0.838608, 0.841597, 0.836735
Process 10: 0.870424, 0.874152, 0.842769, 0.839806, 0.842875, 0.849265, 0.839634, 0.842776, 0.842045, 0.844696, 0.839795, 0.842830, 0.842808, 0.843338, 0.844841, 0.840398, 0.842392, 0.842272, 0.844907, 0.845146, 0.843260, 0.845682, 0.844595, 0.842212, 0.839837, 0.843471, 0.842689, 0.845591, 0.848534, 0.843661
Process 11: 0.877393, 0.881149, 0.849777, 0.846727, 0.849775, 0.859415, 0.848759, 0.849631, 0.848925, 0.851732, 0.846736, 0.850195, 0.850980, 0.850207, 0.854829, 0.850781, 0.849279, 0.849231, 0.851797, 0.852117, 0.851939, 0.852564, 0.851630, 0.849258, 0.846764, 0.850401, 0.849631, 0.852516, 0.855444, 0.850562
Process 12: 0.888714, 0.892159, 0.860728, 0.858016, 0.861073, 0.871209, 0.860278, 0.859182, 0.858556, 0.862754, 0.858108, 0.861559, 0.862438, 0.861506, 0.866550, 0.862570, 0.860531, 0.860476, 0.863074, 0.863412, 0.863411, 0.863830, 0.862649, 0.860305, 0.858046, 0.861699, 0.860924, 0.863783, 0.866737, 0.861829
