MPI_insiderank_serial
Process 0: 1.910187, 1.912757, 1.890071, 1.889034, 1.888875, 1.888913, 1.888259, 1.888665, 1.888603, 1.889421, 1.889485, 1.889412, 1.889386, 1.889287, 1.888986, 1.889275, 1.889140, 1.888797, 1.888965, 1.889230, 1.889304, 1.888754, 1.888368, 1.888013, 1.888012, 1.888613, 1.888713, 1.887876, 1.888030, 1.888207
Process 1: 1.866960, 1.868150, 1.845389, 1.844403, 1.844264, 1.844291, 1.843643, 1.844018, 1.843990, 1.844810, 1.844873, 1.844776, 1.844738, 1.844674, 1.844380, 1.844650, 1.844523, 1.844157, 1.844351, 1.844605, 1.844687, 1.844077, 1.843770, 1.843384, 1.843401, 1.844007, 1.844093, 1.843268, 1.843426, 1.843562
Process 2: 1.888853, 1.890608, 1.867870, 1.866864, 1.866730, 1.866748, 1.866076, 1.866471, 1.866452, 1.867255, 1.867325, 1.867246, 1.867223, 1.867141, 1.866839, 1.867115, 1.866970, 1.866634, 1.866806, 1.867050, 1.867157, 1.866559, 1.866232, 1.865835, 1.865873, 1.866468, 1.866564, 1.865821, 1.865866, 1.866020
Process 3: 1.911158, 1.912756, 1.890073, 1.889037, 1.888873, 1.888914, 1.888259, 1.888667, 1.888602, 1.889423, 1.889486, 1.889415, 1.889388, 1.889288, 1.888982, 1.889274, 1.889143, 1.888797, 1.888965, 1.889231, 1.889304, 1.888750, 1.888366, 1.888012, 1.888014, 1.888612, 1.888713, 1.887877, 1.888032, 1.888208
