MPI_insiderank_serial
Process 0: 3.672222, 3.673848, 3.671929, 3.671738, 3.671820, 3.672933, 3.671864, 3.671604, 3.671688, 3.671568, 3.671649, 3.672168, 3.671620, 3.671718, 3.671604, 3.671655, 3.671685, 3.671381, 3.671436, 3.671623, 3.671747, 3.671683, 3.671752, 3.671918, 3.671711, 3.671601, 3.671760, 3.671803, 3.671914, 3.671528
Process 1: 3.674392, 3.675983, 3.674098, 3.673818, 3.673896, 3.675087, 3.674009, 3.673703, 3.673847, 3.673635, 3.673769, 3.674342, 3.673718, 3.673861, 3.673710, 3.673732, 3.673813, 3.673456, 3.673526, 3.673710, 3.673853, 3.673821, 3.673887, 3.674043, 3.673823, 3.673708, 3.673843, 3.673902, 3.674042, 3.673680
