MPI_insiderank_serial
Process 0: 15.360244, 13.938291, 15.074651, 14.825230, 14.520644, 15.908469, 14.167813, 15.236895, 15.179716, 14.285592, 14.600795, 15.761390, 15.099030, 13.837913, 15.042414, 14.748027, 15.940198, 15.083298, 14.239544, 15.152890, 15.742411, 14.997876, 14.288051, 17.046595, 14.162378, 14.515114, 15.302458, 14.600385, 14.284166, 15.770649
Process 1: 12.045464, 12.111333, 11.828357, 11.688511, 11.440723, 13.451728, 11.636743, 11.873790, 12.922526, 11.811201, 11.590191, 13.601852, 11.889019, 11.708687, 11.647983, 11.768603, 13.295474, 11.839948, 11.656285, 11.613465, 13.318092, 11.826994, 11.597005, 14.396533, 11.562959, 11.462629, 13.161762, 11.632371, 11.457999, 13.632863
Process 2: 12.185810, 12.195286, 11.951563, 11.769388, 11.550025, 13.548191, 11.702741, 12.049002, 13.000678, 11.947734, 11.670486, 13.669109, 12.052138, 11.792182, 11.742981, 11.836854, 13.381799, 11.957307, 11.779850, 11.718987, 13.413840, 11.974861, 11.714421, 14.511035, 11.623775, 11.484126, 13.213943, 11.685153, 11.507262, 13.740930
Process 3: 12.486248, 12.446702, 12.282424, 12.135173, 11.677001, 13.695832, 11.844125, 12.365104, 13.165946, 12.260807, 11.832232, 14.018576, 12.351415, 12.037833, 12.063050, 11.965548, 13.542984, 12.279491, 11.903775, 11.841873, 13.552952, 12.279825, 11.848039, 14.643863, 11.954513, 11.656340, 13.417098, 12.052859, 11.669207, 14.060973
Process 4: 12.724420, 12.513289, 12.513527, 12.355842, 11.970258, 13.788074, 11.960823, 12.605710, 13.255909, 12.480334, 11.910944, 14.085964, 12.574988, 12.155261, 12.284758, 12.903353, 13.630613, 12.510727, 12.027536, 12.135305, 13.650783, 12.501561, 12.195045, 14.759225, 12.176555, 11.958213, 13.486269, 12.277891, 11.756085, 14.132625
Process 5: 12.970948, 12.622701, 12.777219, 12.637200, 12.202587, 13.911302, 12.087476, 12.859951, 13.403109, 12.699813, 12.046077, 14.151831, 12.816590, 12.256700, 12.566697, 12.968099, 13.767629, 12.749776, 12.206243, 12.361436, 13.778144, 12.729420, 12.462362, 14.890350, 12.413675, 12.188973, 13.612644, 12.554685, 11.882721, 14.186727
Process 6: 13.210252, 12.738161, 13.016591, 12.862322, 12.433886, 14.022878, 12.379900, 13.094919, 13.517865, 12.923574, 12.351712, 14.201077, 13.038404, 12.330224, 12.789578, 13.011803, 13.880874, 12.987372, 12.323714, 13.054657, 13.900763, 12.951575, 12.684956, 15.018679, 12.640837, 12.421884, 13.701290, 12.773526, 12.178829, 14.236536
Process 7: 13.480912, 12.887473, 13.250596, 13.145302, 12.670432, 14.155024, 12.608146, 13.365893, 13.641139, 13.155158, 12.614950, 14.300248, 13.265103, 12.466969, 13.070959, 13.068820, 14.016348, 13.224043, 12.443699, 13.291683, 14.033702, 13.182004, 12.748030, 15.147373, 12.883739, 12.647403, 13.824280, 13.042963, 12.428862, 14.367978
Process 8: 13.714297, 13.039949, 13.493089, 13.371371, 12.904822, 14.283147, 12.830864, 13.607125, 13.823409, 13.260003, 12.843553, 14.421970, 13.483800, 12.631167, 13.302437, 13.145637, 14.265539, 13.461521, 12.687443, 13.524180, 14.164587, 13.406841, 12.791834, 15.401011, 12.991218, 12.875996, 13.950630, 13.273393, 12.654794, 14.500554
Process 9: 13.982081, 13.197178, 13.726550, 13.608266, 13.145835, 14.425452, 13.058760, 13.861011, 13.943757, 13.302340, 13.117063, 14.560839, 13.731255, 12.738558, 13.572260, 13.363968, 14.495788, 13.719508, 12.767791, 13.776018, 14.301504, 13.636389, 12.914260, 15.662263, 13.214247, 13.101917, 14.100081, 13.532802, 12.877877, 14.650179
Process 10: 14.209743, 13.284773, 13.966354, 13.834756, 13.376212, 14.670054, 13.281141, 14.088745, 14.209142, 13.391404, 13.347960, 14.696652, 13.962386, 13.020309, 13.801909, 13.587819, 14.723149, 13.947100, 13.048473, 14.003311, 14.543285, 13.865188, 13.140208, 15.882572, 13.339807, 13.332059, 14.317397, 13.756457, 13.111474, 14.775683
Process 11: 14.442669, 13.461272, 14.194814, 14.083844, 13.616292, 14.942640, 13.509126, 14.325084, 14.386356, 13.445075, 13.622425, 14.824793, 14.193273, 13.144021, 14.072292, 13.840267, 14.999306, 14.177514, 13.300244, 14.251397, 14.817413, 14.094371, 13.378033, 16.112984, 13.389608, 13.555916, 14.485492, 14.025062, 13.376462, 14.910609
Process 12: 14.668521, 13.569057, 14.345088, 14.314463, 13.847915, 15.169669, 13.623106, 14.552392, 14.478461, 13.583920, 13.854440, 15.047612, 14.431182, 13.211606, 14.303006, 14.064405, 15.229138, 14.415153, 13.537677, 14.474758, 15.047331, 14.332585, 13.614421, 16.339376, 13.518885, 13.788794, 14.620805, 14.164760, 13.602559, 15.124258
Process 13: 14.928933, 13.706453, 14.582724, 14.571261, 14.094449, 15.455540, 13.708956, 14.797782, 14.705224, 13.854716, 14.137257, 15.306800, 14.665686, 13.292136, 14.583010, 14.308812, 15.507289, 14.644330, 13.794792, 14.716134, 15.288552, 14.561799, 13.852443, 16.617562, 13.753907, 14.061646, 14.853258, 14.422320, 13.829669, 15.354118
Process 14: 15.123922, 13.828638, 14.793656, 14.694154, 14.293842, 15.646627, 13.905526, 14.993770, 14.911170, 14.058381, 14.337918, 15.503747, 14.876510, 13.584241, 14.786885, 14.504463, 15.700373, 14.860462, 14.004212, 14.913819, 15.485478, 14.768937, 14.059796, 16.802057, 13.941517, 14.262146, 15.050600, 14.554111, 14.031505, 15.551051
Process 15: 15.362696, 13.941556, 15.078947, 14.830114, 14.523673, 15.910763, 14.171469, 15.239251, 15.183135, 14.287726, 14.603651, 15.763961, 15.101538, 13.840689, 15.046293, 14.750993, 15.944285, 15.085326, 14.241798, 15.154859, 15.746760, 15.000932, 14.290454, 17.050235, 14.164592, 14.517484, 15.306326, 14.602736, 14.288402, 15.772936
