MPI_insiderank_serial
Process 0: 10.436441, 9.869722, 9.871440, 10.005694, 9.962246, 9.872896, 10.068848, 10.025725, 9.905948, 9.835879, 9.862783, 9.907759, 9.780568, 9.841697, 9.847890, 9.796000, 9.794255, 9.822481, 9.790643, 9.793536, 9.843737, 9.841726, 9.813417, 9.857466, 9.803422, 9.851891, 10.016076, 9.758961, 9.758185, 9.821889
Process 1: 10.439308, 9.872785, 9.874213, 10.008378, 9.965256, 9.875838, 10.071510, 10.028633, 9.910097, 9.838922, 9.866833, 9.910655, 9.783618, 9.845620, 9.850970, 9.799882, 9.797306, 9.825443, 9.793673, 9.796440, 9.847806, 9.844647, 9.816434, 9.860227, 9.807445, 9.855900, 10.018951, 9.761981, 9.760996, 9.824497
