mpi_trmm_opt3
Process 0: 17.011398, 16.081291, 16.403771, 16.250400, 16.906207, 16.588890, 16.254985, 16.759873, 16.444562, 16.519208, 16.627164, 16.373204, 16.731448, 16.369774, 16.055927, 16.450116, 16.655650, 16.320982, 15.877297, 16.485948, 16.312526, 16.053080, 16.448348, 16.445516, 16.138160, 16.062962, 16.174381, 16.040480, 16.054787, 15.618775
Process 1: 16.573466, 15.816989, 16.189066, 15.972417, 16.633931, 16.289210, 16.088333, 16.547560, 16.093200, 16.323841, 16.400236, 16.101030, 16.505749, 16.112426, 15.898156, 16.212386, 16.455059, 16.126199, 15.714565, 16.185112, 16.153375, 15.817176, 16.179175, 16.174834, 15.979387, 15.854179, 15.917151, 15.854850, 15.898075, 15.460508
Process 2: 16.576442, 15.819576, 16.191393, 15.988016, 16.648346, 16.290974, 16.090162, 16.554160, 16.094998, 16.325947, 16.402025, 16.102942, 16.507540, 16.114761, 15.900003, 16.214183, 16.457183, 16.128278, 15.716628, 16.188285, 16.155178, 15.818996, 16.181019, 16.178344, 15.981188, 15.856132, 15.918976, 15.857131, 15.899989, 15.462318
Process 3: 16.595107, 15.826159, 16.197872, 15.994890, 16.655521, 16.297663, 16.093048, 16.559086, 16.100316, 16.328866, 16.404972, 16.107974, 16.512898, 16.117682, 15.902904, 16.217132, 16.462047, 16.137610, 15.719523, 16.192231, 16.158090, 15.824010, 16.185644, 16.181720, 15.984292, 15.864567, 15.923680, 15.860381, 15.902894, 15.465229
Process 4: 16.598285, 15.829089, 16.200967, 16.008837, 16.663122, 16.302529, 16.095109, 16.562007, 16.107513, 16.345296, 16.406730, 16.120258, 16.514889, 16.132577, 15.904642, 16.218873, 16.465080, 16.139925, 15.721392, 16.196212, 16.159860, 15.825802, 16.187784, 16.190474, 15.986028, 15.866278, 15.925708, 15.865003, 15.904688, 15.466926
Process 5: 16.602367, 15.834991, 16.204026, 16.012030, 16.670286, 16.306117, 16.098053, 16.565067, 16.115462, 16.352349, 16.409679, 16.127085, 16.518410, 16.139663, 15.907554, 16.221771, 16.468160, 16.147212, 15.724313, 16.200213, 16.162870, 15.828659, 16.190691, 16.197723, 15.989077, 15.873786, 15.928686, 15.872471, 15.907627, 15.470007
Process 6: 16.605026, 15.837589, 16.206324, 16.025939, 16.682693, 16.320267, 16.099838, 16.569511, 16.128842, 16.354398, 16.422031, 16.129112, 16.520193, 16.141974, 15.909342, 16.235488, 16.469976, 16.149066, 15.726218, 16.204879, 16.164658, 15.830476, 16.205356, 16.199830, 15.990927, 15.875759, 15.938890, 15.874413, 15.909417, 15.471890
Process 7: 16.623048, 15.843998, 16.212686, 16.034476, 16.689821, 16.326964, 16.102804, 16.574337, 16.137484, 16.357347, 16.429218, 16.137235, 16.525368, 16.148990, 15.912284, 16.242578, 16.474754, 16.153740, 15.729333, 16.210145, 16.167739, 15.835361, 16.213362, 16.206750, 15.994049, 15.884010, 15.947379, 15.882096, 15.912342, 15.475003
Process 8: 16.628174, 15.847159, 16.215723, 16.044190, 16.700335, 16.333684, 16.107433, 16.579248, 16.146355, 16.373215, 16.431105, 16.150114, 16.527385, 16.163559, 15.914048, 16.244438, 16.477522, 16.155814, 15.731175, 16.220428, 16.169525, 15.837127, 16.215552, 16.212821, 15.995819, 15.885772, 15.949479, 15.884346, 15.914130, 15.476767
Process 9: 16.634024, 15.851146, 16.219881, 16.047678, 16.707229, 16.337177, 16.114461, 16.582301, 16.154234, 16.376098, 16.438091, 16.156953, 16.530922, 16.170405, 15.916977, 16.251315, 16.480690, 16.158874, 15.734256, 16.228503, 16.172611, 15.839977, 16.222362, 16.219964, 15.998871, 15.894039, 15.956484, 15.887689, 15.917060, 15.479802
Process 10: 16.637344, 15.853854, 16.221653, 16.049879, 16.709067, 16.339398, 16.116531, 16.584078, 16.157110, 16.377927, 16.440208, 16.158800, 16.533156, 16.172475, 15.918827, 16.253160, 16.482547, 16.160668, 15.736163, 16.231458, 16.174495, 15.841750, 16.224333, 16.222366, 16.000687, 15.896080, 15.958593, 15.889625, 15.918860, 15.481700
Process 11: 16.655250, 15.860104, 16.227957, 16.056560, 16.716131, 16.345895, 16.123515, 16.588811, 16.165783, 16.380954, 16.447077, 16.166873, 16.538387, 16.179836, 15.921877, 16.260061, 16.487294, 16.165374, 15.739302, 16.239523, 16.177605, 15.846594, 16.232403, 16.229712, 16.003795, 15.904379, 15.966843, 15.892951, 15.921826, 15.484752
Process 12: 16.658376, 15.863151, 16.229983, 16.058798, 16.717938, 16.348315, 16.125298, 16.590691, 16.168857, 16.382805, 16.448977, 16.168947, 16.540904, 16.182100, 15.923699, 16.262279, 16.489105, 16.167495, 15.741754, 16.242585, 16.179429, 15.848390, 16.234589, 16.232327, 16.005597, 15.906157, 15.969123, 15.895051, 15.923638, 15.486633
Process 13: 16.662783, 15.867029, 16.233059, 16.061960, 16.725253, 16.351657, 16.128233, 16.593759, 16.176593, 16.385849, 16.455861, 16.176153, 16.544199, 16.189170, 15.926750, 16.269387, 16.492217, 16.170527, 15.744847, 16.250457, 16.182515, 15.851478, 16.241512, 16.239468, 16.008648, 15.913367, 15.976446, 15.898246, 15.926588, 15.489671
Process 14: 16.665941, 15.869812, 16.234834, 16.063952, 16.727224, 16.353871, 16.130115, 16.595556, 16.179497, 16.387785, 16.457792, 16.178349, 16.546502, 16.191309, 15.928624, 16.271202, 16.494053, 16.172440, 15.746716, 16.253332, 16.184443, 15.853423, 16.243514, 16.241881, 16.010470, 15.915279, 15.978285, 15.900222, 15.928448, 15.491574
Process 15: 16.683304, 15.876107, 16.241133, 16.070710, 16.734396, 16.360490, 16.133045, 16.600309, 16.188113, 16.390860, 16.464661, 16.186578, 16.551845, 16.198395, 15.931676, 16.278398, 16.498840, 16.177172, 15.749806, 16.261413, 16.187476, 15.858329, 16.251667, 16.249264, 16.013547, 15.919982, 15.986682, 15.903559, 15.931345, 15.494606
Process 16: 16.686946, 15.879234, 16.243389, 16.073058, 16.736497, 16.362940, 16.134889, 16.602201, 16.191536, 16.392822, 16.466612, 16.188758, 16.554443, 16.200627, 15.933588, 16.280310, 16.503076, 16.179321, 15.751887, 16.264621, 16.189382, 15.860273, 16.253828, 16.251991, 16.015447, 15.921991, 15.988867, 15.905782, 15.933224, 15.496487
Process 17: 16.691203, 15.883179, 16.246503, 16.076268, 16.743653, 16.366281, 16.137799, 16.606468, 16.199857, 16.395953, 16.474110, 16.196206, 16.561974, 16.208200, 15.936717, 16.287833, 16.510745, 16.182444, 15.754995, 16.272705, 16.192474, 15.863355, 16.260997, 16.259264, 16.018570, 15.925103, 15.996456, 15.908999, 15.936121, 15.499574
Process 18: 16.694257, 15.886019, 16.248404, 16.078366, 16.745605, 16.368693, 16.139775, 16.608393, 16.203032, 16.397991, 16.476231, 16.198267, 16.564702, 16.210391, 15.938759, 16.289747, 16.512988, 16.184453, 15.757037, 16.275814, 16.194493, 15.865359, 16.263460, 16.261885, 16.020456, 15.926990, 15.998377, 15.911234, 15.937971, 15.501590
Process 19: 16.711603, 15.892204, 16.254660, 16.084850, 16.753103, 16.375181, 16.142768, 16.616691, 16.212341, 16.401119, 16.483475, 16.206514, 16.570004, 16.217369, 15.941825, 16.297445, 16.517746, 16.189174, 15.760172, 16.283937, 16.197594, 15.870245, 16.271545, 16.269190, 16.023593, 15.931697, 16.006517, 15.914612, 15.940945, 15.504654
Process 20: 16.714890, 15.895311, 16.256736, 16.087211, 16.755054, 16.377757, 16.144637, 16.618589, 16.215644, 16.403092, 16.485415, 16.208452, 16.572663, 16.219437, 15.943751, 16.299376, 16.519736, 16.191228, 15.762152, 16.287017, 16.199506, 15.872126, 16.273759, 16.271779, 16.025489, 15.933577, 16.008659, 15.916790, 15.942869, 15.506545
Process 21: 16.719159, 15.899242, 16.259912, 16.090480, 16.762223, 16.381091, 16.147580, 16.625756, 16.223674, 16.406169, 16.492783, 16.215619, 16.576117, 16.226741, 15.946856, 16.306702, 16.522870, 16.194287, 15.765195, 16.295154, 16.202583, 15.875163, 16.280923, 16.278944, 16.028550, 15.936659, 16.015900, 15.920015, 15.945953, 15.509585
Process 22: 16.722499, 15.902041, 16.261888, 16.092540, 16.764181, 16.383365, 16.149582, 16.627677, 16.226631, 16.408077, 16.494757, 16.217552, 16.578601, 16.228938, 15.948967, 16.308646, 16.524888, 16.196219, 15.767143, 16.298009, 16.204597, 15.877067, 16.282853, 16.281481, 16.030455, 15.938551, 16.018050, 15.922115, 15.947869, 15.511507
Process 23: 16.742169, 15.908171, 16.268104, 16.098925, 16.771323, 16.389805, 16.152579, 16.635926, 16.235404, 16.411184, 16.501956, 16.225765, 16.583810, 16.236093, 15.952128, 16.316021, 16.529735, 16.200947, 15.770301, 16.306209, 16.207643, 15.881857, 16.290925, 16.289335, 16.033586, 15.943283, 16.026252, 15.925391, 15.951019, 15.514579
Process 24: 16.746494, 15.911364, 16.270222, 16.101414, 16.773345, 16.392368, 16.154463, 16.637846, 16.238584, 16.413157, 16.503884, 16.227691, 16.586344, 16.239879, 15.954254, 16.318173, 16.531721, 16.203066, 15.772413, 16.309542, 16.209558, 15.883751, 16.293178, 16.291925, 16.035522, 15.945197, 16.028447, 15.927549, 15.953016, 15.516462
Process 25: 16.750578, 15.915277, 16.273271, 16.104641, 16.780544, 16.395729, 16.157458, 16.645330, 16.246695, 16.416252, 16.511073, 16.234864, 16.589865, 16.247255, 15.957228, 16.325730, 16.534938, 16.206157, 15.775642, 16.318104, 16.212665, 15.886878, 16.300334, 16.299079, 16.038588, 15.948309, 16.035766, 15.930837, 15.956282, 15.519542
Process 26: 16.753671, 15.918092, 16.275249, 16.106707, 16.782475, 16.398010, 16.159351, 16.647429, 16.249656, 16.418194, 16.513022, 16.236802, 16.592276, 16.249456, 15.959251, 16.327660, 16.536971, 16.208188, 15.777688, 16.321043, 16.214623, 15.888789, 16.302253, 16.301682, 16.040493, 15.950189, 16.037913, 15.933050, 15.958223, 15.521464
Process 27: 16.770518, 15.924314, 16.281439, 16.113138, 16.789939, 16.404467, 16.162284, 16.652193, 16.258496, 16.421349, 16.520574, 16.245117, 16.597587, 16.256641, 15.962220, 16.334866, 16.541751, 16.212844, 15.780884, 16.329426, 16.217716, 15.893581, 16.310528, 16.309140, 16.043578, 15.954913, 16.046274, 15.936473, 15.961269, 15.524574
Process 28: 16.773813, 15.927653, 16.283711, 16.115743, 16.792074, 16.407515, 16.164141, 16.654208, 16.262143, 16.423343, 16.522756, 16.247070, 16.600476, 16.258823, 15.964187, 16.337038, 16.544079, 16.215109, 15.782887, 16.332564, 16.219705, 15.895596, 16.312934, 16.311974, 16.045571, 15.956910, 16.048619, 15.938910, 15.963201, 15.526576
Process 29: 16.777164, 15.931741, 16.286800, 16.119062, 16.799245, 16.415435, 16.167073, 16.657280, 16.270370, 16.426378, 16.529996, 16.254207, 16.604120, 16.266003, 15.967247, 16.344487, 16.547335, 16.218169, 15.785997, 16.341021, 16.222809, 15.898680, 16.320048, 16.319272, 16.048642, 15.959935, 16.055925, 15.942264, 15.966146, 15.529597
Process 30: 16.781117, 15.934620, 16.288692, 16.121207, 16.801321, 16.417920, 16.169032, 16.659282, 16.273531, 16.428399, 16.532120, 16.256357, 16.606582, 16.268190, 15.969265, 16.351400, 16.549380, 16.220190, 15.788012, 16.344187, 16.224833, 15.900644, 16.322146, 16.321984, 16.050636, 15.961922, 16.059064, 15.944417, 15.968159, 15.531596
Process 31: 16.798368, 15.942367, 16.294912, 16.127603, 16.808532, 16.427191, 16.171998, 16.664030, 16.282344, 16.431554, 16.540347, 16.264708, 16.611831, 16.275679, 15.972307, 16.358637, 16.554182, 16.224935, 15.791198, 16.355216, 16.227889, 15.905407, 16.330226, 16.329421, 16.053770, 15.966654, 16.068608, 15.947851, 15.971246, 15.534722
Process 32: 16.801286, 15.945756, 16.296998, 16.130120, 16.810458, 16.429972, 16.173883, 16.665920, 16.285816, 16.433550, 16.542481, 16.266650, 16.614744, 16.277660, 15.974227, 16.360700, 16.556320, 16.227055, 15.793230, 16.358328, 16.229829, 15.907302, 16.332467, 16.332163, 16.055684, 15.968549, 16.070799, 15.950161, 15.973253, 15.536602
Process 33: 16.804921, 15.950115, 16.300256, 16.133638, 16.817789, 16.437894, 16.177122, 16.669189, 16.294442, 16.436838, 16.549532, 16.273991, 16.618581, 16.286116, 15.977456, 16.369514, 16.559772, 16.230304, 15.796504, 16.367017, 16.233119, 15.910564, 16.339807, 16.339853, 16.058930, 15.971815, 16.077564, 15.953720, 15.976649, 15.539845
Process 34: 16.807793, 15.953223, 16.302126, 16.135959, 16.819913, 16.440882, 16.179146, 16.671181, 16.297767, 16.438895, 16.551474, 16.275938, 16.621237, 16.288053, 15.979391, 16.371592, 16.562004, 16.232330, 15.798540, 16.372254, 16.235124, 15.912571, 16.341963, 16.342760, 16.060820, 15.973693, 16.079530, 15.956007, 15.978584, 15.541759
Process 35: 16.825353, 15.959554, 16.308351, 16.142435, 16.828603, 16.450149, 16.182446, 16.676042, 16.306600, 16.442263, 16.554708, 16.285387, 16.626705, 16.295339, 15.982704, 16.374906, 16.566902, 16.237149, 15.801833, 16.380841, 16.238381, 15.917402, 16.350185, 16.350769, 16.064170, 15.978501, 16.084268, 15.959552, 15.981864, 15.544980
Process 36: 16.828979, 15.962545, 16.310519, 16.144699, 16.830526, 16.452732, 16.184328, 16.677925, 16.309781, 16.444329, 16.556625, 16.287301, 16.629247, 16.297304, 15.984639, 16.376918, 16.568889, 16.239287, 15.803907, 16.383734, 16.240295, 15.921927, 16.352442, 16.353273, 16.066080, 15.980473, 16.086397, 15.961661, 15.983888, 15.546885
Process 37: 16.833046, 15.966652, 16.313894, 16.148031, 16.837689, 16.460400, 16.187546, 16.681130, 16.317940, 16.447611, 16.559855, 16.294456, 16.632883, 16.300639, 15.987887, 16.381345, 16.572105, 16.242511, 15.807216, 16.392035, 16.243550, 15.928936, 16.359765, 16.361457, 16.069334, 15.983804, 16.089627, 15.965009, 15.987189, 15.550119
Process 38: 16.836199, 15.969678, 16.315773, 16.150663, 16.839584, 16.462867, 16.189557, 16.683042, 16.321342, 16.449569, 16.561803, 16.296381, 16.635555, 16.302560, 15.989858, 16.383260, 16.574398, 16.244517, 15.809128, 16.395275, 16.245470, 15.931150, 16.361952, 16.364064, 16.071284, 15.985816, 16.091558, 15.967315, 15.989238, 15.552152
Process 39: 16.856359, 15.975899, 16.322012, 16.159837, 16.842838, 16.472142, 16.192909, 16.687927, 16.330169, 16.453104, 16.565056, 16.301272, 16.640750, 16.305821, 15.993140, 16.386567, 16.579264, 16.249287, 15.812486, 16.399401, 16.248762, 15.939596, 16.371461, 16.367843, 16.074558, 15.990610, 16.096365, 15.970739, 15.992618, 15.555378
Process 40: 16.859268, 15.979248, 16.324295, 16.162384, 16.844747, 16.474881, 16.194903, 16.689928, 16.333566, 16.455113, 16.566972, 16.303305, 16.643615, 16.307870, 15.995066, 16.388473, 16.581516, 16.251581, 15.814558, 16.402544, 16.250661, 15.941703, 16.373647, 16.373282, 16.076457, 15.992585, 16.098561, 15.973126, 15.994660, 15.557366
Process 41: 16.863674, 15.983409, 16.327565, 16.169818, 16.848018, 16.482593, 16.198164, 16.693156, 16.341825, 16.462284, 16.570222, 16.306546, 16.647110, 16.311148, 15.998340, 16.391710, 16.584834, 16.254825, 15.817843, 16.406654, 16.253935, 15.949106, 16.380918, 16.376999, 16.079713, 15.995848, 16.101856, 15.976497, 15.998058, 15.560597
Process 42: 16.866444, 15.986505, 16.329519, 16.172126, 16.850033, 16.485033, 16.200201, 16.695104, 16.344983, 16.464213, 16.572247, 16.308576, 16.649734, 16.313052, 16.000292, 16.393658, 16.587074, 16.256771, 15.819893, 16.409753, 16.255973, 15.951074, 16.382812, 16.379615, 16.081608, 15.997757, 16.103900, 15.978738, 16.000007, 15.562517
Process 43: 16.884706, 15.993058, 16.336391, 16.178879, 16.853286, 16.494638, 16.203542, 16.700134, 16.354005, 16.467534, 16.575547, 16.313793, 16.655399, 16.316316, 16.003579, 16.396919, 16.592158, 16.261803, 15.823370, 16.414025, 16.259210, 15.959672, 16.387733, 16.383443, 16.084885, 16.002762, 16.108917, 15.982361, 16.003144, 15.565856
Process 44: 16.887509, 15.996325, 16.338604, 16.181469, 16.855282, 16.497419, 16.205492, 16.702096, 16.357275, 16.469602, 16.577490, 16.315778, 16.658091, 16.318370, 16.005590, 16.398902, 16.594368, 16.264011, 15.825530, 16.417021, 16.261182, 15.961666, 16.389982, 16.385999, 16.086936, 16.004762, 16.111128, 15.984706, 16.005084, 15.567824
Process 45: 16.891913, 16.000458, 16.341652, 16.184901, 16.858511, 16.505363, 16.208664, 16.705395, 16.365738, 16.472821, 16.580775, 16.319024, 16.661564, 16.321675, 16.008850, 16.402140, 16.597676, 16.267262, 15.828881, 16.421183, 16.264542, 15.969023, 16.393274, 16.389593, 16.090166, 16.008031, 16.114417, 15.988063, 16.008286, 15.571070
Process 46: 16.895337, 16.003222, 16.343561, 16.187113, 16.860621, 16.507899, 16.210718, 16.707461, 16.368565, 16.474875, 16.582882, 16.321078, 16.664427, 16.323647, 16.010876, 16.404260, 16.599729, 16.269282, 15.830887, 16.424099, 16.266631, 15.971009, 16.395253, 16.391989, 16.092285, 16.010114, 16.116506, 15.990174, 16.010233, 15.573143
Process 47: 16.914096, 16.009846, 16.350654, 16.193904, 16.863889, 16.517492, 16.213873, 16.712481, 16.377615, 16.477978, 16.586125, 16.326313, 16.673363, 16.326874, 16.014140, 16.407540, 16.604813, 16.274340, 15.834118, 16.428311, 16.269874, 15.979625, 16.400215, 16.395698, 16.095537, 16.015091, 16.121370, 15.993689, 16.013422, 15.576400
Process 48: 16.916398, 16.013149, 16.352948, 16.196422, 16.865846, 16.520465, 16.215847, 16.714469, 16.380934, 16.480073, 16.588159, 16.328244, 16.676285, 16.328924, 16.016220, 16.409558, 16.606985, 16.276559, 15.836181, 16.431338, 16.271869, 15.981818, 16.402401, 16.398294, 16.097500, 16.017111, 16.123762, 15.996059, 16.015361, 15.578476
Process 49: 16.921293, 16.017249, 16.356050, 16.199787, 16.869128, 16.528533, 16.219046, 16.717787, 16.388816, 16.483194, 16.591451, 16.331408, 16.682563, 16.332272, 16.019563, 16.412844, 16.610320, 16.279585, 15.839543, 16.435268, 16.275143, 15.989768, 16.405754, 16.401908, 16.100791, 16.020386, 16.127103, 15.999478, 16.018623, 15.581837
Process 50: 16.923343, 16.020230, 16.357974, 16.202051, 16.871099, 16.531235, 16.221098, 16.719741, 16.391853, 16.485266, 16.593407, 16.333359, 16.685141, 16.334320, 16.021578, 16.414824, 16.612550, 16.281505, 15.841539, 16.438259, 16.277233, 15.992036, 16.407844, 16.404444, 16.102811, 16.022474, 16.129084, 16.001766, 16.020645, 15.583873
Process 51: 16.942613, 16.026831, 16.364822, 16.208847, 16.874385, 16.541839, 16.224303, 16.724808, 16.397419, 16.488360, 16.596507, 16.338496, 16.690672, 16.337559, 16.024858, 16.418083, 16.617586, 16.286462, 15.844849, 16.442407, 16.280488, 16.000785, 16.412745, 16.408191, 16.106084, 16.027509, 16.138762, 16.005409, 16.023827, 15.587157
Process 52: 16.945804, 16.029940, 16.366961, 16.211235, 16.876360, 16.544697, 16.226258, 16.726777, 16.400614, 16.490400, 16.598481, 16.340445, 16.693293, 16.339670, 16.027040, 16.420059, 16.619700, 16.288606, 15.846930, 16.447222, 16.282481, 16.003055, 16.414992, 16.410595, 16.108055, 16.029474, 16.140764, 16.007606, 16.025801, 15.589174
Process 53: 16.950524, 16.034084, 16.370132, 16.214659, 16.879628, 16.551549, 16.229416, 16.730049, 16.404777, 16.493539, 16.601611, 16.343589, 16.696784, 16.342984, 16.030268, 16.423389, 16.623102, 16.291739, 15.850226, 16.450197, 16.285779, 16.010978, 16.418292, 16.414149, 16.111361, 16.032818, 16.144164, 16.011058, 16.028945, 15.592480
Process 54: 16.953123, 16.037069, 16.372049, 16.216888, 16.881616, 16.553964, 16.231393, 16.732010, 16.407813, 16.495515, 16.603546, 16.345527, 16.699308, 16.344960, 16.032286, 16.425410, 16.625376, 16.293677, 15.852339, 16.453143, 16.287766, 16.012968, 16.420268, 16.416698, 16.113376, 16.034948, 16.146103, 16.013350, 16.030992, 15.594430
Process 55: 16.971980, 16.045318, 16.378597, 16.223429, 16.884946, 16.560569, 16.234571, 16.737038, 16.413345, 16.498635, 16.606644, 16.350552, 16.704622, 16.348298, 16.035355, 16.428706, 16.630396, 16.298547, 15.855538, 16.457104, 16.291052, 16.021639, 16.425039, 16.420297, 16.116658, 16.039894, 16.151245, 16.016799, 16.034298, 15.597682
Process 56: 16.974533, 16.048601, 16.380792, 16.226044, 16.887039, 16.563311, 16.236601, 16.739117, 16.416689, 16.500759, 16.608602, 16.352601, 16.707395, 16.350327, 16.037349, 16.430804, 16.634224, 16.300726, 15.857648, 16.460209, 16.293163, 16.023619, 16.427350, 16.422942, 16.118670, 16.041979, 16.153479, 16.019243, 16.036321, 15.599747
Process 57: 16.978961, 16.056777, 16.384338, 16.229528, 16.890290, 16.567027, 16.239768, 16.742383, 16.421032, 16.503852, 16.611728, 16.355746, 16.711075, 16.353593, 16.040479, 16.434117, 16.637695, 16.303820, 15.861006, 16.464342, 16.296422, 16.032333, 16.430610, 16.426648, 16.121977, 16.045268, 16.156743, 16.022806, 16.039406, 15.603009
Process 58: 16.981483, 16.059848, 16.386278, 16.231915, 16.892256, 16.569573, 16.241687, 16.744352, 16.424082, 16.505866, 16.613774, 16.357692, 16.713697, 16.355692, 16.042551, 16.436196, 16.639826, 16.305766, 15.863127, 16.467456, 16.298506, 16.034335, 16.432642, 16.429321, 16.124078, 16.047315, 16.158682, 16.025203, 16.041420, 15.604979
Process 59: 16.998777, 16.066366, 16.392711, 16.238476, 16.895523, 16.576159, 16.244851, 16.749301, 16.429569, 16.508983, 16.616882, 16.362617, 16.718919, 16.358985, 16.045617, 16.439460, 16.644790, 16.310620, 15.866475, 16.471546, 16.301828, 16.042297, 16.437527, 16.432973, 16.127345, 16.052169, 16.163578, 16.028635, 16.044747, 15.608230
Process 60: 17.001950, 16.069705, 16.395087, 16.240997, 16.897583, 16.578973, 16.246773, 16.751256, 16.432968, 16.511049, 16.618822, 16.364628, 16.721704, 16.361145, 16.047690, 16.441426, 16.646988, 16.312811, 15.868629, 16.474649, 16.303914, 16.044361, 16.439720, 16.435570, 16.129410, 16.054231, 16.165683, 16.030960, 16.046739, 15.610288
Process 61: 17.005259, 16.074027, 16.398435, 16.244611, 16.900797, 16.582752, 16.249884, 16.754537, 16.437375, 16.514130, 16.621991, 16.367803, 16.725407, 16.364428, 16.050820, 16.444719, 16.650218, 16.315881, 15.871970, 16.478866, 16.307248, 16.047670, 16.443046, 16.439351, 16.132774, 16.057523, 16.169011, 16.034598, 16.049789, 15.613539
Process 62: 17.008168, 16.077122, 16.400474, 16.246997, 16.902900, 16.585280, 16.251822, 16.756602, 16.440405, 16.516065, 16.624028, 16.369878, 16.727919, 16.366484, 16.052850, 16.446820, 16.652438, 16.317903, 15.873965, 16.481941, 16.309211, 16.049787, 16.445018, 16.441939, 16.134873, 16.059617, 16.171099, 16.037024, 16.051783, 15.615502
Process 63: 17.011831, 16.081274, 16.403749, 16.250379, 16.906184, 16.588882, 16.254965, 16.759863, 16.444560, 16.519194, 16.627139, 16.373194, 16.731446, 16.369763, 16.055892, 16.450104, 16.655646, 16.320974, 15.877286, 16.485935, 16.312517, 16.053068, 16.448336, 16.445503, 16.138150, 16.062953, 16.174376, 16.040476, 16.054760, 15.618764
