mpi_trmm_opt3
Process 0: 9.581669, 9.767644, 9.554267, 9.410926, 9.265183, 9.353763, 9.385160, 9.382745, 9.292604, 9.622981, 9.240001, 9.385333, 9.365468, 9.463274, 9.589838, 9.347964, 9.285013, 9.441568, 9.321905, 9.363771, 9.380407, 9.432265, 9.349181, 9.633262, 9.690365, 9.614011, 9.682287, 9.529362, 9.381191, 9.380240
Process 1: 9.377201, 9.545328, 9.360840, 9.231185, 9.092569, 9.148237, 9.225911, 9.232840, 9.119089, 9.433113, 9.085733, 9.224805, 9.201558, 9.298741, 9.377724, 9.158150, 9.126694, 9.282340, 9.148534, 9.193485, 9.221229, 9.255442, 9.195937, 9.451792, 9.517441, 9.450116, 9.521928, 9.352323, 9.227921, 9.201287
Process 2: 9.380443, 9.548174, 9.363150, 9.233838, 9.094939, 9.151545, 9.228141, 9.235147, 9.121363, 9.435713, 9.088026, 9.227016, 9.203831, 9.300916, 9.381650, 9.160473, 9.128876, 9.284582, 9.150717, 9.195691, 9.223399, 9.258027, 9.198262, 9.454139, 9.519696, 9.452459, 9.524348, 9.355391, 9.230318, 9.203459
Process 3: 9.388295, 9.563609, 9.372294, 9.244005, 9.105088, 9.160057, 9.234081, 9.240636, 9.128235, 9.443799, 9.096063, 9.233188, 9.209838, 9.306825, 9.390549, 9.167805, 9.134812, 9.290614, 9.156669, 9.201781, 9.229370, 9.265028, 9.204242, 9.461802, 9.525744, 9.458443, 9.530512, 9.362794, 9.236200, 9.210821
Process 4: 9.394017, 9.570121, 9.375943, 9.248330, 9.108720, 9.164904, 9.237535, 9.244067, 9.131820, 9.447713, 9.099522, 9.236927, 9.214236, 9.310212, 9.397207, 9.171371, 9.138195, 9.294077, 9.160095, 9.205245, 9.232784, 9.269078, 9.208674, 9.466214, 9.529817, 9.461970, 9.534739, 9.367489, 9.239884, 9.214432
Process 5: 9.402705, 9.577574, 9.384978, 9.255132, 9.115492, 9.173452, 9.243626, 9.249398, 9.138687, 9.455667, 9.106490, 9.243129, 9.220843, 9.316072, 9.405722, 9.180200, 9.144075, 9.300276, 9.168173, 9.211351, 9.238867, 9.275890, 9.214927, 9.473633, 9.536072, 9.467447, 9.541050, 9.373439, 9.245717, 9.221896
Process 6: 9.408260, 9.581522, 9.388471, 9.259293, 9.118990, 9.178228, 9.247136, 9.252889, 9.142568, 9.459601, 9.109996, 9.246670, 9.225206, 9.319518, 9.410057, 9.184938, 9.147488, 9.303768, 9.173304, 9.214904, 9.242375, 9.279342, 9.219208, 9.478461, 9.540137, 9.471353, 9.544957, 9.377080, 9.249382, 9.226330
Process 7: 9.416786, 9.589068, 9.397296, 9.266201, 9.125959, 9.186747, 9.253380, 9.258297, 9.149810, 9.467648, 9.115413, 9.253029, 9.231947, 9.325439, 9.417856, 9.193744, 9.153584, 9.309997, 9.181368, 9.221130, 9.248532, 9.286187, 9.225652, 9.485920, 9.547518, 9.478004, 9.551685, 9.383276, 9.255333, 9.233836
Process 8: 9.421626, 9.595465, 9.401236, 9.270875, 9.129833, 9.192068, 9.257508, 9.262411, 9.153952, 9.471953, 9.119358, 9.257161, 9.236915, 9.329331, 9.424434, 9.197876, 9.157595, 9.314047, 9.185375, 9.225099, 9.252693, 9.290835, 9.229784, 9.490354, 9.551846, 9.481902, 9.555813, 9.388430, 9.259165, 9.237952
Process 9: 9.430973, 9.602955, 9.409974, 9.277894, 9.136867, 9.205863, 9.263586, 9.267718, 9.161076, 9.480163, 9.124916, 9.263427, 9.243542, 9.335215, 9.434523, 9.205966, 9.163495, 9.320166, 9.191529, 9.231188, 9.258766, 9.297768, 9.237243, 9.497947, 9.560428, 9.488783, 9.562601, 9.396114, 9.265255, 9.248594
Process 10: 9.435809, 9.609215, 9.414112, 9.282379, 9.140716, 9.211189, 9.267511, 9.271598, 9.164935, 9.484431, 9.128814, 9.267310, 9.247645, 9.339167, 9.440807, 9.210229, 9.167302, 9.324074, 9.195477, 9.235069, 9.262833, 9.302272, 9.241184, 9.502179, 9.564449, 9.493708, 9.566688, 9.401262, 9.269352, 9.252682
Process 11: 9.444760, 9.617770, 9.425490, 9.289239, 9.147632, 9.219537, 9.277440, 9.276959, 9.171976, 9.493021, 9.134280, 9.274039, 9.254347, 9.349878, 9.447830, 9.224146, 9.173190, 9.330123, 9.203497, 9.241133, 9.273423, 9.309173, 9.247782, 9.509804, 9.571561, 9.502035, 9.573086, 9.407499, 9.275220, 9.260165
Process 12: 9.449535, 9.624054, 9.429755, 9.293757, 9.151516, 9.224703, 9.281333, 9.280817, 9.175860, 9.497913, 9.138201, 9.278063, 9.258502, 9.353793, 9.454137, 9.228092, 9.176956, 9.334033, 9.207528, 9.245053, 9.277311, 9.313632, 9.251759, 9.514035, 9.575858, 9.506061, 9.577227, 9.412772, 9.279040, 9.264217
Process 13: 9.458657, 9.632728, 9.438537, 9.300723, 9.158490, 9.232751, 9.287555, 9.286386, 9.182926, 9.508710, 9.143747, 9.287105, 9.265244, 9.359995, 9.463080, 9.235557, 9.183124, 9.340248, 9.213768, 9.251279, 9.283703, 9.320663, 9.257376, 9.522062, 9.583079, 9.513564, 9.583943, 9.420405, 9.284971, 9.271690
Process 14: 9.463507, 9.639165, 9.442678, 9.305348, 9.162531, 9.237987, 9.291638, 9.290418, 9.186934, 9.513077, 9.147818, 9.291197, 9.269497, 9.364095, 9.469402, 9.239766, 9.187118, 9.344312, 9.217715, 9.255381, 9.287751, 9.325272, 9.261328, 9.526409, 9.587078, 9.517591, 9.588024, 9.425439, 9.288882, 9.276016
Process 15: 9.472349, 9.648010, 9.451395, 9.312664, 9.169584, 9.246271, 9.298010, 9.296032, 9.194049, 9.521401, 9.153334, 9.297421, 9.276384, 9.370378, 9.478572, 9.248482, 9.195584, 9.350929, 9.228250, 9.261577, 9.294175, 9.332268, 9.266889, 9.534288, 9.594460, 9.525023, 9.594721, 9.431670, 9.297799, 9.283673
Process 16: 9.477452, 9.654419, 9.455369, 9.317157, 9.173418, 9.251702, 9.302116, 9.300101, 9.198078, 9.525870, 9.157207, 9.301238, 9.280571, 9.374267, 9.484599, 9.252652, 9.199391, 9.354782, 9.232223, 9.265419, 9.298095, 9.336910, 9.270634, 9.538624, 9.598676, 9.529301, 9.599088, 9.436948, 9.301885, 9.287855
Process 17: 9.486731, 9.664442, 9.464120, 9.324162, 9.180495, 9.259834, 9.308349, 9.305751, 9.205100, 9.533876, 9.162666, 9.307379, 9.286885, 9.380548, 9.494511, 9.260157, 9.205610, 9.360990, 9.238563, 9.271608, 9.304433, 9.343937, 9.276083, 9.546421, 9.605913, 9.536642, 9.605823, 9.444595, 9.308076, 9.295362
Process 18: 9.491866, 9.670898, 9.468122, 9.328851, 9.184536, 9.265113, 9.312370, 9.309693, 9.209190, 9.538354, 9.166772, 9.311477, 9.291173, 9.384618, 9.500830, 9.264412, 9.209700, 9.365216, 9.242680, 9.275702, 9.308524, 9.348462, 9.280119, 9.550641, 9.610182, 9.540869, 9.610192, 9.449754, 9.312125, 9.299425
Process 19: 9.500396, 9.682535, 9.476682, 9.335921, 9.191632, 9.273261, 9.318754, 9.315333, 9.216195, 9.546262, 9.172337, 9.317950, 9.297972, 9.391213, 9.510759, 9.272003, 9.216156, 9.371571, 9.249210, 9.281951, 9.314829, 9.355498, 9.286667, 9.560872, 9.617342, 9.547975, 9.616895, 9.460476, 9.318430, 9.306910
Process 20: 9.505567, 9.688817, 9.480687, 9.340607, 9.195651, 9.278598, 9.322890, 9.319375, 9.220723, 9.550891, 9.176403, 9.321976, 9.302287, 9.395257, 9.515091, 9.277262, 9.220144, 9.376184, 9.255028, 9.286025, 9.318817, 9.359851, 9.290762, 9.565089, 9.621544, 9.552590, 9.621208, 9.464468, 9.322393, 9.311744
Process 21: 9.513820, 9.696736, 9.489226, 9.347264, 9.202852, 9.285627, 9.329402, 9.325259, 9.232206, 9.558546, 9.182162, 9.328389, 9.309033, 9.401695, 9.522747, 9.284812, 9.226492, 9.386012, 9.262605, 9.292396, 9.325241, 9.370212, 9.296746, 9.572707, 9.630194, 9.559008, 9.627635, 9.470992, 9.328679, 9.319613
Process 22: 9.518703, 9.703106, 9.493128, 9.351694, 9.206963, 9.290850, 9.333287, 9.329070, 9.236035, 9.562810, 9.186193, 9.332221, 9.313113, 9.405529, 9.528996, 9.288753, 9.230236, 9.389943, 9.266470, 9.296290, 9.329098, 9.374684, 9.300682, 9.576834, 9.634557, 9.563103, 9.631663, 9.476011, 9.332425, 9.323435
Process 23: 9.527081, 9.710919, 9.501599, 9.362006, 9.216037, 9.298075, 9.339813, 9.334937, 9.243895, 9.570346, 9.191998, 9.338812, 9.320012, 9.412163, 9.536982, 9.296414, 9.236545, 9.396432, 9.274152, 9.302950, 9.335625, 9.382372, 9.306646, 9.584500, 9.642633, 9.569468, 9.638062, 9.482500, 9.338666, 9.331048
Process 24: 9.531993, 9.717357, 9.505608, 9.366647, 9.220191, 9.303469, 9.343946, 9.339369, 9.248036, 9.574735, 9.196164, 9.342870, 9.324348, 9.416328, 9.543453, 9.300646, 9.240505, 9.400536, 9.278272, 9.307010, 9.339785, 9.387039, 9.310832, 9.588852, 9.646765, 9.573808, 9.642061, 9.487780, 9.342429, 9.335129
Process 25: 9.540096, 9.725222, 9.514042, 9.373102, 9.228252, 9.310554, 9.350540, 9.349676, 9.255826, 9.582152, 9.201906, 9.349372, 9.331170, 9.422909, 9.550994, 9.308231, 9.246708, 9.407097, 9.285879, 9.313500, 9.346220, 9.394711, 9.316798, 9.596532, 9.654951, 9.580255, 9.648489, 9.494388, 9.348677, 9.342812
Process 26: 9.545402, 9.731576, 9.518069, 9.377642, 9.232336, 9.318723, 9.354484, 9.353752, 9.259982, 9.586557, 9.206083, 9.353493, 9.335444, 9.426943, 9.555088, 9.313433, 9.250698, 9.411038, 9.291334, 9.317583, 9.350268, 9.398796, 9.320823, 9.600673, 9.659104, 9.584350, 9.652491, 9.498527, 9.352613, 9.347376
Process 27: 9.553686, 9.739521, 9.526553, 9.384207, 9.240162, 9.327733, 9.361168, 9.360093, 9.267763, 9.594018, 9.215136, 9.360070, 9.341921, 9.434421, 9.562665, 9.322997, 9.258378, 9.417933, 9.297885, 9.326344, 9.356788, 9.406493, 9.326872, 9.608403, 9.666222, 9.590715, 9.659047, 9.504948, 9.358807, 9.354944
Process 28: 9.558633, 9.745871, 9.531950, 9.388843, 9.244240, 9.333114, 9.365387, 9.364056, 9.271813, 9.598417, 9.219286, 9.364115, 9.346209, 9.438492, 9.568955, 9.327368, 9.262415, 9.421949, 9.302126, 9.330362, 9.360891, 9.411212, 9.331123, 9.612661, 9.671332, 9.595022, 9.663107, 9.510021, 9.362565, 9.359077
Process 29: 9.566871, 9.753815, 9.540821, 9.395235, 9.251932, 9.340653, 9.371947, 9.370292, 9.279519, 9.607985, 9.226151, 9.370521, 9.352652, 9.445862, 9.576925, 9.334913, 9.269936, 9.428520, 9.308605, 9.346732, 9.367309, 9.419048, 9.337137, 9.620418, 9.677643, 9.601220, 9.669644, 9.516356, 9.368755, 9.366756
Process 30: 9.574606, 9.760924, 9.547662, 9.401960, 9.258523, 9.347334, 9.378600, 9.376541, 9.286053, 9.616854, 9.233118, 9.377071, 9.359139, 9.455981, 9.583440, 9.341517, 9.277508, 9.435057, 9.315386, 9.355326, 9.373878, 9.425729, 9.343190, 9.626943, 9.684063, 9.607630, 9.675975, 9.522833, 9.375067, 9.373216
Process 31: 9.582477, 9.767636, 9.554227, 9.410924, 9.265176, 9.353755, 9.385139, 9.382755, 9.292599, 9.622981, 9.240005, 9.385316, 9.365467, 9.463284, 9.589834, 9.347955, 9.285023, 9.441562, 9.321881, 9.363776, 9.380403, 9.432258, 9.349171, 9.633274, 9.690357, 9.614000, 9.682266, 9.529354, 9.381185, 9.380253
