MPI_insiderank_openmp_handopt
Process 0: 1.483898, 1.337106, 2.524818, 1.620842, 1.756642, 1.527549, 1.253929, 1.273814, 1.209581, 1.227089, 1.577403, 1.499211, 1.695228, 1.395199, 1.305826, 1.230704, 1.357211, 1.344522, 1.244546, 1.266638, 1.298170, 1.259006, 1.527515, 1.320535, 1.256439, 1.269101, 1.823572, 1.316758, 1.369700, 1.429844
Process 1: 1.218601, 1.047077, 2.261804, 1.287665, 1.483974, 1.247429, 0.986301, 1.034903, 0.954133, 0.974280, 1.308850, 1.244982, 1.426553, 1.116929, 1.061811, 0.956497, 1.093511, 1.091201, 1.001484, 1.010318, 1.042709, 0.994998, 1.261677, 1.043863, 1.001138, 1.007678, 1.550320, 1.051536, 1.110834, 1.169741
Process 2: 1.248543, 1.079048, 2.285978, 1.314908, 1.514207, 1.276719, 1.012881, 1.059503, 0.981033, 1.005305, 1.335757, 1.270548, 1.452564, 1.147432, 1.091639, 0.998309, 1.121572, 1.117799, 1.030073, 1.039829, 1.072758, 1.028155, 1.289331, 1.074101, 1.026113, 1.037326, 1.580369, 1.080866, 1.136102, 1.197130
Process 3: 1.286085, 1.114846, 2.333858, 1.353630, 1.552924, 1.316048, 1.061494, 1.094317, 1.020940, 1.046887, 1.377567, 1.311551, 1.492789, 1.186616, 1.128993, 1.024999, 1.158481, 1.155219, 1.063621, 1.077599, 1.111370, 1.067894, 1.326813, 1.109126, 1.062033, 1.073604, 1.615200, 1.116831, 1.177336, 1.234854
Process 4: 1.318307, 1.146440, 2.368146, 1.381230, 1.579760, 1.346957, 1.089879, 1.107825, 1.047148, 1.070431, 1.417613, 1.340637, 1.518764, 1.220672, 1.154427, 1.061358, 1.185591, 1.180503, 1.079390, 1.108873, 1.141498, 1.098882, 1.370697, 1.141097, 1.088094, 1.104988, 1.645356, 1.145844, 1.208014, 1.263294
Process 5: 1.351811, 1.199111, 2.415283, 1.432227, 1.629345, 1.392561, 1.121786, 1.142455, 1.078398, 1.101100, 1.458413, 1.372587, 1.561980, 1.264072, 1.183309, 1.103421, 1.224995, 1.213781, 1.111364, 1.152498, 1.174065, 1.129122, 1.415336, 1.187199, 1.127214, 1.139514, 1.688589, 1.192270, 1.238706, 1.307185
Process 6: 1.371107, 1.223172, 2.434284, 1.452871, 1.646262, 1.408236, 1.140162, 1.160628, 1.099316, 1.120673, 1.466323, 1.389769, 1.578854, 1.280892, 1.203788, 1.116103, 1.243703, 1.231899, 1.130311, 1.171908, 1.192993, 1.149200, 1.433989, 1.204478, 1.145958, 1.159338, 1.710192, 1.210564, 1.256589, 1.328773
Process 7: 1.400355, 1.252304, 2.454891, 1.480404, 1.678105, 1.440629, 1.171591, 1.188868, 1.125253, 1.148127, 1.495361, 1.416889, 1.611741, 1.310578, 1.227764, 1.144640, 1.272413, 1.259288, 1.158544, 1.197520, 1.220462, 1.181107, 1.460152, 1.234965, 1.175825, 1.188132, 1.740852, 1.238092, 1.284413, 1.355019
Process 8: 1.418405, 1.269771, 2.461947, 1.500296, 1.694124, 1.457353, 1.189456, 1.205751, 1.141601, 1.165743, 1.511088, 1.432867, 1.637345, 1.327578, 1.246938, 1.161329, 1.289560, 1.275714, 1.173091, 1.211765, 1.238594, 1.198744, 1.470064, 1.255848, 1.190001, 1.202802, 1.758177, 1.255228, 1.301371, 1.373108
Process 9: 1.441287, 1.294143, 2.482313, 1.559512, 1.721065, 1.485051, 1.218042, 1.231920, 1.167942, 1.190477, 1.536626, 1.463318, 1.669738, 1.354476, 1.270865, 1.188548, 1.315361, 1.302587, 1.203168, 1.235279, 1.266063, 1.223386, 1.483820, 1.279682, 1.218228, 1.227903, 1.787378, 1.280919, 1.328177, 1.392301
Process 10: 1.453659, 1.307088, 2.497042, 1.574878, 1.735395, 1.497559, 1.229639, 1.244338, 1.180284, 1.202348, 1.547567, 1.474550, 1.680924, 1.365731, 1.286233, 1.200875, 1.328868, 1.314669, 1.214468, 1.247590, 1.280251, 1.235380, 1.499105, 1.291317, 1.229200, 1.239903, 1.799434, 1.292212, 1.340042, 1.410430
Process 11: 1.485274, 1.338749, 2.526458, 1.622293, 1.758153, 1.529104, 1.255417, 1.275477, 1.211052, 1.228512, 1.579024, 1.500667, 1.696889, 1.396731, 1.307277, 1.232254, 1.358584, 1.345890, 1.246178, 1.267874, 1.299680, 1.260563, 1.529030, 1.321985, 1.258098, 1.270791, 1.825137, 1.318070, 1.371134, 1.431361
