MPI_insiderank_openmp_handopt
Process 0: 2.429987, 2.412996, 2.344498, 2.356833, 2.398553, 2.337261, 2.330931, 2.394790, 2.437000, 2.367638, 2.385120, 2.253798, 2.100897, 2.305168, 2.127731, 2.736488, 2.465547, 2.724919, 2.507408, 2.671740, 2.338426, 2.624662, 2.509998, 2.667093, 2.151365, 2.110419, 1.997980, 2.021555, 2.050957, 2.170420
Process 1: 2.372144, 2.359522, 2.277316, 2.297719, 2.330942, 2.276077, 2.269492, 2.338803, 2.366565, 2.309393, 2.328666, 2.209586, 2.050917, 2.255649, 2.070105, 2.683724, 2.417027, 2.676161, 2.454290, 2.622455, 2.286829, 2.573393, 2.452457, 2.594339, 2.100011, 2.055122, 1.948107, 1.969457, 1.998881, 2.111149
Process 2: 2.394195, 2.383638, 2.305218, 2.325368, 2.360367, 2.305770, 2.293523, 2.366341, 2.399447, 2.333598, 2.353667, 2.225364, 2.069239, 2.275388, 2.090546, 2.704313, 2.435615, 2.694167, 2.467759, 2.641253, 2.306684, 2.593510, 2.472187, 2.616282, 2.120079, 2.075395, 1.966207, 1.988084, 2.019305, 2.132507
Process 3: 2.432238, 2.415340, 2.346736, 2.359137, 2.400789, 2.339466, 2.333213, 2.397001, 2.439210, 2.369902, 2.387019, 2.256719, 2.103398, 2.307922, 2.130218, 2.739012, 2.468418, 2.727773, 2.509923, 2.674248, 2.340911, 2.627495, 2.512694, 2.669988, 2.154170, 2.112900, 2.000423, 2.024377, 2.053811, 2.173260
