MPI_insiderank_openmp_handopt
Process 0: 2.286654, 2.001259, 1.806683, 1.798504, 2.334890, 1.847816, 1.989269, 1.910489, 1.492163, 1.536846, 1.568048, 1.491359, 1.576040, 1.512419, 1.555842, 1.592236, 1.727709, 1.737895, 1.672402, 1.689446, 1.584266, 1.649294, 1.859785, 1.779102, 1.796575, 1.789452, 1.927993, 1.927705, 1.801087, 1.875646
Process 1: 2.144092, 1.782039, 1.661856, 1.659261, 1.765264, 1.691856, 1.812451, 1.793071, 1.356173, 1.404552, 1.425907, 1.364302, 1.424847, 1.376756, 1.423059, 1.470432, 1.600589, 1.573674, 1.526490, 1.561063, 1.449280, 1.522243, 1.647848, 1.657009, 1.682976, 1.665978, 1.783755, 1.758903, 1.659940, 1.701673
Process 2: 2.158414, 1.798344, 1.670997, 1.670125, 1.789455, 1.706014, 1.833621, 1.807473, 1.367671, 1.418657, 1.440730, 1.373772, 1.436240, 1.390634, 1.431993, 1.487415, 1.621900, 1.597158, 1.537846, 1.569003, 1.456746, 1.534784, 1.658051, 1.668396, 1.691956, 1.678556, 1.795710, 1.778839, 1.674867, 1.723059
Process 3: 2.179083, 1.813477, 1.683474, 1.690774, 1.812512, 1.716331, 1.845871, 1.815556, 1.390016, 1.436492, 1.457793, 1.392157, 1.453203, 1.411088, 1.455326, 1.495760, 1.634077, 1.618794, 1.575863, 1.587244, 1.478501, 1.556512, 1.676003, 1.682952, 1.701233, 1.691582, 1.822866, 1.792319, 1.687792, 1.747434
Process 4: 2.196141, 1.838189, 1.695117, 1.703033, 1.831663, 1.733615, 1.852027, 1.828052, 1.403733, 1.450524, 1.470015, 1.406971, 1.466153, 1.420827, 1.463025, 1.507292, 1.641632, 1.636459, 1.585077, 1.600171, 1.485847, 1.564106, 1.691394, 1.692438, 1.711496, 1.700280, 1.840010, 1.801516, 1.713131, 1.769687
Process 5: 2.203246, 1.858939, 1.714608, 1.714651, 1.854081, 1.744260, 1.867533, 1.842633, 1.418519, 1.468811, 1.482994, 1.418531, 1.481122, 1.435316, 1.482109, 1.526258, 1.648767, 1.670984, 1.595238, 1.609398, 1.503663, 1.578163, 1.706737, 1.703626, 1.728721, 1.714451, 1.850325, 1.828144, 1.725924, 1.806785
Process 6: 2.210490, 1.876891, 1.732193, 1.730344, 1.871459, 1.761369, 1.890052, 1.852317, 1.427870, 1.479114, 1.498672, 1.429295, 1.496388, 1.444074, 1.490580, 1.532124, 1.656935, 1.687729, 1.604944, 1.619588, 1.512877, 1.587584, 1.726316, 1.714170, 1.735609, 1.727859, 1.859127, 1.849810, 1.732776, 1.820852
Process 7: 2.217532, 1.910657, 1.740986, 1.739992, 1.891987, 1.790184, 1.914452, 1.863434, 1.444166, 1.494075, 1.510670, 1.443873, 1.511862, 1.459765, 1.507625, 1.539844, 1.677877, 1.698105, 1.616842, 1.633503, 1.527313, 1.596844, 1.758956, 1.726228, 1.751437, 1.741935, 1.871294, 1.863011, 1.742389, 1.828321
Process 8: 2.222173, 1.932428, 1.747261, 1.753481, 1.902954, 1.808645, 1.932349, 1.874964, 1.454445, 1.500329, 1.523107, 1.454445, 1.526650, 1.469274, 1.517259, 1.544519, 1.685509, 1.704737, 1.626118, 1.646719, 1.536872, 1.607461, 1.771170, 1.736514, 1.762663, 1.747024, 1.875710, 1.881623, 1.751789, 1.834975
Process 9: 2.255623, 1.947187, 1.760710, 1.773122, 1.915658, 1.820038, 1.954492, 1.891698, 1.471528, 1.507838, 1.543158, 1.472417, 1.546258, 1.492539, 1.534254, 1.559481, 1.706628, 1.710856, 1.650515, 1.673089, 1.558324, 1.623609, 1.799442, 1.751426, 1.779292, 1.767858, 1.903686, 1.902337, 1.780145, 1.846325
Process 10: 2.271545, 1.975838, 1.778284, 1.784800, 1.931282, 1.832704, 1.970046, 1.899506, 1.479839, 1.523309, 1.553581, 1.482972, 1.558363, 1.500033, 1.543739, 1.577375, 1.720188, 1.716806, 1.660821, 1.681208, 1.563900, 1.632518, 1.829217, 1.768264, 1.785833, 1.775110, 1.916501, 1.913365, 1.788907, 1.854820
Process 11: 2.287756, 2.002103, 1.807645, 1.799510, 2.335646, 1.848732, 1.990239, 1.911508, 1.493073, 1.537796, 1.569048, 1.492358, 1.577083, 1.513257, 1.556875, 1.593269, 1.728960, 1.738809, 1.673390, 1.690516, 1.585289, 1.650365, 1.860702, 1.780170, 1.797706, 1.790475, 1.929059, 1.928653, 1.802035, 1.876578
