MPI_insiderank_openmp
Process 0: 24.813170, 24.546704, 25.820699, 24.429191, 24.441881, 24.427495, 24.440106, 24.479374, 24.467977, 24.438208, 24.477530, 24.469466, 24.472719, 24.498451, 24.472926, 25.827679, 24.465029, 24.467090, 25.734125, 25.830312, 24.410089, 24.432918, 24.455857, 24.429129, 24.712741, 24.478938, 24.456742, 24.430765, 24.471942, 24.480575
Process 1: 15.327570, 15.075117, 16.387723, 14.992835, 15.003468, 14.995819, 15.005079, 15.012575, 15.009927, 14.978994, 15.020608, 14.996702, 14.980647, 15.007791, 14.987337, 16.335366, 14.982493, 14.997044, 16.258651, 16.358071, 14.978074, 14.985162, 15.009719, 14.976552, 15.280308, 15.003383, 14.975824, 14.966164, 15.002280, 15.009787
Process 2: 16.007115, 15.751698, 17.062491, 15.668149, 15.677191, 15.671677, 15.679532, 15.680492, 15.682704, 15.655342, 15.697063, 15.672832, 15.658622, 15.676011, 15.666406, 17.003788, 15.649617, 15.665257, 16.924458, 17.027047, 15.652365, 15.660368, 15.683517, 15.652740, 15.954566, 15.678841, 15.651255, 15.640963, 15.676829, 15.685318
Process 3: 16.692517, 16.432773, 17.736159, 16.342060, 16.345995, 16.345494, 16.351835, 16.361400, 16.362810, 16.344606, 16.380568, 16.355483, 16.346125, 16.359850, 16.349077, 17.686976, 16.334357, 16.348540, 17.606443, 17.708501, 16.334559, 16.341861, 16.363732, 16.334314, 16.636013, 16.362219, 16.334582, 16.332012, 16.365829, 16.375310
Process 4: 17.353153, 17.100168, 18.399910, 17.019693, 17.009876, 17.022519, 17.021299, 17.031286, 17.027138, 17.021151, 17.049816, 17.025244, 17.014535, 17.028838, 17.019545, 18.355904, 17.002111, 17.018454, 18.275289, 18.376492, 16.994375, 17.003050, 17.018859, 16.996724, 17.296409, 17.024978, 16.995605, 16.986877, 17.032881, 17.036239
Process 5: 18.042377, 17.786666, 19.085113, 17.703161, 17.693805, 17.704798, 17.706256, 17.715414, 17.715055, 17.703934, 17.734414, 17.708272, 17.698611, 17.712913, 17.706403, 19.039849, 17.684884, 17.701506, 18.959037, 19.060470, 17.666947, 17.674835, 17.691666, 17.676884, 17.971260, 17.710992, 17.688155, 17.671311, 17.719746, 17.719785
Process 6: 18.735309, 18.465559, 19.764981, 18.382951, 18.376756, 18.384368, 18.388761, 18.403938, 18.404512, 18.391936, 18.420897, 18.398851, 18.388253, 18.403192, 18.395244, 19.738035, 18.372445, 18.389649, 19.646049, 19.748953, 18.356098, 18.362356, 18.382087, 18.366691, 18.658225, 18.400927, 18.375267, 18.358933, 18.412807, 18.410486
Process 7: 19.414878, 19.150115, 20.447051, 19.061099, 19.055522, 19.065783, 19.065363, 19.080794, 19.081191, 19.064592, 19.097249, 19.075106, 19.067380, 19.085956, 19.075162, 20.417941, 19.050619, 19.066559, 20.332137, 20.431179, 19.032984, 19.042690, 19.066054, 19.047205, 19.341061, 19.080394, 19.056661, 19.037071, 19.090238, 19.094520
Process 8: 20.095739, 19.827430, 21.112709, 19.725607, 19.719840, 19.728823, 19.727156, 19.753791, 19.753494, 19.735606, 19.772470, 19.753189, 19.741297, 19.758258, 19.746956, 21.090793, 19.723864, 19.740036, 21.004734, 21.108382, 19.706112, 19.723253, 19.739591, 19.721721, 20.017433, 19.755640, 19.730581, 19.711089, 19.760543, 19.772965
Process 9: 20.779130, 20.508852, 21.797206, 20.405197, 20.399995, 20.409656, 20.407927, 20.434321, 20.434496, 20.418007, 20.454662, 20.434963, 20.421544, 20.440550, 20.426834, 21.773684, 20.407082, 20.421187, 21.685713, 21.790552, 20.380444, 20.397571, 20.413255, 20.395860, 20.690831, 20.431097, 20.406523, 20.387769, 20.434683, 20.446012
Process 10: 21.452354, 21.186433, 22.459752, 21.067091, 21.067101, 21.070490, 21.074937, 21.105676, 21.105750, 21.088872, 21.126857, 21.107881, 21.095251, 21.112312, 21.097162, 22.445422, 21.079216, 21.092275, 22.358220, 22.461477, 21.051675, 21.068623, 21.096121, 21.067778, 21.361445, 21.104111, 21.078416, 21.059195, 21.105315, 21.119127
Process 11: 22.120159, 21.868268, 23.137935, 21.747338, 21.746138, 21.741022, 21.763829, 21.786702, 21.788406, 21.768647, 21.806230, 21.787076, 21.775804, 21.792564, 21.777364, 23.136362, 21.759465, 21.771024, 23.038264, 23.133939, 21.730265, 21.737227, 21.765554, 21.739608, 22.026295, 21.794433, 21.759998, 21.738318, 21.784886, 21.790964
Process 12: 22.787737, 22.532974, 23.809387, 22.418364, 22.420409, 22.412575, 22.439031, 22.460021, 22.453406, 22.433763, 22.469807, 22.451416, 22.448426, 22.466274, 22.449242, 23.811802, 22.431746, 22.444167, 23.711906, 23.804804, 22.400986, 22.411099, 22.437745, 22.412872, 22.698091, 22.466872, 22.431404, 22.409968, 22.457464, 22.462942
Process 13: 23.466280, 23.210435, 24.475206, 23.084836, 23.089843, 23.081891, 23.104264, 23.137001, 23.136384, 23.109754, 23.145775, 23.129411, 23.126874, 23.155546, 23.129270, 24.489867, 23.109659, 23.122397, 24.389770, 24.483264, 23.078159, 23.089597, 23.119564, 23.092503, 23.376303, 23.144546, 23.110292, 23.088900, 23.135715, 23.142783
Process 14: 24.134300, 23.878649, 25.142747, 23.756032, 23.759338, 23.751356, 23.770068, 23.807283, 23.800414, 23.771971, 23.808314, 23.792966, 23.797216, 23.823768, 23.797574, 25.156500, 23.780116, 23.791364, 25.060314, 25.151914, 23.737677, 23.751677, 23.781415, 23.754549, 24.037910, 23.808244, 23.772823, 23.752115, 23.796551, 23.805763
Process 15: 24.815022, 24.548197, 25.822340, 24.430866, 24.443467, 24.429153, 24.441721, 24.480872, 24.469656, 24.439841, 24.479168, 24.471114, 24.474343, 24.500126, 24.474536, 25.829288, 24.466666, 24.468745, 25.735790, 25.831932, 24.411689, 24.434461, 24.457366, 24.430764, 24.714353, 24.480507, 24.458353, 24.432423, 24.473594, 24.482214
