MPI_insiderank_openmp
Process 0: 7.512787, 6.972518, 6.880311, 6.886946, 6.882596, 6.870758, 6.915261, 6.875477, 6.878878, 6.873950, 6.888358, 6.882905, 6.894080, 6.871516, 6.875376, 6.885137, 6.870165, 6.864658, 6.862979, 6.866525, 6.863517, 6.872266, 6.862457, 6.874731, 6.870426, 6.883989, 6.862414, 6.861658, 6.868103, 6.862701
Process 1: 4.612461, 4.060781, 3.978873, 3.978509, 3.990888, 3.977279, 4.021594, 3.977952, 3.978568, 3.978056, 3.983860, 3.979802, 3.995935, 3.978038, 3.976491, 3.972000, 3.971807, 3.967545, 3.967783, 3.968490, 3.967578, 3.977795, 3.968496, 3.971861, 3.970494, 3.977655, 3.964897, 3.965190, 3.969799, 3.963364
Process 2: 4.658245, 4.107859, 4.024937, 4.024538, 4.037285, 4.023168, 4.067943, 4.024265, 4.024680, 4.024162, 4.030109, 4.025933, 4.042057, 4.024163, 4.022754, 4.018529, 4.018113, 4.014049, 4.013813, 4.014417, 4.013567, 4.023978, 4.014620, 4.018456, 4.016311, 4.023594, 4.010824, 4.011384, 4.016104, 4.009414
Process 3: 4.704519, 4.155089, 4.071711, 4.071192, 4.083928, 4.069886, 4.114443, 4.071094, 4.071595, 4.070936, 4.076979, 4.072793, 4.088786, 4.070913, 4.069376, 4.065629, 4.064702, 4.060935, 4.060666, 4.061107, 4.060377, 4.070809, 4.061369, 4.065191, 4.062959, 4.070177, 4.057749, 4.058208, 4.062732, 4.056136
Process 4: 4.750636, 4.203725, 4.118213, 4.117936, 4.130689, 4.116417, 4.161311, 4.117435, 4.118048, 4.117405, 4.123474, 4.119254, 4.135085, 4.117173, 4.115773, 4.112782, 4.111209, 4.107359, 4.107088, 4.107574, 4.106874, 4.117258, 4.107800, 4.111675, 4.109381, 4.116520, 4.104186, 4.104554, 4.109237, 4.102631
Process 5: 4.798099, 4.253213, 4.165340, 4.165409, 4.177888, 4.163539, 4.208571, 4.164424, 4.165273, 4.164575, 4.170602, 4.166509, 4.182459, 4.164418, 4.162892, 4.160639, 4.158608, 4.154591, 4.154271, 4.155003, 4.154015, 4.164605, 4.155208, 4.158891, 4.156746, 4.163881, 4.151425, 4.151990, 4.156420, 4.149898
Process 6: 4.843944, 4.299735, 4.212286, 4.211738, 4.224193, 4.209602, 4.254799, 4.211042, 4.211384, 4.210518, 4.217302, 4.213676, 4.228920, 4.210597, 4.209155, 4.207776, 4.204652, 4.200941, 4.200688, 4.200937, 4.200387, 4.210642, 4.201574, 4.205273, 4.202425, 4.209793, 4.197947, 4.198554, 4.202290, 4.196325
Process 7: 4.891806, 4.346511, 4.259151, 4.258597, 4.270981, 4.256216, 4.301509, 4.257807, 4.258233, 4.257551, 4.264050, 4.261603, 4.275917, 4.257379, 4.255906, 4.255178, 4.251498, 4.247849, 4.247491, 4.248377, 4.247270, 4.257570, 4.248489, 4.252173, 4.249905, 4.257201, 4.244803, 4.245590, 4.249310, 4.243409
Process 8: 4.938700, 4.393410, 4.305732, 4.305369, 4.317455, 4.302925, 4.348088, 4.304312, 4.305056, 4.304199, 4.310613, 4.309696, 4.322727, 4.304236, 4.302636, 4.302584, 4.298056, 4.294365, 4.294291, 4.295035, 4.294093, 4.304441, 4.295260, 4.298823, 4.296819, 4.303849, 4.291486, 4.292548, 4.296015, 4.290144
Process 9: 4.986573, 4.442771, 4.353365, 4.352809, 4.365397, 4.350119, 4.395820, 4.351640, 4.352260, 4.351818, 4.358083, 4.357839, 4.369941, 4.351838, 4.350389, 4.350734, 4.345974, 4.341573, 4.341880, 4.342433, 4.341615, 4.351941, 4.342454, 4.346378, 4.344163, 4.351188, 4.338727, 4.339840, 4.343747, 4.337299
Process 10: 5.032247, 4.488817, 4.399186, 4.398717, 4.411093, 4.395972, 4.441442, 4.397393, 4.398083, 4.397642, 4.403855, 4.404593, 4.415753, 4.397529, 4.396230, 4.397379, 4.391592, 4.387440, 4.387665, 4.388220, 4.387424, 4.397823, 4.388243, 4.392223, 4.389991, 4.397024, 4.384663, 4.385864, 4.389516, 4.383139
Process 11: 5.078700, 4.536490, 4.445710, 4.445280, 4.457877, 4.442515, 4.488245, 4.444018, 4.444739, 4.444288, 4.450659, 4.451191, 4.462280, 4.444012, 4.442177, 4.443929, 4.439802, 4.433977, 4.434165, 4.434760, 4.433950, 4.444494, 4.434704, 4.438984, 4.436608, 4.443568, 4.431185, 4.432739, 4.436208, 4.429681
Process 12: 5.125248, 4.583038, 4.491995, 4.492426, 4.504233, 4.488988, 4.534676, 4.490594, 4.491140, 4.490766, 4.497907, 4.498441, 4.508841, 4.490302, 4.488747, 4.492051, 4.486277, 4.480482, 4.480360, 4.481017, 4.480420, 4.490761, 4.480916, 4.485475, 4.482874, 4.489956, 4.477401, 4.479164, 4.482813, 4.475978
Process 13: 5.172045, 4.629277, 4.538344, 4.540917, 4.550399, 4.535568, 4.581049, 4.537135, 4.537663, 4.537231, 4.546166, 4.544943, 4.555404, 4.536776, 4.536027, 4.541556, 4.532751, 4.527004, 4.526989, 4.528308, 4.526980, 4.537682, 4.527901, 4.532309, 4.529743, 4.538170, 4.524031, 4.525484, 4.529304, 4.522607
Process 14: 5.218912, 4.675561, 4.584312, 4.588317, 4.596541, 4.582205, 4.627694, 4.583653, 4.583444, 4.583145, 4.593666, 4.590771, 4.602115, 4.583823, 4.583214, 4.589771, 4.580281, 4.574239, 4.574204, 4.575680, 4.572859, 4.584351, 4.575401, 4.579399, 4.577255, 4.585617, 4.571469, 4.571738, 4.575326, 4.570023
Process 15: 5.266625, 4.723319, 4.632022, 4.636357, 4.644141, 4.630316, 4.675508, 4.631228, 4.631392, 4.630748, 4.641038, 4.638683, 4.650080, 4.631289, 4.630773, 4.638193, 4.628250, 4.622097, 4.622114, 4.623736, 4.620323, 4.632152, 4.623367, 4.627215, 4.625374, 4.633582, 4.619474, 4.619605, 4.622681, 4.617950
Process 16: 5.314769, 4.771577, 4.679572, 4.684017, 4.691890, 4.678147, 4.723376, 4.679170, 4.679126, 4.678496, 4.689016, 4.686391, 4.697967, 4.679611, 4.678799, 4.687082, 4.676259, 4.669871, 4.669876, 4.671538, 4.668093, 4.679835, 4.671112, 4.674736, 4.673130, 4.681460, 4.667275, 4.667325, 4.670365, 4.666194
Process 17: 5.362088, 4.821228, 4.727023, 4.731468, 4.739043, 4.725270, 4.770732, 4.726585, 4.726457, 4.725767, 4.736324, 4.733668, 4.745140, 4.750686, 4.726046, 4.735435, 4.723355, 4.717208, 4.717052, 4.718982, 4.715482, 4.726980, 4.718464, 4.722106, 4.720520, 4.728676, 4.714703, 4.714656, 4.717773, 4.713442
Process 18: 5.407819, 4.867295, 4.773429, 4.777050, 4.784798, 4.770819, 4.816556, 4.772426, 4.772032, 4.771464, 4.782189, 4.779358, 4.790782, 4.773612, 4.771717, 4.781875, 4.769273, 4.762977, 4.762572, 4.764780, 4.761064, 4.772472, 4.764053, 4.767811, 4.766461, 4.774546, 4.760391, 4.760468, 4.763526, 4.759160
Process 19: 5.454740, 4.915367, 4.821135, 4.824448, 4.831792, 4.817730, 4.863588, 4.819415, 4.819013, 4.818416, 4.829255, 4.826356, 4.837997, 4.820486, 4.818562, 4.829301, 4.816251, 4.810177, 4.809348, 4.811891, 4.808073, 4.819650, 4.810798, 4.815038, 4.813586, 4.821554, 4.807483, 4.807476, 4.810460, 4.806295
Process 20: 5.501193, 4.962272, 4.868967, 4.871293, 4.878302, 4.864445, 4.910148, 4.866019, 4.865765, 4.865090, 4.875822, 4.873104, 4.885619, 4.867104, 4.865163, 4.876942, 4.862700, 4.856857, 4.856066, 4.858639, 4.854891, 4.866366, 4.857492, 4.861727, 4.860156, 4.868194, 4.854158, 4.854294, 4.857204, 4.852923
Process 21: 5.549160, 5.009378, 4.917881, 4.918351, 4.925777, 4.911481, 4.957100, 4.912991, 4.912658, 4.912234, 4.922850, 4.920204, 4.934275, 4.914165, 4.912155, 4.924018, 4.909589, 4.903838, 4.902912, 4.905566, 4.901779, 4.913225, 4.904397, 4.908565, 4.907090, 4.915027, 4.901081, 4.901262, 4.905975, 4.899874
Process 22: 5.595191, 5.055460, 4.965895, 4.964606, 4.971835, 4.957727, 5.003276, 4.959132, 4.958772, 4.958656, 4.969037, 4.966416, 4.981301, 4.960323, 4.958448, 4.970203, 4.955836, 4.949789, 4.948907, 4.951838, 4.948025, 4.959403, 4.950582, 4.954679, 4.953342, 4.961178, 4.947236, 4.947406, 4.953009, 4.946094
Process 23: 5.641998, 5.103967, 5.013966, 5.011583, 5.018809, 5.004551, 5.050219, 5.005744, 5.005634, 5.005160, 5.016062, 5.013090, 5.029355, 5.007278, 5.005263, 5.016775, 5.002753, 4.996819, 4.995517, 4.998366, 4.995054, 5.006444, 4.997071, 5.001680, 5.000519, 5.008889, 4.993796, 4.993942, 5.001100, 4.992736
Process 24: 5.689134, 5.150926, 5.061743, 5.058353, 5.065598, 5.051372, 5.096888, 5.052792, 5.052603, 5.051943, 5.062803, 5.059891, 5.077106, 5.053900, 5.051994, 5.063677, 5.049354, 5.043563, 5.042370, 5.045025, 5.041706, 5.053072, 5.043701, 5.048438, 5.048299, 5.056670, 5.040571, 5.040520, 5.048884, 5.039281
Process 25: 5.736891, 5.198749, 5.110132, 5.105604, 5.113717, 5.099339, 5.144576, 5.100305, 5.100375, 5.099547, 5.110457, 5.107541, 5.125163, 5.101759, 5.099851, 5.111480, 5.097211, 5.091287, 5.090046, 5.092779, 5.089825, 5.100144, 5.091436, 5.095994, 5.096574, 5.104880, 5.088910, 5.088119, 5.097110, 5.087335
Process 26: 5.782799, 5.246463, 5.157003, 5.152367, 5.159600, 5.145429, 5.190492, 5.146629, 5.146875, 5.145671, 5.156414, 5.154278, 5.172018, 5.147906, 5.146039, 5.157819, 5.143038, 5.137999, 5.136220, 5.138885, 5.136466, 5.146804, 5.137466, 5.142664, 5.143308, 5.151676, 5.135617, 5.134867, 5.143924, 5.134087
Process 27: 5.830389, 5.293371, 5.204241, 5.199557, 5.206387, 5.192147, 5.237370, 5.193766, 5.193869, 5.192217, 5.203331, 5.201504, 5.219141, 5.194544, 5.192880, 5.204881, 5.189929, 5.185058, 5.182881, 5.185686, 5.183476, 5.193899, 5.185620, 5.189831, 5.190434, 5.198887, 5.182720, 5.182001, 5.191153, 5.181173
Process 28: 5.876967, 5.340276, 5.251083, 5.246406, 5.253156, 5.238566, 5.283909, 5.240569, 5.240557, 5.238940, 5.250169, 5.248360, 5.266007, 5.241082, 5.239280, 5.251606, 5.236655, 5.231816, 5.229450, 5.232085, 5.230313, 5.240829, 5.233040, 5.236668, 5.237274, 5.245778, 5.229512, 5.229108, 5.238095, 5.228056
Process 29: 5.925141, 5.387998, 5.299101, 5.294319, 5.300356, 5.286297, 5.330988, 5.288508, 5.288383, 5.286821, 5.297855, 5.296534, 5.313944, 5.289028, 5.287345, 5.299588, 5.284056, 5.280107, 5.277102, 5.279289, 5.278135, 5.288708, 5.280879, 5.284784, 5.285193, 5.293724, 5.277504, 5.277019, 5.286005, 5.275943
Process 30: 5.971238, 5.434662, 5.345373, 5.340714, 5.346995, 5.332630, 5.377723, 5.335163, 5.334902, 5.333401, 5.344510, 5.342971, 5.360333, 5.335272, 5.333787, 5.346008, 5.330730, 5.326317, 5.323387, 5.325918, 5.325088, 5.335279, 5.327278, 5.331366, 5.331582, 5.340292, 5.324082, 5.323264, 5.332571, 5.322235
Process 31: 6.018113, 5.483235, 5.392255, 5.387728, 5.393778, 5.379596, 5.424470, 5.382127, 5.381726, 5.380187, 5.391071, 5.389309, 5.407124, 5.382255, 5.380776, 5.392830, 5.377441, 5.372634, 5.370629, 5.373246, 5.372646, 5.382049, 5.374012, 5.378294, 5.378668, 5.387044, 5.370893, 5.370142, 5.379401, 5.369102
Process 32: 6.064342, 5.529638, 5.439109, 5.434584, 5.441136, 5.426589, 5.471866, 5.429513, 5.429026, 5.427232, 5.439171, 5.436482, 5.453889, 5.429175, 5.428134, 5.439986, 5.424355, 5.419769, 5.417731, 5.422756, 5.420265, 5.428931, 5.420637, 5.424904, 5.425748, 5.433573, 5.417339, 5.416768, 5.426484, 5.416091
Process 33: 6.112789, 5.579440, 5.486593, 5.482533, 5.488653, 5.474457, 5.519331, 5.477869, 5.476990, 5.474900, 5.487748, 5.484267, 5.501490, 5.477100, 5.476184, 5.488213, 5.472301, 5.467504, 5.465537, 5.470898, 5.469203, 5.476628, 5.468504, 5.472941, 5.473806, 5.481335, 5.465100, 5.464366, 5.474487, 5.464095
Process 34: 6.156937, 5.624276, 5.532270, 5.529284, 5.534868, 5.520499, 5.565226, 5.524256, 5.523054, 5.521043, 5.534584, 5.529576, 5.547491, 5.523072, 5.522585, 5.534586, 5.518493, 5.513202, 5.511979, 5.516949, 5.516125, 5.521698, 5.513696, 5.519523, 5.520018, 5.527186, 5.511415, 5.510624, 5.520862, 5.510546
Process 35: 6.205338, 5.670815, 5.578763, 5.576969, 5.581569, 5.566915, 5.612536, 5.570913, 5.569710, 5.567622, 5.582248, 5.576554, 5.594125, 5.569476, 5.569191, 5.581133, 5.565088, 5.561077, 5.558569, 5.563315, 5.563401, 5.568870, 5.560609, 5.567113, 5.566701, 5.573814, 5.558082, 5.557431, 5.567495, 5.557238
Process 36: 6.252832, 5.715903, 5.625775, 5.624412, 5.627890, 5.613904, 5.659647, 5.617178, 5.617011, 5.615256, 5.629368, 5.623855, 5.641362, 5.615967, 5.615318, 5.627671, 5.612304, 5.608473, 5.605220, 5.608732, 5.609191, 5.616025, 5.606790, 5.614554, 5.612888, 5.621312, 5.604846, 5.603823, 5.612516, 5.603223
Process 37: 6.301186, 5.762057, 5.672843, 5.671869, 5.675409, 5.661215, 5.707013, 5.664705, 5.664305, 5.662601, 5.676904, 5.671072, 5.688705, 5.663157, 5.662305, 5.674922, 5.660014, 5.656049, 5.652635, 5.655957, 5.656596, 5.663354, 5.654086, 5.661800, 5.660210, 5.668713, 5.652165, 5.651113, 5.659785, 5.650407
Process 38: 6.347356, 5.806333, 5.718787, 5.718100, 5.721137, 5.707448, 5.752659, 5.710930, 5.710267, 5.708781, 5.722647, 5.717117, 5.734699, 5.709206, 5.708336, 5.720947, 5.705941, 5.702309, 5.698837, 5.702112, 5.702667, 5.709512, 5.700056, 5.708031, 5.706327, 5.714992, 5.698132, 5.697270, 5.705857, 5.696334
Process 39: 6.395280, 5.852495, 5.765870, 5.765131, 5.768226, 5.754391, 5.799557, 5.757699, 5.757138, 5.755467, 5.769720, 5.764125, 5.781670, 5.756009, 5.754945, 5.767563, 5.753786, 5.749204, 5.745732, 5.748969, 5.749559, 5.756599, 5.747005, 5.754973, 5.753121, 5.761948, 5.744904, 5.744161, 5.752660, 5.743266
Process 40: 6.441961, 5.899915, 5.812568, 5.811490, 5.814501, 5.800954, 5.845884, 5.804446, 5.803716, 5.801677, 5.815815, 5.810715, 5.828051, 5.802470, 5.801310, 5.814122, 5.800711, 5.795767, 5.792449, 5.795411, 5.796194, 5.802984, 5.793478, 5.801552, 5.799479, 5.808498, 5.791289, 5.790803, 5.798971, 5.789643
Process 41: 6.489796, 5.947562, 5.859555, 5.858847, 5.861732, 5.847894, 5.892730, 5.851362, 5.850685, 5.848684, 5.862799, 5.857716, 5.874972, 5.849473, 5.848287, 5.861325, 5.847857, 5.842582, 5.839544, 5.842484, 5.843164, 5.849938, 5.840470, 5.848385, 5.846653, 5.855673, 5.838203, 5.837777, 5.845980, 5.836671
Process 42: 6.535519, 5.995126, 5.905038, 5.905338, 5.907465, 5.893588, 5.938229, 5.897027, 5.896103, 5.894300, 5.908497, 5.903448, 5.920322, 5.894881, 5.894276, 5.906917, 5.893257, 5.888051, 5.885267, 5.887742, 5.888740, 5.895202, 5.886058, 5.894294, 5.892220, 5.901140, 5.883561, 5.883816, 5.891372, 5.882481
Process 43: 6.582129, 6.042411, 5.950574, 5.952344, 5.952970, 5.938945, 5.983871, 5.942446, 5.942244, 5.939756, 5.954192, 5.949009, 5.965935, 5.940829, 5.940932, 5.952289, 5.938792, 5.933423, 5.930740, 5.933330, 5.934161, 5.940678, 5.931438, 5.939699, 5.937501, 5.946658, 5.929081, 5.929102, 5.937222, 5.927737
Process 44: 6.628914, 6.087387, 5.996442, 5.999206, 5.998713, 5.985551, 6.030561, 5.987458, 5.989349, 5.986197, 6.001620, 5.995239, 6.011148, 5.987218, 5.987679, 5.998988, 5.985021, 5.979748, 5.977075, 5.980120, 5.979829, 5.987442, 5.977283, 5.985658, 5.984295, 5.993132, 5.975914, 5.975632, 5.984254, 5.974139
Process 45: 6.676211, 6.135139, 6.043773, 6.046725, 6.045541, 6.033090, 6.077796, 6.034965, 6.036868, 6.033534, 6.049079, 6.042669, 6.058562, 6.034090, 6.034974, 6.046494, 6.032251, 6.027225, 6.024523, 6.027772, 6.026953, 6.034782, 6.024406, 6.032917, 6.031640, 6.041185, 6.023270, 6.023186, 6.031836, 6.021280
Process 46: 6.722187, 6.180771, 6.089912, 6.093408, 6.092100, 6.079382, 6.124501, 6.081312, 6.083433, 6.079875, 6.095932, 6.089182, 6.104859, 6.080800, 6.081459, 6.093020, 6.078920, 6.073590, 6.070864, 6.074319, 6.073468, 6.081122, 6.070834, 6.079281, 6.078138, 6.088288, 6.069593, 6.069512, 6.078404, 6.067647
Process 47: 6.769681, 6.227846, 6.136818, 6.140642, 6.138919, 6.126342, 6.171157, 6.128489, 6.131378, 6.126968, 6.142770, 6.136166, 6.151856, 6.127965, 6.128359, 6.140016, 6.125827, 6.120625, 6.117666, 6.121902, 6.120341, 6.128272, 6.117602, 6.126295, 6.124891, 6.135710, 6.116487, 6.116434, 6.125488, 6.116619
Process 48: 6.816089, 6.275297, 6.183239, 6.187478, 6.185450, 6.173002, 6.217823, 6.175397, 6.178161, 6.173683, 6.189570, 6.182898, 6.198309, 6.174083, 6.174855, 6.186555, 6.172610, 6.167014, 6.164193, 6.169128, 6.166677, 6.175029, 6.164224, 6.172828, 6.171757, 6.183166, 6.163047, 6.162882, 6.172266, 6.164108
Process 49: 6.863162, 6.323688, 6.230426, 6.234826, 6.232379, 6.220173, 6.264667, 6.222814, 6.225614, 6.221188, 6.236861, 6.230139, 6.245192, 6.220899, 6.221931, 6.233614, 6.219474, 6.214010, 6.211191, 6.216247, 6.213556, 6.222307, 6.211339, 6.219921, 6.218764, 6.230936, 6.210074, 6.210005, 6.219224, 6.211188
Process 50: 6.909401, 6.369859, 6.276345, 6.281484, 6.278610, 6.266203, 6.310757, 6.268657, 6.272044, 6.267082, 6.283353, 6.275902, 6.291073, 6.266939, 6.268277, 6.279661, 6.265600, 6.259881, 6.257437, 6.262357, 6.259353, 6.268153, 6.257308, 6.265880, 6.264782, 6.277231, 6.256219, 6.255905, 6.265143, 6.257183
Process 51: 6.955193, 6.416685, 6.323410, 6.328773, 6.325493, 6.312263, 6.357103, 6.314686, 6.318718, 6.314493, 6.330852, 6.322137, 6.337159, 6.313741, 6.316063, 6.326193, 6.311777, 6.306267, 6.304043, 6.308223, 6.306337, 6.314007, 6.303657, 6.312385, 6.312070, 6.323514, 6.302957, 6.302484, 6.310947, 6.303675
Process 52: 7.000597, 6.462156, 6.369906, 6.375472, 6.372353, 6.358940, 6.403764, 6.363449, 6.366385, 6.361362, 6.377609, 6.369156, 6.383669, 6.360446, 6.363100, 6.373044, 6.358680, 6.352963, 6.350777, 6.354196, 6.353124, 6.360767, 6.350669, 6.359326, 6.359227, 6.370861, 6.349635, 6.349222, 6.356866, 6.350415
Process 53: 7.048100, 6.507812, 6.417136, 6.422578, 6.419451, 6.406326, 6.450926, 6.410924, 6.414181, 6.408622, 6.424777, 6.417090, 6.430661, 6.407607, 6.410248, 6.420199, 6.405983, 6.400232, 6.398200, 6.401471, 6.400205, 6.407794, 6.397900, 6.407018, 6.406808, 6.418427, 6.396637, 6.396472, 6.404030, 6.397667
Process 54: 7.094134, 6.553103, 6.463505, 6.469041, 6.465595, 6.452981, 6.497281, 6.457767, 6.461007, 6.455379, 6.471081, 6.463906, 6.476972, 6.454220, 6.456774, 6.466678, 6.452465, 6.446526, 6.444672, 6.447911, 6.446637, 6.454338, 6.444464, 6.453484, 6.453255, 6.465360, 6.443136, 6.442927, 6.450416, 6.444147
Process 55: 7.141077, 6.600922, 6.510385, 6.516112, 6.512416, 6.500127, 6.544149, 6.505173, 6.508472, 6.502562, 6.518115, 6.510933, 6.523804, 6.501436, 6.503802, 6.513899, 6.499408, 6.493601, 6.491644, 6.495080, 6.493779, 6.501449, 6.491651, 6.500702, 6.500126, 6.512671, 6.490199, 6.489994, 6.497382, 6.491292
Process 56: 7.187937, 6.647601, 6.557091, 6.562767, 6.559185, 6.546803, 6.591133, 6.551620, 6.555383, 6.549398, 6.565158, 6.558067, 6.570318, 6.548221, 6.550724, 6.561081, 6.546265, 6.540678, 6.538702, 6.542092, 6.540386, 6.548249, 6.538521, 6.547507, 6.547060, 6.559447, 6.537171, 6.536914, 6.544182, 6.538293
Process 57: 7.235110, 6.694297, 6.603937, 6.610221, 6.606425, 6.594109, 6.638370, 6.599089, 6.602592, 6.597263, 6.612270, 6.605249, 6.617239, 6.595093, 6.598406, 6.608517, 6.593590, 6.588092, 6.585862, 6.589651, 6.587527, 6.595539, 6.586070, 6.595404, 6.594224, 6.606997, 6.584915, 6.584563, 6.591475, 6.585694
Process 58: 7.281207, 6.741768, 6.649982, 6.656518, 6.652538, 6.640683, 6.684748, 6.645154, 6.648722, 6.643510, 6.657894, 6.651305, 6.663681, 6.641365, 6.644454, 6.654670, 6.639704, 6.634298, 6.632416, 6.635823, 6.633379, 6.641547, 6.632020, 6.642593, 6.640000, 6.653104, 6.630996, 6.630864, 6.637459, 6.631898
Process 59: 7.327784, 6.788276, 6.696237, 6.702522, 6.698923, 6.686698, 6.731284, 6.691255, 6.694641, 6.689711, 6.704293, 6.697623, 6.710344, 6.687579, 6.691114, 6.700892, 6.685830, 6.680625, 6.678967, 6.682055, 6.679643, 6.688019, 6.678253, 6.690105, 6.686069, 6.699349, 6.677571, 6.677232, 6.683840, 6.678466
Process 60: 7.373796, 6.833581, 6.741659, 6.748284, 6.744184, 6.732391, 6.776724, 6.736922, 6.740353, 6.735432, 6.749975, 6.743030, 6.755643, 6.732977, 6.736850, 6.746738, 6.731557, 6.725996, 6.724469, 6.727764, 6.725142, 6.733630, 6.723674, 6.735906, 6.731914, 6.745303, 6.723423, 6.722938, 6.729460, 6.724150
Process 61: 7.420445, 6.879701, 6.788208, 6.794830, 6.790632, 6.778892, 6.823258, 6.783527, 6.786918, 6.782101, 6.796272, 6.789417, 6.802156, 6.779559, 6.783501, 6.793288, 6.778124, 6.772480, 6.770658, 6.774330, 6.771684, 6.780265, 6.770329, 6.782687, 6.778495, 6.792028, 6.769923, 6.769651, 6.776108, 6.770842
Process 62: 7.466572, 6.926060, 6.834082, 6.840721, 6.836521, 6.824654, 6.869220, 6.829325, 6.832760, 6.827949, 6.842212, 6.836932, 6.848007, 6.825413, 6.829286, 6.839056, 6.823859, 6.818508, 6.816874, 6.820377, 6.817473, 6.826252, 6.816370, 6.828586, 6.824361, 6.837934, 6.816220, 6.815524, 6.821939, 6.816670
Process 63: 7.512779, 6.972519, 6.880314, 6.886958, 6.882593, 6.870758, 6.915262, 6.875478, 6.878878, 6.873951, 6.888357, 6.882906, 6.894083, 6.871515, 6.875375, 6.885137, 6.870161, 6.864659, 6.862981, 6.866525, 6.863518, 6.872267, 6.862459, 6.874734, 6.870420, 6.883990, 6.862415, 6.861659, 6.868103, 6.862702
