MPI_insiderank_openmp
Process 0: 15.540202, 15.356053, 15.278840, 15.329370, 15.264048, 15.282112, 15.284584, 15.278374, 15.258991, 15.299570, 15.301592, 15.284615, 15.309062, 15.297353, 15.265012, 15.261373, 15.265072, 15.544666, 15.266941, 15.274242, 15.282418, 15.311674, 15.281286, 15.252684, 15.289487, 15.270999, 15.298611, 15.266417, 15.278505, 15.278845
Process 1: 11.502481, 11.322994, 11.250735, 11.275056, 11.243538, 11.266739, 11.259894, 11.254516, 11.237015, 11.281869, 11.279862, 11.264234, 11.263531, 11.278394, 11.240883, 11.240370, 11.247401, 11.526223, 11.249492, 11.250556, 11.261206, 11.291057, 11.253917, 11.235346, 11.272841, 11.251529, 11.262183, 11.251780, 11.259115, 11.254870
Process 2: 11.635675, 11.456863, 11.384540, 11.408653, 11.376831, 11.399890, 11.393304, 11.387776, 11.370144, 11.414977, 11.413140, 11.397177, 11.399644, 11.411297, 11.374084, 11.372981, 11.380361, 11.659210, 11.383393, 11.383922, 11.394512, 11.424111, 11.387145, 11.368766, 11.406637, 11.384843, 11.395329, 11.385012, 11.392435, 11.387988
Process 3: 11.770279, 11.591788, 11.519550, 11.543627, 11.512370, 11.535319, 11.528140, 11.523300, 11.505490, 11.550276, 11.548858, 11.533100, 11.535541, 11.546622, 11.509438, 11.508268, 11.515693, 11.794739, 11.518899, 11.519710, 11.530094, 11.560124, 11.522727, 11.504345, 11.541728, 11.520695, 11.531019, 11.520459, 11.528193, 11.523176
Process 4: 11.901330, 11.725605, 11.651746, 11.676233, 11.643256, 11.666523, 11.659993, 11.654501, 11.637256, 11.681416, 11.679861, 11.664401, 11.667043, 11.677674, 11.640321, 11.639160, 11.646497, 11.925353, 11.649625, 11.650783, 11.660630, 11.690699, 11.653274, 11.635668, 11.673585, 11.652313, 11.662636, 11.651863, 11.659228, 11.654388
Process 5: 12.036165, 11.862965, 11.786875, 11.811361, 11.778506, 11.801631, 11.795082, 11.789568, 11.772254, 11.816754, 11.814908, 11.799546, 11.801923, 11.812680, 11.778188, 11.774487, 11.781487, 12.060543, 11.784739, 11.785338, 11.795387, 11.826040, 11.788516, 11.770393, 11.808510, 11.787308, 11.797687, 11.786974, 11.793772, 11.789156
Process 6: 12.168598, 11.997313, 11.918794, 11.943089, 11.910302, 11.933786, 11.927122, 11.921411, 11.904175, 11.948870, 11.947293, 11.931376, 11.934492, 11.944306, 11.913369, 11.906108, 11.914022, 12.191837, 11.916554, 11.917611, 11.927901, 11.958015, 11.920345, 11.902806, 11.940737, 11.920084, 11.929939, 11.918778, 11.926005, 11.921591
Process 7: 12.303528, 12.131807, 12.052582, 12.077641, 12.044534, 12.068033, 12.061623, 12.055571, 12.038391, 12.083020, 12.082222, 12.065851, 12.068741, 12.078530, 12.049677, 12.041478, 12.048520, 12.326108, 12.050834, 12.051621, 12.062237, 12.092741, 12.054373, 12.036730, 12.074647, 12.054784, 12.064364, 12.053281, 12.061342, 12.056775
Process 8: 12.436552, 12.265715, 12.186441, 12.210308, 12.177295, 12.200146, 12.195399, 12.187587, 12.171192, 12.215306, 12.214290, 12.198240, 12.202375, 12.210955, 12.182896, 12.173358, 12.180938, 12.458217, 12.183573, 12.184096, 12.195208, 12.224874, 12.186743, 12.169006, 12.208270, 12.187539, 12.196865, 12.186186, 12.194328, 12.188929
Process 9: 12.571638, 12.399570, 12.322230, 12.345127, 12.312499, 12.335626, 12.330073, 12.323088, 12.305581, 12.350016, 12.349724, 12.333161, 12.337419, 12.346193, 12.317810, 12.308712, 12.315902, 12.592824, 12.318408, 12.318528, 12.330749, 12.360063, 12.322387, 12.303905, 12.342831, 12.322811, 12.332335, 12.321574, 12.329165, 12.324320
Process 10: 12.705604, 12.533774, 12.458933, 12.478396, 12.445121, 12.469511, 12.462907, 12.456306, 12.439453, 12.483217, 12.483307, 12.467186, 12.470265, 12.479659, 12.451233, 12.443047, 12.448760, 12.726100, 12.451757, 12.451665, 12.464421, 12.493371, 12.456096, 12.437114, 12.475991, 12.456581, 12.466365, 12.455982, 12.462643, 12.457910
Process 11: 12.839828, 12.667799, 12.595344, 12.612523, 12.579325, 12.604580, 12.597237, 12.590575, 12.575590, 12.618183, 12.617650, 12.601787, 12.603938, 12.613601, 12.585380, 12.577356, 12.583178, 12.860223, 12.586342, 12.586226, 12.599551, 12.628139, 12.590940, 12.571617, 12.609998, 12.591945, 12.601396, 12.590399, 12.597528, 12.592698
Process 12: 12.975348, 12.800579, 12.727959, 12.748448, 12.710876, 12.736111, 12.731316, 12.722567, 12.707921, 12.749854, 12.749305, 12.733145, 12.736865, 12.745827, 12.717064, 12.708927, 12.714651, 12.993017, 12.717595, 12.718042, 12.730840, 12.761625, 12.722761, 12.702916, 12.741425, 12.722829, 12.733102, 12.721804, 12.728851, 12.724355
Process 13: 13.113342, 12.934849, 12.862633, 12.886073, 12.846424, 12.869800, 12.868769, 12.856439, 12.842287, 12.883881, 12.882913, 12.866981, 12.871710, 12.880104, 12.850352, 12.843423, 12.849014, 13.128860, 12.851303, 12.851354, 12.864929, 12.895769, 12.856678, 12.836986, 12.876309, 12.856652, 12.868199, 12.855521, 12.863032, 12.858333
Process 14: 13.249228, 13.069133, 12.998138, 13.021138, 12.981601, 13.000894, 13.004198, 12.990579, 12.975775, 13.017926, 13.017193, 13.001316, 13.005083, 13.015033, 12.983559, 12.978310, 12.983708, 13.263821, 12.985559, 12.985343, 12.998392, 13.030560, 12.991011, 12.970354, 13.010357, 12.990460, 13.002788, 12.988551, 12.997516, 12.992535
Process 15: 13.387082, 13.204890, 13.134884, 13.158102, 13.118787, 13.136748, 13.140974, 13.128800, 13.112656, 13.155195, 13.154430, 13.137619, 13.142373, 13.152400, 13.121089, 13.115526, 13.120366, 13.400688, 13.122796, 13.122209, 13.136034, 13.168139, 13.128242, 13.107333, 13.145749, 13.128128, 13.139179, 13.126261, 13.135251, 13.129318
Process 16: 13.522649, 13.339953, 13.268831, 13.296736, 13.252910, 13.271088, 13.275679, 13.263065, 13.247901, 13.289008, 13.288547, 13.271889, 13.276457, 13.285980, 13.255334, 13.249075, 13.254509, 13.534733, 13.256755, 13.255819, 13.270116, 13.302159, 13.263824, 13.241398, 13.280426, 13.261589, 13.274232, 13.260328, 13.269308, 13.263401
Process 17: 13.660745, 13.476409, 13.404512, 13.434754, 13.388795, 13.406578, 13.412386, 13.399716, 13.385359, 13.425031, 13.425044, 13.408655, 13.412180, 13.421871, 13.391263, 13.385222, 13.390780, 13.671356, 13.392922, 13.392340, 13.406444, 13.438453, 13.402584, 13.378066, 13.416377, 13.397680, 13.412405, 13.396930, 13.405844, 13.400097
Process 18: 13.796601, 13.613142, 13.538840, 13.570858, 13.522469, 13.541659, 13.546997, 13.533853, 13.520593, 13.559516, 13.559646, 13.542454, 13.547088, 13.556226, 13.525715, 13.520531, 13.525233, 13.805427, 13.527159, 13.526193, 13.540294, 13.572755, 13.540762, 13.512599, 13.551969, 13.531877, 13.549839, 13.531371, 13.540290, 13.534977
Process 19: 13.933210, 13.749115, 13.674843, 13.707388, 13.660282, 13.678203, 13.682118, 13.670262, 13.656706, 13.696523, 13.694851, 13.679192, 13.682452, 13.692620, 13.660848, 13.656805, 13.660978, 13.941259, 13.662573, 13.662733, 13.675941, 13.708727, 13.678765, 13.648296, 13.687575, 13.667773, 13.687904, 13.666512, 13.675566, 13.672147
Process 20: 14.067980, 13.883927, 13.808890, 13.842149, 13.794908, 13.812247, 13.816358, 13.804197, 13.791234, 13.831464, 13.829571, 13.813900, 13.816905, 13.826411, 13.794731, 13.790393, 13.795723, 14.075533, 13.797013, 13.797429, 13.809927, 13.842224, 13.812154, 13.782501, 13.821551, 13.801846, 13.824368, 13.800264, 13.809463, 13.806869
Process 21: 14.203048, 14.019262, 13.943616, 13.977829, 13.929021, 13.948071, 13.951230, 13.939962, 13.925058, 13.966409, 13.965318, 13.949227, 13.952630, 13.962191, 13.930373, 13.926188, 13.931037, 14.210484, 13.932347, 13.932745, 13.945506, 13.975724, 13.947288, 13.917819, 13.955366, 13.935518, 13.960030, 13.933610, 13.944053, 13.942892
Process 22: 14.337378, 14.154219, 14.078031, 14.116369, 14.062487, 14.081564, 14.085266, 14.073558, 14.059243, 14.100034, 14.099149, 14.083280, 14.086452, 14.095582, 14.063648, 14.059993, 14.064733, 14.344108, 14.066029, 14.066446, 14.079416, 14.109400, 14.081039, 14.051227, 14.089191, 14.069496, 14.094763, 14.067124, 14.077742, 14.076460
Process 23: 14.473859, 14.290457, 14.213939, 14.257673, 14.200070, 14.218154, 14.221034, 14.211510, 14.194197, 14.236835, 14.235912, 14.220652, 14.223194, 14.231817, 14.200507, 14.196636, 14.201602, 14.480792, 14.202664, 14.204159, 14.216820, 14.246011, 14.217811, 14.189854, 14.225594, 14.207614, 14.234675, 14.202590, 14.214649, 14.212859
Process 24: 14.606444, 14.423841, 14.346911, 14.394860, 14.332813, 14.350299, 14.355285, 14.344056, 14.327060, 14.369135, 14.368215, 14.353178, 14.358539, 14.364229, 14.332853, 14.329108, 14.334637, 14.613362, 14.335077, 14.336494, 14.349510, 14.378510, 14.349896, 14.321959, 14.358729, 14.339767, 14.367776, 14.334941, 14.346919, 14.345998
Process 25: 14.742355, 14.559222, 14.481772, 14.531857, 14.467790, 14.485508, 14.490195, 14.479827, 14.462093, 14.504646, 14.503382, 14.489134, 14.497764, 14.499435, 14.468685, 14.464846, 14.469923, 14.748689, 14.470745, 14.472499, 14.485798, 14.514580, 14.485590, 14.457501, 14.494066, 14.475651, 14.503712, 14.470669, 14.482607, 14.481318
Process 26: 14.875576, 14.692866, 14.615545, 14.666276, 14.600889, 14.618970, 14.623705, 14.613155, 14.596297, 14.637157, 14.637303, 14.621844, 14.633766, 14.632966, 14.601490, 14.597734, 14.603637, 14.881591, 14.603600, 14.605141, 14.618834, 14.647331, 14.618563, 14.590533, 14.627378, 14.608754, 14.636408, 14.603859, 14.615492, 14.613915
Process 27: 15.010657, 14.826380, 14.749552, 14.800377, 14.735404, 14.753733, 14.757243, 14.748007, 14.731170, 14.771702, 14.772077, 14.756219, 14.770972, 14.767385, 14.736245, 14.732173, 14.737141, 15.016927, 14.738352, 14.739654, 14.753479, 14.782204, 14.753316, 14.725070, 14.761358, 14.742674, 14.770904, 14.738433, 14.750131, 14.748462
Process 28: 15.143857, 14.959377, 14.882325, 14.933075, 14.867821, 14.886094, 14.889460, 14.880388, 14.863795, 14.904022, 14.904488, 14.888583, 14.906291, 14.899881, 14.869051, 14.864362, 14.869694, 15.149187, 14.870968, 14.872323, 14.886282, 14.914637, 14.885991, 14.857620, 14.893932, 14.875434, 14.903271, 14.870989, 14.882868, 14.881686
Process 29: 15.278509, 15.092816, 15.016156, 15.066296, 15.001252, 15.019650, 15.022404, 15.014886, 14.996917, 15.037690, 15.039103, 15.022285, 15.041783, 15.033264, 15.002774, 14.998554, 15.002571, 15.282238, 15.004509, 15.007648, 15.019720, 15.049149, 15.019462, 14.991001, 15.026835, 15.008640, 15.036607, 15.004235, 15.016071, 15.015626
Process 30: 15.409303, 15.223476, 15.146149, 15.196502, 15.131629, 15.149986, 15.152193, 15.145413, 15.126820, 15.167566, 15.169150, 15.152140, 15.174360, 15.165295, 15.132850, 15.128787, 15.132820, 15.412690, 15.134503, 15.140099, 15.149829, 15.179080, 15.149025, 15.120630, 15.157249, 15.138614, 15.166602, 15.134267, 15.146156, 15.145819
Process 31: 15.541083, 15.356058, 15.278837, 15.329373, 15.264052, 15.282105, 15.284583, 15.278377, 15.258987, 15.299570, 15.301594, 15.284615, 15.309053, 15.297356, 15.265013, 15.261375, 15.265068, 15.544655, 15.266938, 15.274239, 15.282419, 15.311674, 15.281290, 15.252684, 15.289483, 15.270999, 15.298611, 15.266408, 15.278515, 15.278844
