MPI_insiderank_openmp
Process 0: 33.810148, 33.605225, 33.473712, 33.478821, 33.423389, 34.800393, 33.441672, 34.753979, 33.433958, 33.483648, 33.476765, 33.482585, 33.533592, 33.493137, 33.527501, 33.471782, 33.480950, 33.568512, 33.503985, 34.805990, 33.433746, 33.438758, 33.494243, 33.458369, 33.446331, 33.442139, 33.445442, 33.461231, 33.478020, 33.424811
Process 1: 27.692767, 27.519146, 27.379873, 27.366818, 27.335507, 28.697199, 27.346859, 28.667758, 27.343384, 27.393343, 27.393077, 27.395762, 27.449228, 27.407433, 27.436514, 27.380602, 27.390522, 27.485233, 27.405726, 28.721720, 27.345613, 27.354228, 27.408158, 27.368079, 27.346000, 27.340304, 27.362164, 27.386235, 27.377695, 27.332806
Process 2: 28.124165, 27.950892, 27.812153, 27.809392, 27.766233, 29.128920, 27.778041, 29.099176, 27.774754, 27.825325, 27.825404, 27.827848, 27.882874, 27.839032, 27.868708, 27.818137, 27.822172, 27.916239, 27.836648, 29.153168, 27.778102, 27.786248, 27.841007, 27.800654, 27.779945, 27.771581, 27.793614, 27.817931, 27.809969, 27.764531
Process 3: 28.565460, 28.389184, 28.252800, 28.257879, 28.205981, 29.585075, 28.216875, 29.538663, 28.213737, 28.264887, 28.263418, 28.268176, 28.320980, 28.278258, 28.308328, 28.257174, 28.261626, 28.356691, 28.276304, 29.592476, 28.216877, 28.226060, 28.279653, 28.240296, 28.220750, 28.208708, 28.229955, 28.255008, 28.246497, 28.202058
Process 4: 28.998972, 28.822858, 28.685440, 28.699425, 28.638219, 30.016786, 28.649927, 29.969901, 28.646268, 28.697720, 28.695796, 28.700831, 28.753987, 28.711294, 28.741291, 28.689796, 28.694307, 28.788409, 28.707437, 30.023928, 28.649147, 28.658598, 28.713231, 28.673128, 28.655146, 28.640351, 28.663566, 28.687321, 28.678366, 28.633768
Process 5: 29.437823, 29.259951, 29.123264, 29.136893, 29.077565, 30.455522, 29.087856, 30.408969, 29.084459, 29.134359, 29.133151, 29.140841, 29.190957, 29.149096, 29.178794, 29.128455, 29.132155, 29.225715, 29.152666, 30.462022, 29.085601, 29.096777, 29.149233, 29.110934, 29.090748, 29.075685, 29.106224, 29.122140, 29.113649, 29.070896
Process 6: 29.871057, 29.692902, 29.556727, 29.568573, 29.510375, 30.888030, 29.520103, 30.840451, 29.515924, 29.566973, 29.566507, 29.572550, 29.623708, 29.581184, 29.611749, 29.561395, 29.564613, 29.657830, 29.584973, 30.892965, 29.517823, 29.528663, 29.582137, 29.544708, 29.532106, 29.511627, 29.539271, 29.554108, 29.548469, 29.503936
Process 7: 30.311593, 30.131257, 29.993991, 30.007166, 29.951327, 31.327908, 29.960282, 31.280724, 29.954854, 30.005623, 30.005077, 30.010631, 30.061853, 30.021691, 30.049899, 30.000344, 30.004155, 30.096129, 30.026320, 31.333355, 29.957319, 29.967300, 30.019552, 29.986417, 29.969343, 29.949409, 29.976385, 29.991363, 29.995260, 29.948849
Process 8: 30.744025, 30.565780, 30.427917, 30.441240, 30.388208, 31.760961, 30.397691, 31.713551, 30.392454, 30.438255, 30.438887, 30.443284, 30.497871, 30.455666, 30.480945, 30.433134, 30.441041, 30.529591, 30.464405, 31.765411, 30.394617, 30.399900, 30.453808, 30.418903, 30.403967, 30.381631, 30.405402, 30.424328, 30.439076, 30.380502
Process 9: 31.187785, 31.003304, 30.866560, 30.879134, 30.826322, 32.200570, 30.835383, 32.153520, 30.832231, 30.876225, 30.878359, 30.881879, 30.934201, 30.893953, 30.918485, 30.873330, 30.880287, 30.968383, 30.905474, 32.203999, 30.833505, 30.838236, 30.892716, 30.857812, 30.842329, 30.822893, 30.843993, 30.862932, 30.879722, 30.818805
Process 10: 31.622080, 31.436942, 31.306659, 31.312174, 31.257896, 32.633393, 31.267976, 32.586072, 31.263965, 31.312984, 31.311068, 31.314048, 31.366161, 31.326531, 31.354229, 31.305688, 31.311755, 31.400867, 31.338157, 32.637554, 31.265186, 31.270547, 31.326755, 31.290819, 31.274070, 31.262823, 31.276279, 31.295334, 31.313356, 31.252664
Process 11: 32.064588, 31.872518, 31.742752, 31.748362, 31.692977, 33.068525, 31.703757, 33.022462, 31.699482, 31.752500, 31.746970, 31.749722, 31.804077, 31.762620, 31.795259, 31.741007, 31.747925, 31.837783, 31.773974, 33.075221, 31.700452, 31.705694, 31.762587, 31.726240, 31.711695, 31.697254, 31.711346, 31.730920, 31.748766, 31.689875
Process 12: 32.500808, 32.305240, 32.174599, 32.179401, 32.124650, 33.499578, 32.143875, 33.453846, 32.132704, 32.183875, 32.179087, 32.181093, 32.235725, 32.193553, 32.226433, 32.172315, 32.180303, 32.268880, 32.205244, 33.507187, 32.132182, 32.137317, 32.195124, 32.157489, 32.144820, 32.136700, 32.142922, 32.162278, 32.179920, 32.123064
Process 13: 32.940877, 32.738610, 32.609707, 32.613064, 32.558845, 33.935074, 32.577961, 33.888141, 32.567375, 32.618331, 32.612640, 32.615265, 32.669487, 32.627169, 32.662100, 32.606702, 32.614540, 32.703057, 32.639256, 33.941385, 32.565939, 32.573698, 32.629241, 32.592410, 32.581872, 32.572191, 32.577626, 32.596403, 32.613985, 32.558703
Process 14: 33.373230, 33.172362, 33.040866, 33.044886, 32.990066, 34.366631, 33.009287, 34.319943, 32.998714, 33.049862, 33.043965, 33.048143, 33.100953, 33.059642, 33.094030, 33.038130, 33.046304, 33.135016, 33.070977, 34.372535, 32.999750, 33.005469, 33.060771, 33.023907, 33.013504, 33.003653, 33.009216, 33.027757, 33.044900, 32.990256
Process 15: 33.811382, 33.605225, 33.473704, 33.478827, 33.423384, 34.800398, 33.441662, 34.753979, 33.433957, 33.483651, 33.476760, 33.482584, 33.533586, 33.493136, 33.527494, 33.471794, 33.480944, 33.568511, 33.503980, 34.805994, 33.433745, 33.438759, 33.494239, 33.458368, 33.446327, 33.442139, 33.445433, 33.461231, 33.478015, 33.424811
