MPI_insiderank_openmp
Process 0: 70.722712, 70.617544, 70.556911, 70.592170, 70.602129, 70.629172, 70.560936, 70.444160, 70.500856, 70.597992, 70.583177, 70.579729, 70.609164, 70.446856, 70.567977, 70.529409, 70.517631, 70.530632, 70.532594, 70.491339, 70.528460, 70.600460, 70.754343, 70.573380, 70.526760, 70.453244, 70.544323, 70.562922, 70.542549, 70.562199
Process 1: 64.572902, 64.469331, 64.419033, 64.443482, 64.457717, 64.494052, 64.417044, 64.311077, 64.372992, 64.470833, 64.415088, 64.438005, 64.482814, 64.294460, 64.402304, 64.374030, 64.375166, 64.401479, 64.401608, 64.346104, 64.389350, 64.456475, 64.607506, 64.423571, 64.393673, 64.329899, 64.414329, 64.432242, 64.390808, 64.424587
Process 2: 65.604872, 65.494179, 65.444766, 65.484527, 65.482934, 65.518342, 65.452785, 65.336778, 65.394707, 65.496317, 65.451352, 65.463406, 65.506785, 65.318747, 65.426007, 65.424589, 65.400420, 65.423514, 65.425647, 65.370461, 65.414122, 65.480624, 65.629455, 65.445826, 65.417629, 65.352919, 65.439097, 65.454357, 65.413634, 65.448302
Process 3: 66.639961, 66.521262, 66.472906, 66.509961, 66.508777, 66.544511, 66.479511, 66.364769, 66.421462, 66.523521, 66.483613, 66.490311, 66.532600, 66.351407, 66.452131, 66.448725, 66.430321, 66.448258, 66.453603, 66.406452, 66.440516, 66.518835, 66.655341, 66.471883, 66.443997, 66.376204, 66.464980, 66.480604, 66.440473, 66.475421
Process 4: 67.659943, 67.541463, 67.492809, 67.531153, 67.530600, 67.565688, 67.500496, 67.385994, 67.442161, 67.533837, 67.513801, 67.512369, 67.541950, 67.387964, 67.494084, 67.467316, 67.455611, 67.466352, 67.471785, 67.425307, 67.460547, 67.529427, 67.685380, 67.503767, 67.452557, 67.393820, 67.483971, 67.488778, 67.469432, 67.485062
Process 5: 68.680203, 68.561916, 68.512733, 68.549319, 68.548979, 68.585157, 68.520045, 68.403485, 68.459414, 68.553594, 68.535286, 68.533193, 68.561798, 68.402268, 68.527835, 68.487654, 68.474736, 68.487174, 68.491527, 68.446819, 68.484179, 68.549622, 68.705247, 68.529834, 68.481585, 68.412312, 68.501930, 68.507099, 68.491439, 68.503200
Process 6: 69.700396, 69.595731, 69.534182, 69.571265, 69.581622, 69.606918, 69.539117, 69.423900, 69.480176, 69.575564, 69.560931, 69.556435, 69.583571, 69.425047, 69.549073, 69.507397, 69.495240, 69.509117, 69.512106, 69.467020, 69.506448, 69.573250, 69.727259, 69.550873, 69.505147, 69.432491, 69.524569, 69.533466, 69.521152, 69.525176
Process 7: 70.724820, 70.619293, 70.558684, 70.594030, 70.603811, 70.630833, 70.562775, 70.445814, 70.502467, 70.599785, 70.584658, 70.581591, 70.611001, 70.448738, 70.569503, 70.531003, 70.519427, 70.532330, 70.534386, 70.493016, 70.530131, 70.602139, 70.756071, 70.575217, 70.528534, 70.455024, 70.546114, 70.564640, 70.544277, 70.563675
