MPI_insiderank_openmp
Process 0: 8.840215, 10.037736, 8.222478, 8.251371, 8.220670, 8.209154, 8.213871, 8.201706, 8.247246, 8.222055, 8.217847, 8.237363, 8.217765, 8.209082, 8.219900, 8.212639, 8.202278, 8.215409, 8.217561, 8.235306, 8.221775, 8.208502, 8.217455, 8.220212, 8.222962, 8.218274, 8.216114, 8.222579, 8.224626, 8.209597
Process 1: 4.857721, 6.036905, 4.237598, 4.247496, 4.239105, 4.226806, 4.233610, 4.219202, 4.267319, 4.235934, 4.232015, 4.256089, 4.236898, 4.227967, 4.237161, 4.231877, 4.222859, 4.232868, 4.235578, 4.253153, 4.236294, 4.226831, 4.233046, 4.237760, 4.241933, 4.235374, 4.233998, 4.230128, 4.242534, 4.219757
Process 2: 4.920267, 6.099969, 4.300834, 4.310671, 4.302152, 4.292059, 4.296622, 4.282050, 4.330161, 4.298817, 4.294904, 4.319024, 4.299747, 4.290984, 4.300265, 4.294946, 4.285935, 4.295862, 4.298420, 4.316092, 4.299325, 4.289830, 4.296143, 4.300785, 4.305022, 4.298137, 4.296913, 4.293071, 4.305690, 4.282784
Process 3: 4.985566, 6.164609, 4.365402, 4.376276, 4.366701, 4.356530, 4.361551, 4.346895, 4.395047, 4.363842, 4.360220, 4.383785, 4.364689, 4.356046, 4.364690, 4.359957, 4.350937, 4.360878, 4.363275, 4.381045, 4.364261, 4.354889, 4.361052, 4.365778, 4.370044, 4.363179, 4.361885, 4.358056, 4.371424, 4.347844
Process 4: 5.047876, 6.227636, 4.428399, 4.439482, 4.430007, 4.419729, 4.424534, 4.409996, 4.458275, 4.427100, 4.423160, 4.446831, 4.427896, 4.419382, 4.428077, 4.423484, 4.414032, 4.423815, 4.426418, 4.444148, 4.427191, 4.417683, 4.423944, 4.429081, 4.432924, 4.426202, 4.425036, 4.420843, 4.434635, 4.410220
Process 5: 5.111628, 6.294234, 4.491562, 4.502570, 4.492984, 4.482683, 4.487712, 4.473281, 4.521515, 4.490403, 4.486586, 4.510684, 4.491339, 4.482639, 4.491689, 4.487178, 4.477210, 4.487131, 4.489602, 4.507100, 4.490392, 4.480931, 4.487159, 4.492309, 4.496252, 4.489347, 4.488272, 4.484049, 4.497728, 4.473463
Process 6: 5.172500, 6.358299, 4.553469, 4.564275, 4.554634, 4.547087, 4.549135, 4.534634, 4.582829, 4.551917, 4.547792, 4.571998, 4.552434, 4.543977, 4.553360, 4.549329, 4.538640, 4.548469, 4.550815, 4.568544, 4.551555, 4.542299, 4.548391, 4.553844, 4.557510, 4.550669, 4.549285, 4.545543, 4.559498, 4.534741
Process 7: 5.234847, 6.425345, 4.616050, 4.627149, 4.617295, 4.608786, 4.613396, 4.598814, 4.645747, 4.615043, 4.611396, 4.635627, 4.615949, 4.606569, 4.615252, 4.612432, 4.602381, 4.611247, 4.614052, 4.632389, 4.615836, 4.605636, 4.612343, 4.616467, 4.621095, 4.614610, 4.612938, 4.608142, 4.624004, 4.598850
Process 8: 5.298814, 6.489571, 4.680018, 4.691216, 4.681307, 4.672918, 4.677494, 4.662625, 4.709756, 4.679068, 4.676562, 4.699590, 4.679724, 4.670483, 4.679512, 4.677451, 4.666492, 4.675502, 4.678227, 4.696054, 4.679797, 4.669537, 4.676313, 4.680239, 4.685184, 4.678607, 4.677112, 4.671860, 4.688113, 4.662884
Process 9: 5.363421, 6.553341, 4.743868, 4.755142, 4.745251, 4.736890, 4.741450, 4.726704, 4.773757, 4.742841, 4.740472, 4.763732, 4.743870, 4.734513, 4.743381, 4.741654, 4.730531, 4.739596, 4.742131, 4.759941, 4.743825, 4.733546, 4.740195, 4.744082, 4.749183, 4.742590, 4.741346, 4.736017, 4.752165, 4.727272
Process 10: 5.426470, 6.616627, 4.806942, 4.818433, 4.808483, 4.800014, 4.804993, 4.789762, 4.836852, 4.805912, 4.803446, 4.826670, 4.806888, 4.797345, 4.806680, 4.805339, 4.793499, 4.802584, 4.805132, 4.823035, 4.807015, 4.796726, 4.803530, 4.807064, 4.812111, 4.805669, 4.804397, 4.798926, 4.815298, 4.790463
Process 11: 5.490345, 6.680416, 4.870534, 4.883241, 4.873372, 4.863320, 4.868691, 4.853431, 4.900527, 4.869468, 4.867399, 4.890331, 4.871065, 4.861108, 4.871434, 4.869275, 4.857482, 4.866360, 4.869046, 4.886790, 4.870476, 4.860429, 4.868290, 4.871016, 4.875964, 4.869558, 4.868198, 4.862552, 4.878670, 4.854168
Process 12: 5.551713, 6.742677, 4.932311, 4.944610, 4.934559, 4.924711, 4.930238, 4.914698, 4.961861, 4.930661, 4.928674, 4.951762, 4.932399, 4.922632, 4.932919, 4.931491, 4.918707, 4.927683, 4.930342, 4.948109, 4.932021, 4.921616, 4.929892, 4.932569, 4.937368, 4.930871, 4.929767, 4.924048, 4.939970, 4.915479
Process 13: 5.614822, 6.806727, 4.994957, 5.007110, 4.997087, 4.987435, 4.993380, 4.977474, 5.024443, 4.994107, 4.991223, 5.014537, 4.994922, 4.985337, 4.996093, 4.994204, 4.981408, 4.990415, 4.993234, 5.010717, 4.995171, 4.984274, 4.993161, 4.995232, 4.999896, 4.993459, 4.992442, 4.986896, 5.002704, 4.978262
Process 14: 5.675836, 6.870348, 5.057066, 5.070638, 5.059465, 5.048237, 5.054610, 5.038829, 5.085957, 5.055390, 5.053252, 5.075788, 5.056501, 5.047604, 5.060258, 5.055262, 5.041658, 5.052020, 5.054491, 5.073814, 5.056824, 5.045825, 5.054723, 5.057036, 5.061538, 5.055595, 5.053561, 5.049697, 5.064424, 5.040200
Process 15: 5.741351, 6.935991, 5.122429, 5.136187, 5.124685, 5.113841, 5.120106, 5.104307, 5.151288, 5.120828, 5.118816, 5.141163, 5.122012, 5.113461, 5.125702, 5.120765, 5.107112, 5.117519, 5.120024, 5.139389, 5.122564, 5.111399, 5.120419, 5.122538, 5.126987, 5.120886, 5.119250, 5.115045, 5.129679, 5.105769
Process 16: 5.804727, 6.999443, 5.185718, 5.199403, 5.187998, 5.177031, 5.183358, 5.167465, 5.214375, 5.184064, 5.181863, 5.204395, 5.185254, 5.176696, 5.188861, 5.184218, 5.170047, 5.180675, 5.183464, 5.202627, 5.185634, 5.174618, 5.183863, 5.185781, 5.190242, 5.184202, 5.182405, 5.178113, 5.192998, 5.169045
Process 17: 5.869662, 7.064141, 5.250124, 5.263548, 5.252268, 5.241212, 5.248467, 5.232493, 5.278980, 5.248665, 5.246434, 5.269032, 5.249998, 5.241348, 5.253224, 5.248700, 5.234731, 5.245254, 5.247949, 5.267380, 5.251020, 5.239392, 5.249548, 5.250460, 5.254965, 5.248838, 5.246930, 5.242901, 5.257259, 5.234926
Process 18: 5.932428, 7.127512, 5.313495, 5.326827, 5.315341, 5.304206, 5.311713, 5.295431, 5.341992, 5.311844, 5.309758, 5.332345, 5.313107, 5.304327, 5.316341, 5.312139, 5.297790, 5.310560, 5.311120, 5.330148, 5.314502, 5.303614, 5.312845, 5.313736, 5.318532, 5.312236, 5.310278, 5.306194, 5.320601, 5.299368
Process 19: 5.996704, 7.192662, 5.378458, 5.392053, 5.379393, 5.368385, 5.376212, 5.359822, 5.406535, 5.376163, 5.374266, 5.396858, 5.377549, 5.368859, 5.380525, 5.376711, 5.362124, 5.375017, 5.375685, 5.394744, 5.380256, 5.367972, 5.377269, 5.378103, 5.383059, 5.377758, 5.374813, 5.370533, 5.385889, 5.363779
Process 20: 6.058748, 7.255935, 5.439810, 5.453237, 5.440668, 5.429784, 5.437582, 5.421037, 5.468394, 5.437632, 5.435557, 5.458040, 5.439097, 5.430379, 5.441975, 5.438142, 5.423582, 5.436578, 5.437838, 5.455855, 5.441710, 5.429189, 5.438734, 5.439652, 5.444416, 5.439099, 5.436108, 5.431808, 5.447232, 5.426579
Process 21: 6.122158, 7.319801, 5.503722, 5.517577, 5.504564, 5.493750, 5.502353, 5.485453, 5.532746, 5.502234, 5.499814, 5.522401, 5.504093, 5.495055, 5.506544, 5.502431, 5.487315, 5.499675, 5.501313, 5.520260, 5.505916, 5.493344, 5.502890, 5.503965, 5.507626, 5.503291, 5.500362, 5.495922, 5.509948, 5.491295
Process 22: 6.184631, 7.382932, 5.567543, 5.581287, 5.568473, 5.557503, 5.565194, 5.548485, 5.596563, 5.565154, 5.562656, 5.585374, 5.566950, 5.557969, 5.570341, 5.565423, 5.550312, 5.561626, 5.563615, 5.583338, 5.570098, 5.557177, 5.565943, 5.566884, 5.570612, 5.566538, 5.563413, 5.558906, 5.573149, 5.555182
Process 23: 6.250323, 7.448466, 5.632963, 5.646707, 5.633935, 5.622739, 5.630673, 5.613691, 5.661980, 5.630514, 5.627941, 5.650587, 5.632082, 5.623359, 5.635746, 5.630661, 5.615513, 5.626888, 5.628880, 5.649491, 5.635362, 5.622604, 5.631353, 5.632300, 5.635938, 5.631966, 5.628747, 5.624208, 5.638427, 5.620598
Process 24: 6.313484, 7.511436, 5.695878, 5.711026, 5.696947, 5.686777, 5.693408, 5.676656, 5.725087, 5.693222, 5.690727, 5.713305, 5.695088, 5.686366, 5.698773, 5.693633, 5.678391, 5.690012, 5.692023, 5.713383, 5.698584, 5.685277, 5.694285, 5.695392, 5.698940, 5.694785, 5.691945, 5.687310, 5.701375, 5.683655
Process 25: 6.379911, 7.576153, 5.760697, 5.776885, 5.762213, 5.752676, 5.758791, 5.741930, 5.790263, 5.758574, 5.756122, 5.778822, 5.760629, 5.751641, 5.763187, 5.758878, 5.743610, 5.754875, 5.757650, 5.778938, 5.763576, 5.750875, 5.759895, 5.760540, 5.763921, 5.760134, 5.757575, 5.752864, 5.766040, 5.748943
Process 26: 6.443539, 7.639528, 5.824580, 5.840838, 5.825663, 5.815602, 5.822364, 5.805641, 5.853916, 5.821998, 5.819747, 5.842336, 5.824033, 5.815043, 5.826699, 5.822571, 5.807202, 5.818648, 5.821279, 5.842582, 5.827142, 5.814418, 5.823430, 5.824149, 5.827452, 5.823598, 5.821211, 5.816563, 5.829534, 5.812727
Process 27: 6.508677, 7.705226, 5.889880, 5.906616, 5.891277, 5.880455, 5.887518, 5.870910, 5.918918, 5.887318, 5.884932, 5.907349, 5.889146, 5.880579, 5.892123, 5.887674, 5.872420, 5.883840, 5.886654, 5.906866, 5.892937, 5.879601, 5.889015, 5.889321, 5.892925, 5.888933, 5.886878, 5.884049, 5.894903, 5.878234
Process 28: 6.570482, 7.767799, 5.952852, 5.970200, 5.954885, 5.943967, 5.950870, 5.934202, 5.982300, 5.950216, 5.948157, 5.970576, 5.952565, 5.943292, 5.955485, 5.950812, 5.935771, 5.946879, 5.949826, 5.969442, 5.955858, 5.943359, 5.951913, 5.952546, 5.955970, 5.951833, 5.949536, 5.948553, 5.957869, 5.941138
Process 29: 6.635785, 7.831571, 6.017511, 6.034083, 6.019201, 6.008197, 6.014926, 5.998228, 6.046220, 6.014445, 6.012659, 6.034741, 6.016670, 6.007395, 6.019667, 6.015008, 5.999892, 6.010779, 6.014010, 6.033542, 6.020062, 6.007314, 6.016045, 6.016855, 6.020321, 6.016136, 6.014056, 6.013015, 6.021321, 6.005249
Process 30: 6.698955, 7.894495, 6.081340, 6.098407, 6.083131, 6.071840, 6.078326, 6.061488, 6.109914, 6.077677, 6.075886, 6.098271, 6.079898, 6.070689, 6.083231, 6.078290, 6.063106, 6.074157, 6.077605, 6.096884, 6.083236, 6.071066, 6.079365, 6.080140, 6.083569, 6.079626, 6.077270, 6.077595, 6.085140, 6.068496
Process 31: 6.765206, 7.960479, 6.146855, 6.164402, 6.148209, 6.137151, 6.143995, 6.126888, 6.175199, 6.143387, 6.141765, 6.163994, 6.145704, 6.136329, 6.148318, 6.143759, 6.128677, 6.139713, 6.143471, 6.162508, 6.148986, 6.136435, 6.145160, 6.145730, 6.149533, 6.145343, 6.143096, 6.144612, 6.149975, 6.134216
Process 32: 6.828538, 8.023629, 6.210792, 6.229553, 6.211685, 6.201018, 6.207298, 6.190242, 6.238883, 6.206173, 6.204900, 6.227340, 6.208613, 6.199430, 6.211786, 6.206846, 6.191960, 6.202999, 6.207091, 6.225626, 6.212420, 6.199860, 6.208115, 6.209109, 6.212695, 6.208402, 6.206078, 6.208288, 6.214137, 6.197331
Process 33: 6.894063, 8.088850, 6.276042, 6.295893, 6.275911, 6.265931, 6.272235, 6.255532, 6.303663, 6.271539, 6.270232, 6.292605, 6.273826, 6.264750, 6.276170, 6.272316, 6.257132, 6.268356, 6.272730, 6.290779, 6.277725, 6.264017, 6.273438, 6.274266, 6.277933, 6.273593, 6.271436, 6.273837, 6.279125, 6.262611
Process 34: 6.956894, 8.152012, 6.339129, 6.360491, 6.339155, 6.328932, 6.335397, 6.318528, 6.366641, 6.334294, 6.333463, 6.355596, 6.336933, 6.328447, 6.339319, 6.335531, 6.320258, 6.331460, 6.335818, 6.354215, 6.341088, 6.327289, 6.336501, 6.337508, 6.341199, 6.336802, 6.334546, 6.338062, 6.342358, 6.326816
Process 35: 7.022896, 8.218236, 6.404170, 6.426783, 6.404548, 6.394053, 6.400653, 6.384008, 6.431954, 6.399635, 6.399062, 6.420788, 6.402361, 6.393805, 6.404471, 6.401089, 6.385712, 6.396847, 6.401282, 6.419799, 6.406875, 6.392731, 6.401771, 6.402925, 6.406760, 6.402084, 6.400017, 6.403517, 6.407836, 6.392759
Process 36: 7.084606, 8.281782, 6.467337, 6.493039, 6.466996, 6.456851, 6.463530, 6.447429, 6.495002, 6.463767, 6.462423, 6.483683, 6.465417, 6.456691, 6.467915, 6.464037, 6.448723, 6.459831, 6.464181, 6.483101, 6.469502, 6.455210, 6.464735, 6.465966, 6.469625, 6.465015, 6.463120, 6.466025, 6.470451, 6.456253
Process 37: 7.151825, 8.348244, 6.534090, 6.560514, 6.534357, 6.523653, 6.530591, 6.514410, 6.561773, 6.530636, 6.529647, 6.550705, 6.532581, 6.523917, 6.534949, 6.531234, 6.515810, 6.526966, 6.530484, 6.550254, 6.536598, 6.522222, 6.531831, 6.533213, 6.536688, 6.532041, 6.530230, 6.533576, 6.537552, 6.523306
Process 38: 7.216170, 8.414733, 6.598992, 6.625524, 6.598765, 6.588715, 6.595077, 6.579066, 6.626916, 6.595275, 6.594302, 6.615614, 6.597241, 6.587685, 6.599626, 6.595839, 6.580458, 6.591479, 6.594862, 6.614295, 6.601110, 6.586974, 6.596235, 6.597781, 6.601265, 6.596896, 6.594815, 6.596432, 6.602222, 6.587944
Process 39: 7.283965, 8.482868, 6.665473, 6.692376, 6.666925, 6.655563, 6.661907, 6.646070, 6.693638, 6.662430, 6.661115, 6.682691, 6.664232, 6.654088, 6.666606, 6.662952, 6.647404, 6.658471, 6.661083, 6.680544, 6.667874, 6.654056, 6.663216, 6.664640, 6.668428, 6.664000, 6.661806, 6.664192, 6.669092, 6.654858
Process 40: 7.347284, 8.549244, 6.730197, 6.757088, 6.731507, 6.720126, 6.726313, 6.710978, 6.758408, 6.727533, 6.725737, 6.747322, 6.728149, 6.717849, 6.731101, 6.727647, 6.712130, 6.722960, 6.725136, 6.745372, 6.732385, 6.717870, 6.727655, 6.729524, 6.732192, 6.727991, 6.726487, 6.729578, 6.733872, 6.719504
Process 41: 7.414003, 8.616839, 6.796892, 6.823860, 6.798235, 6.786812, 6.793081, 6.778696, 6.825037, 6.794635, 6.792812, 6.814053, 6.794287, 6.783840, 6.797993, 6.794552, 6.779052, 6.789646, 6.791397, 6.812334, 6.798967, 6.783925, 6.794389, 6.796452, 6.798179, 6.794023, 6.793372, 6.796752, 6.800732, 6.786436
Process 42: 7.477569, 8.680331, 6.860388, 6.887387, 6.862163, 6.850463, 6.856831, 6.842852, 6.888849, 6.859398, 6.856587, 6.877964, 6.858430, 6.847877, 6.862029, 6.858235, 6.842980, 6.853695, 6.855099, 6.876094, 6.862855, 6.847877, 6.858184, 6.860179, 6.862965, 6.857723, 6.857577, 6.861979, 6.864544, 6.850343
Process 43: 7.543525, 8.746280, 6.925961, 6.953552, 6.927441, 6.916120, 6.922380, 6.909028, 6.954230, 6.925545, 6.922129, 6.943369, 6.923932, 6.913617, 6.927385, 6.923755, 6.908489, 6.919111, 6.921467, 6.941536, 6.928278, 6.913181, 6.923597, 6.925534, 6.928647, 6.922980, 6.922932, 6.928048, 6.929933, 6.915771
Process 44: 7.606033, 8.807635, 6.989122, 7.017568, 6.990395, 6.978048, 6.984823, 6.971738, 7.016254, 6.990120, 6.983929, 7.006323, 6.986717, 6.977470, 6.989404, 6.985745, 6.970641, 6.981994, 6.985464, 7.004232, 6.990784, 6.975676, 6.985861, 6.987258, 6.991025, 6.985905, 6.984369, 6.991319, 6.992479, 6.977299
Process 45: 7.672694, 8.872340, 7.054805, 7.083396, 7.057550, 7.043754, 7.050788, 7.038229, 7.082032, 7.056696, 7.049949, 7.072198, 7.052838, 7.043926, 7.055542, 7.052163, 7.037969, 7.048227, 7.051366, 7.070337, 7.056669, 7.041829, 7.051991, 7.053279, 7.056799, 7.052113, 7.050359, 7.057355, 7.058527, 7.043465
Process 46: 7.736294, 8.936368, 7.119526, 7.147704, 7.121888, 7.107982, 7.114711, 7.101956, 7.146734, 7.121723, 7.114217, 7.136271, 7.116794, 7.107886, 7.119735, 7.116069, 7.102374, 7.114085, 7.115437, 7.134367, 7.120850, 7.106487, 7.116358, 7.117671, 7.121294, 7.116722, 7.114642, 7.121537, 7.122938, 7.108132
Process 47: 7.803975, 9.003625, 7.186958, 7.215176, 7.188695, 7.175679, 7.182059, 7.168735, 7.214013, 7.188502, 7.180996, 7.203435, 7.183626, 7.174835, 7.186649, 7.182897, 7.169347, 7.181602, 7.182898, 7.201434, 7.187714, 7.174762, 7.183332, 7.184589, 7.188593, 7.183602, 7.181728, 7.188503, 7.189774, 7.174846
Process 48: 7.868524, 9.068107, 7.250996, 7.279790, 7.253019, 7.240191, 7.246407, 7.233351, 7.278526, 7.252762, 7.245511, 7.267998, 7.248294, 7.239248, 7.251123, 7.247202, 7.234158, 7.246206, 7.247067, 7.265739, 7.252199, 7.238056, 7.247905, 7.249087, 7.253258, 7.248347, 7.246478, 7.252976, 7.254438, 7.239335
Process 49: 7.935667, 9.135023, 7.317752, 7.348299, 7.319271, 7.306718, 7.313051, 7.299944, 7.345279, 7.319634, 7.312265, 7.334913, 7.314743, 7.305732, 7.317407, 7.313656, 7.300540, 7.312834, 7.313432, 7.332301, 7.318958, 7.305213, 7.314540, 7.315607, 7.319706, 7.314834, 7.313283, 7.319342, 7.320960, 7.306052
Process 50: 8.000547, 9.199751, 7.382358, 7.413244, 7.384526, 7.371199, 7.377639, 7.364752, 7.410273, 7.384492, 7.377561, 7.399947, 7.380267, 7.370487, 7.382478, 7.378493, 7.365577, 7.377593, 7.378187, 7.397350, 7.384032, 7.371737, 7.379359, 7.380549, 7.384662, 7.379878, 7.378147, 7.384227, 7.385745, 7.371102
Process 51: 8.067409, 9.265708, 7.448349, 7.479202, 7.451299, 7.437391, 7.444169, 7.430624, 7.476040, 7.450594, 7.444191, 7.466126, 7.446274, 7.436948, 7.449107, 7.444045, 7.431776, 7.444040, 7.444721, 7.463910, 7.450156, 7.438763, 7.445739, 7.446589, 7.450802, 7.445849, 7.444090, 7.450352, 7.452172, 7.437389
Process 52: 8.129930, 9.329289, 7.511453, 7.542470, 7.513776, 7.500654, 7.506548, 7.494800, 7.538937, 7.513498, 7.506391, 7.529017, 7.508694, 7.499421, 7.511511, 7.506393, 7.495059, 7.506552, 7.507790, 7.526275, 7.512646, 7.500178, 7.508023, 7.509367, 7.513799, 7.508485, 7.507014, 7.513926, 7.514555, 7.500268
Process 53: 8.195727, 9.394608, 7.576659, 7.607553, 7.577694, 7.565488, 7.571404, 7.559725, 7.604213, 7.578940, 7.571889, 7.594722, 7.572657, 7.563753, 7.576899, 7.571341, 7.560199, 7.570530, 7.573126, 7.591293, 7.577158, 7.564927, 7.573095, 7.574299, 7.579029, 7.573877, 7.572375, 7.578788, 7.579470, 7.566060
Process 54: 8.257320, 9.456914, 7.640925, 7.671272, 7.640722, 7.629307, 7.634707, 7.621296, 7.667123, 7.642267, 7.634473, 7.656679, 7.636952, 7.627968, 7.639422, 7.631862, 7.622160, 7.634578, 7.637165, 7.654827, 7.640918, 7.628065, 7.636878, 7.639384, 7.642948, 7.637948, 7.635463, 7.642092, 7.643532, 7.629566
Process 55: 8.324643, 9.523499, 7.707240, 7.737632, 7.707399, 7.695798, 7.701195, 7.688037, 7.733535, 7.708794, 7.701122, 7.723061, 7.703629, 7.694617, 7.706210, 7.697501, 7.688836, 7.701306, 7.703591, 7.721394, 7.707548, 7.694647, 7.703539, 7.706114, 7.709285, 7.704479, 7.702167, 7.708851, 7.710310, 7.696325
Process 56: 8.389828, 9.588724, 7.772211, 7.802548, 7.772039, 7.760662, 7.765876, 7.752717, 7.798437, 7.773793, 7.765897, 7.787996, 7.768215, 7.759344, 7.770942, 7.762089, 7.753463, 7.766121, 7.768540, 7.786190, 7.772331, 7.759418, 7.768513, 7.770891, 7.774229, 7.769212, 7.766923, 7.773719, 7.775289, 7.760950
Process 57: 8.456420, 9.654962, 7.837996, 7.868494, 7.838187, 7.826738, 7.831910, 7.818837, 7.864392, 7.839773, 7.832274, 7.854132, 7.834708, 7.825618, 7.837201, 7.828440, 7.819821, 7.832639, 7.834862, 7.852498, 7.838788, 7.825822, 7.834858, 7.837266, 7.840271, 7.835539, 7.833405, 7.839954, 7.841568, 7.827073
Process 58: 8.521682, 9.719543, 7.902692, 7.932908, 7.902886, 7.891202, 7.896553, 7.883560, 7.928858, 7.904365, 7.897118, 7.918787, 7.899667, 7.890901, 7.902032, 7.893648, 7.884699, 7.897417, 7.899607, 7.917500, 7.903761, 7.890808, 7.899990, 7.902262, 7.905089, 7.900293, 7.898057, 7.904597, 7.906138, 7.892064
Process 59: 8.587868, 9.785269, 7.968284, 7.998859, 7.968825, 7.956886, 7.962304, 7.949595, 7.994608, 7.970306, 7.963112, 7.984395, 7.965369, 7.956843, 7.968037, 7.959872, 7.950616, 7.963146, 7.965252, 7.983629, 7.969752, 7.956742, 7.965835, 7.967944, 7.970824, 7.966398, 7.963878, 7.970406, 7.972148, 7.957937
Process 60: 8.650641, 9.848433, 8.031432, 8.062893, 8.031871, 8.020047, 8.025493, 8.012562, 8.058102, 8.033264, 8.028342, 8.048027, 8.028900, 8.020100, 8.031036, 8.023323, 8.013473, 8.026511, 8.028773, 8.046535, 8.032874, 8.019692, 8.028871, 8.031201, 8.033978, 8.029486, 8.027290, 8.033838, 8.035402, 8.020889
Process 61: 8.716578, 9.913424, 8.097065, 8.127610, 8.096728, 8.084835, 8.090445, 8.077388, 8.122842, 8.098213, 8.094303, 8.113100, 8.094116, 8.085192, 8.095771, 8.087846, 8.078308, 8.091374, 8.093398, 8.111349, 8.097990, 8.084778, 8.093747, 8.096153, 8.098744, 8.094574, 8.091729, 8.098634, 8.100444, 8.085979
Process 62: 8.777383, 9.975289, 8.159887, 8.189260, 8.157924, 8.146907, 8.151394, 8.138988, 8.184614, 8.159430, 8.155366, 8.174850, 8.155251, 8.146322, 8.157108, 8.149471, 8.139573, 8.152694, 8.155378, 8.172573, 8.159129, 8.146043, 8.154835, 8.157608, 8.160739, 8.155640, 8.153073, 8.159945, 8.161816, 8.146907
Process 63: 8.840811, 10.037742, 8.222476, 8.251373, 8.220660, 8.209155, 8.213873, 8.201713, 8.247232, 8.222057, 8.217845, 8.237368, 8.217759, 8.209083, 8.219889, 8.212643, 8.202280, 8.215409, 8.217561, 8.235307, 8.221775, 8.208488, 8.217454, 8.220212, 8.222964, 8.218276, 8.216120, 8.222580, 8.224623, 8.209603
