MPI_insiderank_serial
Process 0: 18.094560, 20.592163, 15.395819, 14.996394, 16.978861, 15.078496, 15.145681, 15.050162, 15.189698, 15.291148, 17.232406, 15.174608, 15.538476, 15.116577, 17.332239, 15.136579, 15.363290, 16.098792, 15.339703, 15.168914, 15.145310, 16.383288, 16.599248, 15.126467, 15.402077, 16.323616, 15.137987, 15.266924, 15.375038, 16.054877
Process 1: 14.486502, 16.984436, 11.791537, 11.398248, 13.348798, 11.498183, 11.528778, 11.451058, 11.556559, 11.712112, 13.623291, 11.518588, 11.826305, 11.514526, 13.710368, 11.484030, 11.735490, 12.520511, 11.719062, 11.567960, 11.486347, 12.781821, 12.974910, 11.535690, 11.700847, 12.727749, 11.540689, 11.680113, 11.776059, 12.452173
Process 2: 14.597604, 17.067188, 11.898921, 11.506460, 13.460392, 11.603533, 11.652177, 11.560370, 11.665560, 11.819584, 13.732314, 11.634392, 11.938417, 11.643755, 13.825458, 11.599853, 11.846218, 12.629406, 11.834341, 11.683507, 11.601175, 12.891089, 13.079923, 11.638144, 11.794108, 12.838310, 11.651270, 11.785310, 11.870947, 12.570802
Process 3: 14.731621, 17.202214, 12.029289, 11.636589, 13.592800, 11.740177, 11.787195, 11.692202, 11.799584, 11.958741, 13.900425, 11.761585, 12.069020, 11.780393, 13.948748, 11.728649, 11.972052, 12.760349, 11.962036, 11.807744, 11.727876, 13.017848, 13.214803, 11.768965, 11.951984, 12.971353, 11.779800, 11.912147, 11.998245, 12.695446
Process 4: 14.842099, 17.313416, 12.163314, 11.753054, 13.703939, 11.851236, 11.899065, 11.806454, 11.912245, 12.066020, 13.982328, 11.876893, 12.180796, 11.888363, 14.061840, 11.840221, 12.093130, 12.886519, 12.081770, 11.944707, 11.846091, 13.159703, 13.333306, 11.887488, 12.087990, 13.108214, 11.900466, 12.034730, 12.113748, 12.814967
Process 5: 14.968820, 17.454199, 12.299172, 11.877755, 13.828279, 11.992698, 12.038618, 11.949215, 12.048501, 12.216981, 14.123532, 12.023820, 12.325739, 12.036202, 14.205752, 11.988052, 12.230420, 13.020750, 12.214147, 12.070687, 11.989920, 13.307575, 13.474056, 12.027145, 12.228307, 13.257375, 12.035602, 12.168465, 12.254023, 12.951094
Process 6: 15.102226, 17.550423, 12.406536, 11.996238, 13.943111, 12.072328, 12.141556, 12.043726, 12.147904, 12.283928, 14.224248, 12.115335, 12.423630, 12.127272, 14.300859, 12.077994, 12.325049, 13.118999, 12.312296, 12.164987, 12.086385, 13.400278, 13.569492, 12.126875, 12.321846, 13.345549, 12.137812, 12.262767, 12.345175, 13.062800
Process 7: 15.230672, 17.684075, 12.536199, 12.116019, 14.068790, 12.193112, 12.263895, 12.192967, 12.281143, 12.448894, 14.377975, 12.256316, 12.549046, 12.270744, 14.433262, 12.220746, 12.458568, 13.266206, 12.445528, 12.307629, 12.216588, 13.539525, 13.697042, 12.263546, 12.458077, 13.489561, 12.263313, 12.404933, 12.481628, 13.271049
Process 8: 15.345636, 17.793262, 12.646267, 12.229538, 14.182747, 12.307694, 12.395651, 12.287849, 12.390179, 12.523849, 14.462544, 12.361135, 12.659426, 12.352422, 14.543096, 12.320232, 12.566126, 13.350892, 12.550352, 12.410360, 12.324001, 13.634331, 13.814755, 12.358219, 12.564565, 13.583416, 12.382319, 12.502184, 12.587964, 13.312487
Process 9: 15.472340, 17.923954, 12.773322, 12.353725, 14.309231, 12.432573, 12.531968, 12.418170, 12.518716, 12.651694, 14.587089, 12.492909, 12.785605, 12.475095, 14.671738, 12.445735, 12.694809, 13.494976, 12.678962, 12.535627, 12.451930, 13.766978, 13.943439, 12.497294, 12.725807, 13.724204, 12.507549, 12.641209, 12.718682, 13.449903
Process 10: 15.591802, 18.035591, 12.885302, 12.471308, 14.425012, 12.549853, 12.639903, 12.528943, 12.630030, 12.765313, 14.714851, 12.610761, 12.899815, 12.587170, 14.800440, 12.557559, 12.806060, 13.578570, 12.803784, 12.646526, 12.563191, 13.860842, 14.057250, 12.602721, 12.803831, 13.823834, 12.612101, 12.744803, 12.828271, 13.549962
Process 11: 15.709813, 18.160242, 13.058610, 12.595705, 14.551766, 12.673784, 12.767368, 12.652307, 12.755460, 12.893062, 14.846927, 12.736541, 13.025781, 12.728182, 14.938072, 12.685745, 12.931687, 13.697584, 12.918958, 12.773398, 12.688568, 13.978047, 14.207387, 12.730657, 12.930187, 13.950892, 12.738085, 12.872000, 12.955022, 13.680756
Process 12: 15.822738, 18.283982, 13.117959, 12.713229, 14.665699, 12.791774, 12.879260, 12.768703, 12.871331, 13.008868, 14.962251, 12.852563, 13.145831, 12.837124, 15.048006, 12.799937, 13.047180, 13.811991, 13.041718, 12.887230, 12.803150, 14.094377, 14.306528, 12.842625, 13.046336, 14.065894, 12.862585, 12.984364, 13.071022, 13.778807
Process 13: 15.949243, 18.399080, 13.232504, 12.836418, 14.788361, 12.913991, 13.033502, 12.891831, 13.023077, 13.130458, 15.090449, 12.978643, 13.273400, 12.953717, 15.171288, 12.920892, 13.171507, 13.935350, 13.180740, 13.012073, 12.926744, 14.217770, 14.438780, 12.966052, 13.171363, 14.167935, 12.998781, 13.107715, 13.193812, 13.891443
Process 14: 16.063850, 18.516502, 13.349267, 12.961083, 14.903356, 13.031738, 13.120583, 13.007214, 13.111924, 13.245442, 15.202618, 13.092070, 13.390764, 13.071834, 15.285278, 13.036832, 13.286643, 14.050992, 13.295979, 13.126482, 13.043757, 14.336772, 14.555124, 13.083629, 13.303860, 14.285204, 13.113070, 13.223065, 13.309865, 14.007975
Process 15: 16.190375, 18.637295, 13.474424, 13.096509, 15.028875, 13.155296, 13.248195, 13.132965, 13.237762, 13.370777, 15.330032, 13.216835, 13.522181, 13.195963, 15.413088, 13.162440, 13.415464, 14.174859, 13.420674, 13.251400, 13.169250, 14.460501, 14.713373, 13.208205, 13.412926, 14.412687, 13.240740, 13.349816, 13.435174, 14.134122
Process 16: 16.300144, 18.756108, 13.589375, 13.213492, 15.143679, 13.271720, 13.357627, 13.255208, 13.352670, 13.484380, 15.437808, 13.335373, 13.634629, 13.311052, 15.542412, 13.277009, 13.542950, 14.288856, 13.533594, 13.365991, 13.283022, 14.574365, 14.799764, 13.328501, 13.527791, 14.525403, 13.354653, 13.463498, 13.551052, 14.249009
Process 17: 16.431142, 18.878030, 13.714459, 13.349578, 15.270240, 13.395649, 13.467002, 13.395048, 13.501113, 13.628203, 15.548627, 13.454904, 13.760750, 13.437408, 15.653834, 13.424323, 13.652649, 14.415327, 13.659369, 13.493609, 13.408809, 14.703281, 14.921806, 13.449758, 13.653133, 14.649414, 13.478915, 13.589434, 13.674873, 14.373579
Process 18: 16.534706, 18.999352, 13.831454, 13.455817, 15.385054, 13.515443, 13.582513, 13.508145, 13.599218, 13.728807, 15.666099, 13.576054, 13.885295, 13.551041, 15.763359, 13.528301, 13.768087, 14.530941, 13.768630, 13.608951, 13.524489, 14.819816, 15.036138, 13.575509, 13.768238, 14.768988, 13.607012, 13.705335, 13.792046, 14.490003
Process 19: 16.647814, 19.120807, 13.954581, 13.581933, 15.506109, 13.638756, 13.704496, 13.635018, 13.720775, 13.853110, 15.788026, 13.722729, 14.023332, 13.673817, 15.870788, 13.669054, 13.915861, 14.655479, 13.878042, 13.737920, 13.649477, 14.943927, 15.232247, 13.689411, 13.892625, 14.890010, 13.718791, 13.829107, 13.915791, 14.640215
Process 20: 16.764962, 19.239107, 14.071905, 13.715833, 15.626226, 13.757923, 13.822459, 13.766377, 13.835978, 13.966968, 15.905005, 13.846380, 14.146790, 13.790366, 15.988890, 13.782642, 14.009132, 14.773046, 13.994245, 13.850677, 13.765319, 15.062625, 15.280375, 13.808176, 14.007513, 15.005783, 13.832220, 13.948186, 14.032153, 14.731677
Process 21: 16.887198, 19.364522, 14.212154, 13.821505, 15.746299, 13.876152, 13.944121, 13.875575, 13.958224, 14.088926, 16.050383, 13.972202, 14.279369, 13.940579, 16.135936, 13.909030, 14.132717, 14.901448, 14.117444, 13.995799, 13.889045, 15.189623, 15.381640, 13.951498, 14.129667, 15.129293, 13.939132, 14.091066, 14.153427, 14.856916
Process 22: 17.005349, 19.479929, 14.315732, 13.937225, 15.869075, 13.996535, 14.062779, 13.992212, 14.077851, 14.208718, 16.148266, 14.085770, 14.399401, 14.030632, 16.229067, 14.022906, 14.247991, 15.016618, 14.236183, 14.108079, 14.005728, 15.300959, 15.496972, 14.068401, 14.246204, 15.245493, 14.054854, 14.196926, 14.273553, 14.972002
Process 23: 17.128882, 19.608265, 14.436044, 14.047529, 16.000257, 14.117429, 14.186570, 14.113940, 14.223190, 14.333944, 16.267400, 14.215765, 14.520501, 14.156754, 16.351985, 14.213875, 14.387933, 15.139362, 14.359396, 14.237132, 14.163649, 15.425497, 15.619969, 14.197264, 14.370154, 15.369491, 14.177076, 14.331123, 14.395182, 15.138708
Process 24: 17.245468, 19.727664, 14.550774, 14.156084, 16.107320, 14.239372, 14.303044, 14.248306, 14.317222, 14.451633, 16.384353, 14.342162, 14.640394, 14.272585, 16.485858, 14.269944, 14.490999, 15.254045, 14.476347, 14.347411, 14.247619, 15.543847, 15.738349, 14.315031, 14.493567, 15.485875, 14.292568, 14.448170, 14.513998, 15.210537
Process 25: 17.369355, 19.897050, 14.696435, 14.279277, 16.251242, 14.369577, 14.428024, 14.335278, 14.457172, 14.569917, 16.530221, 14.458535, 14.770020, 14.412818, 16.595836, 14.392628, 14.613652, 15.381231, 14.598822, 14.474128, 14.375597, 15.664590, 15.862483, 14.434132, 14.632199, 15.610940, 14.419064, 14.577186, 14.637309, 15.336069
Process 26: 17.487611, 19.981670, 14.798246, 14.401029, 16.368975, 14.490864, 14.546832, 14.455089, 14.579110, 14.689763, 16.635291, 14.575816, 14.895320, 14.519871, 16.714303, 14.504978, 14.732344, 15.498372, 14.716947, 14.587157, 14.490003, 15.783085, 15.977202, 14.544909, 14.765788, 15.725989, 14.534925, 14.686836, 14.756287, 15.451282
Process 27: 17.613496, 20.109587, 14.917257, 14.519228, 16.549809, 14.602054, 14.671292, 14.576803, 14.734825, 14.812870, 16.754977, 14.698309, 15.033131, 14.643443, 16.856601, 14.636677, 14.872737, 15.617884, 14.844156, 14.695496, 14.647817, 15.907516, 16.106825, 14.674798, 14.912224, 15.848025, 14.662761, 14.814065, 14.883214, 15.594236
Process 28: 17.729687, 20.222839, 15.044622, 14.640741, 16.606934, 14.719452, 14.785870, 14.692216, 14.819454, 14.930195, 16.868392, 14.812372, 15.147682, 14.755885, 16.958211, 14.727325, 14.994208, 15.739173, 15.132292, 14.805483, 14.758143, 16.022065, 16.233868, 14.782979, 15.011300, 15.962084, 14.789612, 14.922801, 14.996947, 15.697124
Process 29: 17.853881, 20.346205, 15.158059, 14.758960, 16.735932, 14.844994, 14.929625, 14.812815, 14.947067, 15.052210, 16.991004, 14.935450, 15.271966, 14.908322, 17.078223, 14.848219, 15.121888, 15.858236, 15.152742, 14.929546, 14.891597, 16.145208, 16.358384, 14.892627, 15.148771, 16.087065, 14.901832, 15.035334, 15.118802, 15.815613
Process 30: 17.967829, 20.472696, 15.274361, 14.882464, 16.856587, 14.965317, 15.030706, 14.931077, 15.058314, 15.172148, 17.116328, 15.053600, 15.387933, 14.997549, 17.192498, 14.965785, 15.232313, 15.973156, 15.216472, 15.042571, 15.009513, 16.260379, 16.473033, 15.004269, 15.265863, 16.203032, 15.014821, 15.142800, 15.231965, 15.931544
Process 31: 18.098401, 20.595140, 15.399356, 14.999213, 16.982182, 15.081867, 15.148900, 15.053301, 15.193134, 15.294414, 17.236068, 15.177778, 15.542284, 15.119752, 17.335702, 15.139090, 15.367033, 16.102126, 15.343298, 15.171672, 15.148857, 16.386561, 16.602716, 15.129931, 15.406068, 16.326705, 15.141336, 15.270344, 15.378578, 16.058107
