MPI_insiderank_serial
Process 0: 14.184937, 10.055921, 9.885362, 9.918599, 9.844579, 9.831439, 9.827331, 9.827329, 9.871536, 9.812472, 9.805244, 9.894678, 9.832729, 9.774855, 9.828411, 9.932743, 9.774960, 9.762601, 9.718085, 9.786961, 9.754572, 9.741848, 9.805199, 9.787345, 9.731028, 9.735487, 9.834472, 9.766384, 9.803427, 9.777866
Process 1: 14.186864, 10.058670, 9.888577, 9.922205, 9.847855, 9.834587, 9.830790, 9.830622, 9.874955, 9.815627, 9.809384, 9.897765, 9.836548, 9.777934, 9.832346, 9.935792, 9.777453, 9.765163, 9.721018, 9.789696, 9.757871, 9.746999, 9.810080, 9.791116, 9.734470, 9.738551, 9.837630, 9.769444, 9.805711, 9.780148
