MPI_insiderank_serial
Process 0: 1.968065, 1.331955, 1.175692, 1.094805, 1.160308, 1.172807, 1.197532, 1.092125, 1.102712, 1.083614, 1.095178, 1.104729, 1.101692, 1.107639, 1.191954, 1.094490, 1.208377, 1.091982, 1.089221, 1.092119, 1.094302, 1.089485, 1.090309, 1.095062, 1.109147, 1.097193, 1.150529, 1.123024, 1.087875, 1.091309
Process 1: 1.237869, 0.540231, 0.446636, 0.360528, 0.426565, 0.440561, 0.440650, 0.362731, 0.366282, 0.353424, 0.362345, 0.371991, 0.366329, 0.367429, 0.462012, 0.359819, 0.463276, 0.354897, 0.358703, 0.359413, 0.363598, 0.361213, 0.360992, 0.360484, 0.372699, 0.364205, 0.370393, 0.392836, 0.357303, 0.357068
Process 2: 1.247574, 0.552148, 0.456151, 0.371337, 0.432822, 0.451312, 0.451210, 0.373587, 0.377088, 0.363939, 0.373149, 0.382478, 0.377063, 0.378216, 0.472820, 0.370542, 0.469167, 0.366578, 0.368624, 0.370196, 0.374341, 0.370294, 0.371128, 0.371262, 0.383533, 0.375055, 0.380314, 0.403558, 0.368082, 0.369398
Process 3: 1.259923, 0.565230, 0.468927, 0.383985, 0.456094, 0.463989, 0.463826, 0.386208, 0.393021, 0.376658, 0.385854, 0.395143, 0.389800, 0.390921, 0.485556, 0.384852, 0.490328, 0.382634, 0.381339, 0.382866, 0.387101, 0.383011, 0.383776, 0.384037, 0.396214, 0.387750, 0.393016, 0.416332, 0.380782, 0.382047
Process 4: 1.271295, 0.575890, 0.479640, 0.394768, 0.460010, 0.474812, 0.474598, 0.397107, 0.403117, 0.387446, 0.396657, 0.405968, 0.400875, 0.401687, 0.496304, 0.395699, 0.499316, 0.392497, 0.392104, 0.394445, 0.397852, 0.393817, 0.394545, 0.394774, 0.406998, 0.398544, 0.403772, 0.427108, 0.391493, 0.392817
Process 5: 1.283590, 0.591098, 0.492426, 0.407604, 0.482032, 0.487564, 0.488198, 0.409772, 0.415953, 0.400461, 0.409375, 0.418810, 0.413683, 0.414449, 0.509033, 0.408364, 0.521076, 0.405263, 0.404885, 0.407460, 0.410632, 0.406729, 0.407309, 0.407584, 0.419755, 0.411343, 0.416590, 0.439871, 0.404286, 0.405590
Process 6: 1.294780, 0.602082, 0.503164, 0.418202, 0.486871, 0.498252, 0.500697, 0.420500, 0.426566, 0.411040, 0.420780, 0.429401, 0.424326, 0.425217, 0.519702, 0.419026, 0.529057, 0.415937, 0.415675, 0.418013, 0.421266, 0.417305, 0.417971, 0.418597, 0.430472, 0.421980, 0.427525, 0.450569, 0.414929, 0.416327
Process 7: 1.306871, 0.615119, 0.516115, 0.431144, 0.511435, 0.511229, 0.513652, 0.433388, 0.439590, 0.424007, 0.433964, 0.442328, 0.437251, 0.438048, 0.532599, 0.431937, 0.551187, 0.428840, 0.428507, 0.431025, 0.434407, 0.430258, 0.430858, 0.431777, 0.443310, 0.438212, 0.440166, 0.463426, 0.427880, 0.429169
Process 8: 1.318237, 0.625585, 0.526519, 0.442684, 0.515186, 0.521689, 0.526080, 0.443921, 0.450099, 0.434621, 0.444478, 0.452880, 0.447785, 0.448507, 0.543464, 0.442410, 0.559680, 0.439413, 0.439064, 0.441486, 0.445054, 0.440874, 0.441466, 0.442303, 0.453840, 0.446769, 0.452776, 0.473947, 0.438391, 0.439684
Process 9: 1.330257, 0.638806, 0.539713, 0.459438, 0.534699, 0.534908, 0.539290, 0.459710, 0.463297, 0.447624, 0.457680, 0.466065, 0.460972, 0.461782, 0.556376, 0.460375, 0.574702, 0.452534, 0.452173, 0.454693, 0.458066, 0.453849, 0.454555, 0.455475, 0.467049, 0.459989, 0.466464, 0.487137, 0.451568, 0.452850
Process 10: 1.343326, 0.652054, 0.551183, 0.468694, 0.538164, 0.545694, 0.551937, 0.468383, 0.473750, 0.459229, 0.468171, 0.476941, 0.475347, 0.473207, 0.567400, 0.467701, 0.583064, 0.463058, 0.463474, 0.465204, 0.468971, 0.464851, 0.466069, 0.466014, 0.478382, 0.470493, 0.477432, 0.498633, 0.462782, 0.463356
Process 11: 1.355219, 0.665327, 0.564449, 0.482324, 0.551264, 0.562575, 0.565145, 0.481408, 0.487025, 0.472635, 0.481223, 0.490214, 0.488572, 0.486918, 0.580703, 0.481451, 0.596247, 0.476072, 0.476636, 0.478263, 0.482319, 0.478120, 0.478994, 0.479042, 0.491567, 0.483522, 0.493452, 0.511894, 0.476024, 0.476416
Process 12: 1.366453, 0.677485, 0.574784, 0.492721, 0.561296, 0.570833, 0.575484, 0.491730, 0.498294, 0.482885, 0.491626, 0.500505, 0.498862, 0.496964, 0.590896, 0.491907, 0.606565, 0.487409, 0.486941, 0.488622, 0.492517, 0.488408, 0.489429, 0.489313, 0.501862, 0.493832, 0.503847, 0.522171, 0.486349, 0.487174
Process 13: 1.379913, 0.691230, 0.588090, 0.505980, 0.574857, 0.584213, 0.588916, 0.505037, 0.511496, 0.494739, 0.504869, 0.513878, 0.512248, 0.510240, 0.604267, 0.505680, 0.619926, 0.500958, 0.500293, 0.502049, 0.505960, 0.501709, 0.502626, 0.502720, 0.515204, 0.507216, 0.517423, 0.535516, 0.499671, 0.500660
Process 14: 1.389855, 0.701506, 0.598208, 0.516172, 0.584531, 0.594406, 0.598995, 0.515205, 0.521549, 0.506204, 0.515019, 0.524937, 0.522553, 0.520399, 0.614280, 0.515175, 0.630057, 0.511092, 0.510429, 0.513246, 0.515965, 0.511748, 0.512835, 0.512881, 0.525376, 0.517360, 0.527391, 0.545649, 0.509817, 0.510805
Process 15: 1.403222, 0.714910, 0.611397, 0.529428, 0.598032, 0.607615, 0.612231, 0.528344, 0.534813, 0.518068, 0.528210, 0.539715, 0.535953, 0.533598, 0.627570, 0.528859, 0.643289, 0.524239, 0.523599, 0.527205, 0.529268, 0.525048, 0.525973, 0.526058, 0.538555, 0.530562, 0.540694, 0.558849, 0.523023, 0.523971
Process 16: 1.413605, 0.725637, 0.621806, 0.539825, 0.608276, 0.617997, 0.622581, 0.538833, 0.545428, 0.530113, 0.541956, 0.550129, 0.546623, 0.544067, 0.638152, 0.539032, 0.653688, 0.534649, 0.533943, 0.537700, 0.539873, 0.535704, 0.536420, 0.537778, 0.549402, 0.541601, 0.551230, 0.569197, 0.533462, 0.534553
Process 17: 1.426599, 0.739816, 0.634490, 0.552463, 0.621329, 0.630704, 0.635354, 0.551488, 0.557753, 0.541363, 0.551990, 0.562868, 0.558927, 0.556697, 0.650509, 0.552206, 0.666368, 0.547339, 0.546723, 0.550044, 0.552219, 0.548036, 0.549054, 0.550664, 0.562063, 0.554471, 0.563658, 0.581907, 0.546096, 0.547068
Process 18: 1.436890, 0.750324, 0.645015, 0.563822, 0.631487, 0.641258, 0.645771, 0.564641, 0.568432, 0.553058, 0.562382, 0.573354, 0.569591, 0.567099, 0.661190, 0.562267, 0.678134, 0.557921, 0.557270, 0.560758, 0.562835, 0.558656, 0.559583, 0.561236, 0.572718, 0.565055, 0.576167, 0.592369, 0.556679, 0.557480
Process 19: 1.450020, 0.765466, 0.657880, 0.576703, 0.645528, 0.654110, 0.658791, 0.575547, 0.581179, 0.564717, 0.575301, 0.586208, 0.582383, 0.580042, 0.673904, 0.575668, 0.691089, 0.570720, 0.570234, 0.573423, 0.575615, 0.571385, 0.572432, 0.574078, 0.585542, 0.577878, 0.589057, 0.605261, 0.569471, 0.570468
Process 20: 1.461157, 0.777334, 0.669094, 0.587005, 0.655531, 0.665700, 0.670919, 0.586157, 0.591652, 0.579113, 0.585736, 0.596999, 0.594364, 0.591173, 0.684904, 0.585443, 0.701462, 0.581127, 0.581341, 0.583864, 0.587370, 0.582291, 0.583375, 0.584440, 0.597535, 0.588340, 0.600075, 0.616443, 0.580604, 0.580868
Process 21: 1.474699, 0.792267, 0.682624, 0.600019, 0.668713, 0.679313, 0.684132, 0.599053, 0.604549, 0.589334, 0.598710, 0.610078, 0.607551, 0.604826, 0.698472, 0.596670, 0.714456, 0.594157, 0.594964, 0.596775, 0.602379, 0.595424, 0.596512, 0.597474, 0.610772, 0.601297, 0.613717, 0.630061, 0.594288, 0.593877
Process 22: 1.484486, 0.804466, 0.692727, 0.610463, 0.678597, 0.689415, 0.694846, 0.609707, 0.615691, 0.601025, 0.609157, 0.620683, 0.617974, 0.614976, 0.708675, 0.607830, 0.724888, 0.605215, 0.605140, 0.607257, 0.612468, 0.605842, 0.606929, 0.607934, 0.621209, 0.611743, 0.624622, 0.640196, 0.604427, 0.605474
Process 23: 1.497858, 0.819298, 0.705714, 0.623409, 0.689991, 0.702389, 0.707872, 0.624817, 0.629225, 0.613994, 0.622140, 0.633642, 0.630975, 0.627996, 0.721648, 0.621534, 0.737942, 0.618871, 0.618124, 0.620248, 0.625994, 0.618833, 0.619896, 0.620924, 0.635001, 0.624767, 0.639124, 0.653183, 0.617426, 0.618451
Process 24: 1.507809, 0.831318, 0.716078, 0.633675, 0.700339, 0.712635, 0.720011, 0.634656, 0.639213, 0.624359, 0.632360, 0.643945, 0.641319, 0.638356, 0.732043, 0.631416, 0.748142, 0.628908, 0.628529, 0.631209, 0.635812, 0.629158, 0.630158, 0.631212, 0.646681, 0.635105, 0.651280, 0.663430, 0.627694, 0.628680
Process 25: 1.521072, 0.846562, 0.729200, 0.646917, 0.713503, 0.725828, 0.733237, 0.648094, 0.652348, 0.637511, 0.645600, 0.657107, 0.654396, 0.651532, 0.745265, 0.644648, 0.761342, 0.642007, 0.641663, 0.645069, 0.649228, 0.642336, 0.643345, 0.644377, 0.659945, 0.650122, 0.666371, 0.676603, 0.640860, 0.641831
Process 26: 1.531121, 0.858569, 0.739378, 0.657064, 0.723622, 0.736010, 0.745282, 0.657794, 0.662492, 0.647649, 0.657026, 0.667283, 0.664529, 0.661664, 0.755374, 0.654731, 0.771446, 0.652210, 0.651824, 0.654829, 0.658993, 0.652478, 0.653468, 0.655351, 0.671994, 0.659335, 0.678411, 0.686758, 0.650992, 0.651991
Process 27: 1.544422, 0.873817, 0.752757, 0.670410, 0.736982, 0.749313, 0.758770, 0.671572, 0.675796, 0.661002, 0.670302, 0.680638, 0.677916, 0.675009, 0.768769, 0.668021, 0.784799, 0.665570, 0.665204, 0.668219, 0.672781, 0.665857, 0.666791, 0.668904, 0.686011, 0.672671, 0.693805, 0.700075, 0.664299, 0.665264
Process 28: 1.554422, 0.885871, 0.762771, 0.682566, 0.747844, 0.759366, 0.770678, 0.683307, 0.685901, 0.671022, 0.680336, 0.690832, 0.688101, 0.685053, 0.778769, 0.678187, 0.795980, 0.675549, 0.675202, 0.678208, 0.682473, 0.675844, 0.676884, 0.678988, 0.696081, 0.682709, 0.705732, 0.710277, 0.674490, 0.675442
Process 29: 1.568139, 0.903622, 0.776126, 0.695702, 0.761354, 0.772700, 0.785254, 0.696213, 0.699189, 0.684394, 0.693643, 0.704237, 0.701606, 0.698417, 0.792161, 0.691470, 0.809084, 0.688950, 0.688622, 0.691612, 0.696109, 0.689324, 0.690194, 0.693430, 0.709547, 0.696111, 0.724697, 0.723463, 0.687737, 0.688708
Process 30: 1.578801, 0.914149, 0.787173, 0.705604, 0.771413, 0.783764, 0.796159, 0.705441, 0.709386, 0.694806, 0.703804, 0.716081, 0.712398, 0.709250, 0.802955, 0.701635, 0.819228, 0.699012, 0.699609, 0.701662, 0.706709, 0.700536, 0.701277, 0.704427, 0.720104, 0.706105, 0.733891, 0.734498, 0.698962, 0.698868
Process 31: 1.592408, 0.929128, 0.800788, 0.717546, 0.784746, 0.797504, 0.809746, 0.719028, 0.722596, 0.708337, 0.717043, 0.729299, 0.725989, 0.723164, 0.816989, 0.714904, 0.832460, 0.712377, 0.713488, 0.715060, 0.720794, 0.714462, 0.714922, 0.717708, 0.737679, 0.719554, 0.749038, 0.747701, 0.712690, 0.712122
Process 32: 1.602260, 0.939201, 0.810327, 0.728788, 0.794592, 0.807088, 0.819553, 0.728991, 0.733330, 0.718132, 0.726932, 0.738887, 0.735785, 0.732705, 0.826560, 0.725544, 0.842295, 0.723051, 0.722997, 0.724944, 0.730567, 0.724047, 0.724518, 0.727668, 0.743759, 0.729431, 0.758842, 0.757605, 0.722274, 0.722866
Process 33: 1.614963, 0.953415, 0.822324, 0.740736, 0.807111, 0.819647, 0.832059, 0.741796, 0.745638, 0.730655, 0.739502, 0.751451, 0.748266, 0.745206, 0.839046, 0.738228, 0.854873, 0.735323, 0.735518, 0.737478, 0.743350, 0.736524, 0.737058, 0.740221, 0.756322, 0.741878, 0.773152, 0.770187, 0.734871, 0.735951
Process 34: 1.625785, 0.966061, 0.833766, 0.752142, 0.817984, 0.830445, 0.844594, 0.752157, 0.756765, 0.741563, 0.750285, 0.762232, 0.759167, 0.756116, 0.849917, 0.749112, 0.865667, 0.746548, 0.746427, 0.749029, 0.753732, 0.747416, 0.747859, 0.751153, 0.767201, 0.753674, 0.785770, 0.780973, 0.745655, 0.746575
Process 35: 1.638387, 0.980363, 0.845719, 0.764167, 0.830462, 0.843031, 0.857115, 0.765139, 0.769326, 0.754031, 0.762887, 0.774822, 0.771679, 0.768571, 0.862438, 0.761703, 0.878270, 0.759077, 0.758888, 0.761644, 0.766701, 0.759875, 0.760445, 0.763639, 0.779686, 0.766009, 0.800054, 0.793559, 0.758251, 0.759071
Process 36: 1.649121, 0.993023, 0.857138, 0.775518, 0.841392, 0.853819, 0.869861, 0.775818, 0.780126, 0.764954, 0.774759, 0.785741, 0.782577, 0.779490, 0.873343, 0.772507, 0.889070, 0.769970, 0.769815, 0.772568, 0.777381, 0.770817, 0.771300, 0.776041, 0.790597, 0.777012, 0.812717, 0.804364, 0.769026, 0.770008
Process 37: 1.661716, 1.011677, 0.869118, 0.787677, 0.856323, 0.866797, 0.882559, 0.788438, 0.792920, 0.777631, 0.787289, 0.798406, 0.795235, 0.792183, 0.885951, 0.785284, 0.901860, 0.782610, 0.782468, 0.785232, 0.789985, 0.783472, 0.784074, 0.788700, 0.803254, 0.789758, 0.830635, 0.817122, 0.781804, 0.782648
Process 38: 1.672520, 1.022541, 0.880610, 0.800602, 0.865258, 0.877466, 0.895335, 0.800736, 0.803728, 0.788465, 0.798264, 0.809237, 0.806072, 0.803011, 0.896797, 0.796114, 0.914066, 0.793446, 0.793333, 0.796219, 0.800598, 0.794298, 0.794910, 0.799577, 0.814068, 0.800588, 0.841583, 0.827944, 0.792660, 0.793484
Process 39: 1.687777, 1.036933, 0.892523, 0.813577, 0.877726, 0.890005, 0.907938, 0.812768, 0.816279, 0.803732, 0.810814, 0.821731, 0.818759, 0.815555, 0.909336, 0.808655, 0.927403, 0.805974, 0.805869, 0.808816, 0.813468, 0.806844, 0.807482, 0.812124, 0.826643, 0.813127, 0.855971, 0.840466, 0.805182, 0.806025
Process 40: 1.697043, 1.049682, 0.905895, 0.823653, 0.888527, 0.902682, 0.920020, 0.822821, 0.827042, 0.812800, 0.821587, 0.834491, 0.830481, 0.827612, 0.921296, 0.819436, 0.937066, 0.816785, 0.818585, 0.819579, 0.824419, 0.819535, 0.820208, 0.822949, 0.839056, 0.823874, 0.868639, 0.852114, 0.816325, 0.816864
Process 41: 1.709533, 1.064327, 0.917456, 0.836277, 0.901094, 0.914935, 0.936632, 0.836070, 0.839666, 0.825376, 0.834234, 0.847232, 0.843022, 0.840079, 0.933661, 0.832065, 0.949854, 0.829376, 0.831269, 0.832148, 0.838357, 0.831862, 0.832486, 0.835525, 0.852687, 0.836535, 0.883226, 0.864699, 0.832178, 0.829440
Process 42: 1.720270, 1.076915, 0.928321, 0.846941, 0.911902, 0.925143, 0.946964, 0.846393, 0.852025, 0.836178, 0.844883, 0.857236, 0.853938, 0.850862, 0.944449, 0.843560, 0.960354, 0.842135, 0.841154, 0.842940, 0.847080, 0.841911, 0.842787, 0.846324, 0.861801, 0.848359, 0.895987, 0.875484, 0.839919, 0.840873
Process 43: 1.733261, 1.091662, 0.941206, 0.859766, 0.924927, 0.938057, 0.959972, 0.859674, 0.864940, 0.849166, 0.858185, 0.870180, 0.866824, 0.863812, 0.956299, 0.856352, 0.973199, 0.854769, 0.854000, 0.855840, 0.859192, 0.854770, 0.855728, 0.859249, 0.873685, 0.862362, 0.910875, 0.888317, 0.852921, 0.854004
Process 44: 1.743654, 1.104160, 0.951673, 0.870300, 0.935267, 0.948502, 0.972425, 0.868651, 0.874851, 0.859562, 0.869559, 0.880629, 0.877288, 0.874215, 0.967756, 0.866794, 0.983731, 0.864561, 0.864531, 0.866277, 0.869716, 0.865364, 0.866139, 0.869696, 0.885126, 0.873491, 0.923228, 0.898855, 0.863414, 0.864407
Process 45: 1.756536, 1.121620, 0.964614, 0.883242, 0.948292, 0.961470, 0.985466, 0.880804, 0.887833, 0.872528, 0.883441, 0.893555, 0.890219, 0.887115, 0.979671, 0.879776, 0.996714, 0.877577, 0.877460, 0.879186, 0.882681, 0.878433, 0.879024, 0.882636, 0.897063, 0.886499, 0.940282, 0.911824, 0.876385, 0.877366
Process 46: 1.767000, 1.131413, 0.975112, 0.893909, 0.960309, 0.971931, 0.996152, 0.891450, 0.898535, 0.883011, 0.895028, 0.904081, 0.900752, 0.897651, 0.991216, 0.890426, 1.007374, 0.888000, 0.888024, 0.892198, 0.893283, 0.888884, 0.889596, 0.895401, 0.908608, 0.896636, 0.950179, 0.922448, 0.886980, 0.887913
Process 47: 1.779980, 1.144149, 0.987843, 0.906652, 0.974177, 0.984623, 1.008934, 0.904163, 0.911312, 0.895720, 0.907636, 0.916783, 0.913439, 0.910339, 1.003076, 0.903182, 1.020130, 0.900755, 0.900735, 0.905387, 0.906037, 0.901602, 0.902333, 0.908420, 0.920446, 0.909616, 0.962081, 0.935213, 0.899727, 0.900655
Process 48: 1.792115, 1.154969, 0.998762, 0.918651, 0.984275, 0.995590, 1.019544, 0.915894, 0.922297, 0.908041, 0.917756, 0.927806, 0.924441, 0.921354, 1.014919, 0.914187, 1.032173, 0.911748, 0.911719, 0.915669, 0.916598, 0.912580, 0.913331, 0.918786, 0.932280, 0.919782, 0.973901, 0.945791, 0.910715, 0.911201
Process 49: 1.805967, 1.167042, 1.010511, 0.931818, 0.995825, 1.007325, 1.031678, 0.929076, 0.934015, 0.920449, 0.930381, 0.939544, 0.936186, 0.933113, 1.026450, 0.925927, 1.044932, 0.923479, 0.923474, 0.927222, 0.928756, 0.924298, 0.925100, 0.930300, 0.943805, 0.932420, 0.985371, 0.957907, 0.922435, 0.923358
Process 50: 1.815435, 1.178205, 1.023617, 0.941606, 1.007336, 1.020833, 1.045158, 0.938969, 0.945139, 0.930777, 0.941424, 0.952680, 0.949489, 0.946509, 1.040102, 0.937254, 1.055158, 0.934811, 0.937177, 0.938740, 0.942063, 0.937680, 0.938455, 0.941849, 0.957340, 0.943433, 0.996751, 0.970408, 0.936171, 0.934493
Process 51: 1.827776, 1.190368, 1.035158, 0.953845, 1.019266, 1.033269, 1.058725, 0.951250, 0.957395, 0.942877, 0.953894, 0.965679, 0.962137, 0.961429, 1.052849, 0.949380, 1.067445, 0.946926, 0.950335, 0.950670, 0.954469, 0.950206, 0.950864, 0.953773, 0.970577, 0.955865, 1.008813, 0.984043, 0.948935, 0.946750
Process 52: 1.838656, 1.201536, 1.046371, 0.964936, 1.030596, 1.043403, 1.068212, 0.962362, 0.970228, 0.954080, 0.964787, 0.975319, 0.972104, 0.973773, 1.062773, 0.962598, 1.078542, 0.960149, 0.959719, 0.961899, 0.964626, 0.960281, 0.960980, 0.965125, 0.980040, 0.966770, 1.020121, 0.993486, 0.958763, 0.959509
Process 53: 1.850869, 1.213902, 1.058619, 0.977337, 1.042588, 1.055663, 1.080665, 0.974753, 0.984058, 0.966343, 0.977110, 0.987560, 0.984379, 0.987951, 1.075045, 0.975265, 1.090963, 0.972994, 0.971979, 0.974008, 0.976916, 0.972567, 0.973274, 0.977102, 0.991988, 0.979146, 1.032247, 1.005874, 0.971029, 0.973140
Process 54: 1.861893, 1.227019, 1.069842, 0.988551, 1.054086, 1.066867, 1.091848, 0.985977, 0.993690, 0.977558, 0.988023, 0.998832, 0.995600, 0.999514, 1.086261, 0.985308, 1.102156, 0.982904, 0.983212, 0.985489, 0.988130, 0.983764, 0.984509, 0.988615, 1.003484, 0.991819, 1.045415, 1.017078, 0.982256, 0.982884
Process 55: 1.874330, 1.240445, 1.081932, 1.000727, 1.066044, 1.079012, 1.104014, 0.998136, 1.005783, 0.989676, 1.000605, 1.010898, 1.007700, 1.011633, 1.098357, 0.997402, 1.114318, 0.994991, 0.995301, 0.997325, 1.000218, 0.995865, 0.996603, 1.000460, 1.015331, 1.005488, 1.059420, 1.029265, 0.994354, 0.995056
Process 56: 1.885172, 1.249692, 1.093136, 1.011735, 1.078629, 1.090066, 1.115023, 1.009159, 1.016984, 1.000857, 1.013324, 1.022107, 1.018904, 1.022841, 1.109552, 1.008601, 1.125335, 1.006185, 1.006515, 1.010615, 1.011408, 1.007053, 1.007796, 1.013718, 1.026769, 1.014609, 1.068588, 1.040290, 1.005554, 1.006082
Process 57: 1.897581, 1.261851, 1.105278, 1.023942, 1.092384, 1.102288, 1.127221, 1.021381, 1.029150, 1.012980, 1.024911, 1.034214, 1.031035, 1.034950, 1.121699, 1.020740, 1.137554, 1.018337, 1.018641, 1.024623, 1.023542, 1.019170, 1.019923, 1.024987, 1.038682, 1.027189, 1.080532, 1.052495, 1.017693, 1.018312
Process 58: 1.910329, 1.272962, 1.116545, 1.036404, 1.101720, 1.113375, 1.138298, 1.033868, 1.040420, 1.025997, 1.035732, 1.045521, 1.042290, 1.047092, 1.132956, 1.032013, 1.150095, 1.029605, 1.029921, 1.033686, 1.034808, 1.030444, 1.031213, 1.036257, 1.050172, 1.038048, 1.091884, 1.063587, 1.028964, 1.029390
Process 59: 1.925029, 1.285296, 1.131864, 1.051157, 1.113685, 1.125734, 1.150690, 1.047372, 1.052585, 1.039775, 1.048314, 1.057669, 1.054462, 1.060406, 1.145153, 1.044210, 1.164211, 1.041790, 1.042090, 1.045490, 1.047003, 1.042641, 1.043378, 1.048411, 1.061974, 1.050665, 1.103857, 1.075961, 1.041141, 1.041770
Process 60: 1.933233, 1.296289, 1.140573, 1.059482, 1.125029, 1.138214, 1.163173, 1.056399, 1.063701, 1.048501, 1.058951, 1.070675, 1.065981, 1.073321, 1.158075, 1.055295, 1.173065, 1.052889, 1.055000, 1.056951, 1.059924, 1.055542, 1.056303, 1.059510, 1.075254, 1.061305, 1.115218, 1.088573, 1.053982, 1.052733
Process 61: 1.945091, 1.308737, 1.152459, 1.071549, 1.137086, 1.152821, 1.177977, 1.068899, 1.076033, 1.060376, 1.071613, 1.085136, 1.078461, 1.087084, 1.172409, 1.067619, 1.185121, 1.065216, 1.069253, 1.068863, 1.074082, 1.069779, 1.070348, 1.071858, 1.088462, 1.074117, 1.127280, 1.103267, 1.068328, 1.065231
Process 62: 1.956343, 1.319864, 1.163997, 1.083092, 1.148592, 1.161170, 1.185820, 1.079975, 1.088748, 1.071925, 1.082297, 1.093035, 1.089586, 1.095428, 1.180247, 1.080349, 1.196670, 1.077941, 1.077531, 1.080416, 1.082600, 1.077782, 1.078612, 1.082958, 1.097444, 1.084643, 1.138791, 1.111304, 1.076162, 1.077657
Process 63: 1.968386, 1.331952, 1.175692, 1.094805, 1.160308, 1.172807, 1.197535, 1.092130, 1.102712, 1.083614, 1.095178, 1.104728, 1.101691, 1.107640, 1.191961, 1.094484, 1.208376, 1.091982, 1.089221, 1.092119, 1.094303, 1.089485, 1.090308, 1.095063, 1.109147, 1.097189, 1.150531, 1.123022, 1.087875, 1.091309
