MPI_insiderank_serial
Process 0: 1.083056, 0.935303, 0.839642, 0.838077, 0.829211, 0.839374, 0.829806, 0.845152, 0.849702, 0.836553, 0.834759, 0.832110, 0.838395, 0.837731, 0.833983, 0.833177, 0.838209, 0.834857, 0.853270, 0.831700, 0.833968, 0.832264, 0.837769, 0.839243, 0.837195, 0.832633, 0.848335, 0.832516, 0.837588, 0.831815
Process 1: 0.829888, 0.676801, 0.585933, 0.582192, 0.574455, 0.588386, 0.575642, 0.581774, 0.595780, 0.581076, 0.579480, 0.579014, 0.583651, 0.584281, 0.578892, 0.579835, 0.585343, 0.581131, 0.598840, 0.577769, 0.579887, 0.578169, 0.582035, 0.584809, 0.585534, 0.578373, 0.589275, 0.578272, 0.581174, 0.578276
Process 2: 0.837104, 0.685462, 0.593490, 0.589190, 0.581889, 0.595367, 0.583163, 0.589467, 0.603063, 0.588367, 0.587756, 0.585517, 0.590956, 0.591791, 0.587155, 0.587347, 0.593053, 0.588938, 0.606271, 0.585090, 0.587330, 0.585459, 0.589632, 0.592233, 0.591274, 0.585954, 0.599443, 0.585759, 0.588438, 0.585668
Process 3: 0.846558, 0.693505, 0.602891, 0.598793, 0.591462, 0.605335, 0.592708, 0.599834, 0.612761, 0.597973, 0.597460, 0.595198, 0.600652, 0.601317, 0.596950, 0.596871, 0.602978, 0.598287, 0.615961, 0.594780, 0.596978, 0.595124, 0.598983, 0.602134, 0.599935, 0.595647, 0.608958, 0.595388, 0.598103, 0.594428
Process 4: 0.854368, 0.703478, 0.611095, 0.606400, 0.599189, 0.612821, 0.600425, 0.607456, 0.620437, 0.605667, 0.605140, 0.602867, 0.608312, 0.608991, 0.604627, 0.604629, 0.610504, 0.606177, 0.623626, 0.602531, 0.604646, 0.602789, 0.606656, 0.609600, 0.608686, 0.603299, 0.616595, 0.603106, 0.605787, 0.603029
Process 5: 0.863614, 0.712073, 0.619813, 0.615730, 0.608552, 0.622297, 0.609795, 0.616757, 0.629833, 0.614947, 0.614505, 0.612250, 0.620618, 0.618339, 0.614011, 0.614239, 0.619984, 0.615355, 0.633001, 0.611949, 0.614015, 0.612139, 0.616082, 0.619013, 0.616827, 0.612680, 0.625067, 0.612458, 0.615166, 0.611425
Process 6: 0.871742, 0.721268, 0.627544, 0.623284, 0.616450, 0.629660, 0.617620, 0.624607, 0.637590, 0.622513, 0.622167, 0.621013, 0.626871, 0.625859, 0.621558, 0.621808, 0.627637, 0.623005, 0.640789, 0.619730, 0.621952, 0.619808, 0.623673, 0.626792, 0.625448, 0.620365, 0.633808, 0.620039, 0.622855, 0.620003
Process 7: 0.880632, 0.729289, 0.636895, 0.632620, 0.628801, 0.639429, 0.626917, 0.633791, 0.646840, 0.631903, 0.631554, 0.630370, 0.636350, 0.635398, 0.631061, 0.631037, 0.637201, 0.632419, 0.650103, 0.628948, 0.631119, 0.629197, 0.633116, 0.636054, 0.633724, 0.629753, 0.641990, 0.629509, 0.631241, 0.628469
Process 8: 0.888659, 0.737641, 0.644700, 0.640223, 0.634499, 0.646772, 0.634494, 0.641431, 0.654419, 0.639527, 0.639212, 0.638080, 0.643920, 0.643011, 0.638721, 0.638595, 0.644489, 0.640050, 0.657617, 0.636480, 0.638806, 0.636753, 0.643057, 0.643614, 0.642193, 0.637294, 0.650460, 0.637263, 0.639863, 0.636986
Process 9: 0.897525, 0.746147, 0.653932, 0.649620, 0.644070, 0.657557, 0.643920, 0.650811, 0.663853, 0.648940, 0.648634, 0.647452, 0.653374, 0.652418, 0.648065, 0.648010, 0.653945, 0.649499, 0.667117, 0.646007, 0.648157, 0.646280, 0.654043, 0.653434, 0.650706, 0.646768, 0.658850, 0.646575, 0.648155, 0.645358
Process 10: 0.904922, 0.753735, 0.661199, 0.656822, 0.651126, 0.663699, 0.651012, 0.657836, 0.670903, 0.656061, 0.655679, 0.654506, 0.660424, 0.659579, 0.655107, 0.655122, 0.660908, 0.656616, 0.674157, 0.654265, 0.655184, 0.653345, 0.658319, 0.660537, 0.658773, 0.653808, 0.667030, 0.653586, 0.656771, 0.653447
Process 11: 0.914530, 0.763010, 0.670825, 0.666602, 0.660990, 0.673762, 0.660863, 0.667721, 0.680747, 0.667859, 0.665520, 0.664380, 0.670307, 0.671207, 0.665005, 0.664932, 0.670960, 0.666354, 0.684061, 0.663800, 0.665054, 0.663172, 0.667232, 0.674317, 0.667615, 0.663671, 0.675890, 0.663463, 0.665640, 0.662336
Process 12: 0.921629, 0.770214, 0.678042, 0.673685, 0.668123, 0.680802, 0.667991, 0.674840, 0.687842, 0.673993, 0.672637, 0.671439, 0.677380, 0.677180, 0.672038, 0.672178, 0.677933, 0.673613, 0.691104, 0.671029, 0.672122, 0.670279, 0.675317, 0.678448, 0.675699, 0.670784, 0.683948, 0.670558, 0.673673, 0.670451
Process 13: 0.933911, 0.780053, 0.690484, 0.684409, 0.677897, 0.690701, 0.679722, 0.684603, 0.700426, 0.683797, 0.685264, 0.681214, 0.687183, 0.687299, 0.683841, 0.685066, 0.690092, 0.687789, 0.702905, 0.680792, 0.683884, 0.682232, 0.684207, 0.688260, 0.684691, 0.682518, 0.692843, 0.682318, 0.682600, 0.679360
Process 14: 0.939223, 0.786909, 0.695383, 0.690767, 0.684867, 0.697505, 0.685431, 0.692095, 0.705462, 0.690792, 0.690248, 0.688218, 0.694330, 0.693997, 0.689413, 0.689396, 0.695316, 0.690870, 0.708705, 0.687763, 0.689466, 0.687795, 0.692046, 0.695220, 0.692929, 0.688198, 0.700709, 0.688070, 0.690461, 0.688674
Process 15: 0.949172, 0.796795, 0.705221, 0.700573, 0.694691, 0.707428, 0.695259, 0.708279, 0.715335, 0.700608, 0.699966, 0.698919, 0.704055, 0.703764, 0.699274, 0.698278, 0.705210, 0.699747, 0.718544, 0.697610, 0.699322, 0.697641, 0.700915, 0.705278, 0.703008, 0.698062, 0.709591, 0.697926, 0.699352, 0.696977
Process 16: 0.955999, 0.805204, 0.712548, 0.707719, 0.701856, 0.714307, 0.702415, 0.712504, 0.722371, 0.707720, 0.707181, 0.705192, 0.711280, 0.710911, 0.706402, 0.706458, 0.712133, 0.707990, 0.725674, 0.704734, 0.706396, 0.704753, 0.708998, 0.712175, 0.710058, 0.705161, 0.717663, 0.705014, 0.707415, 0.705299
Process 17: 0.966016, 0.816190, 0.721976, 0.717420, 0.711538, 0.724251, 0.712105, 0.723476, 0.732095, 0.717479, 0.716915, 0.714939, 0.723161, 0.720579, 0.716100, 0.715076, 0.722085, 0.716586, 0.735398, 0.714452, 0.716123, 0.714487, 0.717750, 0.721881, 0.719767, 0.714867, 0.729232, 0.714728, 0.719221, 0.714037
Process 18: 0.972744, 0.821677, 0.729160, 0.724738, 0.718630, 0.731108, 0.719239, 0.731406, 0.739221, 0.724527, 0.723973, 0.722009, 0.728642, 0.727702, 0.723182, 0.723150, 0.728935, 0.724676, 0.742468, 0.721535, 0.723235, 0.721552, 0.725795, 0.728984, 0.726881, 0.721985, 0.735089, 0.721843, 0.724813, 0.722034
Process 19: 0.982721, 0.831267, 0.738858, 0.733347, 0.728317, 0.741103, 0.728945, 0.741151, 0.748924, 0.734237, 0.733676, 0.732928, 0.738228, 0.737490, 0.732915, 0.731781, 0.738853, 0.733284, 0.752188, 0.731325, 0.732957, 0.731267, 0.734452, 0.738674, 0.736587, 0.731673, 0.744773, 0.731525, 0.734529, 0.730742
Process 20: 0.989636, 0.838075, 0.745813, 0.741357, 0.735700, 0.748025, 0.735829, 0.750477, 0.755878, 0.741142, 0.740629, 0.739194, 0.745306, 0.744378, 0.739835, 0.739812, 0.745750, 0.741387, 0.759140, 0.738153, 0.739897, 0.738207, 0.742459, 0.745636, 0.743514, 0.738624, 0.751746, 0.738482, 0.741459, 0.738713
Process 21: 0.999573, 0.848173, 0.755655, 0.750227, 0.745521, 0.758194, 0.745695, 0.759656, 0.765727, 0.751037, 0.750511, 0.749074, 0.755314, 0.754269, 0.749721, 0.748661, 0.755962, 0.750127, 0.769071, 0.748037, 0.749779, 0.748151, 0.751305, 0.755866, 0.753381, 0.748522, 0.761616, 0.748343, 0.751319, 0.747618
Process 22: 1.006373, 0.855472, 0.762697, 0.758130, 0.752697, 0.765044, 0.752717, 0.767548, 0.772649, 0.757968, 0.757496, 0.756079, 0.762340, 0.761210, 0.756656, 0.756612, 0.762619, 0.758156, 0.775961, 0.754982, 0.756715, 0.755038, 0.760345, 0.762451, 0.760347, 0.755449, 0.768597, 0.755305, 0.758291, 0.755492
Process 23: 1.016051, 0.865097, 0.773464, 0.768100, 0.763924, 0.776565, 0.763798, 0.777393, 0.783787, 0.769459, 0.768628, 0.767211, 0.773349, 0.773483, 0.767829, 0.766647, 0.773908, 0.767946, 0.787084, 0.768715, 0.767909, 0.766163, 0.769900, 0.774722, 0.771474, 0.766585, 0.779810, 0.766418, 0.769421, 0.765576
Process 24: 1.023188, 0.871842, 0.779605, 0.775077, 0.769739, 0.781860, 0.769650, 0.784631, 0.789641, 0.775447, 0.774385, 0.773005, 0.779104, 0.778614, 0.773619, 0.773592, 0.779418, 0.774980, 0.792887, 0.772891, 0.773676, 0.771936, 0.777147, 0.779814, 0.777299, 0.772371, 0.785729, 0.772222, 0.775226, 0.772472
Process 25: 1.032306, 0.880850, 0.788317, 0.783546, 0.778527, 0.791080, 0.778573, 0.793120, 0.798485, 0.787486, 0.783229, 0.781780, 0.788031, 0.787367, 0.782540, 0.782097, 0.788462, 0.783471, 0.801758, 0.781476, 0.782541, 0.780818, 0.785869, 0.791678, 0.786135, 0.781212, 0.794519, 0.781036, 0.783999, 0.781061
Process 26: 1.042254, 0.889092, 0.797933, 0.791846, 0.786566, 0.799314, 0.787691, 0.801425, 0.807135, 0.792325, 0.792772, 0.789762, 0.795960, 0.795342, 0.791692, 0.791454, 0.798331, 0.793619, 0.810911, 0.789710, 0.791818, 0.790085, 0.793983, 0.796901, 0.794276, 0.790412, 0.802551, 0.790226, 0.792051, 0.789338
Process 27: 1.049774, 0.897565, 0.806676, 0.800372, 0.795417, 0.807744, 0.798339, 0.812661, 0.815970, 0.801166, 0.802599, 0.798589, 0.804871, 0.804179, 0.802499, 0.800007, 0.808256, 0.801759, 0.821625, 0.798281, 0.802268, 0.801411, 0.802599, 0.806276, 0.803523, 0.801179, 0.811346, 0.800577, 0.800841, 0.797951
Process 28: 1.057440, 0.905410, 0.813844, 0.808478, 0.803236, 0.815534, 0.804154, 0.819833, 0.823983, 0.808990, 0.809087, 0.806392, 0.812633, 0.812031, 0.808321, 0.807884, 0.814052, 0.809331, 0.827595, 0.806354, 0.808347, 0.806624, 0.810612, 0.813623, 0.811525, 0.806978, 0.819211, 0.806913, 0.808793, 0.806392
Process 29: 1.066450, 0.914350, 0.822835, 0.817132, 0.812208, 0.824042, 0.813142, 0.828556, 0.832948, 0.818146, 0.818098, 0.815757, 0.821734, 0.820982, 0.817311, 0.816530, 0.821780, 0.818183, 0.836556, 0.815041, 0.817288, 0.815610, 0.820596, 0.822551, 0.820496, 0.815935, 0.828157, 0.815815, 0.817663, 0.815098
Process 30: 1.074447, 0.923745, 0.830855, 0.826317, 0.820049, 0.830883, 0.820986, 0.836597, 0.840747, 0.827326, 0.825900, 0.823236, 0.829450, 0.828766, 0.825163, 0.824655, 0.829453, 0.826024, 0.844408, 0.823142, 0.825093, 0.823424, 0.829004, 0.830366, 0.828330, 0.823779, 0.837373, 0.823663, 0.826656, 0.823197
Process 31: 1.083348, 0.935303, 0.839644, 0.838075, 0.829211, 0.839382, 0.829815, 0.845154, 0.849705, 0.836553, 0.834759, 0.832111, 0.838388, 0.837731, 0.833991, 0.833178, 0.838200, 0.834851, 0.853274, 0.831703, 0.833969, 0.832260, 0.837769, 0.839243, 0.837196, 0.832634, 0.848335, 0.832510, 0.837588, 0.831816
