MPI_insiderank_serial
Process 0: 1.999887, 1.838561, 1.746520, 1.746026, 1.754024, 1.738821, 1.717955, 1.724365, 1.742804, 1.764590, 1.745649, 1.732083, 1.732241, 1.732540, 1.732096, 1.741584, 1.766089, 1.755536, 1.725601, 1.733828, 1.721686, 1.730368, 1.737690, 1.742327, 1.739003, 1.740303, 1.752324, 1.729406, 1.730516, 1.746553
Process 1: 1.564211, 1.414937, 1.329763, 1.306404, 1.325315, 1.314758, 1.298177, 1.299732, 1.305268, 1.342053, 1.318614, 1.308772, 1.308397, 1.308880, 1.307150, 1.321211, 1.338383, 1.330865, 1.303520, 1.310765, 1.299499, 1.303370, 1.314943, 1.317038, 1.315315, 1.315954, 1.323898, 1.306885, 1.305013, 1.330402
Process 2: 1.593360, 1.444456, 1.356981, 1.335386, 1.354371, 1.344135, 1.327486, 1.328835, 1.334715, 1.369454, 1.347010, 1.337355, 1.336818, 1.337321, 1.335648, 1.348886, 1.364814, 1.359273, 1.331918, 1.337335, 1.328339, 1.330185, 1.341563, 1.345861, 1.341255, 1.344325, 1.352274, 1.334971, 1.333385, 1.351417
Process 3: 1.630644, 1.474931, 1.388945, 1.366268, 1.385264, 1.376024, 1.358198, 1.359475, 1.364997, 1.400077, 1.381150, 1.369036, 1.368413, 1.367898, 1.367087, 1.380386, 1.396767, 1.392189, 1.363444, 1.367827, 1.363643, 1.361637, 1.373056, 1.377358, 1.372754, 1.377648, 1.383798, 1.366479, 1.365402, 1.399637
Process 4: 1.663979, 1.504239, 1.416764, 1.395215, 1.414141, 1.403826, 1.387492, 1.388984, 1.394351, 1.429231, 1.406660, 1.396976, 1.396420, 1.397154, 1.395218, 1.408415, 1.424225, 1.419487, 1.394736, 1.396852, 1.388353, 1.389718, 1.401129, 1.405387, 1.400791, 1.405481, 1.411857, 1.394544, 1.393458, 1.415705
Process 5: 1.699536, 1.535750, 1.449727, 1.426859, 1.446069, 1.435327, 1.419115, 1.425191, 1.429074, 1.461296, 1.438505, 1.429685, 1.429470, 1.428950, 1.429874, 1.443059, 1.459944, 1.451268, 1.426683, 1.429383, 1.418989, 1.422229, 1.436337, 1.437223, 1.432980, 1.437248, 1.444126, 1.427106, 1.425268, 1.460884
Process 6: 1.728647, 1.564915, 1.477538, 1.457936, 1.474992, 1.464385, 1.447572, 1.453079, 1.455508, 1.489689, 1.466698, 1.457789, 1.457834, 1.458183, 1.456762, 1.469570, 1.484771, 1.479360, 1.453332, 1.457425, 1.448145, 1.450291, 1.462002, 1.468539, 1.461039, 1.465310, 1.472228, 1.455232, 1.453337, 1.476457
Process 7: 1.760123, 1.595694, 1.509492, 1.493917, 1.505920, 1.496740, 1.478587, 1.487361, 1.487721, 1.521472, 1.500955, 1.489812, 1.489548, 1.488472, 1.487299, 1.499964, 1.518144, 1.511475, 1.483733, 1.489216, 1.480179, 1.482097, 1.493823, 1.500931, 1.493040, 1.497402, 1.504152, 1.487194, 1.485389, 1.526522
Process 8: 1.788804, 1.624662, 1.534806, 1.527723, 1.537214, 1.523945, 1.507928, 1.510193, 1.519745, 1.552735, 1.528122, 1.517900, 1.517644, 1.517790, 1.516460, 1.529268, 1.541866, 1.540069, 1.512993, 1.517229, 1.508794, 1.514939, 1.521732, 1.527061, 1.521018, 1.525958, 1.535702, 1.515187, 1.514454, 1.532867
Process 9: 1.820005, 1.658880, 1.566436, 1.579581, 1.575400, 1.557954, 1.541236, 1.540838, 1.556431, 1.584278, 1.559434, 1.551875, 1.551484, 1.551480, 1.552681, 1.564753, 1.581973, 1.571371, 1.548434, 1.548522, 1.540037, 1.551608, 1.559293, 1.558329, 1.554474, 1.557210, 1.572294, 1.546398, 1.545663, 1.569451
Process 10: 1.848637, 1.685286, 1.593225, 1.592362, 1.599419, 1.584231, 1.567339, 1.569128, 1.586882, 1.610573, 1.588307, 1.578673, 1.578123, 1.578872, 1.578148, 1.591123, 1.607966, 1.599730, 1.574975, 1.576894, 1.568472, 1.575473, 1.583907, 1.586721, 1.580694, 1.585610, 1.598448, 1.574826, 1.574090, 1.592924
Process 11: 1.881020, 1.718539, 1.626246, 1.625439, 1.633513, 1.618346, 1.601020, 1.603991, 1.621170, 1.644003, 1.620357, 1.611611, 1.611182, 1.611963, 1.611655, 1.622091, 1.639370, 1.631995, 1.605972, 1.612808, 1.604243, 1.609564, 1.617373, 1.622299, 1.618029, 1.617804, 1.631907, 1.609107, 1.606400, 1.626360
Process 12: 1.909404, 1.744903, 1.652809, 1.652182, 1.659693, 1.644117, 1.627360, 1.630297, 1.651286, 1.670591, 1.648958, 1.638224, 1.637747, 1.638495, 1.637821, 1.650722, 1.671788, 1.660379, 1.634593, 1.638635, 1.630015, 1.635023, 1.643545, 1.648242, 1.641928, 1.646170, 1.658153, 1.635260, 1.634659, 1.652567
Process 13: 1.940091, 1.778934, 1.686767, 1.682903, 1.693814, 1.679106, 1.663797, 1.661204, 1.683919, 1.704776, 1.679364, 1.672319, 1.670347, 1.672718, 1.675461, 1.682838, 1.706516, 1.691156, 1.670488, 1.669431, 1.660780, 1.673551, 1.677930, 1.679085, 1.675549, 1.676936, 1.695626, 1.668905, 1.665958, 1.686766
Process 14: 1.968624, 1.804994, 1.712315, 1.711333, 1.719332, 1.703484, 1.687155, 1.689711, 1.712139, 1.731096, 1.713347, 1.698320, 1.701774, 1.698644, 1.697941, 1.710894, 1.731892, 1.719609, 1.694831, 1.697851, 1.689241, 1.695833, 1.703552, 1.707498, 1.701248, 1.705419, 1.718174, 1.694556, 1.694394, 1.712452
Process 15: 2.000860, 1.838563, 1.746519, 1.746023, 1.754015, 1.738815, 1.717955, 1.724360, 1.742806, 1.764586, 1.745652, 1.732081, 1.732240, 1.732536, 1.732095, 1.741592, 1.766086, 1.755534, 1.725602, 1.733827, 1.721686, 1.730367, 1.737689, 1.742326, 1.739002, 1.740301, 1.752323, 1.729405, 1.730516, 1.746552
