MPI_insiderank_serial
Process 0: 3.318760, 3.047850, 3.014669, 3.024672, 2.979017, 2.977156, 3.036508, 2.974256, 2.984984, 2.976819, 3.009934, 3.012342, 2.982299, 3.001500, 2.985937, 2.984888, 2.991046, 3.003498, 3.000618, 2.971297, 3.032494, 3.045786, 2.983989, 2.979444, 2.975941, 2.971443, 2.977767, 2.985062, 2.992202, 3.005948
Process 1: 2.957847, 2.688804, 2.650606, 2.650998, 2.626036, 2.627502, 2.671776, 2.619261, 2.637215, 2.621447, 2.639042, 2.661123, 2.625819, 2.647892, 2.629658, 2.630483, 2.627012, 2.650563, 2.644465, 2.618127, 2.678621, 2.690945, 2.634574, 2.624726, 2.619675, 2.619977, 2.624779, 2.624442, 2.637442, 2.655017
Process 2: 3.015727, 2.744965, 2.707787, 2.708300, 2.683547, 2.685574, 2.728600, 2.677523, 2.695435, 2.679754, 2.697042, 2.717861, 2.687949, 2.704537, 2.685290, 2.687079, 2.684245, 2.706453, 2.700244, 2.674492, 2.735958, 2.752320, 2.693073, 2.684485, 2.677765, 2.676257, 2.681949, 2.680600, 2.699970, 2.708879
Process 3: 3.076099, 2.805378, 2.773185, 2.767693, 2.742359, 2.746609, 2.789250, 2.737214, 2.754472, 2.739897, 2.756508, 2.774577, 2.744803, 2.767517, 2.747108, 2.745769, 2.744069, 2.765544, 2.761357, 2.734095, 2.795273, 2.808562, 2.752348, 2.742876, 2.736659, 2.734794, 2.740407, 2.738377, 2.758048, 2.768043
Process 4: 3.135105, 2.864134, 2.834234, 2.834142, 2.802423, 2.799997, 2.854419, 2.796341, 2.808465, 2.798397, 2.822556, 2.835196, 2.804162, 2.818462, 2.805318, 2.806740, 2.811687, 2.824653, 2.821689, 2.793077, 2.855068, 2.867755, 2.806242, 2.800711, 2.796527, 2.797317, 2.800465, 2.804761, 2.815312, 2.827944
Process 5: 3.195175, 2.923127, 2.895627, 2.894218, 2.861169, 2.857942, 2.915513, 2.855916, 2.866712, 2.858335, 2.883079, 2.894464, 2.863300, 2.885885, 2.866191, 2.865793, 2.870972, 2.883856, 2.881064, 2.853346, 2.913556, 2.929235, 2.864873, 2.859837, 2.856740, 2.852833, 2.858182, 2.865023, 2.875046, 2.887213
Process 6: 3.261700, 2.992259, 2.953362, 2.957020, 2.920628, 2.917455, 2.974075, 2.914916, 2.925503, 2.918240, 2.941814, 2.952690, 2.923400, 2.937996, 2.925205, 2.925706, 2.930274, 2.943457, 2.942773, 2.912720, 2.974056, 2.987198, 2.924157, 2.921650, 2.917293, 2.914341, 2.918418, 2.925794, 2.934376, 2.946073
Process 7: 3.320006, 3.049032, 3.015787, 3.025850, 2.980072, 2.978259, 3.037620, 2.975385, 2.986141, 2.978001, 3.011363, 3.013529, 2.983677, 3.002749, 2.987097, 2.986056, 2.992134, 3.004630, 3.001770, 2.972412, 3.033605, 3.046887, 2.985240, 2.980843, 2.977118, 2.972549, 2.979051, 2.986262, 2.993343, 3.007070
