MPI_insiderank_serial
Process 0: 1.410256, 1.417769, 1.355207, 1.358074, 1.357880, 1.349771, 1.349594, 1.358088, 1.354176, 1.353695, 1.354187, 1.353688, 1.353986, 1.348928, 1.353833, 1.349119, 1.349164, 1.349589, 1.353314, 1.361514, 1.349266, 1.352986, 1.352674, 1.349290, 1.353815, 1.353262, 1.353681, 1.352853, 1.353399, 1.352123
Process 1: 1.208334, 1.215585, 1.148257, 1.147486, 1.147011, 1.147567, 1.151048, 1.151117, 1.151913, 1.151558, 1.147240, 1.150931, 1.147275, 1.147109, 1.147284, 1.146879, 1.146861, 1.148368, 1.151449, 1.150275, 1.147435, 1.146676, 1.150676, 1.147100, 1.146960, 1.151207, 1.151537, 1.147060, 1.151380, 1.146492
Process 2: 1.226242, 1.233298, 1.166094, 1.165295, 1.164831, 1.165396, 1.168857, 1.168952, 1.169746, 1.169371, 1.165089, 1.168727, 1.165117, 1.164923, 1.165122, 1.164694, 1.164677, 1.166117, 1.169261, 1.168150, 1.165229, 1.164501, 1.168473, 1.164893, 1.164779, 1.169029, 1.169329, 1.164876, 1.169174, 1.164274
Process 3: 1.240069, 1.247001, 1.180073, 1.183158, 1.182670, 1.179030, 1.182412, 1.182971, 1.183348, 1.183006, 1.179059, 1.182942, 1.179094, 1.182854, 1.183001, 1.178423, 1.178467, 1.183478, 1.187196, 1.183081, 1.183185, 1.182330, 1.181917, 1.178492, 1.178294, 1.182558, 1.182998, 1.178429, 1.182639, 1.177786
Process 4: 1.258086, 1.264962, 1.198113, 1.201156, 1.200696, 1.197075, 1.200429, 1.200964, 1.201401, 1.201036, 1.197101, 1.200937, 1.197122, 1.200850, 1.200958, 1.196473, 1.196494, 1.201464, 1.205179, 1.201128, 1.201173, 1.200382, 1.199959, 1.196522, 1.196333, 1.200599, 1.201024, 1.196469, 1.200708, 1.195835
Process 5: 1.276079, 1.282878, 1.215956, 1.218996, 1.218537, 1.214920, 1.218262, 1.218817, 1.219245, 1.218890, 1.214928, 1.218792, 1.214972, 1.218685, 1.218804, 1.214294, 1.214309, 1.219314, 1.223019, 1.218979, 1.218996, 1.218207, 1.217807, 1.214358, 1.214221, 1.218413, 1.218885, 1.214317, 1.218526, 1.213675
Process 6: 1.293908, 1.300851, 1.233918, 1.236960, 1.236482, 1.232862, 1.236156, 1.236785, 1.237202, 1.236871, 1.232920, 1.236717, 1.232935, 1.236583, 1.236763, 1.232272, 1.232285, 1.237217, 1.240923, 1.236914, 1.236890, 1.236160, 1.235755, 1.232332, 1.232149, 1.236404, 1.236814, 1.232258, 1.236487, 1.231670
Process 7: 1.307392, 1.314193, 1.247301, 1.250319, 1.249937, 1.246271, 1.249564, 1.250135, 1.255076, 1.250198, 1.246287, 1.254589, 1.246284, 1.249936, 1.250155, 1.245635, 1.245637, 1.250589, 1.254304, 1.250356, 1.250245, 1.249528, 1.249121, 1.245713, 1.245679, 1.254265, 1.254717, 1.245594, 1.249865, 1.244979
Process 8: 1.320761, 1.327679, 1.260840, 1.263979, 1.267935, 1.264234, 1.263014, 1.263749, 1.268537, 1.263803, 1.259846, 1.268033, 1.259820, 1.263390, 1.268122, 1.263601, 1.259192, 1.264084, 1.267798, 1.263875, 1.263786, 1.267519, 1.262695, 1.259330, 1.259246, 1.267750, 1.268205, 1.259299, 1.267874, 1.258626
Process 9: 1.334379, 1.341356, 1.278798, 1.281848, 1.285897, 1.277761, 1.277621, 1.281741, 1.282187, 1.281777, 1.277789, 1.281715, 1.277766, 1.276928, 1.281794, 1.277084, 1.277174, 1.277625, 1.281331, 1.280625, 1.277233, 1.280952, 1.276203, 1.277296, 1.272908, 1.281237, 1.281699, 1.272792, 1.281308, 1.272063
Process 10: 1.352354, 1.359343, 1.296760, 1.299837, 1.303785, 1.295627, 1.295476, 1.299731, 1.300041, 1.299614, 1.295760, 1.299577, 1.295724, 1.294790, 1.299662, 1.294931, 1.295013, 1.295498, 1.299186, 1.298608, 1.290814, 1.294515, 1.289719, 1.290831, 1.290875, 1.294809, 1.295249, 1.290797, 1.294879, 1.285625
Process 11: 1.365857, 1.377172, 1.310282, 1.313323, 1.317436, 1.309321, 1.309162, 1.317528, 1.313727, 1.313268, 1.309228, 1.313250, 1.309195, 1.308469, 1.313331, 1.308615, 1.308688, 1.309190, 1.312868, 1.316579, 1.304307, 1.308017, 1.307733, 1.304331, 1.308850, 1.308306, 1.308745, 1.304263, 1.308415, 1.303612
Process 12: 1.383790, 1.390823, 1.328086, 1.326818, 1.330914, 1.322813, 1.322629, 1.331205, 1.327200, 1.326740, 1.322731, 1.326726, 1.322695, 1.321957, 1.326836, 1.322078, 1.322159, 1.322640, 1.326319, 1.330083, 1.317834, 1.321526, 1.321209, 1.317841, 1.322349, 1.321796, 1.322249, 1.321434, 1.321929, 1.320669
Process 13: 1.397321, 1.404360, 1.341798, 1.340348, 1.344469, 1.336352, 1.336171, 1.344682, 1.340756, 1.340281, 1.340578, 1.340275, 1.336256, 1.335523, 1.340443, 1.335688, 1.335774, 1.336210, 1.339925, 1.347940, 1.335697, 1.339380, 1.339070, 1.335709, 1.340200, 1.339669, 1.340107, 1.339274, 1.339800, 1.338515
Process 14: 1.410683, 1.417768, 1.355191, 1.358067, 1.357878, 1.349760, 1.349589, 1.358085, 1.354172, 1.353693, 1.354184, 1.353684, 1.353985, 1.348923, 1.353829, 1.349118, 1.349161, 1.349585, 1.353311, 1.361510, 1.349263, 1.352975, 1.352672, 1.349287, 1.353806, 1.353258, 1.353677, 1.352844, 1.353395, 1.352120
