MPI_insiderank_serial
Process 0: 6.245263, 6.249622, 6.245898, 6.245371, 6.245465, 6.245398, 6.245609, 6.245583, 6.245858, 6.245806, 6.245279, 6.245358, 6.245293, 6.245940, 6.245792, 6.245726, 6.245661, 6.246060, 6.245758, 6.245537, 6.245544, 6.245938, 6.245742, 6.245771, 6.245867, 6.246016, 6.245898, 6.245955, 6.245687, 6.245839
Process 1: 6.249019, 6.253311, 6.249596, 6.249025, 6.249137, 6.249080, 6.249232, 6.249236, 6.249527, 6.249460, 6.248906, 6.249023, 6.249034, 6.249587, 6.249485, 6.249343, 6.249314, 6.249681, 6.249424, 6.249204, 6.249188, 6.249649, 6.249375, 6.249400, 6.249511, 6.249692, 6.249533, 6.249638, 6.249347, 6.249500
