MPI_insiderank_serial
Process 0: 1.562637, 1.579952, 1.509709, 1.514127, 1.508415, 1.508409, 1.518708, 1.512602, 1.508378, 1.513611, 1.508746, 1.518103, 1.508244, 1.517865, 1.517855, 1.508844, 1.520674, 1.517836, 1.511125, 1.513030, 1.519151, 1.511231, 1.518620, 1.508152, 1.514040, 1.513355, 1.508837, 1.513646, 1.513757, 1.507943
Process 1: 1.371665, 1.383944, 1.318273, 1.317255, 1.317046, 1.321171, 1.322260, 1.321269, 1.317043, 1.322283, 1.322020, 1.322291, 1.316935, 1.321177, 1.321910, 1.317449, 1.321735, 1.322439, 1.316845, 1.321879, 1.322499, 1.316790, 1.321875, 1.316785, 1.317394, 1.316778, 1.322389, 1.321537, 1.322462, 1.321067
Process 2: 1.392321, 1.404475, 1.338766, 1.337781, 1.337592, 1.341677, 1.342760, 1.341785, 1.337539, 1.342780, 1.342523, 1.342762, 1.337416, 1.341631, 1.342365, 1.337926, 1.342226, 1.342922, 1.337320, 1.342328, 1.343020, 1.337276, 1.342366, 1.337267, 1.337897, 1.337271, 1.342837, 1.341988, 1.342955, 1.341561
Process 3: 1.408029, 1.419790, 1.354242, 1.358310, 1.353079, 1.358255, 1.363380, 1.357278, 1.353066, 1.363511, 1.358571, 1.362730, 1.352885, 1.357997, 1.362378, 1.353404, 1.357637, 1.358582, 1.352844, 1.357758, 1.358476, 1.352639, 1.357842, 1.352718, 1.353361, 1.357931, 1.358613, 1.358308, 1.358397, 1.357164
Process 4: 1.428813, 1.440576, 1.374994, 1.379219, 1.373820, 1.379026, 1.384148, 1.377995, 1.373824, 1.384211, 1.379321, 1.383487, 1.373653, 1.378789, 1.383139, 1.374138, 1.378381, 1.379305, 1.373576, 1.378474, 1.379205, 1.373424, 1.378592, 1.373452, 1.374078, 1.378654, 1.379340, 1.379042, 1.379144, 1.377902
Process 5: 1.444090, 1.456161, 1.390366, 1.399786, 1.394395, 1.394299, 1.399495, 1.393334, 1.389175, 1.399497, 1.394650, 1.398892, 1.389036, 1.394352, 1.398539, 1.389521, 1.393957, 1.394755, 1.388992, 1.393826, 1.394617, 1.394001, 1.394085, 1.388885, 1.394684, 1.394073, 1.394676, 1.394319, 1.399736, 1.393293
Process 6: 1.465018, 1.476948, 1.411212, 1.415567, 1.409921, 1.409922, 1.415093, 1.408970, 1.404790, 1.415142, 1.410237, 1.414484, 1.404630, 1.410025, 1.414159, 1.405154, 1.409583, 1.410427, 1.404584, 1.409529, 1.415413, 1.409634, 1.414902, 1.409683, 1.410165, 1.414850, 1.410290, 1.409997, 1.415286, 1.408916
Process 7: 1.480125, 1.492558, 1.431801, 1.436210, 1.430556, 1.430561, 1.435813, 1.429692, 1.425510, 1.435768, 1.430870, 1.430084, 1.420225, 1.425546, 1.434860, 1.420746, 1.425077, 1.429675, 1.420143, 1.425084, 1.430898, 1.425193, 1.430409, 1.425167, 1.425776, 1.430345, 1.425810, 1.425601, 1.430845, 1.424481
Process 8: 1.495858, 1.508042, 1.447393, 1.451791, 1.446162, 1.446158, 1.451334, 1.445222, 1.441040, 1.451393, 1.446497, 1.445606, 1.435739, 1.445324, 1.450410, 1.436284, 1.442859, 1.450381, 1.438589, 1.440608, 1.446491, 1.440714, 1.446017, 1.440769, 1.441328, 1.445948, 1.441377, 1.441092, 1.446449, 1.440031
Process 9: 1.511427, 1.528201, 1.463118, 1.467505, 1.461807, 1.461814, 1.466967, 1.465936, 1.461748, 1.467022, 1.462112, 1.461229, 1.456546, 1.466119, 1.466063, 1.457065, 1.463657, 1.466053, 1.459358, 1.461239, 1.462145, 1.459453, 1.461608, 1.456330, 1.456971, 1.461554, 1.457047, 1.461911, 1.462018, 1.456220
Process 10: 1.526814, 1.548749, 1.478578, 1.482991, 1.477309, 1.477307, 1.482447, 1.481505, 1.477315, 1.482500, 1.477598, 1.481910, 1.477126, 1.486714, 1.486675, 1.477646, 1.484337, 1.486647, 1.479970, 1.481827, 1.482853, 1.480049, 1.482280, 1.476942, 1.477687, 1.482194, 1.477661, 1.482515, 1.482622, 1.476825
Process 11: 1.547736, 1.564489, 1.494220, 1.498630, 1.492944, 1.492937, 1.498071, 1.497122, 1.492919, 1.498140, 1.493228, 1.497501, 1.492781, 1.502379, 1.502351, 1.493315, 1.504987, 1.502326, 1.495623, 1.497499, 1.503503, 1.495724, 1.502927, 1.492631, 1.498356, 1.497865, 1.493329, 1.498166, 1.498282, 1.492477
Process 12: 1.563150, 1.579908, 1.509708, 1.514126, 1.508413, 1.508408, 1.518707, 1.512599, 1.508375, 1.513608, 1.508743, 1.518100, 1.508241, 1.517860, 1.517852, 1.508840, 1.520670, 1.517833, 1.511121, 1.513028, 1.519148, 1.511228, 1.518615, 1.508149, 1.514037, 1.513353, 1.508833, 1.513642, 1.513752, 1.507940
