MPI_insiderank_serial
Process 0: 1.667627, 1.675278, 1.606221, 1.610439, 1.605354, 1.610849, 1.614935, 1.610725, 1.617316, 1.606231, 1.601472, 1.616055, 1.609660, 1.606276, 1.611006, 1.615350, 1.608348, 1.603636, 1.614656, 1.609321, 1.609123, 1.603856, 1.608810, 1.606992, 1.603816, 1.609075, 1.608814, 1.607673, 1.612450, 1.611165
Process 1: 1.470051, 1.477453, 1.413821, 1.412649, 1.413046, 1.418351, 1.412647, 1.412698, 1.412815, 1.412732, 1.413027, 1.418216, 1.412782, 1.412551, 1.412827, 1.418564, 1.412669, 1.412677, 1.418377, 1.412582, 1.412532, 1.412858, 1.412824, 1.412715, 1.412823, 1.418287, 1.412615, 1.412816, 1.412871, 1.412872
Process 2: 1.492713, 1.499790, 1.436120, 1.434985, 1.435294, 1.440632, 1.434934, 1.434999, 1.435124, 1.435035, 1.435182, 1.440534, 1.435062, 1.434858, 1.435148, 1.440855, 1.434969, 1.434885, 1.440702, 1.434920, 1.434904, 1.435163, 1.435140, 1.435031, 1.435102, 1.440569, 1.434914, 1.435118, 1.435147, 1.434887
Process 3: 1.509430, 1.518216, 1.452905, 1.451756, 1.451988, 1.457506, 1.451647, 1.451786, 1.454568, 1.451815, 1.451952, 1.457336, 1.451883, 1.451675, 1.451862, 1.457640, 1.451780, 1.451485, 1.457485, 1.451803, 1.451727, 1.457912, 1.452019, 1.451805, 1.451891, 1.457365, 1.451664, 1.451877, 1.452003, 1.451661
Process 4: 1.526403, 1.534700, 1.469617, 1.474003, 1.468579, 1.480079, 1.468450, 1.474335, 1.476845, 1.468521, 1.468915, 1.474003, 1.468524, 1.474236, 1.468703, 1.474283, 1.468434, 1.468627, 1.479751, 1.468537, 1.468445, 1.474250, 1.468804, 1.468527, 1.468618, 1.474040, 1.468485, 1.468684, 1.472087, 1.468635
Process 5: 1.543424, 1.551740, 1.492541, 1.496973, 1.485726, 1.496783, 1.485448, 1.491202, 1.499754, 1.485603, 1.485673, 1.491062, 1.485615, 1.490980, 1.491650, 1.491374, 1.485432, 1.485478, 1.502682, 1.485909, 1.485693, 1.491322, 1.491709, 1.489024, 1.485445, 1.491084, 1.485486, 1.485653, 1.494716, 1.485680
Process 6: 1.565762, 1.572647, 1.509105, 1.513574, 1.502568, 1.513648, 1.502240, 1.507937, 1.516251, 1.508324, 1.502582, 1.507879, 1.502395, 1.508068, 1.508401, 1.508146, 1.507285, 1.502555, 1.519217, 1.508314, 1.508408, 1.508130, 1.508183, 1.511704, 1.502737, 1.508079, 1.508189, 1.502422, 1.517390, 1.502634
Process 7: 1.588602, 1.595499, 1.525928, 1.530394, 1.519572, 1.530451, 1.523431, 1.525019, 1.533076, 1.524777, 1.519351, 1.530352, 1.519364, 1.524842, 1.525290, 1.525052, 1.530040, 1.525057, 1.536129, 1.531034, 1.530595, 1.525320, 1.530257, 1.528461, 1.525238, 1.530780, 1.524713, 1.523525, 1.533901, 1.525082
Process 8: 1.605133, 1.612101, 1.543141, 1.547305, 1.542149, 1.547717, 1.545975, 1.547552, 1.554134, 1.543082, 1.536324, 1.553279, 1.541938, 1.543073, 1.548005, 1.547631, 1.552909, 1.547534, 1.559266, 1.553900, 1.553715, 1.548454, 1.553396, 1.551560, 1.547715, 1.553629, 1.547229, 1.546386, 1.550844, 1.547644
Process 9: 1.628052, 1.634862, 1.565802, 1.570010, 1.564844, 1.570392, 1.568616, 1.570294, 1.576826, 1.565760, 1.558982, 1.575650, 1.564407, 1.565767, 1.570536, 1.570104, 1.575319, 1.569982, 1.581625, 1.576313, 1.576069, 1.570836, 1.575782, 1.573962, 1.570158, 1.576023, 1.569923, 1.568807, 1.573550, 1.570371
Process 10: 1.644512, 1.651417, 1.582445, 1.586596, 1.581429, 1.587020, 1.590425, 1.586865, 1.593449, 1.582402, 1.579130, 1.592234, 1.587374, 1.582379, 1.587119, 1.593064, 1.591650, 1.586783, 1.597993, 1.592633, 1.592430, 1.587164, 1.592143, 1.590288, 1.586934, 1.592371, 1.592785, 1.591664, 1.596437, 1.586949
Process 11: 1.668322, 1.675277, 1.606220, 1.610440, 1.605354, 1.610843, 1.614946, 1.610724, 1.617315, 1.606229, 1.601470, 1.616053, 1.609657, 1.606275, 1.611004, 1.615349, 1.608344, 1.603633, 1.614651, 1.609320, 1.609122, 1.603855, 1.608807, 1.606990, 1.603812, 1.609073, 1.608813, 1.607672, 1.612447, 1.611165
