MPI_insiderank_optimisedserial
Process 0: 1.064733, 0.891780, 1.023692, 1.920953, 1.985927, 1.743319, 0.922901, 0.934473, 0.983282, 0.912513, 0.909945, 2.144833, 0.920478, 0.947335, 0.946182, 0.896828, 0.928982, 0.898756, 0.914905, 0.910407, 0.942293, 0.909227, 0.921563, 0.921318, 0.919327, 0.918405, 0.913291, 0.902282, 1.907054, 0.915046
Process 1: 0.805487, 0.675367, 0.776264, 1.691507, 1.736700, 1.506431, 0.686811, 0.729082, 0.747927, 0.677857, 0.676461, 1.903397, 0.698800, 0.712828, 0.713692, 0.662158, 0.696355, 0.662295, 0.677347, 0.665559, 0.696727, 0.684065, 0.705698, 0.687643, 0.684855, 0.676204, 0.681568, 0.665316, 1.672618, 0.689657
Process 2: 0.816163, 0.691797, 0.787022, 1.701891, 1.748763, 1.518744, 0.699456, 0.747998, 0.758448, 0.688500, 0.687473, 1.914438, 0.716122, 0.725398, 0.726093, 0.675774, 0.706661, 0.674964, 0.688806, 0.676488, 0.717508, 0.701391, 0.727801, 0.700406, 0.695541, 0.687941, 0.694003, 0.676995, 1.686275, 0.706997
Process 3: 0.844024, 0.710965, 0.812509, 1.725183, 1.774855, 1.546004, 0.723937, 0.775460, 0.785247, 0.712471, 0.713258, 1.940209, 0.737121, 0.749674, 0.750270, 0.700941, 0.731802, 0.699290, 0.716668, 0.701750, 0.742672, 0.721509, 0.752457, 0.724143, 0.720592, 0.712972, 0.716956, 0.702302, 1.710686, 0.725960
Process 4: 0.867542, 0.725205, 0.831872, 1.735405, 1.786900, 1.556859, 0.736491, 0.795246, 0.796198, 0.725908, 0.724355, 1.954563, 0.747602, 0.762187, 0.762370, 0.713828, 0.744684, 0.713236, 0.728590, 0.716387, 0.753930, 0.734222, 0.771641, 0.736733, 0.732035, 0.723978, 0.729536, 0.713335, 1.723701, 0.738980
Process 5: 0.901024, 0.742343, 0.862102, 1.757008, 1.808400, 1.580316, 0.759057, 0.808807, 0.818019, 0.746477, 0.746512, 1.975983, 0.763306, 0.782805, 0.784666, 0.735250, 0.766487, 0.733513, 0.750499, 0.735146, 0.775466, 0.746659, 0.790448, 0.757556, 0.752990, 0.743007, 0.749925, 0.733847, 1.746049, 0.754464
Process 6: 0.912763, 0.751199, 0.873069, 1.769503, 1.820463, 1.591429, 0.772842, 0.818506, 0.831335, 0.759143, 0.758199, 1.987569, 0.771590, 0.795243, 0.796134, 0.747895, 0.778012, 0.745532, 0.762442, 0.759427, 0.787904, 0.755311, 0.798757, 0.770470, 0.765256, 0.762618, 0.764390, 0.747389, 1.757880, 0.764118
Process 7: 0.932418, 0.766392, 0.898612, 1.793240, 1.843441, 1.611534, 0.796712, 0.831411, 0.853288, 0.784370, 0.783403, 2.011662, 0.794933, 0.822621, 0.819912, 0.767869, 0.802613, 0.768176, 0.782625, 0.780403, 0.809550, 0.777786, 0.808537, 0.793349, 0.791882, 0.784860, 0.786796, 0.771206, 1.781226, 0.786242
Process 8: 0.945199, 0.779058, 0.909060, 1.804155, 1.853782, 1.624053, 0.806346, 0.838809, 0.865314, 0.794024, 0.793817, 2.021031, 0.804765, 0.831840, 0.830712, 0.780914, 0.812825, 0.779735, 0.795438, 0.794701, 0.821248, 0.789026, 0.816023, 0.806346, 0.800734, 0.797129, 0.798237, 0.782414, 1.791214, 0.795185
Process 9: 0.964266, 0.800218, 0.927774, 1.825995, 1.873926, 1.642808, 0.824918, 0.850770, 0.884923, 0.812857, 0.812955, 2.040846, 0.824442, 0.850310, 0.849935, 0.799788, 0.831790, 0.798451, 0.817170, 0.813115, 0.840637, 0.807765, 0.825367, 0.824511, 0.819992, 0.816324, 0.816552, 0.803257, 1.811321, 0.816482
Process 10: 0.977157, 0.810160, 0.941112, 1.836605, 1.885550, 1.656015, 0.838042, 0.856851, 0.898137, 0.826601, 0.826653, 2.054295, 0.837134, 0.866600, 0.862679, 0.813419, 0.844869, 0.811702, 0.829871, 0.826758, 0.853968, 0.821244, 0.833618, 0.837760, 0.833246, 0.829199, 0.829258, 0.818473, 1.823384, 0.826732
Process 11: 0.998353, 0.828467, 0.959534, 1.858875, 1.904505, 1.677482, 0.857067, 0.874880, 0.916341, 0.844956, 0.844960, 2.072415, 0.855817, 0.890430, 0.881569, 0.832635, 0.863580, 0.831163, 0.848340, 0.845667, 0.872683, 0.839823, 0.853134, 0.857428, 0.852527, 0.848210, 0.848326, 0.833131, 1.841811, 0.849474
Process 12: 1.009770, 0.841722, 0.972494, 1.869085, 1.917468, 1.688351, 0.869880, 0.884755, 0.928984, 0.857674, 0.857711, 2.085640, 0.868567, 0.902693, 0.895260, 0.845493, 0.876541, 0.843728, 0.861360, 0.858936, 0.886416, 0.852663, 0.865852, 0.869710, 0.864618, 0.860971, 0.861497, 0.846110, 1.854775, 0.859332
Process 13: 1.033192, 0.860810, 0.993908, 1.893347, 1.940012, 1.712285, 0.893683, 0.903813, 0.950881, 0.876894, 0.881084, 2.105102, 0.891927, 0.922876, 0.917523, 0.868147, 0.900121, 0.863299, 0.880404, 0.881461, 0.908724, 0.874342, 0.885441, 0.892939, 0.887915, 0.880188, 0.884621, 0.865901, 1.878214, 0.884673
Process 14: 1.042947, 0.875224, 1.005898, 1.903663, 1.951997, 1.721547, 0.905580, 0.917670, 0.963364, 0.894499, 0.893022, 2.118586, 0.903809, 0.929233, 0.929273, 0.879727, 0.911164, 0.876526, 0.894470, 0.893018, 0.920434, 0.886337, 0.899856, 0.903878, 0.898704, 0.894013, 0.896144, 0.879487, 1.889880, 0.893594
Process 15: 1.066203, 0.893710, 1.024789, 1.922224, 1.987175, 1.744521, 0.924168, 0.935679, 0.984499, 0.913697, 0.911114, 2.146121, 0.921754, 0.948577, 0.947448, 0.898051, 0.930226, 0.899986, 0.916146, 0.911628, 0.943571, 0.910465, 0.922896, 0.922521, 0.920556, 0.919612, 0.914546, 0.903471, 1.908298, 0.916299
