MPI_insiderank_optimisedserial
Process 0: 2.492676, 2.472594, 2.490791, 2.361103, 2.505933, 2.313236, 2.328171, 2.300268, 2.353391, 2.288297, 2.311169, 2.298402, 2.415588, 2.356282, 2.271813, 2.247588, 2.329213, 2.333848, 2.344947, 2.314274, 2.351534, 2.283780, 2.284356, 2.340033, 2.187267, 2.312714, 2.308689, 2.322726, 2.351889, 2.288882
Process 1: 2.349891, 2.319316, 2.379145, 2.190285, 2.364269, 2.180262, 2.204428, 2.123733, 2.204175, 2.144047, 2.176456, 2.157733, 2.296478, 2.216676, 2.103739, 2.102017, 2.191482, 2.192272, 2.207345, 2.188990, 2.212922, 2.143652, 2.170786, 2.202418, 2.057125, 2.137699, 2.163675, 2.179597, 2.211626, 2.150333
Process 2: 2.451728, 2.405735, 2.447920, 2.305959, 2.459067, 2.259190, 2.296433, 2.231956, 2.306239, 2.238905, 2.261864, 2.246722, 2.389413, 2.304378, 2.199449, 2.191275, 2.278397, 2.288578, 2.290881, 2.269184, 2.304108, 2.225316, 2.256482, 2.294444, 2.136738, 2.238918, 2.263352, 2.280459, 2.312142, 2.242029
Process 3: 2.497551, 2.477687, 2.495878, 2.366322, 2.512395, 2.319809, 2.335130, 2.306051, 2.359782, 2.297543, 2.317981, 2.305595, 2.421573, 2.363454, 2.279429, 2.256389, 2.336589, 2.340213, 2.351409, 2.320639, 2.358715, 2.291411, 2.291368, 2.346513, 2.193910, 2.320164, 2.315188, 2.328955, 2.358749, 2.295503
