MPI_insiderank_optimisedserial
Process 0: 3.419689, 3.243668, 3.155845, 3.119133, 3.076163, 3.150724, 3.104204, 3.016027, 3.088623, 3.165855, 3.050312, 3.051803, 3.032048, 3.091867, 3.016906, 3.149073, 3.002728, 3.070513, 3.020262, 3.058309, 3.041158, 3.010809, 3.086577, 3.040172, 3.006412, 3.132108, 3.025678, 3.022814, 4.038593, 3.037346
Process 1: 3.442147, 3.266459, 3.178848, 3.145178, 3.102944, 3.177362, 3.132970, 3.041157, 3.114420, 3.191302, 3.077316, 3.078284, 3.058150, 3.117381, 3.043421, 3.173479, 3.027451, 3.097067, 3.046726, 3.082216, 3.067602, 3.036835, 3.113661, 3.066394, 3.032442, 3.158562, 3.052632, 3.048844, 4.065647, 3.063894
