MPI_insiderank_optimisedserial
Process 0: 17.692349, 31.063720, 12.694307, 14.760128, 14.138003, 14.802454, 12.959364, 15.274174, 13.032691, 13.623441, 13.122157, 13.733969, 13.030345, 13.664560, 12.995749, 13.539696, 13.024612, 13.396793, 12.983780, 14.638412, 11.987344, 16.194927, 12.228667, 16.020066, 12.213058, 14.489360, 12.070702, 14.749668, 12.159802, 14.699384
Process 1: 15.950438, 28.238661, 11.082256, 11.855553, 12.477108, 12.020413, 10.361445, 12.548936, 10.425688, 10.904326, 10.495245, 10.993089, 10.402922, 10.915028, 10.365937, 10.799416, 10.391575, 10.693645, 10.466865, 11.772839, 10.137186, 13.255734, 9.844982, 13.107501, 10.084453, 11.625851, 9.530640, 11.813236, 9.720157, 11.781826
Process 2: 16.099859, 28.388094, 11.203233, 12.000040, 12.598983, 12.154597, 10.474893, 12.672162, 10.543608, 11.034293, 10.593123, 11.121336, 10.519885, 11.041083, 10.484815, 10.929962, 10.508404, 10.820547, 10.573876, 11.927322, 10.245081, 13.428145, 9.880374, 13.270633, 10.185540, 11.769173, 9.647236, 11.940594, 9.887764, 11.925338
Process 3: 16.178736, 28.544726, 11.281918, 12.144348, 12.677796, 12.297325, 10.581334, 12.795935, 10.655372, 11.158484, 10.714034, 11.241691, 10.632557, 11.163631, 10.596722, 11.052486, 10.617609, 10.942973, 10.694330, 12.071249, 10.322997, 13.584549, 9.954870, 13.437980, 10.260062, 11.910284, 9.757542, 12.087449, 9.967308, 12.070088
Process 4: 16.269381, 28.696968, 11.349587, 12.297193, 12.748259, 12.448428, 10.695890, 12.916099, 10.758840, 11.268522, 10.836066, 11.355230, 10.745573, 11.283203, 10.710800, 11.164245, 10.733586, 11.063762, 10.844573, 12.219232, 10.381544, 13.764486, 10.057233, 13.600263, 10.298619, 12.042707, 9.863510, 12.238313, 10.060650, 12.209822
Process 5: 16.349491, 28.846127, 11.389195, 12.441699, 12.781578, 12.604541, 10.811615, 13.043675, 10.866000, 11.389992, 10.962424, 11.489870, 10.852223, 11.398617, 10.826533, 11.287172, 10.841182, 11.178988, 10.988241, 12.358041, 10.435034, 13.936607, 10.169046, 13.784034, 10.337338, 12.182842, 9.971921, 12.391015, 10.157746, 12.364897
Process 6: 16.421656, 28.966693, 11.426827, 12.598788, 12.820336, 12.768405, 10.938691, 13.170917, 10.979194, 11.506291, 11.079753, 11.618402, 10.972551, 11.522096, 10.932738, 11.419554, 10.958728, 11.301090, 11.045674, 12.495222, 10.482904, 14.172712, 10.276344, 13.909298, 10.357323, 12.322918, 10.074161, 12.527579, 10.253574, 12.511680
Process 7: 16.490919, 29.114727, 11.459211, 12.768194, 12.850335, 12.912090, 11.048244, 13.295200, 11.098906, 11.639106, 11.200539, 11.752964, 11.102666, 11.652695, 11.054618, 11.552127, 11.079970, 11.430477, 11.141558, 12.637513, 10.518178, 14.227997, 10.373596, 14.052670, 10.414896, 12.460762, 10.181437, 12.672091, 10.353170, 12.670296
Process 8: 16.564982, 29.270057, 11.524892, 12.930522, 12.883952, 13.039316, 11.186203, 13.434298, 11.221599, 11.772703, 11.326017, 11.894216, 11.223048, 11.791090, 11.177672, 11.705476, 11.202509, 11.562701, 11.255694, 12.801458, 10.557830, 14.395656, 10.483095, 14.217584, 10.534917, 12.638958, 10.305187, 12.858816, 10.456776, 12.855475
Process 9: 16.634891, 29.410476, 11.578552, 13.075468, 12.934041, 13.155234, 11.312977, 13.557229, 11.344537, 11.911798, 11.447681, 12.025883, 11.346602, 11.921117, 11.301319, 11.839829, 11.325978, 11.693931, 11.346109, 12.961854, 10.581507, 14.535886, 10.595378, 14.358638, 10.645597, 12.769530, 10.415812, 12.997028, 10.558473, 12.983271
Process 10: 16.708225, 29.550464, 11.623021, 13.213989, 12.980026, 13.279139, 11.438835, 13.716751, 11.480772, 12.068561, 11.573501, 12.192886, 11.481242, 12.072726, 11.434529, 12.004570, 11.463445, 11.842452, 11.456730, 13.090454, 10.658070, 14.668183, 10.706157, 14.490201, 10.753887, 12.904468, 10.534535, 13.135922, 10.652667, 13.130139
Process 11: 16.762344, 29.679966, 11.670266, 13.343659, 13.042303, 13.400759, 11.576808, 13.839672, 11.605683, 12.198815, 11.701421, 12.321336, 11.605727, 12.207626, 11.573129, 12.137630, 11.595380, 11.985099, 11.572844, 13.216985, 10.757936, 14.794008, 10.817363, 14.613957, 10.870319, 13.033331, 10.656748, 13.267623, 10.760433, 13.266838
Process 12: 16.822686, 29.796138, 11.726119, 13.465339, 13.094803, 13.516327, 11.707290, 13.960327, 11.733084, 12.323234, 11.827102, 12.456465, 11.732920, 12.332116, 11.698147, 12.262334, 11.725967, 12.107141, 11.679269, 13.346625, 10.859342, 14.914466, 10.930526, 14.738031, 10.963043, 13.160280, 10.760831, 13.392058, 10.870386, 13.387103
Process 13: 16.873782, 29.909253, 11.784216, 13.583022, 13.160913, 13.625631, 11.820790, 14.069766, 11.844275, 12.435490, 11.939248, 12.580591, 11.846497, 12.446058, 11.814813, 12.374764, 11.835767, 12.224351, 11.780624, 13.460679, 10.981815, 15.044528, 11.067750, 14.862476, 11.061748, 13.283010, 10.876750, 13.516843, 10.993629, 13.501080
Process 14: 16.931020, 30.020060, 11.859177, 13.704725, 13.249335, 13.742793, 11.928106, 14.188123, 11.961925, 12.552993, 12.057646, 12.701217, 11.965768, 12.561951, 11.935177, 12.484602, 11.965887, 12.345021, 11.889423, 13.580818, 11.077319, 15.156062, 11.174652, 14.973633, 11.172700, 13.413923, 10.999224, 13.636329, 11.107583, 13.624382
Process 15: 16.989196, 30.130161, 11.923724, 13.809892, 13.315075, 13.847329, 12.018149, 14.294939, 12.065589, 12.658473, 12.166057, 12.806667, 12.069459, 12.665749, 12.035496, 12.572999, 12.083286, 12.446900, 11.989790, 13.685994, 11.164316, 15.254452, 11.273281, 15.075472, 11.265578, 13.537738, 11.105855, 13.749519, 11.216399, 13.728135
Process 16: 17.038816, 30.214208, 11.978329, 13.921808, 13.381242, 13.946277, 12.117489, 14.394846, 12.163032, 12.756217, 12.264440, 12.907888, 12.167083, 12.763876, 12.134325, 12.671755, 12.183770, 12.545101, 12.086666, 13.784501, 11.235535, 15.359531, 11.370009, 15.171954, 11.344488, 13.640780, 11.204487, 13.850978, 11.313184, 13.822872
Process 17: 17.064652, 30.301927, 12.043024, 14.027010, 13.442114, 14.040527, 12.209137, 14.503096, 12.256025, 12.849354, 12.358513, 12.997433, 12.261202, 12.858608, 12.225980, 12.765635, 12.273384, 12.637045, 12.181479, 13.878588, 11.286662, 15.467916, 11.461524, 15.260937, 11.427451, 13.734678, 11.297097, 13.950163, 11.409244, 13.898354
Process 18: 17.108080, 30.387581, 12.094545, 14.111287, 13.498824, 14.125177, 12.291997, 14.585619, 12.340245, 12.934691, 12.443782, 13.077628, 12.350855, 12.943807, 12.311087, 12.850750, 12.355954, 12.720607, 12.261742, 13.967732, 11.353984, 15.550480, 11.545681, 15.345731, 11.509892, 13.821290, 11.382226, 14.041741, 11.493923, 13.983592
Process 19: 17.152823, 30.460503, 12.151856, 14.189397, 13.552480, 14.200990, 12.369825, 14.676445, 12.416738, 13.009023, 12.521759, 13.132908, 12.448127, 13.018561, 12.392018, 12.929936, 12.433746, 12.796798, 12.338819, 14.043199, 11.417838, 15.625619, 11.623880, 15.422105, 11.584393, 13.903152, 11.459632, 14.122647, 11.570825, 14.058894
Process 20: 17.206426, 30.529073, 12.199697, 14.264920, 13.605455, 14.272738, 12.443129, 14.783996, 12.488908, 13.081458, 12.592193, 13.206322, 12.523241, 13.090508, 12.463388, 13.001639, 12.506762, 12.869075, 12.411086, 14.115463, 11.482386, 15.701301, 11.696734, 15.494391, 11.684842, 13.979526, 11.531138, 14.196321, 11.641532, 14.132572
Process 21: 17.248144, 30.589766, 12.257903, 14.321811, 13.653900, 14.334989, 12.502071, 14.843847, 12.549485, 13.146931, 12.653380, 13.265895, 12.582059, 13.153126, 12.523114, 13.063443, 12.541494, 12.934423, 12.470419, 14.178198, 11.533690, 15.760380, 11.756247, 15.555970, 11.745135, 14.017680, 11.592312, 14.261294, 11.703267, 14.194697
Process 22: 17.293421, 30.651013, 12.303648, 14.386665, 13.706192, 14.394633, 12.564728, 14.904310, 12.611884, 13.204442, 12.715050, 13.327842, 12.640916, 13.212073, 12.585213, 13.126605, 12.615095, 12.991757, 12.534540, 14.238517, 11.595588, 15.817695, 11.819380, 15.616193, 11.807317, 14.081913, 11.653615, 14.323180, 11.766461, 14.257680
Process 23: 17.341168, 30.699860, 12.350159, 14.434066, 13.753417, 14.446117, 12.614362, 14.930887, 12.661351, 13.255709, 12.765985, 13.378304, 12.691294, 13.265941, 12.636214, 13.179817, 12.667353, 13.066974, 12.583822, 14.292481, 11.646218, 15.869032, 11.870294, 15.668950, 11.858482, 14.135184, 11.726993, 14.375371, 11.817416, 14.308989
Process 24: 17.385573, 30.741321, 12.387734, 14.475691, 13.795207, 14.489631, 12.658141, 14.976713, 12.707510, 13.298323, 12.808924, 13.423395, 12.735666, 13.308236, 12.680952, 13.230029, 12.711828, 13.109641, 12.628146, 14.333643, 11.691662, 15.912616, 11.915969, 15.710814, 11.901395, 14.181698, 11.772155, 14.418942, 11.861271, 14.371960
Process 25: 17.427641, 30.786362, 12.431035, 14.495089, 13.841917, 14.536103, 12.702190, 15.017704, 12.768813, 13.344793, 12.854272, 13.466338, 12.759080, 13.354615, 12.725793, 13.271563, 12.755868, 13.150094, 12.672763, 14.379695, 11.734375, 15.935654, 11.957686, 15.756079, 11.945175, 14.226711, 11.832741, 14.461796, 11.904222, 14.436984
Process 26: 17.469163, 30.831272, 12.475523, 14.538227, 13.888308, 14.578368, 12.749139, 15.066502, 12.811963, 13.386558, 12.896795, 13.509785, 12.819451, 13.399616, 12.773117, 13.313921, 12.808118, 13.192060, 12.720617, 14.421021, 11.777982, 15.978823, 12.003387, 15.801654, 11.989939, 14.270745, 11.881468, 14.504640, 11.947099, 14.481062
Process 27: 17.509924, 30.869610, 12.514092, 14.580634, 13.941049, 14.620978, 12.786159, 15.101535, 12.853670, 13.427416, 12.941513, 13.550795, 12.845372, 13.457902, 12.817016, 13.359158, 12.847100, 13.236671, 12.757510, 14.460564, 11.817780, 16.016368, 12.058584, 15.838871, 12.030657, 14.315196, 11.906353, 14.548609, 11.990688, 14.519654
Process 28: 17.558489, 30.913966, 12.563043, 14.622260, 13.994613, 14.666474, 12.829727, 15.145487, 12.904812, 13.474528, 12.981841, 13.599037, 12.892474, 13.515336, 12.859689, 13.400927, 12.893189, 13.276418, 12.806488, 14.510285, 11.861259, 16.065676, 12.112261, 15.885470, 12.080193, 14.358208, 11.942860, 14.589611, 12.031812, 14.568933
Process 29: 17.600805, 30.965372, 12.604112, 14.665124, 14.041185, 14.702888, 12.874450, 15.190702, 12.950364, 13.510634, 13.021310, 13.638116, 12.930231, 13.562432, 12.907315, 13.441412, 12.936997, 13.302883, 12.872636, 14.547069, 11.904278, 16.101343, 12.162293, 15.925894, 12.118134, 14.398752, 11.982381, 14.644525, 12.071714, 14.606810
Process 30: 17.652628, 31.011150, 12.647659, 14.724302, 14.092546, 14.754921, 12.918870, 15.235306, 13.001955, 13.560355, 13.081797, 13.684997, 12.977423, 13.619782, 12.953545, 13.506978, 12.982098, 13.350583, 12.928325, 14.592434, 11.950894, 16.144946, 12.206370, 15.967658, 12.161444, 14.450972, 12.031297, 14.705900, 12.120534, 14.648917
Process 31: 17.696856, 31.067669, 12.696731, 14.764181, 14.141865, 14.806427, 12.961895, 15.276819, 13.036428, 13.627301, 13.125902, 13.737657, 13.034198, 13.668000, 12.998121, 13.543028, 13.026434, 13.400981, 12.986827, 14.640969, 11.989067, 16.196936, 12.230360, 16.022509, 12.215150, 14.491137, 12.072310, 14.752083, 12.161560, 14.701761
