MPI_insiderank_optimisedserial
Process 0: 26.267912, 20.245636, 18.175476, 20.237702, 19.168767, 16.535706, 15.387535, 16.979820, 16.221263, 16.141746, 16.389157, 17.859239, 15.879232, 16.511519, 15.412164, 18.909255, 15.757823, 15.349083, 16.864840, 17.930771, 17.586713, 15.115915, 15.727072, 19.784296, 15.733337, 15.563571, 15.833675, 19.870462, 15.344930, 16.480444
Process 1: 21.763353, 16.022128, 14.011559, 16.192586, 14.809615, 12.407507, 11.265959, 12.462821, 12.061713, 12.242799, 12.056653, 13.727825, 11.740499, 12.406589, 11.168051, 14.728511, 11.647962, 11.190213, 12.625596, 13.799107, 13.457210, 10.917654, 11.583077, 15.622366, 11.502345, 11.044887, 11.652838, 15.677632, 11.168817, 12.285229
Process 2: 21.872067, 16.151572, 14.140406, 16.296302, 14.914693, 12.545007, 11.402729, 12.558775, 12.194408, 12.380481, 12.159197, 13.854835, 11.869056, 12.557119, 11.295649, 14.830661, 11.767311, 11.343350, 12.723897, 13.931529, 13.559309, 11.041855, 11.711781, 15.737443, 11.647573, 11.143150, 11.675814, 15.765535, 11.255284, 12.405800
Process 3: 22.004595, 16.280513, 14.244949, 16.361814, 15.005645, 12.662492, 11.473394, 12.647908, 12.296291, 12.491421, 12.257520, 13.924038, 11.936789, 12.698267, 11.360158, 14.938119, 11.834728, 11.482352, 12.813179, 13.992363, 13.619294, 11.129481, 11.795192, 15.818020, 11.784236, 11.234854, 11.827532, 15.860974, 11.383135, 12.525727
Process 4: 22.091241, 16.371246, 14.315121, 16.400365, 15.095207, 12.781988, 11.559121, 12.717581, 12.362884, 12.600863, 12.342935, 13.998412, 12.014191, 12.801842, 11.447483, 15.008824, 11.930210, 11.594705, 12.902953, 14.081584, 13.694166, 11.194378, 11.869022, 15.906331, 11.890139, 11.300101, 11.920512, 15.949472, 11.491755, 12.609751
Process 5: 22.149864, 16.447943, 14.379512, 16.448248, 15.162460, 12.871937, 11.637748, 12.794698, 12.426749, 12.698239, 12.415417, 14.079914, 12.089397, 12.911078, 11.523857, 15.083532, 12.005611, 11.687849, 12.966076, 14.152419, 13.772196, 11.249059, 11.942114, 15.972187, 12.004521, 11.376751, 12.012804, 16.002552, 11.609416, 12.660957
Process 6: 22.208705, 16.494629, 14.453758, 16.513908, 15.201833, 12.944397, 11.721320, 12.878268, 12.502712, 12.769886, 12.477284, 14.145769, 12.142893, 12.993243, 11.566280, 15.137760, 12.080384, 11.783545, 13.009543, 14.185986, 13.821996, 11.339793, 12.018819, 16.012140, 12.055467, 11.453751, 12.067919, 16.054795, 11.695963, 12.718471
Process 7: 22.284121, 16.552118, 14.504566, 16.588360, 15.284387, 13.013375, 11.801484, 12.967253, 12.545535, 12.849563, 12.562431, 14.194991, 12.197078, 13.090835, 11.631185, 15.188305, 12.129148, 11.879635, 13.091284, 14.264437, 13.877065, 11.451975, 12.077014, 16.094293, 12.096182, 11.548895, 12.120184, 16.142107, 11.796553, 12.773922
Process 8: 22.366476, 16.607971, 14.549551, 16.626173, 15.364762, 13.062907, 11.853560, 13.046089, 12.597220, 12.894740, 12.637796, 14.250687, 12.265906, 13.165910, 11.705629, 15.253994, 12.173968, 11.944689, 13.161392, 14.340775, 13.946829, 11.524953, 12.120154, 16.168725, 12.131514, 11.622912, 12.188433, 16.211134, 11.842049, 12.813435
Process 9: 22.490122, 16.645987, 14.622142, 16.691027, 15.439692, 13.105202, 11.900964, 13.128387, 12.674942, 12.931186, 12.720877, 14.332179, 12.349352, 14.455368, 11.786372, 15.338217, 12.247548, 12.040671, 13.240716, 14.423162, 14.029638, 11.625062, 12.188227, 16.252942, 12.174958, 11.709397, 12.264655, 16.294189, 11.894118, 12.879448
Process 10: 22.561547, 16.698770, 14.683182, 16.757367, 15.497737, 13.133344, 11.976552, 13.195178, 12.734837, 12.959010, 12.785940, 14.392789, 12.409922, 14.487533, 11.853069, 15.396241, 12.305385, 12.101338, 13.308879, 14.480359, 14.103769, 11.691636, 12.256132, 16.313992, 12.207264, 11.792912, 12.328836, 16.350603, 11.953247, 12.943040
Process 11: 22.662961, 16.771251, 14.758787, 16.835415, 15.572622, 13.178097, 12.093097, 13.272747, 12.812039, 12.989635, 12.871014, 14.467767, 12.488213, 14.544884, 11.926942, 15.472041, 12.379501, 12.183560, 13.384954, 14.556842, 14.195263, 11.788976, 12.332078, 16.389041, 12.238046, 11.887957, 12.401067, 16.428910, 11.999925, 13.019298
Process 12: 22.715023, 16.846619, 14.824355, 16.897950, 15.637071, 13.229955, 12.153896, 13.340251, 12.874294, 13.027876, 12.942624, 14.531927, 12.547996, 14.566938, 11.994528, 15.534505, 12.443008, 12.236638, 13.450257, 14.617040, 14.246739, 11.846569, 12.391085, 16.451980, 12.282550, 11.955198, 12.475167, 16.505778, 12.035098, 13.078365
Process 13: 22.756915, 16.919776, 14.895474, 16.970923, 15.708108, 13.265787, 12.244164, 13.413262, 12.966676, 13.076578, 13.051383, 14.600987, 12.618196, 14.585991, 12.065184, 15.605424, 12.510730, 12.315266, 13.521330, 14.687316, 14.306088, 11.933490, 12.460639, 16.524306, 12.361743, 12.024826, 12.535772, 16.584020, 13.274072, 13.168565
Process 14: 22.811824, 16.972882, 14.948308, 17.028377, 15.764554, 13.306758, 12.302095, 13.471559, 13.020616, 13.129024, 13.095034, 14.658295, 12.675691, 14.597187, 12.122897, 15.661200, 12.567695, 12.358411, 13.579815, 14.744411, 14.365015, 11.986514, 12.512128, 16.579978, 12.415820, 12.078996, 12.588906, 16.624626, 13.292118, 13.220103
Process 15: 22.904173, 17.043266, 15.020184, 17.099826, 15.847864, 13.376876, 12.394144, 13.553479, 13.089641, 13.176892, 13.185558, 14.727462, 12.741456, 14.616999, 12.191493, 15.733527, 12.634771, 12.380853, 13.651451, 14.811638, 14.434136, 12.072321, 12.585279, 16.649197, 12.479699, 12.161785, 12.658254, 16.700199, 13.314974, 13.331751
Process 16: 22.975222, 17.097335, 15.072505, 17.158318, 15.903029, 13.433183, 12.445772, 13.633633, 13.145527, 13.222578, 13.240800, 14.782417, 12.798603, 14.628853, 12.270923, 15.790497, 12.691991, 12.396627, 13.707633, 14.870099, 14.490280, 12.119344, 12.642298, 16.702772, 12.518648, 12.223175, 12.717170, 16.742448, 13.327462, 13.384665
Process 17: 23.034105, 17.164775, 15.131837, 17.217022, 15.945347, 13.493736, 12.510914, 13.723216, 13.202329, 13.267035, 13.314790, 14.837291, 12.850142, 14.645912, 12.342758, 15.848496, 12.743722, 12.421404, 13.761371, 14.924520, 14.544246, 12.174764, 12.703145, 16.756805, 12.567238, 12.297385, 12.774629, 16.800443, 13.343652, 13.441678
Process 18: 23.084547, 17.204724, 15.180425, 17.263455, 15.991460, 13.545013, 12.555649, 13.797319, 13.256830, 13.297155, 13.360289, 14.886353, 12.899426, 14.658114, 12.396234, 15.897269, 12.792546, 12.444148, 13.813614, 14.971017, 14.587942, 12.212537, 12.752264, 16.805297, 12.614660, 12.370168, 12.824555, 16.850438, 13.360524, 13.490113
Process 19: 23.159065, 17.278345, 15.226693, 17.313716, 16.069093, 13.594002, 12.615791, 13.886331, 13.315354, 13.340954, 13.456160, 14.937066, 12.948229, 14.670816, 12.451504, 15.947612, 12.840043, 12.457641, 13.903349, 15.019964, 14.631592, 12.236706, 12.795775, 16.853383, 12.662930, 12.490461, 12.874952, 16.928766, 13.374238, 13.549927
Process 20: 23.231606, 17.338295, 15.280256, 17.386475, 16.146345, 13.644901, 12.651879, 13.969043, 13.350006, 13.394976, 13.499277, 14.984626, 12.994217, 14.683131, 12.493872, 15.999728, 12.886922, 12.469965, 13.948688, 15.070158, 14.686548, 12.251121, 12.854519, 16.900094, 12.737999, 12.545787, 12.951897, 16.969447, 13.386615, 13.588404
Process 21: 23.315182, 17.418157, 15.340919, 17.472020, 16.231265, 13.694089, 12.709891, 14.062867, 13.393722, 13.450153, 13.579113, 15.035801, 13.046608, 14.698648, 12.552342, 16.062922, 12.943728, 12.508035, 14.048060, 15.123356, 14.771410, 12.266885, 12.929557, 16.953964, 12.830650, 12.661461, 13.035471, 17.025726, 13.402304, 13.639038
Process 22: 23.397574, 17.492873, 15.410026, 17.539356, 16.307734, 13.774861, 12.735491, 14.149259, 13.445571, 13.520120, 13.646510, 15.093991, 13.121999, 14.711953, 12.594636, 16.137182, 13.006041, 12.590515, 14.100161, 15.194794, 14.846313, 12.310027, 12.998365, 17.031493, 12.912621, 12.717826, 13.105166, 17.088160, 13.416289, 13.710588
Process 23: 23.495324, 17.612711, 15.487605, 17.618196, 16.391780, 13.856082, 12.787374, 14.243350, 13.519628, 13.594409, 13.766232, 15.177229, 13.212174, 14.730370, 12.689343, 16.211796, 13.088610, 12.682347, 14.234762, 15.271992, 14.931129, 12.405271, 13.098598, 17.123188, 12.994811, 12.792446, 13.188522, 17.175224, 13.431276, 13.811024
Process 24: 23.577672, 17.661728, 15.576946, 17.703461, 16.477069, 13.936540, 12.870174, 14.334735, 13.611097, 13.668789, 13.810532, 15.265895, 13.297365, 14.743210, 12.771240, 16.286387, 13.164736, 12.762284, 14.283921, 15.344493, 15.014092, 12.495041, 13.176318, 17.208774, 13.078586, 12.874915, 13.262210, 17.256561, 13.443831, 13.887074
Process 25: 23.711880, 17.769589, 15.660569, 17.789304, 16.571622, 14.032061, 12.963548, 14.438837, 13.699224, 13.759298, 13.888604, 15.362673, 13.385362, 14.758526, 12.899986, 16.368803, 13.247008, 12.860174, 14.388881, 15.437085, 15.101936, 12.594401, 13.291688, 17.306607, 13.160764, 12.973998, 13.348811, 17.338746, 13.459165, 13.980100
Process 26: 23.837966, 17.816851, 15.737542, 17.871869, 16.656948, 14.120026, 13.049976, 14.530382, 13.779253, 13.832872, 13.962539, 15.446843, 13.472333, 14.773038, 12.952442, 16.456190, 13.322000, 12.944432, 14.459183, 15.523194, 15.186810, 12.679694, 13.339430, 17.392530, 13.256877, 13.066157, 13.430079, 17.431633, 13.473842, 14.063793
Process 27: 23.922856, 17.927851, 15.837587, 17.961234, 16.755306, 14.212894, 13.150921, 14.625635, 13.873239, 13.919154, 14.052328, 15.548127, 13.571926, 14.787331, 13.079278, 16.539414, 13.404059, 13.042724, 14.559193, 15.617645, 15.279419, 12.778132, 13.444104, 17.488579, 13.352038, 13.160063, 13.529737, 17.515445, 13.487920, 14.156702
Process 28: 24.011854, 18.005941, 15.916756, 18.043009, 16.857266, 14.299255, 13.230681, 14.711817, 13.968759, 14.009866, 14.136521, 15.631025, 13.661410, 14.799391, 13.139282, 16.623717, 13.490759, 13.134920, 14.647765, 15.690228, 15.371013, 12.862300, 13.519289, 17.578618, 13.447026, 13.254895, 13.639015, 17.601337, 13.500848, 14.229500
Process 29: 24.107675, 18.109219, 16.018790, 18.150375, 16.952443, 14.395711, 13.330238, 14.828282, 14.060964, 14.108893, 14.239327, 15.730449, 13.756840, 14.814478, 13.233788, 16.729729, 13.583124, 13.232308, 14.789666, 15.777857, 15.477190, 12.964392, 13.626147, 17.670634, 13.549211, 13.354314, 13.750883, 17.699052, 13.516122, 14.330104
Process 30: 24.196295, 18.193252, 16.131777, 18.245186, 17.041284, 14.491747, 13.425878, 14.934997, 14.155923, 14.186062, 14.333227, 15.822998, 13.855250, 14.830161, 13.302791, 16.827646, 13.681552, 13.327875, 14.847747, 15.868751, 15.572652, 13.064354, 13.707705, 17.768019, 13.648409, 13.457000, 13.842065, 17.819428, 13.531729, 14.427507
Process 31: 24.294551, 18.290365, 16.236595, 18.350359, 17.140099, 14.599908, 13.531925, 15.036184, 14.246512, 14.287224, 14.434319, 15.930038, 13.961642, 14.849410, 13.395033, 16.935065, 13.779830, 13.430700, 14.973553, 15.969776, 15.666958, 13.165237, 13.805434, 17.869025, 13.758081, 13.560190, 13.932964, 17.950617, 13.554776, 14.527380
Process 32: 24.404812, 18.399789, 16.339943, 18.461057, 17.251410, 14.715143, 13.649645, 15.160910, 14.354945, 14.387068, 14.553088, 16.037599, 14.079864, 14.871578, 13.520852, 17.050043, 13.898375, 13.536831, 15.074492, 16.075960, 15.794712, 13.283244, 13.932761, 17.989361, 13.880555, 13.685327, 14.059708, 18.055853, 13.586233, 14.643434
Process 33: 24.504663, 18.490181, 16.442535, 18.554827, 17.350479, 14.806756, 13.740064, 15.263466, 14.452837, 14.481830, 14.649307, 16.153734, 14.175203, 14.894594, 13.613633, 17.141513, 13.998229, 13.629051, 15.150185, 16.175704, 15.892051, 13.380962, 14.026964, 18.079443, 13.973370, 13.783593, 14.157685, 18.124673, 13.682249, 14.735924
Process 34: 24.575198, 18.568420, 16.522417, 18.634122, 17.432279, 14.892709, 13.821698, 15.336338, 14.528707, 14.557740, 14.737183, 16.239995, 14.249233, 14.931563, 13.699035, 17.238402, 14.072336, 13.702039, 15.219089, 16.263553, 15.973336, 13.457934, 14.106104, 18.158261, 14.059396, 13.860658, 14.238307, 18.216472, 13.755236, 14.814750
Process 35: 24.665299, 18.660110, 16.624270, 18.727112, 17.526653, 14.990187, 13.907625, 15.433395, 14.628160, 14.638610, 14.834724, 16.342508, 14.344715, 15.024754, 13.797660, 17.367432, 14.163617, 13.798268, 15.297688, 16.345448, 16.059453, 13.559968, 14.196746, 18.256387, 14.145011, 13.966084, 14.335710, 18.304402, 13.845239, 14.911915
Process 36: 24.786694, 18.724626, 16.686924, 18.784879, 17.600372, 15.051465, 13.962961, 15.503873, 14.697433, 14.700924, 14.912096, 16.406516, 14.410801, 15.093331, 13.871019, 17.429130, 14.231696, 13.852733, 15.358475, 16.411373, 16.121699, 13.633829, 14.251762, 18.324928, 14.204385, 14.033091, 14.402029, 18.351530, 13.905451, 14.974490
Process 37: 24.862187, 18.804244, 16.779038, 18.870712, 17.685873, 15.138363, 14.048439, 15.594901, 14.784489, 14.786635, 14.988938, 16.516778, 14.488637, 15.182135, 13.963190, 17.515926, 14.312546, 13.945156, 15.446816, 16.496652, 16.205250, 13.720470, 14.337409, 18.414988, 14.291737, 14.128587, 14.492123, 18.443032, 13.994313, 15.058190
Process 38: 24.917937, 18.868842, 16.804598, 18.923467, 17.755084, 15.190806, 14.105573, 15.646918, 14.847003, 14.844281, 15.052299, 16.560551, 14.542858, 15.235832, 14.024723, 17.567074, 14.372586, 13.997659, 15.499539, 16.563666, 16.260726, 13.771396, 14.397661, 18.469509, 14.345061, 14.191844, 14.532947, 18.495920, 14.052336, 15.107404
Process 39: 24.987538, 18.947414, 16.876134, 19.003586, 17.829123, 15.267155, 14.180835, 15.730188, 14.923371, 14.916857, 15.125441, 16.646521, 14.625769, 15.311184, 14.100089, 17.647639, 14.449278, 14.073580, 15.575568, 16.638778, 16.333351, 13.851984, 14.472998, 18.541731, 14.422084, 14.267915, 14.604799, 18.570802, 14.127405, 15.185044
Process 40: 25.034347, 19.028299, 16.933926, 19.047150, 17.874997, 15.314143, 14.222935, 15.770720, 14.977678, 14.971913, 15.178925, 16.686555, 14.670357, 15.358906, 14.154431, 17.693726, 14.492297, 14.125041, 15.626070, 16.713082, 16.376569, 13.901705, 14.519240, 18.587386, 14.471881, 14.320434, 14.627456, 18.618403, 14.173532, 15.239373
Process 41: 25.101210, 19.099676, 17.014740, 19.110324, 17.944841, 15.381130, 14.286222, 15.842661, 15.052382, 15.034436, 15.248847, 16.751196, 14.734738, 15.421548, 14.235637, 17.765079, 14.558059, 14.189083, 15.691110, 16.796103, 16.439331, 13.968993, 14.583115, 18.652442, 14.541650, 14.396533, 14.688594, 18.692379, 14.236932, 15.305740
Process 42: 25.150168, 19.148130, 17.077347, 19.183569, 18.005368, 15.434697, 14.335692, 15.879867, 15.117457, 15.086181, 15.309823, 16.790641, 14.782300, 15.467016, 14.296156, 17.829777, 14.612302, 14.255727, 15.751448, 16.856259, 16.495844, 14.026797, 14.630976, 18.699538, 14.601058, 14.460209, 14.741513, 18.756115, 14.290860, 15.362237
Process 43: 25.218808, 19.217095, 17.147671, 19.289273, 18.080988, 15.500189, 14.405050, 15.951144, 15.189637, 15.157462, 15.384710, 16.862735, 14.854985, 15.531282, 14.375890, 17.912836, 14.675937, 14.322920, 15.826279, 16.935156, 16.570317, 14.101336, 14.696000, 18.764431, 14.673668, 14.537858, 14.808500, 18.829928, 14.361803, 15.434832
Process 44: 25.281178, 19.271057, 17.203170, 19.325404, 18.138259, 15.560244, 14.454109, 16.012260, 15.247758, 15.209300, 15.443311, 16.908548, 14.907696, 15.583029, 14.431584, 17.954377, 14.732005, 14.377250, 15.886803, 16.988650, 16.635310, 14.160864, 14.743068, 18.836020, 14.726958, 14.590686, 14.855913, 18.885874, 14.416134, 15.494810
Process 45: 25.348534, 19.341201, 17.267297, 19.390400, 18.206406, 15.626485, 14.518763, 16.081581, 15.317855, 15.273412, 15.508659, 16.988151, 14.980875, 15.646812, 14.503749, 18.028522, 14.795839, 14.442293, 15.955139, 17.055710, 16.720032, 14.230087, 14.806867, 18.909312, 14.796354, 14.663642, 14.923023, 18.955813, 14.480401, 15.564671
Process 46: 25.402300, 19.396155, 17.318581, 19.435012, 18.256935, 15.680989, 14.566079, 16.137658, 15.392524, 15.324486, 15.564012, 17.004455, 15.031722, 15.698178, 14.558506, 18.071852, 14.847533, 14.507647, 16.009384, 17.106793, 16.758824, 14.283231, 14.859554, 18.956215, 14.842755, 14.717014, 14.976885, 19.010379, 14.531047, 15.623858
Process 47: 25.471427, 19.461698, 17.387026, 19.525575, 18.323011, 15.745985, 14.635296, 16.200253, 15.465939, 15.388365, 15.626038, 17.073933, 15.098637, 15.761320, 14.629357, 18.152549, 14.915254, 14.600602, 16.076354, 17.192582, 16.817293, 14.353821, 14.929929, 19.031087, 14.907337, 14.781603, 15.042072, 19.073709, 14.595726, 15.689783
Process 48: 25.524333, 19.512616, 17.437112, 19.561199, 18.377843, 15.794418, 14.679279, 16.250569, 15.506429, 15.435558, 15.677269, 17.124153, 15.149615, 15.808981, 14.682448, 18.189503, 14.967003, 14.649758, 16.126776, 17.231182, 16.858321, 14.402532, 14.982768, 19.069550, 14.956863, 14.833792, 15.093653, 19.145509, 14.646553, 15.745239
Process 49: 25.589515, 19.571791, 17.499036, 19.617545, 18.439704, 15.855177, 14.738053, 16.314045, 15.572775, 15.494741, 15.737587, 17.213900, 15.208758, 15.866916, 14.742903, 18.256499, 15.023791, 14.707123, 16.187400, 17.289081, 16.911794, 14.468486, 15.042348, 19.134489, 15.015839, 14.895940, 15.157347, 19.217713, 14.707800, 15.810726
Process 50: 25.632244, 19.616843, 17.540722, 19.653060, 18.483150, 15.899187, 14.782813, 16.355372, 15.612707, 15.537091, 15.782958, 17.231899, 15.267482, 15.908814, 14.785806, 18.274850, 15.069094, 14.750003, 16.232157, 17.328078, 16.957707, 14.506280, 15.086565, 19.173657, 15.055768, 14.939741, 15.200092, 19.257821, 14.747136, 15.853112
Process 51: 25.691063, 19.673467, 17.600248, 19.688977, 18.544489, 15.957401, 14.838983, 16.413213, 15.674266, 15.594511, 15.841433, 17.292827, 15.346211, 15.965352, 14.843956, 18.325095, 15.126623, 14.805372, 16.291203, 17.387782, 17.015859, 14.564414, 15.142904, 19.236088, 15.112810, 14.996873, 15.258625, 19.315618, 14.803601, 15.912116
Process 52: 25.735241, 19.719301, 17.642338, 19.732409, 18.586677, 16.000163, 14.882751, 16.455211, 15.713941, 15.635158, 15.882539, 17.333490, 15.382827, 16.006559, 14.885315, 18.372166, 15.168581, 14.846332, 16.334761, 17.414676, 17.055466, 14.605356, 15.190152, 19.275597, 15.152035, 15.040719, 15.301437, 19.355720, 14.843373, 15.954303
Process 53: 25.788541, 19.774840, 17.694668, 19.784694, 18.640558, 16.051418, 14.933905, 16.505814, 15.775649, 15.686258, 15.933033, 17.387212, 15.424953, 16.055733, 14.935972, 18.424850, 15.219678, 14.897430, 16.388478, 17.462078, 17.107125, 14.657663, 15.243661, 19.332890, 15.201876, 15.093691, 15.355242, 19.415845, 14.894092, 16.007954
Process 54: 25.831883, 19.814687, 17.737796, 19.822984, 18.683574, 16.098960, 14.972853, 16.551271, 15.812936, 15.727373, 15.974752, 17.430118, 15.471320, 16.098835, 14.982705, 18.469033, 15.275201, 14.937919, 16.431196, 17.501531, 17.147438, 14.698028, 15.285820, 19.371058, 15.242413, 15.134833, 15.397322, 19.451102, 14.935486, 16.049531
Process 55: 25.885611, 19.870453, 17.792719, 19.874595, 18.764604, 16.152240, 15.023847, 16.608497, 15.865117, 15.777733, 16.026295, 17.485791, 15.521682, 16.152341, 15.036661, 18.523331, 15.337000, 14.990011, 16.484105, 17.556021, 17.196181, 14.749651, 15.340504, 19.433794, 15.292198, 15.187276, 15.451968, 19.503096, 14.986527, 16.103477
Process 56: 25.929312, 19.913406, 17.836366, 19.916299, 18.798355, 16.197718, 15.066075, 16.646930, 15.904454, 15.822957, 16.068637, 17.528430, 15.563056, 16.191057, 15.076947, 18.566724, 15.376617, 15.033111, 16.531539, 17.599136, 17.240810, 14.793029, 15.384314, 19.467101, 15.353712, 15.233321, 15.495169, 19.542105, 15.029385, 16.148164
Process 57: 25.978675, 19.963587, 17.885832, 19.964412, 18.854948, 16.248882, 15.114521, 16.697003, 15.961083, 15.874045, 16.120901, 17.578673, 15.624223, 16.239786, 15.125110, 18.620627, 15.440213, 15.082265, 16.585320, 17.648556, 17.293566, 14.840303, 15.434785, 19.517736, 15.410062, 15.285564, 15.544153, 19.615483, 15.080714, 16.201348
Process 58: 26.024457, 20.006603, 17.931306, 20.005738, 18.894681, 16.290954, 15.156157, 16.739237, 16.001558, 15.910799, 16.157848, 17.621423, 15.659762, 16.279934, 15.169601, 18.661596, 15.474652, 15.120989, 16.624675, 17.691767, 17.337666, 14.884063, 15.478542, 19.560901, 15.447917, 15.324318, 15.590203, 19.651914, 15.116308, 16.239701
Process 59: 26.109814, 20.060229, 17.983986, 20.058667, 18.957177, 16.342088, 15.209001, 16.793631, 16.074882, 15.961800, 16.209061, 17.677229, 15.730233, 16.331968, 15.226003, 18.713610, 15.523565, 15.172497, 16.676948, 17.745383, 17.415878, 14.936871, 15.532624, 19.596561, 15.499506, 15.375328, 15.646176, 19.693806, 15.167251, 16.291103
Process 60: 26.124804, 20.105250, 18.030895, 20.098430, 19.012612, 16.390058, 15.248215, 16.833896, 16.104443, 16.005006, 16.252674, 17.718459, 15.764493, 16.371744, 15.264890, 18.760503, 15.563703, 15.215506, 16.723962, 17.790272, 17.449523, 14.978548, 15.577791, 19.638269, 15.541533, 15.421150, 15.686812, 19.730235, 15.209965, 16.338597
Process 61: 26.181628, 20.154884, 18.081373, 20.144310, 19.085999, 16.440831, 15.293823, 16.882594, 16.125894, 16.052244, 16.299081, 17.768080, 15.806698, 16.417303, 15.314384, 18.813418, 15.649662, 15.262929, 16.777796, 17.840343, 17.491599, 15.026820, 15.628325, 19.685880, 15.588621, 15.473457, 15.735103, 19.815579, 15.260324, 16.392557
Process 62: 26.219683, 20.198114, 18.125549, 20.187735, 19.125104, 16.487609, 15.336807, 16.925279, 16.172116, 16.093647, 16.341412, 17.811941, 15.842047, 16.461313, 15.357216, 18.856177, 15.684298, 15.303822, 16.817161, 17.883150, 17.535507, 15.068473, 15.672488, 19.731411, 15.633435, 15.511661, 15.780573, 19.849549, 15.296509, 16.430158
Process 63: 26.270730, 20.248678, 18.178402, 20.240418, 19.171693, 16.538359, 15.390252, 16.982393, 16.224196, 16.144638, 16.392053, 17.862336, 15.882244, 16.513999, 15.415114, 18.912436, 15.760993, 15.351709, 16.868377, 17.933478, 17.590188, 15.118425, 15.730187, 19.786973, 15.736695, 15.566133, 15.836589, 19.873428, 15.347587, 16.483058
