MPI_insiderank_optimisedserial
Process 0: 4.141273, 3.803688, 3.747651, 3.748309, 3.744017, 3.749255, 3.725495, 3.688445, 3.836827, 3.849372, 3.670443, 3.720920, 3.686569, 3.707256, 3.762212, 3.667772, 3.702877, 3.723494, 3.682448, 3.627615, 3.632313, 3.642452, 3.679251, 3.802044, 3.647940, 3.654959, 3.657334, 3.688609, 3.667056, 3.618732
Process 1: 4.059053, 3.717708, 3.684809, 3.648772, 3.682338, 3.645437, 3.660788, 3.611602, 3.727332, 3.772318, 3.600782, 3.665104, 3.615978, 3.611418, 3.689115, 3.595593, 3.629336, 3.660810, 3.598617, 3.550146, 3.554770, 3.561781, 3.573025, 3.718456, 3.568864, 3.574519, 3.573601, 3.626423, 3.584919, 3.541666
Process 2: 4.102602, 3.758603, 3.711659, 3.710362, 3.706521, 3.702536, 3.687435, 3.650041, 3.788149, 3.811350, 3.632133, 3.683346, 3.648242, 3.662331, 3.724074, 3.629237, 3.664588, 3.680395, 3.643460, 3.589442, 3.593818, 3.603202, 3.631115, 3.767705, 3.614255, 3.621041, 3.622093, 3.655789, 3.633678, 3.585211
Process 3: 4.143809, 3.807531, 3.750030, 3.750925, 3.746865, 3.752462, 3.728471, 3.691313, 3.839335, 3.852194, 3.673132, 3.723519, 3.689540, 3.711403, 3.765257, 3.670438, 3.705682, 3.726287, 3.685350, 3.630548, 3.634928, 3.645116, 3.683949, 3.806054, 3.651603, 3.658353, 3.661381, 3.692222, 3.670741, 3.622064
