Process 0: 3.504850, 2.576035, 2.283180, 1.980382, 2.278025, 2.036009, 2.063502, 2.024442, 2.258357, 2.122806, 2.010285, 2.015756, 1.992117, 1.983132, 2.178097, 2.005665, 2.039115, 2.138297, 1.988104, 2.015333
Process 1: 3.018101, 2.817674, 2.270350, 2.027692, 2.256828, 2.080101, 2.038529, 2.035518, 2.198253, 2.185710, 1.990061, 2.035350, 1.996137, 1.996335, 2.136855, 2.050616, 2.012485, 2.115097, 2.005844, 1.994225
Process 2: 3.021753, 2.816998, 2.268475, 2.027306, 2.257267, 2.080074, 2.038472, 2.034385, 2.199321, 2.185968, 1.989920, 2.035014, 1.995084, 1.997857, 2.137435, 2.049837, 2.012412, 2.113721, 2.007129, 1.993916
Process 3: 3.021974, 2.818335, 2.268036, 2.026977, 2.257566, 2.079467, 2.038454, 2.034714, 2.199562, 2.185456, 1.989909, 2.034829, 1.995609, 1.997942, 2.137239, 2.049727, 2.012769, 2.113534, 2.007367, 1.993927
Process 4: 3.020871, 2.817797, 2.271160, 2.024848, 2.257008, 2.079747, 2.038401, 2.035101, 2.202877, 2.181674, 1.990003, 2.035092, 1.995492, 1.998257, 2.136300, 2.050653, 2.013554, 2.112965, 2.007454, 1.993643
Process 5: 3.021958, 2.820633, 2.265287, 2.028658, 2.257334, 2.078903, 2.037780, 2.035444, 2.200480, 2.184183, 1.989799, 2.035088, 1.995720, 1.997024, 2.137720, 2.048893, 2.012651, 2.113826, 2.006933, 1.993814
Process 6: 3.029288, 2.815985, 2.269896, 2.026492, 2.257316, 2.078460, 2.039752, 2.035212, 2.200299, 2.182856, 1.989995, 2.035034, 1.996658, 1.995216, 2.142747, 2.045598, 2.013526, 2.114727, 2.005490, 1.994947
Process 7: 3.030711, 2.815374, 2.269255, 2.027023, 2.256808, 2.078949, 2.039423, 2.035479, 2.199876, 2.183323, 1.990001, 2.034976, 1.996674, 1.996327, 2.139461, 2.047804, 2.013528, 2.114774, 2.005399, 1.995154
Process 8: 3.032215, 2.815675, 2.268189, 2.026896, 2.254942, 2.080895, 2.039184, 2.035699, 2.199637, 2.183532, 1.989965, 2.035037, 1.996570, 1.996285, 2.139244, 2.048165, 2.013535, 2.112588, 2.007485, 1.995004
Process 9: 3.030486, 2.817689, 2.268295, 2.026948, 2.256154, 2.079894, 2.038775, 2.035806, 2.199771, 2.183728, 1.989922, 2.034916, 1.996455, 1.996527, 2.139210, 2.048030, 2.013516, 2.114165, 2.006066, 1.993252
Process 10: 3.031235, 2.817095, 2.267545, 2.026987, 2.257795, 2.078905, 2.035968, 2.037331, 2.200615, 2.183983, 1.989757, 2.034979, 1.993896, 1.999318, 2.137901, 2.048763, 2.013565, 2.113895, 2.007028, 1.993546
Process 11: 3.031293, 2.817192, 2.267749, 2.026792, 2.257799, 2.078857, 2.036542, 2.036997, 2.200530, 2.183907, 1.989818, 2.034856, 1.995626, 1.997632, 2.137949, 2.048842, 2.013539, 2.113856, 2.006997, 1.993690
Process 12: 3.032342, 2.816115, 2.267533, 2.028173, 2.256607, 2.078916, 2.036919, 2.036371, 2.200614, 2.183985, 1.989758, 2.036073, 1.994662, 1.997451, 2.137908, 2.048750, 2.013579, 2.113895, 2.007028, 1.993539
Process 13: 3.032290, 2.817181, 2.266950, 2.027784, 2.256804, 2.079418, 2.037037, 2.036741, 2.200271, 2.183937, 1.989810, 2.035245, 1.995541, 1.997321, 2.138324, 2.048459, 2.013532, 2.113985, 2.006332, 1.994235
Process 14: 3.027169, 2.816139, 2.267443, 2.027897, 2.256415, 2.079229, 2.038735, 2.035513, 2.199717, 2.184114, 1.989825, 2.035175, 1.996090, 1.996825, 2.137479, 2.049524, 2.013453, 2.114110, 2.006626, 1.993541
Process 15: 3.028902, 2.816111, 2.266895, 2.027640, 2.256891, 2.079214, 2.039039, 2.035268, 2.199456, 2.184354, 1.989826, 2.035115, 1.996158, 1.996693, 2.138003, 2.048945, 2.013397, 2.114276, 2.006663, 1.993524
Process 16: 3.029517, 2.816925, 2.267093, 2.025883, 2.257233, 2.078551, 2.038434, 2.035768, 2.200365, 2.183620, 1.989892, 2.035418, 1.995897, 1.997137, 2.138102, 2.047963, 2.014230, 2.114385, 2.006055, 1.993479
Process 17: 3.029929, 2.815974, 2.267884, 2.025996, 2.257076, 2.078469, 2.038899, 2.035491, 2.200581, 2.183469, 1.990177, 2.035300, 1.995643, 1.997397, 2.137668, 2.048637, 2.013595, 2.114515, 2.006051, 1.993832
Process 18: 3.030022, 2.816203, 2.267516, 2.026257, 2.256879, 2.078719, 2.038783, 2.035682, 2.200385, 2.183369, 1.990230, 2.035429, 1.995552, 1.997445, 2.137487, 2.048850, 2.013462, 2.114513, 2.006090, 1.993941
Process 19: 3.030289, 2.816123, 2.267623, 2.026186, 2.256969, 2.078871, 2.038614, 2.035555, 2.200514, 2.183405, 1.990293, 2.035324, 1.995501, 1.997509, 2.137587, 2.048962, 2.013224, 2.114536, 2.006018, 1.994036
Process 20: 3.034120, 2.816083, 2.267255, 2.027521, 2.256539, 2.078732, 2.038764, 2.036111, 2.199131, 2.184105, 1.989884, 2.035492, 1.995769, 1.996941, 2.138894, 2.047966, 2.014098, 2.112987, 2.008674, 1.992586
Process 21: 3.034214, 2.815538, 2.268498, 2.027435, 2.256008, 2.079737, 2.038467, 2.035722, 2.198985, 2.184613, 1.989310, 2.035978, 1.995686, 1.997056, 2.138710, 2.047870, 2.014247, 2.113624, 2.007794, 1.992940
Process 22: 3.034823, 2.815778, 2.267735, 2.027570, 2.256251, 2.079493, 2.038766, 2.035737, 2.198600, 2.184423, 1.989688, 2.035891, 1.995652, 1.997327, 2.138676, 2.047867, 2.014176, 2.112817, 2.008552, 1.993086
Process 23: 3.035738, 2.815366, 2.267683, 2.027596, 2.256294, 2.079397, 2.038635, 2.035959, 2.198666, 2.184440, 1.989765, 2.035562, 1.995940, 1.997390, 2.138215, 2.047969, 2.014111, 2.113635, 2.007662, 1.993231
Process 24: 3.035535, 2.814459, 2.268556, 2.027354, 2.256911, 2.079142, 2.038187, 2.035820, 2.199970, 2.183574, 1.990108, 2.035555, 1.996042, 1.996865, 2.137402, 2.048910, 2.013940, 2.114016, 2.006439, 1.993907
Process 25: 3.035909, 2.815022, 2.268220, 2.027357, 2.256986, 2.079116, 2.038337, 2.035852, 2.199567, 2.184027, 1.989671, 2.035538, 1.996005, 1.997256, 2.137870, 2.048362, 2.013938, 2.114070, 2.006791, 1.993503
Process 26: 3.035856, 2.815385, 2.268089, 2.027290, 2.256829, 2.079170, 2.038398, 2.035862, 2.199461, 2.183997, 1.989730, 2.035617, 1.996025, 1.997198, 2.137961, 2.048325, 2.014046, 2.113788, 2.007085, 1.993343
Process 27: 3.036183, 2.815366, 2.268071, 2.027397, 2.256609, 2.079271, 2.038507, 2.035853, 2.199288, 2.184113, 1.989770, 2.035536, 1.995970, 1.997237, 2.137918, 2.048472, 2.013952, 2.113925, 2.006982, 1.993422
Process 28: 3.032371, 2.815326, 2.268513, 2.027496, 2.256231, 2.079318, 2.038524, 2.035865, 2.199440, 2.184038, 1.990641, 2.035005, 1.995231, 1.997546, 2.137308, 2.049626, 2.013383, 2.114832, 2.005706, 1.994028
Process 29: 3.032340, 2.815553, 2.268487, 2.027271, 2.256531, 2.079710, 2.038182, 2.035547, 2.199646, 2.184197, 1.990396, 2.035063, 1.995407, 1.997359, 2.137454, 2.049568, 2.013526, 2.114693, 2.005655, 1.993651
Process 30: 3.032267, 2.815311, 2.268757, 2.027328, 2.256229, 2.079927, 2.038059, 2.035710, 2.199103, 2.184590, 1.990450, 2.035089, 1.995427, 1.997208, 2.137551, 2.049370, 2.013843, 2.114282, 2.006153, 1.993665
Process 31: 3.017361, 2.817222, 2.272888, 2.028388, 2.255197, 2.080638, 2.038487, 2.035688, 2.196562, 2.187204, 1.989806, 2.035488, 1.993840, 1.998555, 2.135197, 2.051649, 2.013744, 2.114054, 2.006736, 1.993785
