Process 0: 1.323364, 0.994647, 0.758591, 0.808053, 0.704809, 0.715250, 0.708824, 0.800504, 0.812307, 0.693142, 0.695486, 0.701922, 0.747645, 0.784479, 0.704629, 0.792306, 0.694547, 0.720040, 0.717664, 0.702376
Process 1: 1.398678, 1.060221, 0.758845, 0.797791, 0.723328, 0.717302, 0.706270, 0.794327, 0.820850, 0.695404, 0.707478, 0.696742, 0.689912, 0.820546, 0.723756, 0.783809, 0.700619, 0.715594, 0.724995, 0.702466
Process 2: 1.412643, 1.053036, 0.759838, 0.799208, 0.720144, 0.718720, 0.703204, 0.797097, 0.822027, 0.693958, 0.705254, 0.698539, 0.692774, 0.820612, 0.719993, 0.787536, 0.696437, 0.717565, 0.723996, 0.701489
Process 3: 1.414040, 1.053394, 0.759138, 0.798147, 0.724337, 0.718769, 0.702846, 0.794347, 0.824599, 0.693268, 0.704406, 0.697813, 0.694847, 0.818461, 0.721986, 0.786849, 0.700871, 0.712698, 0.724537, 0.700549
Process 4: 1.418017, 1.051752, 0.763497, 0.793379, 0.724117, 0.719523, 0.701725, 0.794145, 0.824709, 0.692608, 0.705861, 0.698402, 0.692501, 0.819152, 0.722314, 0.786502, 0.699970, 0.714585, 0.723081, 0.702050
Process 5: 1.424500, 1.047098, 0.761903, 0.793694, 0.726001, 0.717929, 0.704575, 0.792675, 0.823711, 0.695213, 0.703629, 0.698283, 0.693683, 0.818472, 0.721388, 0.787545, 0.700690, 0.716434, 0.723438, 0.697705
Process 6: 1.429787, 1.042842, 0.761767, 0.794434, 0.724690, 0.718178, 0.705399, 0.793052, 0.823412, 0.693652, 0.705686, 0.698153, 0.693017, 0.818766, 0.720585, 0.790114, 0.700367, 0.714826, 0.722189, 0.700164
Process 7: 1.436521, 1.037315, 0.760207, 0.796752, 0.723562, 0.717903, 0.704287, 0.793792, 0.822965, 0.694743, 0.704434, 0.698962, 0.694136, 0.818800, 0.721627, 0.786260, 0.702135, 0.714115, 0.723065, 0.699186
Process 8: 1.445816, 1.028929, 0.760391, 0.796111, 0.723746, 0.718544, 0.704893, 0.793307, 0.822508, 0.695164, 0.703858, 0.699132, 0.694622, 0.818029, 0.721435, 0.786804, 0.702301, 0.714217, 0.722673, 0.699212
Process 9: 1.457284, 1.023764, 0.752030, 0.800876, 0.724969, 0.714714, 0.705801, 0.792322, 0.822479, 0.696251, 0.704620, 0.697150, 0.694528, 0.819985, 0.720981, 0.787353, 0.700167, 0.714466, 0.724437, 0.697246
Process 10: 1.457316, 1.028767, 0.748035, 0.802994, 0.723432, 0.714232, 0.705972, 0.793282, 0.824908, 0.694829, 0.704207, 0.696466, 0.694673, 0.822850, 0.718118, 0.786556, 0.699182, 0.717617, 0.722552, 0.697270
Process 11: 1.463739, 1.024251, 0.747946, 0.803414, 0.722776, 0.715915, 0.703153, 0.792746, 0.824984, 0.697332, 0.701598, 0.697316, 0.695045, 0.822143, 0.719963, 0.785406, 0.701136, 0.716911, 0.721029, 0.697675
Process 12: 1.468265, 1.020739, 0.746760, 0.804064, 0.724629, 0.714779, 0.702250, 0.794763, 0.825475, 0.695106, 0.701875, 0.697658, 0.694170, 0.823167, 0.719157, 0.785671, 0.701355, 0.716062, 0.722919, 0.696034
Process 13: 1.472921, 1.015881, 0.748570, 0.803007, 0.724482, 0.714872, 0.703615, 0.793789, 0.825001, 0.694922, 0.702316, 0.698503, 0.694556, 0.823597, 0.718795, 0.785088, 0.701081, 0.716027, 0.723189, 0.695927
Process 14: 1.476174, 1.013591, 0.749318, 0.803357, 0.723505, 0.714951, 0.703653, 0.794724, 0.823571, 0.695413, 0.702269, 0.698623, 0.694196, 0.825525, 0.717077, 0.784307, 0.702453, 0.715503, 0.722973, 0.696570
Process 15: 1.478385, 1.011984, 0.749718, 0.803624, 0.723039, 0.714877, 0.703959, 0.794724, 0.823309, 0.695356, 0.702223, 0.698715, 0.694015, 0.827094, 0.715887, 0.784014, 0.702772, 0.715074, 0.723228, 0.696569
Process 16: 1.485222, 1.009599, 0.754525, 0.801654, 0.727054, 0.715188, 0.693633, 0.801345, 0.822191, 0.694536, 0.703143, 0.699882, 0.687699, 0.833950, 0.714549, 0.784098, 0.703227, 0.717801, 0.719886, 0.696809
Process 17: 1.487627, 1.007436, 0.754408, 0.801494, 0.728001, 0.714774, 0.696305, 0.797988, 0.823047, 0.694377, 0.702696, 0.700294, 0.690641, 0.830521, 0.715392, 0.783357, 0.703362, 0.718245, 0.719650, 0.696816
Process 18: 1.487326, 1.010233, 0.752453, 0.802894, 0.726551, 0.714702, 0.693632, 0.802828, 0.820960, 0.695370, 0.702093, 0.699933, 0.688084, 0.834537, 0.714385, 0.783150, 0.703350, 0.718610, 0.719020, 0.696741
Process 19: 1.485266, 1.013088, 0.751655, 0.803734, 0.725241, 0.715057, 0.701312, 0.795567, 0.820173, 0.696465, 0.701378, 0.700053, 0.687790, 0.835660, 0.713880, 0.783061, 0.703406, 0.718219, 0.719383, 0.697811
Process 20: 1.488064, 1.010312, 0.751171, 0.803426, 0.726752, 0.714252, 0.693564, 0.803498, 0.820566, 0.695512, 0.701835, 0.699940, 0.688024, 0.834434, 0.715427, 0.782207, 0.703374, 0.719052, 0.718682, 0.697125
Process 21: 1.489595, 1.008825, 0.751846, 0.802768, 0.727143, 0.714123, 0.694417, 0.802400, 0.821001, 0.695966, 0.701222, 0.700002, 0.688757, 0.834229, 0.714890, 0.782587, 0.702962, 0.719197, 0.718579, 0.698377
Process 22: 1.490855, 1.008258, 0.750889, 0.805479, 0.724982, 0.714056, 0.698570, 0.798016, 0.821537, 0.695723, 0.701275, 0.699872, 0.692208, 0.830299, 0.715602, 0.782174, 0.703287, 0.719215, 0.718496, 0.697537
Process 23: 1.492891, 1.007153, 0.750749, 0.804992, 0.725741, 0.713342, 0.699157, 0.797498, 0.821869, 0.696034, 0.700733, 0.700000, 0.692357, 0.830019, 0.716097, 0.781619, 0.703490, 0.718790, 0.718809, 0.697661
Process 24: 1.492629, 1.005651, 0.746651, 0.808125, 0.723864, 0.713023, 0.703991, 0.794008, 0.823036, 0.696490, 0.700722, 0.699964, 0.688714, 0.833302, 0.716217, 0.781510, 0.704054, 0.714653, 0.722548, 0.697849
Process 25: 1.492676, 1.006152, 0.747990, 0.806977, 0.723986, 0.712574, 0.707622, 0.790390, 0.822936, 0.696752, 0.700802, 0.699696, 0.697398, 0.823981, 0.717067, 0.781919, 0.704051, 0.715059, 0.721813, 0.697235
Process 26: 1.493051, 1.006526, 0.747975, 0.807557, 0.723354, 0.713257, 0.704747, 0.793012, 0.822807, 0.696578, 0.701017, 0.699766, 0.696245, 0.824459, 0.717423, 0.781990, 0.703624, 0.715418, 0.721856, 0.697792
Process 27: 1.493169, 1.006891, 0.748360, 0.807377, 0.723825, 0.712837, 0.704473, 0.794740, 0.820955, 0.696763, 0.700691, 0.699881, 0.694105, 0.828624, 0.715442, 0.781892, 0.703717, 0.715978, 0.721371, 0.697812
Process 28: 1.493035, 1.006909, 0.748312, 0.807789, 0.723844, 0.712601, 0.704375, 0.794904, 0.820852, 0.696614, 0.700608, 0.699868, 0.694444, 0.828579, 0.715442, 0.781545, 0.703777, 0.716862, 0.720545, 0.697678
Process 29: 1.493162, 1.006911, 0.748454, 0.807554, 0.723965, 0.713069, 0.705066, 0.792725, 0.822018, 0.696502, 0.700499, 0.699840, 0.695956, 0.826095, 0.716535, 0.781507, 0.703704, 0.717159, 0.720235, 0.697706
Process 30: 1.493172, 1.007670, 0.748150, 0.806568, 0.724745, 0.713409, 0.703533, 0.794002, 0.821838, 0.696447, 0.700501, 0.699847, 0.694776, 0.827482, 0.716338, 0.782232, 0.702966, 0.717579, 0.719781, 0.697682
Process 31: 1.378503, 1.063003, 0.753763, 0.805261, 0.723981, 0.717923, 0.702699, 0.792867, 0.825121, 0.697176, 0.698252, 0.697590, 0.694378, 0.825088, 0.718637, 0.781740, 0.699318, 0.716630, 0.724957, 0.698572
