Process 0: 0.788168, 0.624088, 0.525521, 0.500303, 0.487902, 0.499223, 0.541586, 0.500347, 0.540848, 0.507326, 0.492261, 0.501103, 0.561400, 0.486453, 0.510626, 0.498692, 0.512853, 0.482513, 0.525248, 0.501202
Process 1: 0.901745, 0.639134, 0.551337, 0.504229, 0.485469, 0.499960, 0.544005, 0.497233, 0.543511, 0.490465, 0.507833, 0.495052, 0.541493, 0.511640, 0.515899, 0.492709, 0.512815, 0.486232, 0.500487, 0.518554
Process 2: 0.904382, 0.639295, 0.551930, 0.506981, 0.480847, 0.502124, 0.543237, 0.497269, 0.542955, 0.493099, 0.505922, 0.494539, 0.541865, 0.511082, 0.513787, 0.496038, 0.511916, 0.486147, 0.500639, 0.522320
Process 3: 0.909588, 0.637083, 0.559721, 0.498349, 0.480568, 0.501784, 0.542492, 0.497354, 0.545715, 0.489627, 0.507367, 0.494322, 0.541289, 0.510629, 0.515752, 0.497619, 0.508720, 0.487767, 0.498524, 0.525114
Process 4: 0.912716, 0.637680, 0.557661, 0.505617, 0.475811, 0.501855, 0.547228, 0.493251, 0.549162, 0.485957, 0.514673, 0.488451, 0.537532, 0.514487, 0.514483, 0.498034, 0.511351, 0.482589, 0.500483, 0.529223
Process 5: 0.911499, 0.642143, 0.556134, 0.505755, 0.479753, 0.498963, 0.545926, 0.497847, 0.544635, 0.488813, 0.511205, 0.493084, 0.534445, 0.515539, 0.513737, 0.497203, 0.512977, 0.483375, 0.498282, 0.534124
Process 6: 0.918228, 0.633368, 0.556257, 0.504992, 0.481639, 0.499205, 0.545087, 0.498203, 0.544217, 0.489671, 0.508641, 0.494488, 0.538977, 0.513425, 0.512979, 0.496665, 0.512984, 0.482932, 0.500937, 0.528566
Process 7: 0.916985, 0.637628, 0.556617, 0.504597, 0.482093, 0.499243, 0.544883, 0.497794, 0.544774, 0.489769, 0.509373, 0.493738, 0.538250, 0.514016, 0.513526, 0.495956, 0.513287, 0.483958, 0.499750, 0.529624
Process 8: 0.920333, 0.632526, 0.554285, 0.504785, 0.479979, 0.500018, 0.543243, 0.499487, 0.542527, 0.492348, 0.510336, 0.492388, 0.540315, 0.512030, 0.513847, 0.497570, 0.508769, 0.489042, 0.497033, 0.531902
Process 9: 0.921457, 0.634091, 0.549947, 0.504414, 0.486770, 0.498527, 0.543929, 0.501355, 0.542911, 0.490084, 0.505659, 0.496449, 0.538896, 0.514369, 0.511991, 0.497890, 0.510964, 0.488350, 0.498107, 0.529690
Process 10: 0.925313, 0.629624, 0.552444, 0.504229, 0.483634, 0.498997, 0.545271, 0.498728, 0.542048, 0.492410, 0.508487, 0.494094, 0.539282, 0.512823, 0.513553, 0.496533, 0.513808, 0.485203, 0.498256, 0.529436
Process 11: 0.923865, 0.632884, 0.554411, 0.503117, 0.483867, 0.498226, 0.545411, 0.498939, 0.543064, 0.490997, 0.508755, 0.493807, 0.539190, 0.512360, 0.514473, 0.496093, 0.513467, 0.486099, 0.498067, 0.529208
Process 12: 0.925890, 0.633094, 0.552708, 0.503539, 0.483434, 0.498829, 0.544913, 0.498758, 0.543267, 0.490797, 0.508939, 0.493883, 0.539412, 0.511927, 0.514479, 0.496290, 0.513917, 0.485281, 0.498182, 0.529142
Process 13: 0.926293, 0.632498, 0.552905, 0.503923, 0.483123, 0.498808, 0.544969, 0.498743, 0.543556, 0.490529, 0.508872, 0.493792, 0.539942, 0.512057, 0.513861, 0.496278, 0.513888, 0.485286, 0.498396, 0.528966
Process 14: 0.925815, 0.632927, 0.552491, 0.504210, 0.482845, 0.498934, 0.544900, 0.498737, 0.543497, 0.490637, 0.508816, 0.493918, 0.539780, 0.512237, 0.513716, 0.496311, 0.513564, 0.485606, 0.498308, 0.528920
Process 15: 0.895346, 0.635842, 0.557626, 0.497095, 0.490360, 0.498169, 0.545047, 0.501613, 0.540240, 0.494186, 0.513122, 0.490425, 0.533927, 0.518643, 0.509756, 0.497425, 0.512408, 0.486568, 0.502991, 0.519881
Process 16: 0.905544, 0.634173, 0.555580, 0.503715, 0.486878, 0.501875, 0.539700, 0.500879, 0.541756, 0.490126, 0.508482, 0.495395, 0.529739, 0.522172, 0.510737, 0.497688, 0.520200, 0.476640, 0.506352, 0.518251
Process 17: 0.905156, 0.638468, 0.552179, 0.502602, 0.489550, 0.498892, 0.544904, 0.495543, 0.543449, 0.491260, 0.506944, 0.496438, 0.538651, 0.515428, 0.513718, 0.493027, 0.517593, 0.480561, 0.502147, 0.519754
Process 18: 0.905401, 0.642674, 0.550395, 0.504134, 0.486377, 0.502689, 0.542656, 0.495656, 0.542329, 0.491298, 0.506152, 0.497565, 0.541112, 0.511339, 0.512274, 0.496022, 0.516711, 0.479600, 0.502658, 0.520433
Process 19: 0.908820, 0.639942, 0.557207, 0.500617, 0.485464, 0.502061, 0.541144, 0.497837, 0.544013, 0.488578, 0.508939, 0.495821, 0.536356, 0.515149, 0.514377, 0.497286, 0.513260, 0.479715, 0.503188, 0.519235
Process 20: 0.913552, 0.640087, 0.554617, 0.504029, 0.484337, 0.500395, 0.543969, 0.497073, 0.543830, 0.489453, 0.509758, 0.494614, 0.535315, 0.516213, 0.513754, 0.496212, 0.514763, 0.479021, 0.503344, 0.527155
Process 21: 0.918133, 0.637307, 0.550524, 0.504646, 0.483875, 0.500270, 0.544600, 0.496940, 0.543814, 0.489390, 0.509881, 0.494117, 0.538462, 0.512836, 0.514050, 0.496132, 0.514963, 0.480779, 0.501330, 0.528322
Process 22: 0.917878, 0.635660, 0.553062, 0.504133, 0.485444, 0.500139, 0.542998, 0.498504, 0.542923, 0.490715, 0.507821, 0.495430, 0.538269, 0.513772, 0.513203, 0.496115, 0.515318, 0.482055, 0.501308, 0.525002
Process 23: 0.920893, 0.635580, 0.551492, 0.503406, 0.485059, 0.500850, 0.542846, 0.498181, 0.542993, 0.490960, 0.508221, 0.495017, 0.538050, 0.514133, 0.513735, 0.495562, 0.515522, 0.480852, 0.502092, 0.525084
Process 24: 0.925479, 0.631944, 0.551317, 0.505054, 0.483750, 0.499847, 0.543940, 0.498293, 0.542202, 0.491916, 0.509233, 0.493751, 0.538739, 0.513895, 0.513828, 0.495764, 0.513554, 0.484845, 0.499351, 0.527663
Process 25: 0.924536, 0.633788, 0.550426, 0.504021, 0.484993, 0.499151, 0.544532, 0.498637, 0.543693, 0.491360, 0.507836, 0.493917, 0.538520, 0.513666, 0.514094, 0.496053, 0.514037, 0.484266, 0.499141, 0.527177
Process 26: 0.926984, 0.630835, 0.551458, 0.504373, 0.484283, 0.499838, 0.543358, 0.499093, 0.542838, 0.491688, 0.508335, 0.494025, 0.538954, 0.513335, 0.513824, 0.496003, 0.514852, 0.483597, 0.499323, 0.526883
Process 27: 0.925605, 0.632034, 0.552755, 0.503635, 0.484642, 0.499732, 0.544059, 0.498268, 0.543248, 0.491529, 0.507992, 0.494647, 0.538598, 0.513041, 0.514303, 0.495824, 0.514973, 0.483531, 0.499587, 0.526354
Process 28: 0.926263, 0.633445, 0.550693, 0.503835, 0.484414, 0.499574, 0.543958, 0.498602, 0.543036, 0.491650, 0.508056, 0.494585, 0.539067, 0.512577, 0.514141, 0.496070, 0.514964, 0.483672, 0.499438, 0.526316
Process 29: 0.928122, 0.631869, 0.550525, 0.503853, 0.484436, 0.499809, 0.543962, 0.498401, 0.543015, 0.491635, 0.508008, 0.494514, 0.539348, 0.512561, 0.514072, 0.495896, 0.514891, 0.483435, 0.499741, 0.526276
Process 30: 0.927425, 0.632335, 0.550878, 0.503769, 0.484401, 0.499879, 0.543874, 0.498487, 0.542981, 0.491663, 0.507958, 0.494541, 0.539472, 0.512438, 0.514041, 0.496006, 0.514841, 0.483727, 0.499437, 0.526257
Process 31: 0.897212, 0.634490, 0.557969, 0.497406, 0.490800, 0.497143, 0.545492, 0.502635, 0.539229, 0.496186, 0.507896, 0.494983, 0.529481, 0.522074, 0.509202, 0.498632, 0.512635, 0.484939, 0.502906, 0.520830
