Process 16:
Process 26:
Process 27:
Process 29:
Process 30:
Process 31:
Process 1:
Process 2:
Process 3:
Process 4:
Process 5:
Process 6:
Process 7:
Process 8:
Process 9:
Process 10:
Process 11:
Process 12:
Process 13:
Process 14:
Process 15:
Process 17:
Process 18:
Process 19:
Process 20:
Process 21:
Process 22:
Process 24:
Process 25:
Process 28:
Process 23:
Process 0:
Model:                 1
Model name:            AMD EPYC 7763 64-Core Processor
L1d cache:             32K
L2 cache:              512K
L3 cache:              32768K
Model:                 1
Model name:            AMD EPYC 7763 64-Core Processor
L1d cache:             32K
L2 cache:              512K
L3 cache:              32768K
Model:                 1
Model name:            AMD EPYC 7763 64-Core Processor
L1d cache:             32K
L2 cache:              512K
L3 cache:              32768K
Model:                 1
Model name:            AMD EPYC 7763 64-Core Processor
L1d cache:             32K
L2 cache:              512K
L3 cache:              32768K
Model:                 1
Model name:            AMD EPYC 7763 64-Core Processor
L1d cache:             32K
L2 cache:              512K
L3 cache:              32768K
Model:                 1
Model name:            AMD EPYC 7763 64-Core Processor
L1d cache:             32K
L2 cache:              512K
L3 cache:              32768K
Model:                 1
Model name:            AMD EPYC 7763 64-Core Processor
L1d cache:             32K
L2 cache:              512K
L3 cache:              32768K
Model:                 1
Model name:            AMD EPYC 7763 64-Core Processor
L1d cache:             32K
L2 cache:              512K
L3 cache:              32768K
Model:                 1
Model name:            AMD EPYC 7763 64-Core Processor
L1d cache:             32K
L2 cache:              512K
L3 cache:              32768K
Model:                 1
Model name:            AMD EPYC 7763 64-Core Processor
L1d cache:             32K
L2 cache:              512K
L3 cache:              32768K
Model:                 1
Model name:            AMD EPYC 7763 64-Core Processor
L1d cache:             32K
L2 cache:              512K
L3 cache:              32768K
Model:                 1
Model name:            AMD EPYC 7763 64-Core Processor
L1d cache:             32K
L2 cache:              512K
L3 cache:              32768K
Model:                 1
Model name:            AMD EPYC 7763 64-Core Processor
L1d cache:             32K
L2 cache:              512K
L3 cache:              32768K
Model:                 1
Model name:            AMD EPYC 7763 64-Core Processor
L1d cache:             32K
L2 cache:              512K
L3 cache:              32768K
Model:                 1
Model name:            AMD EPYC 7763 64-Core Processor
L1d cache:             32K
L2 cache:              512K
L3 cache:              32768K
Model:                 1
Model name:            AMD EPYC 7763 64-Core Processor
L1d cache:             32K
L2 cache:              512K
L3 cache:              32768K
Model:                 1
Model name:            AMD EPYC 7763 64-Core Processor
L1d cache:             32K
L2 cache:              512K
L3 cache:              32768K
Model:                 1
Model name:            AMD EPYC 7763 64-Core Processor
L1d cache:             32K
L2 cache:              512K
L3 cache:              32768K
Model:                 1
Model name:            AMD EPYC 7763 64-Core Processor
L1d cache:             32K
L2 cache:              512K
L3 cache:              32768K
Model:                 1
Model name:            AMD EPYC 7763 64-Core Processor
L1d cache:             32K
L2 cache:              512K
L3 cache:              32768K
Model:                 1
Model name:            AMD EPYC 7763 64-Core Processor
L1d cache:             32K
L2 cache:              512K
L3 cache:              32768K
Model:                 1
Model name:            AMD EPYC 7763 64-Core Processor
L1d cache:             32K
L2 cache:              512K
L3 cache:              32768K
Model:                 1
Model name:            AMD EPYC 7763 64-Core Processor
L1d cache:             32K
L2 cache:              512K
L3 cache:              32768K
Model:                 1
Model name:            AMD EPYC 7763 64-Core Processor
L1d cache:             32K
L2 cache:              512K
L3 cache:              32768K
Model:                 1
Model name:            AMD EPYC 7763 64-Core Processor
L1d cache:             32K
L2 cache:              512K
L3 cache:              32768K
Model:                 1
Model name:            AMD EPYC 7763 64-Core Processor
L1d cache:             32K
L2 cache:              512K
L3 cache:              32768K
Model:                 1
Model name:            AMD EPYC 7763 64-Core Processor
L1d cache:             32K
L2 cache:              512K
L3 cache:              32768K
Model:                 1
Model name:            AMD EPYC 7763 64-Core Processor
L1d cache:             32K
L2 cache:              512K
L3 cache:              32768K
Model:                 1
Model name:            AMD EPYC 7763 64-Core Processor
L1d cache:             32K
L2 cache:              512K
L3 cache:              32768K
Model:                 1
Model name:            AMD EPYC 7763 64-Core Processor
L1d cache:             32K
L2 cache:              512K
L3 cache:              32768K
Model:                 1
Model name:            AMD EPYC 7763 64-Core Processor
L1d cache:             32K
L2 cache:              512K
L3 cache:              32768K
Model:                 1
Model name:            AMD EPYC 7763 64-Core Processor
L1d cache:             32K
L2 cache:              512K
L3 cache:              32768K
