Process 0: 1.892381, 1.713602, 1.587966, 1.549241, 1.407632, 1.377507, 1.356589, 1.335013, 1.363974, 1.353278, 1.464299, 1.365937, 1.357711, 1.344428, 1.345054, 1.329596, 1.331719, 1.358405, 1.421391, 1.387145
Process 1: 1.933053, 1.753137, 1.613004, 1.516121, 1.403991, 1.385239, 1.392275, 1.329462, 1.371233, 1.333772, 1.449666, 1.358566, 1.395792, 1.338899, 1.353075, 1.320620, 1.343541, 1.349588, 1.427580, 1.377370
Process 2: 1.935322, 1.759079, 1.610493, 1.509429, 1.407904, 1.383421, 1.393458, 1.328568, 1.372045, 1.333256, 1.452716, 1.354748, 1.397196, 1.338205, 1.354406, 1.318992, 1.345427, 1.347557, 1.428947, 1.374950
Process 3: 1.935086, 1.759096, 1.610548, 1.509207, 1.407929, 1.383542, 1.393411, 1.328623, 1.372004, 1.333292, 1.449433, 1.358007, 1.397102, 1.338328, 1.354396, 1.318978, 1.345433, 1.347537, 1.428905, 1.375016
Process 4: 1.935546, 1.760956, 1.608240, 1.508908, 1.408185, 1.383620, 1.393300, 1.328779, 1.371792, 1.333515, 1.452443, 1.354842, 1.397078, 1.338489, 1.354318, 1.319071, 1.345397, 1.347518, 1.428769, 1.375071
Process 5: 1.935573, 1.761431, 1.607719, 1.506879, 1.409449, 1.383827, 1.392757, 1.329487, 1.371607, 1.333672, 1.452749, 1.354350, 1.397222, 1.338746, 1.353920, 1.319190, 1.345148, 1.347564, 1.428978, 1.374968
Process 6: 1.932747, 1.757752, 1.615699, 1.503427, 1.412156, 1.382654, 1.391576, 1.330677, 1.370121, 1.335169, 1.452830, 1.354192, 1.395613, 1.340205, 1.353091, 1.320301, 1.344345, 1.347906, 1.427991, 1.375483
Process 7: 1.932549, 1.759065, 1.613302, 1.508892, 1.405268, 1.387605, 1.391835, 1.329978, 1.368370, 1.336713, 1.447653, 1.359918, 1.393663, 1.342351, 1.350538, 1.322768, 1.342951, 1.349421, 1.426078, 1.379496
Process 8: 1.932894, 1.757344, 1.614633, 1.505890, 1.409856, 1.381413, 1.395138, 1.326765, 1.371520, 1.333427, 1.455745, 1.352691, 1.395997, 1.339002, 1.354106, 1.319043, 1.345929, 1.347699, 1.428127, 1.374259
Process 9: 1.932749, 1.755206, 1.617225, 1.511213, 1.407834, 1.383004, 1.394450, 1.327269, 1.373519, 1.331877, 1.452755, 1.354568, 1.398728, 1.337165, 1.355459, 1.317828, 1.346894, 1.345883, 1.430371, 1.374528
Process 10: 1.932567, 1.763061, 1.609379, 1.510184, 1.406439, 1.383901, 1.394416, 1.326290, 1.374122, 1.328717, 1.456772, 1.355502, 1.396680, 1.339164, 1.352812, 1.317305, 1.348425, 1.347490, 1.429163, 1.376040
Process 11: 1.932628, 1.763868, 1.608463, 1.508031, 1.411062, 1.381654, 1.395745, 1.324241, 1.376576, 1.330201, 1.454882, 1.350694, 1.402161, 1.333847, 1.358728, 1.317532, 1.347246, 1.345884, 1.430378, 1.372064
Process 12: 1.932868, 1.764053, 1.607862, 1.509227, 1.408538, 1.381414, 1.395425, 1.325891, 1.374804, 1.330992, 1.454949, 1.349329, 1.402560, 1.335336, 1.357301, 1.315949, 1.348557, 1.342409, 1.433909, 1.372695
Process 13: 1.932860, 1.758524, 1.613560, 1.511147, 1.407416, 1.383174, 1.394240, 1.327353, 1.373351, 1.332132, 1.452303, 1.353221, 1.400320, 1.336843, 1.355828, 1.317495, 1.347248, 1.341331, 1.434915, 1.373891
Process 14: 1.933092, 1.760256, 1.611573, 1.509685, 1.408972, 1.383072, 1.394282, 1.327424, 1.373326, 1.332136, 1.452266, 1.354150, 1.399421, 1.337103, 1.355604, 1.317867, 1.346795, 1.342767, 1.433478, 1.373086
Process 15: 1.933574, 1.761254, 1.610112, 1.511271, 1.407464, 1.383086, 1.394303, 1.327388, 1.373365, 1.332086, 1.452374, 1.354454, 1.399044, 1.337279, 1.355435, 1.317921, 1.346737, 1.344198, 1.432057, 1.373267
Process 16: 1.936495, 1.756675, 1.610660, 1.509313, 1.409410, 1.384290, 1.393078, 1.328592, 1.372214, 1.333730, 1.451256, 1.355238, 1.397738, 1.337354, 1.354389, 1.319687, 1.344444, 1.346744, 1.430430, 1.373583
Process 17: 1.936521, 1.756747, 1.610569, 1.511060, 1.410378, 1.382226, 1.394493, 1.327447, 1.373920, 1.331765, 1.453155, 1.353479, 1.399518, 1.335990, 1.355175, 1.318640, 1.346013, 1.345220, 1.432013, 1.373542
Process 18: 1.937074, 1.755105, 1.611986, 1.512707, 1.409125, 1.382201, 1.395944, 1.326014, 1.374105, 1.331419, 1.453493, 1.353182, 1.399759, 1.335739, 1.356154, 1.317718, 1.346233, 1.344983, 1.432346, 1.373397
Process 19: 1.937381, 1.753476, 1.613206, 1.513312, 1.408376, 1.381132, 1.394960, 1.326924, 1.375433, 1.329783, 1.453796, 1.352808, 1.400587, 1.334862, 1.357999, 1.316020, 1.346956, 1.343696, 1.433715, 1.372605
Process 20: 1.937347, 1.755047, 1.611276, 1.514853, 1.406338, 1.382206, 1.394758, 1.327096, 1.374363, 1.330829, 1.453877, 1.352889, 1.400120, 1.335400, 1.356675, 1.317166, 1.346734, 1.344490, 1.432794, 1.373486
Process 21: 1.936884, 1.753759, 1.613038, 1.514612, 1.406655, 1.382071, 1.394802, 1.327061, 1.374394, 1.330884, 1.453784, 1.352969, 1.400088, 1.335412, 1.356650, 1.317249, 1.346663, 1.344415, 1.432861, 1.373279
Process 22: 1.935250, 1.754349, 1.614354, 1.514550, 1.406745, 1.381847, 1.395009, 1.326873, 1.374593, 1.330679, 1.453994, 1.352743, 1.400300, 1.335168, 1.356903, 1.317001, 1.346906, 1.344183, 1.433095, 1.373026
Process 23: 1.934977, 1.752985, 1.615692, 1.516110, 1.405176, 1.381850, 1.395018, 1.326859, 1.374602, 1.330666, 1.454012, 1.352731, 1.400308, 1.335168, 1.356904, 1.316977, 1.346925, 1.344142, 1.433139, 1.373054
Process 24: 1.929225, 1.760079, 1.610358, 1.517857, 1.405107, 1.381568, 1.395836, 1.325572, 1.375955, 1.329042, 1.455028, 1.352565, 1.400987, 1.333791, 1.358441, 1.315513, 1.348203, 1.344131, 1.433189, 1.372807
Process 25: 1.979105, 1.749844, 1.604729, 1.516192, 1.416662, 1.369629, 1.393883, 1.332117, 1.371390, 1.324992, 1.483528, 1.330891, 1.404061, 1.324292, 1.362683, 1.319729, 1.343943, 1.343228, 1.434000, 1.378647
Process 26: 1.978661, 1.749838, 1.604641, 1.516285, 1.416319, 1.369980, 1.394087, 1.331607, 1.371866, 1.324831, 1.481110, 1.332948, 1.404241, 1.324398, 1.362933, 1.319035, 1.344627, 1.343052, 1.434188, 1.378049
Process 27: 1.975855, 1.750416, 1.604625, 1.516259, 1.415539, 1.370572, 1.394305, 1.331629, 1.371986, 1.325488, 1.479912, 1.332452, 1.404801, 1.325536, 1.362292, 1.318931, 1.344722, 1.343701, 1.433597, 1.377867
Process 28: 1.971618, 1.750357, 1.605488, 1.515931, 1.413467, 1.373049, 1.393140, 1.333362, 1.369920, 1.328444, 1.474649, 1.336965, 1.400013, 1.331096, 1.359114, 1.321083, 1.342555, 1.346841, 1.430382, 1.377924
Process 29: 1.962762, 1.752905, 1.606179, 1.515021, 1.411466, 1.375771, 1.394500, 1.330572, 1.371816, 1.329005, 1.468873, 1.340282, 1.399989, 1.333103, 1.358846, 1.319341, 1.344310, 1.347018, 1.430369, 1.375193
Process 30: 1.952470, 1.753769, 1.608135, 1.515522, 1.407820, 1.383523, 1.390535, 1.328612, 1.373697, 1.331870, 1.461838, 1.345574, 1.398432, 1.336392, 1.355824, 1.320457, 1.343267, 1.346579, 1.430415, 1.376662
Process 31: 1.939958, 1.755346, 1.612170, 1.514372, 1.405951, 1.384058, 1.392945, 1.328178, 1.373170, 1.332143, 1.453250, 1.354165, 1.398127, 1.336723, 1.355459, 1.318687, 1.345119, 1.346970, 1.430234, 1.374904
