Process 0: 1.313600, 1.118347, 1.115314, 1.060758, 0.923162, 0.928829, 0.887566, 0.931276, 0.865649, 0.875433, 0.857382, 0.873863, 0.869951, 0.882929, 0.862081, 0.923596, 0.908774, 0.883969, 0.895605, 0.880987
Process 1: 1.336297, 1.198282, 1.073756, 1.113044, 0.936216, 0.886173, 0.932423, 0.893280, 0.902212, 0.866371, 0.870221, 0.859491, 0.887755, 0.863857, 0.884886, 0.885895, 0.929370, 0.878234, 0.882666, 0.895507
Process 2: 1.337567, 1.194547, 1.075712, 1.114988, 0.937566, 0.883383, 0.934025, 0.891518, 0.905874, 0.862341, 0.873958, 0.855980, 0.891213, 0.860200, 0.888204, 0.882368, 0.934046, 0.873919, 0.886682, 0.891492
Process 3: 1.338545, 1.195841, 1.075090, 1.112646, 0.936488, 0.887240, 0.929855, 0.895584, 0.900058, 0.869412, 0.867151, 0.861598, 0.887778, 0.864544, 0.882131, 0.887901, 0.927362, 0.880310, 0.880580, 0.898099
Process 4: 1.336254, 1.199874, 1.071646, 1.115920, 0.935628, 0.886429, 0.929829, 0.896257, 0.899136, 0.869498, 0.867073, 0.862360, 0.884791, 0.867036, 0.881721, 0.888294, 0.927325, 0.880917, 0.879609, 0.898663
Process 5: 1.340894, 1.199732, 1.070979, 1.118663, 0.931924, 0.885638, 0.928551, 0.899522, 0.898190, 0.869700, 0.866113, 0.864161, 0.883968, 0.867482, 0.882933, 0.886812, 0.926108, 0.882442, 0.878109, 0.900198
Process 6: 1.346608, 1.194011, 1.071182, 1.111587, 0.945039, 0.879138, 0.931615, 0.894990, 0.902999, 0.864118, 0.872234, 0.857940, 0.889651, 0.861654, 0.886754, 0.884901, 0.930016, 0.876783, 0.884412, 0.893792
Process 7: 1.340612, 1.199992, 1.071093, 1.116436, 0.937915, 0.882434, 0.926248, 0.900908, 0.897740, 0.870132, 0.869050, 0.861205, 0.882827, 0.868607, 0.879356, 0.889993, 0.924340, 0.884581, 0.881054, 0.897279
Process 8: 1.344188, 1.195589, 1.070388, 1.119231, 0.936829, 0.881669, 0.927657, 0.900353, 0.898854, 0.869048, 0.866889, 0.863382, 0.884382, 0.867056, 0.881097, 0.888938, 0.925368, 0.882875, 0.878433, 0.899895
Process 9: 1.346595, 1.188609, 1.074939, 1.112932, 0.937376, 0.886451, 0.930375, 0.895737, 0.901758, 0.865922, 0.870404, 0.859740, 0.887735, 0.863514, 0.884908, 0.885017, 0.930714, 0.877863, 0.882510, 0.895549
Process 10: 1.341463, 1.198362, 1.070250, 1.118427, 0.933248, 0.885389, 0.929392, 0.898670, 0.899704, 0.868253, 0.868142, 0.862009, 0.885367, 0.866149, 0.882388, 0.886267, 0.928653, 0.880932, 0.880259, 0.898113
Process 11: 1.343413, 1.194288, 1.072236, 1.119757, 0.932180, 0.884502, 0.930067, 0.899050, 0.899299, 0.868460, 0.867908, 0.862348, 0.885034, 0.866266, 0.882272, 0.888078, 0.926820, 0.881293, 0.879909, 0.898121
Process 12: 1.340354, 1.197707, 1.072195, 1.115765, 0.934759, 0.884055, 0.932658, 0.893503, 0.903914, 0.863835, 0.872564, 0.857673, 0.890615, 0.860298, 0.887319, 0.882811, 0.932047, 0.876084, 0.885153, 0.893281
Process 13: 1.337903, 1.194183, 1.077736, 1.120369, 0.929622, 0.887885, 0.927840, 0.899937, 0.898450, 0.869116, 0.867470, 0.862858, 0.884810, 0.866846, 0.881455, 0.887887, 0.926783, 0.881820, 0.879597, 0.898975
Process 14: 1.336593, 1.203326, 1.068286, 1.122016, 0.929323, 0.887912, 0.928341, 0.897832, 0.900347, 0.868328, 0.868226, 0.861958, 0.885623, 0.866444, 0.882035, 0.887524, 0.927183, 0.880602, 0.880690, 0.898394
Process 15: 1.346083, 1.187098, 1.075271, 1.121794, 0.929460, 0.883130, 0.934279, 0.891792, 0.906294, 0.860573, 0.875936, 0.854156, 0.893442, 0.857903, 0.890605, 0.883894, 0.930981, 0.872823, 0.888376, 0.890038
Process 16: 1.338857, 1.193010, 1.077460, 1.114511, 0.931620, 0.887989, 0.931125, 0.894251, 0.903762, 0.863979, 0.875061, 0.855020, 0.890095, 0.861214, 0.887357, 0.882550, 0.932403, 0.876243, 0.887381, 0.891308
Process 17: 1.333807, 1.196993, 1.077402, 1.115594, 0.930865, 0.889495, 0.930718, 0.895502, 0.902808, 0.864901, 0.871481, 0.859030, 0.888536, 0.862788, 0.886247, 0.883873, 0.930611, 0.877579, 0.883533, 0.894707
Process 18: 1.335345, 1.198284, 1.074620, 1.114782, 0.931019, 0.890636, 0.931888, 0.894151, 0.903194, 0.865657, 0.871045, 0.858476, 0.889037, 0.862500, 0.885972, 0.886071, 0.929194, 0.877590, 0.883220, 0.894129
Process 19: 1.339184, 1.191041, 1.078791, 1.113188, 0.932361, 0.890213, 0.931827, 0.894619, 0.903236, 0.865633, 0.871136, 0.858513, 0.888905, 0.862478, 0.886137, 0.885362, 0.929702, 0.877650, 0.883472, 0.894095
Process 20: 1.336278, 1.200004, 1.072036, 1.114907, 0.931619, 0.888682, 0.933061, 0.893859, 0.904095, 0.864311, 0.872487, 0.857428, 0.889927, 0.861346, 0.887258, 0.883950, 0.931122, 0.876397, 0.884815, 0.893060
Process 21: 1.337940, 1.194093, 1.076225, 1.115532, 0.930998, 0.889817, 0.932183, 0.894171, 0.903596, 0.865106, 0.871669, 0.858044, 0.889441, 0.861928, 0.886586, 0.884591, 0.930474, 0.877165, 0.884044, 0.893571
Process 22: 1.339836, 1.199413, 1.071849, 1.112533, 0.930989, 0.892110, 0.932207, 0.893941, 0.903463, 0.864123, 0.872439, 0.857202, 0.890627, 0.860454, 0.887950, 0.884555, 0.930448, 0.876264, 0.884818, 0.893662
Process 23: 1.339671, 1.200075, 1.069774, 1.114363, 0.930719, 0.891055, 0.933232, 0.893096, 0.904315, 0.863159, 0.873344, 0.856293, 0.891531, 0.859412, 0.889016, 0.883790, 0.931258, 0.875172, 0.885864, 0.892793
Process 24: 1.341075, 1.198241, 1.070283, 1.114396, 0.930710, 0.891370, 0.932899, 0.893428, 0.903983, 0.863584, 0.872920, 0.856604, 0.891232, 0.859731, 0.888701, 0.884134, 0.930892, 0.875480, 0.885565, 0.893190
Process 25: 1.341468, 1.197372, 1.071936, 1.112002, 0.931784, 0.891985, 0.932293, 0.893840, 0.903552, 0.864125, 0.872378, 0.857160, 0.890669, 0.860387, 0.888053, 0.885543, 0.929494, 0.876111, 0.884882, 0.893731
Process 26: 1.341897, 1.195242, 1.072303, 1.112639, 0.932208, 0.890053, 0.934437, 0.891902, 0.905265, 0.861909, 0.874511, 0.855387, 0.892454, 0.858547, 0.889867, 0.884467, 0.930546, 0.874087, 0.887018, 0.891536
Process 27: 1.339756, 1.197467, 1.073015, 1.109636, 0.936454, 0.888114, 0.934123, 0.892416, 0.903783, 0.862451, 0.874069, 0.856636, 0.891466, 0.859488, 0.888662, 0.884470, 0.930484, 0.875328, 0.885914, 0.891735
Process 28: 1.357064, 1.193425, 1.067006, 1.114597, 0.940203, 0.881484, 0.932241, 0.898555, 0.899040, 0.862958, 0.873134, 0.856380, 0.891033, 0.860438, 0.887942, 0.890699, 0.924751, 0.876486, 0.883958, 0.894107
Process 29: 1.356723, 1.193593, 1.066735, 1.114661, 0.940176, 0.881459, 0.932295, 0.898500, 0.899077, 0.862972, 0.873093, 0.856407, 0.891060, 0.860405, 0.887970, 0.890660, 0.924798, 0.876453, 0.883957, 0.894108
Process 30: 1.352897, 1.194542, 1.068761, 1.114634, 0.938274, 0.883370, 0.932272, 0.896514, 0.901059, 0.862938, 0.872951, 0.856541, 0.891013, 0.860535, 0.887786, 0.889067, 0.926531, 0.876509, 0.883795, 0.894213
Process 31: 1.343714, 1.197325, 1.072605, 1.114001, 0.934797, 0.886823, 0.932798, 0.892630, 0.904667, 0.863002, 0.873458, 0.856341, 0.891370, 0.859876, 0.888675, 0.884587, 0.930361, 0.875926, 0.884925, 0.893594
