Process 0: 4.222119, 3.674220, 3.451687, 3.424558, 3.347345, 3.181889, 3.162684, 3.262594, 3.191831, 3.148700, 3.211642, 3.170663, 3.159000, 3.252831, 3.208118, 3.141422, 3.133240, 3.173635, 3.162103, 3.157006
Process 1: 4.237789, 3.684203, 3.535319, 3.399420, 3.330835, 3.230605, 3.164533, 3.243716, 3.202191, 3.150543, 3.186836, 3.204011, 3.151623, 3.238650, 3.209641, 3.163190, 3.133107, 3.162775, 3.172243, 3.155473
Process 2: 4.228142, 3.683454, 3.537256, 3.399445, 3.334895, 3.230622, 3.164538, 3.239729, 3.206305, 3.150287, 3.186858, 3.204080, 3.151635, 3.236550, 3.209609, 3.165310, 3.133234, 3.162744, 3.172176, 3.155551
Process 3: 4.217781, 3.682280, 3.542194, 3.396679, 3.339339, 3.230610, 3.162720, 3.239536, 3.208451, 3.150173, 3.186765, 3.204116, 3.151682, 3.234752, 3.211006, 3.165767, 3.133285, 3.162729, 3.172122, 3.155519
Process 4: 4.207085, 3.680448, 3.547247, 3.393920, 3.342267, 3.230608, 3.161767, 3.238753, 3.210263, 3.150005, 3.187043, 3.204151, 3.151580, 3.234055, 3.209948, 3.167353, 3.133491, 3.162568, 3.171755, 3.155982
Process 5: 4.195170, 3.678524, 3.553460, 3.390562, 3.345609, 3.230598, 3.161826, 3.235644, 3.213415, 3.149871, 3.187241, 3.204219, 3.149524, 3.236127, 3.209243, 3.167867, 3.133619, 3.160379, 3.173844, 3.155987
Process 6: 4.184235, 3.678109, 3.558100, 3.387577, 3.346908, 3.232176, 3.161938, 3.234527, 3.212714, 3.151701, 3.187156, 3.204188, 3.148578, 3.237124, 3.207439, 3.169629, 3.133692, 3.159282, 3.174949, 3.155914
Process 7: 4.171690, 3.679032, 3.561498, 3.387951, 3.343924, 3.234991, 3.162228, 3.234289, 3.210128, 3.154508, 3.187024, 3.204311, 3.148630, 3.237071, 3.198445, 3.178583, 3.133465, 3.159415, 3.174644, 3.156693
Process 8: 4.159587, 3.679210, 3.565848, 3.388045, 3.341242, 3.237596, 3.162295, 3.234288, 3.207370, 3.157168, 3.187165, 3.204359, 3.148473, 3.237110, 3.193166, 3.183899, 3.133472, 3.159372, 3.174682, 3.156629
Process 9: 4.147058, 3.679348, 3.568325, 3.389342, 3.340661, 3.238853, 3.160320, 3.236359, 3.206226, 3.158297, 3.185063, 3.206378, 3.148485, 3.237099, 3.189127, 3.187734, 3.131747, 3.161470, 3.174310, 3.156680
Process 10: 4.134702, 3.679502, 3.567659, 3.393218, 3.339315, 3.240579, 3.159413, 3.235657, 3.208122, 3.157910, 3.184396, 3.207371, 3.148462, 3.234706, 3.191842, 3.187470, 3.130919, 3.162187, 3.174511, 3.156487
Process 11: 4.120898, 3.676369, 3.574748, 3.396564, 3.337637, 3.242180, 3.159093, 3.234029, 3.208399, 3.159563, 3.184582, 3.206984, 3.148736, 3.233766, 3.190453, 3.189563, 3.130530, 3.162740, 3.174696, 3.156089
Process 12: 4.107284, 3.676250, 3.576007, 3.402207, 3.333769, 3.246055, 3.159108, 3.232158, 3.208034, 3.161789, 3.184207, 3.207306, 3.148725, 3.231993, 3.186857, 3.194963, 3.130534, 3.162743, 3.174759, 3.156033
Process 13: 4.092313, 3.671970, 3.583974, 3.404394, 3.332616, 3.248994, 3.159122, 3.228003, 3.212221, 3.161801, 3.184245, 3.207238, 3.148723, 3.227826, 3.191201, 3.194753, 3.130503, 3.162830, 3.174731, 3.156022
Process 14: 4.077025, 3.667830, 3.592109, 3.404088, 3.331834, 3.251787, 3.159240, 3.224897, 3.215258, 3.161945, 3.184285, 3.207286, 3.148512, 3.225067, 3.193779, 3.195064, 3.130445, 3.162759, 3.174733, 3.155886
Process 15: 4.062026, 3.666758, 3.595802, 3.406759, 3.329037, 3.254679, 3.159250, 3.221578, 3.218462, 3.161901, 3.184392, 3.207154, 3.148548, 3.222094, 3.196646, 3.195189, 3.130658, 3.162681, 3.174729, 3.155888
Process 16: 4.292365, 3.699807, 3.506229, 3.400006, 3.332371, 3.226703, 3.164449, 3.245322, 3.200670, 3.150470, 3.190502, 3.199659, 3.152276, 3.242122, 3.218604, 3.150542, 3.132935, 3.163235, 3.172621, 3.155483
Process 17: 4.292622, 3.700010, 3.505343, 3.400003, 3.332366, 3.226685, 3.164467, 3.245345, 3.200667, 3.150432, 3.190527, 3.199665, 3.152277, 3.242841, 3.217901, 3.150520, 3.132925, 3.163238, 3.172603, 3.155494
Process 18: 4.291683, 3.700138, 3.505260, 3.399882, 3.332425, 3.226688, 3.164477, 3.245378, 3.200693, 3.150389, 3.190523, 3.199684, 3.152247, 3.240906, 3.220566, 3.149807, 3.132963, 3.163165, 3.172554, 3.155542
Process 19: 4.290398, 3.699613, 3.505813, 3.399958, 3.332419, 3.226830, 3.164362, 3.245506, 3.200498, 3.150531, 3.190538, 3.199662, 3.152257, 3.240914, 3.219021, 3.151339, 3.132997, 3.163121, 3.172527, 3.155570
Process 20: 4.288821, 3.698855, 3.506612, 3.399996, 3.332345, 3.227007, 3.164274, 3.245575, 3.200286, 3.150718, 3.190661, 3.199527, 3.152259, 3.240898, 3.217492, 3.153003, 3.133024, 3.163038, 3.172541, 3.155510
Process 21: 4.287189, 3.699007, 3.506751, 3.399929, 3.332428, 3.227015, 3.164225, 3.245594, 3.200406, 3.150595, 3.190669, 3.199511, 3.152227, 3.240948, 3.215357, 3.155144, 3.133056, 3.163001, 3.172480, 3.155536
Process 22: 4.284890, 3.699534, 3.506704, 3.399864, 3.332487, 3.227008, 3.164337, 3.245485, 3.200469, 3.150551, 3.190764, 3.199492, 3.152141, 3.241067, 3.212673, 3.157826, 3.132998, 3.163005, 3.172428, 3.155531
Process 23: 4.282844, 3.699749, 3.506874, 3.399844, 3.332497, 3.226933, 3.164422, 3.245537, 3.200379, 3.150644, 3.190687, 3.199550, 3.152142, 3.241040, 3.210804, 3.159463, 3.133191, 3.163015, 3.172427, 3.155535
Process 24: 4.280628, 3.697150, 3.509657, 3.399878, 3.332505, 3.226943, 3.164394, 3.245530, 3.200413, 3.150638, 3.190718, 3.199561, 3.152126, 3.240868, 3.210961, 3.159487, 3.133033, 3.163058, 3.172553, 3.155263
Process 25: 4.277955, 3.694519, 3.512592, 3.399860, 3.332555, 3.226934, 3.164408, 3.245542, 3.200374, 3.150612, 3.190623, 3.199743, 3.152086, 3.240855, 3.210946, 3.159496, 3.133088, 3.163003, 3.172238, 3.155553
Process 26: 4.275295, 3.692010, 3.515323, 3.399941, 3.332568, 3.226910, 3.164453, 3.245558, 3.200335, 3.150681, 3.190517, 3.199827, 3.152084, 3.240794, 3.210983, 3.159481, 3.133085, 3.163025, 3.172149, 3.155587
Process 27: 4.272226, 3.691857, 3.515816, 3.399903, 3.332611, 3.226865, 3.164476, 3.245537, 3.200400, 3.150655, 3.190504, 3.199792, 3.152075, 3.240837, 3.210464, 3.160009, 3.133016, 3.163081, 3.172139, 3.155552
Process 28: 4.269103, 3.691539, 3.516554, 3.399861, 3.332699, 3.226720, 3.164604, 3.245532, 3.200390, 3.150682, 3.190452, 3.199789, 3.152006, 3.240954, 3.207233, 3.163200, 3.132925, 3.163214, 3.172152, 3.155339
Process 29: 4.265700, 3.688164, 3.520328, 3.399738, 3.332789, 3.226819, 3.164537, 3.245612, 3.200386, 3.150640, 3.190415, 3.199889, 3.152007, 3.240801, 3.207597, 3.162936, 3.132968, 3.163099, 3.172227, 3.155410
Process 30: 4.261710, 3.685345, 3.523482, 3.399851, 3.332637, 3.226817, 3.164664, 3.245479, 3.200452, 3.150546, 3.190499, 3.200001, 3.151981, 3.240676, 3.207675, 3.162885, 3.133039, 3.163019, 3.172211, 3.155419
Process 31: 4.259341, 3.680934, 3.526944, 3.399756, 3.332707, 3.226888, 3.164632, 3.245421, 3.200448, 3.150505, 3.190567, 3.199948, 3.151920, 3.240804, 3.207573, 3.162884, 3.133131, 3.162978, 3.172219, 3.155407
