Process 0: 2.046287, 1.111923, 1.119174, 1.186979, 1.164302, 1.089744, 1.071101, 1.114975, 1.131162, 1.105839, 1.086812, 1.091011, 1.078326, 1.077741, 1.077371, 1.094224, 1.128417, 1.079862, 1.080245, 1.076862
Process 1: 1.374487, 1.771701, 1.131415, 1.116562, 1.154141, 1.172567, 1.076951, 1.076715, 1.141336, 1.119736, 1.102468, 1.084537, 1.084992, 1.069983, 1.081155, 1.083467, 1.120049, 1.091205, 1.095563, 1.067593
Process 2: 1.382117, 1.770452, 1.132545, 1.114346, 1.159596, 1.167533, 1.076074, 1.076814, 1.143831, 1.117802, 1.102980, 1.084783, 1.081943, 1.074414, 1.079714, 1.083146, 1.121286, 1.089222, 1.095537, 1.068728
Process 3: 1.382917, 1.766035, 1.135046, 1.115558, 1.160986, 1.167933, 1.074178, 1.077024, 1.144902, 1.116264, 1.104744, 1.083089, 1.083975, 1.072080, 1.080191, 1.084545, 1.120625, 1.090363, 1.094305, 1.067847
Process 4: 1.382448, 1.771161, 1.131816, 1.115317, 1.158679, 1.168260, 1.076001, 1.076588, 1.144634, 1.118138, 1.103272, 1.084309, 1.082073, 1.074689, 1.079672, 1.082225, 1.121940, 1.089715, 1.093924, 1.070007
Process 5: 1.381951, 1.770871, 1.132298, 1.115882, 1.159783, 1.168025, 1.075273, 1.075877, 1.144631, 1.117173, 1.104176, 1.085351, 1.082023, 1.073766, 1.079966, 1.082170, 1.121709, 1.088713, 1.095830, 1.069340
Process 6: 1.384737, 1.768744, 1.131884, 1.115722, 1.159786, 1.167933, 1.075293, 1.075950, 1.144586, 1.118255, 1.103224, 1.085209, 1.082511, 1.073301, 1.079907, 1.082707, 1.121284, 1.089659, 1.095333, 1.068814
Process 7: 1.382461, 1.768522, 1.133911, 1.116445, 1.159118, 1.168200, 1.075169, 1.070169, 1.149821, 1.118538, 1.102875, 1.085844, 1.082479, 1.073275, 1.079935, 1.083399, 1.119283, 1.090960, 1.095319, 1.068299
Process 8: 1.377814, 1.770416, 1.133070, 1.117451, 1.162146, 1.166827, 1.072168, 1.077121, 1.147573, 1.111618, 1.106992, 1.086288, 1.077259, 1.076971, 1.082800, 1.078341, 1.122533, 1.091442, 1.087888, 1.076583
Process 9: 1.378492, 1.771395, 1.132814, 1.115658, 1.154863, 1.173155, 1.076002, 1.075235, 1.145271, 1.116941, 1.102855, 1.085500, 1.082943, 1.068972, 1.083367, 1.080984, 1.120625, 1.093017, 1.095077, 1.067878
Process 10: 1.380964, 1.769802, 1.131541, 1.115602, 1.158714, 1.168005, 1.076528, 1.076293, 1.143624, 1.118219, 1.102971, 1.084673, 1.082189, 1.074936, 1.079240, 1.083528, 1.121249, 1.089063, 1.095548, 1.068723
Process 11: 1.385739, 1.762596, 1.134391, 1.116104, 1.159478, 1.168614, 1.074967, 1.076534, 1.143262, 1.119040, 1.103153, 1.084089, 1.083796, 1.072647, 1.079797, 1.084711, 1.120288, 1.089899, 1.095058, 1.068051
Process 12: 1.382744, 1.770263, 1.130107, 1.117316, 1.157983, 1.169262, 1.075715, 1.075747, 1.144101, 1.118934, 1.102783, 1.085358, 1.082093, 1.074562, 1.078618, 1.083336, 1.121615, 1.089293, 1.095166, 1.070069
Process 13: 1.382294, 1.770506, 1.131538, 1.116676, 1.158697, 1.169141, 1.074831, 1.075596, 1.145319, 1.117004, 1.103473, 1.085997, 1.082064, 1.073588, 1.079756, 1.082643, 1.121624, 1.088861, 1.096059, 1.069170
Process 14: 1.382257, 1.770925, 1.130806, 1.116882, 1.159036, 1.168290, 1.075620, 1.075663, 1.144753, 1.118323, 1.102925, 1.085565, 1.082469, 1.073252, 1.079699, 1.083086, 1.121272, 1.089293, 1.095722, 1.068609
Process 15: 1.382557, 1.768499, 1.132669, 1.117141, 1.158616, 1.169183, 1.074827, 1.070834, 1.149989, 1.117813, 1.102227, 1.086681, 1.082267, 1.073171, 1.079956, 1.083211, 1.120211, 1.090183, 1.095573, 1.068052
Process 16: 1.373660, 1.773710, 1.131949, 1.116662, 1.159735, 1.168080, 1.074050, 1.076182, 1.144943, 1.116973, 1.103432, 1.086361, 1.080968, 1.074401, 1.081179, 1.081468, 1.121011, 1.091238, 1.090986, 1.072586
Process 17: 1.375721, 1.772662, 1.130091, 1.117818, 1.156062, 1.170047, 1.076597, 1.075419, 1.142716, 1.120124, 1.102274, 1.084711, 1.084246, 1.071130, 1.080458, 1.084103, 1.119815, 1.090751, 1.095211, 1.068397
Process 18: 1.376347, 1.772871, 1.129779, 1.116593, 1.158063, 1.168677, 1.076033, 1.077338, 1.141441, 1.119744, 1.102177, 1.085287, 1.083135, 1.073806, 1.079161, 1.084376, 1.120249, 1.089659, 1.094880, 1.069127
Process 19: 1.377430, 1.770597, 1.131836, 1.116478, 1.159294, 1.167748, 1.075754, 1.076089, 1.143049, 1.119460, 1.102615, 1.084703, 1.084199, 1.072449, 1.079666, 1.084622, 1.120598, 1.089305, 1.094869, 1.068810
Process 20: 1.374902, 1.774555, 1.129678, 1.117080, 1.157621, 1.169007, 1.076122, 1.076689, 1.141762, 1.120478, 1.101983, 1.085245, 1.083576, 1.072827, 1.079631, 1.083868, 1.121167, 1.089146, 1.095100, 1.068835
Process 21: 1.376049, 1.773585, 1.130462, 1.116890, 1.158653, 1.168158, 1.076412, 1.076171, 1.142227, 1.119806, 1.102348, 1.085237, 1.083766, 1.073057, 1.079288, 1.084023, 1.120717, 1.089348, 1.095191, 1.069375
Process 22: 1.376127, 1.774103, 1.129661, 1.116768, 1.158606, 1.168335, 1.076124, 1.079163, 1.139438, 1.120374, 1.101871, 1.085249, 1.084016, 1.072702, 1.079454, 1.084032, 1.120570, 1.089448, 1.095290, 1.069129
Process 23: 1.378932, 1.770552, 1.130610, 1.117470, 1.157831, 1.168747, 1.075823, 1.078526, 1.139977, 1.120624, 1.101551, 1.085740, 1.083789, 1.072778, 1.079392, 1.084445, 1.119828, 1.089984, 1.094906, 1.069299
Process 24: 1.371069, 1.774854, 1.128740, 1.116385, 1.160804, 1.166911, 1.073601, 1.077243, 1.143039, 1.118483, 1.103717, 1.086215, 1.081067, 1.074966, 1.079561, 1.082833, 1.120491, 1.091031, 1.089973, 1.074608
Process 25: 1.370115, 1.773938, 1.132259, 1.115729, 1.154929, 1.172621, 1.075260, 1.075602, 1.143335, 1.119968, 1.101623, 1.085340, 1.084265, 1.069934, 1.080450, 1.084185, 1.119801, 1.091677, 1.095364, 1.067817
Process 26: 1.370721, 1.773514, 1.130067, 1.116966, 1.157644, 1.169036, 1.075441, 1.077354, 1.141050, 1.121524, 1.101492, 1.085727, 1.082976, 1.073901, 1.078221, 1.085471, 1.120017, 1.089539, 1.094829, 1.069631
Process 27: 1.373150, 1.771450, 1.132141, 1.117379, 1.158720, 1.168454, 1.075158, 1.076568, 1.141540, 1.121647, 1.102060, 1.085256, 1.084268, 1.071641, 1.078784, 1.086236, 1.119901, 1.089402, 1.094571, 1.069511
Process 28: 1.368106, 1.779320, 1.128528, 1.116549, 1.158917, 1.168016, 1.075605, 1.077867, 1.141003, 1.121830, 1.100654, 1.086386, 1.083266, 1.072315, 1.078790, 1.085368, 1.120170, 1.089015, 1.095389, 1.070062
Process 29: 1.367586, 1.779229, 1.129781, 1.116464, 1.158526, 1.168327, 1.076192, 1.075765, 1.142197, 1.121125, 1.101715, 1.085473, 1.084602, 1.072011, 1.078827, 1.084854, 1.120450, 1.088933, 1.095792, 1.069749
Process 30: 1.369964, 1.776486, 1.129089, 1.116561, 1.157877, 1.169363, 1.075731, 1.076002, 1.141689, 1.121456, 1.101605, 1.085489, 1.085098, 1.071565, 1.078589, 1.085378, 1.120676, 1.088700, 1.095987, 1.068656
Process 31: 1.372977, 1.774450, 1.129164, 1.117514, 1.158497, 1.168074, 1.076040, 1.072266, 1.146835, 1.120343, 1.101665, 1.085707, 1.084186, 1.071944, 1.079220, 1.084969, 1.120493, 1.089088, 1.095308, 1.069138
