Process 0: 0.970828, 0.747688, 0.716218, 1.159954, 0.662131, 0.656445, 0.705565, 0.708520, 0.723194, 0.648488, 0.656363, 0.640097, 0.671158, 0.687918, 0.641554, 0.663986, 0.691948, 0.640341, 0.646610, 0.661126
Process 1: 1.032296, 0.781121, 0.730306, 0.658627, 1.158411, 0.675151, 0.634095, 0.719236, 0.734695, 0.698433, 0.634561, 0.658397, 0.633663, 0.668458, 0.693150, 0.669994, 0.691424, 0.643211, 0.636122, 0.671322
Process 2: 1.032414, 0.788334, 0.727040, 0.653551, 1.162491, 0.670957, 0.637106, 0.722209, 0.729227, 0.689870, 0.643630, 0.657280, 0.635087, 0.669387, 0.694977, 0.665528, 0.695332, 0.638881, 0.637029, 0.671804
Process 3: 1.025666, 0.794576, 0.725353, 0.664300, 1.148920, 0.671143, 0.636220, 0.719317, 0.732545, 0.685507, 0.648350, 0.658309, 0.633487, 0.670807, 0.691703, 0.668951, 0.696685, 0.637176, 0.636678, 0.671346
Process 4: 1.036348, 0.785815, 0.728208, 0.656293, 1.159457, 0.672449, 0.637079, 0.719357, 0.733921, 0.687121, 0.644983, 0.657390, 0.634680, 0.668804, 0.694234, 0.667397, 0.693180, 0.645621, 0.632708, 0.670666
Process 5: 1.034694, 0.786384, 0.727319, 0.660271, 1.157053, 0.672886, 0.635796, 0.720612, 0.733001, 0.693212, 0.639148, 0.657082, 0.635328, 0.668377, 0.693977, 0.667835, 0.693631, 0.639966, 0.637979, 0.671017
Process 6: 1.033170, 0.787239, 0.726825, 0.652996, 1.162717, 0.672316, 0.636694, 0.719933, 0.733598, 0.686807, 0.644459, 0.657703, 0.635512, 0.667994, 0.694337, 0.666529, 0.694807, 0.639281, 0.637784, 0.671627
Process 7: 1.022040, 0.797834, 0.724005, 0.664987, 1.148007, 0.672020, 0.635672, 0.720060, 0.734481, 0.683788, 0.647744, 0.658287, 0.633526, 0.668551, 0.693865, 0.668753, 0.694177, 0.640437, 0.636446, 0.670980
Process 8: 1.034784, 0.787041, 0.728994, 0.656720, 1.158485, 0.673884, 0.635451, 0.719748, 0.732144, 0.688860, 0.644611, 0.658006, 0.634341, 0.668777, 0.693900, 0.667730, 0.693083, 0.645935, 0.633132, 0.670243
Process 9: 1.035810, 0.785204, 0.730192, 0.657698, 1.157560, 0.673047, 0.636441, 0.719731, 0.733572, 0.693199, 0.638461, 0.658466, 0.633615, 0.668431, 0.694150, 0.667454, 0.693574, 0.640889, 0.638190, 0.670550
Process 10: 1.034049, 0.786005, 0.728434, 0.653296, 1.163052, 0.673225, 0.635105, 0.722141, 0.732218, 0.685276, 0.645506, 0.659704, 0.633180, 0.667497, 0.694650, 0.666148, 0.694596, 0.639947, 0.641357, 0.669114
Process 11: 1.025952, 0.790329, 0.732022, 0.661097, 1.148888, 0.671168, 0.635411, 0.723414, 0.732105, 0.682347, 0.648452, 0.659869, 0.631950, 0.668780, 0.696223, 0.664710, 0.695589, 0.641560, 0.638087, 0.668043
Process 12: 1.035751, 0.784512, 0.731147, 0.657880, 1.157160, 0.672714, 0.636618, 0.720123, 0.732003, 0.688133, 0.644992, 0.659625, 0.632549, 0.668629, 0.694575, 0.667257, 0.692815, 0.646074, 0.633616, 0.670109
Process 13: 1.035220, 0.784236, 0.731712, 0.657746, 1.157539, 0.673022, 0.636440, 0.719537, 0.732427, 0.694146, 0.638633, 0.658938, 0.633172, 0.668507, 0.694101, 0.667718, 0.693370, 0.642094, 0.637360, 0.670140
Process 14: 1.032444, 0.786732, 0.730665, 0.654487, 1.160412, 0.674310, 0.636066, 0.720951, 0.730524, 0.687443, 0.645122, 0.660401, 0.632248, 0.668154, 0.695953, 0.665227, 0.694495, 0.639845, 0.640672, 0.669021
Process 15: 1.025944, 0.792265, 0.729676, 0.661519, 1.147339, 0.672659, 0.636331, 0.721276, 0.730779, 0.684949, 0.647693, 0.660586, 0.632073, 0.669181, 0.692164, 0.668774, 0.695591, 0.642200, 0.636703, 0.669051
Process 16: 1.034860, 0.788176, 0.730453, 0.656965, 1.157885, 0.672354, 0.637917, 0.716602, 0.734834, 0.692089, 0.640813, 0.658873, 0.635918, 0.665508, 0.694742, 0.669803, 0.690129, 0.647822, 0.631766, 0.670500
Process 17: 1.036028, 0.786236, 0.729678, 0.657225, 1.157607, 0.673062, 0.637223, 0.717385, 0.735561, 0.693537, 0.638994, 0.658862, 0.634383, 0.665739, 0.695564, 0.670094, 0.689884, 0.647909, 0.632626, 0.669272
Process 18: 1.029604, 0.790510, 0.726891, 0.655731, 1.162259, 0.670410, 0.637843, 0.716901, 0.736542, 0.687962, 0.644319, 0.658295, 0.633619, 0.667945, 0.695066, 0.671207, 0.689623, 0.646996, 0.632120, 0.670143
Process 19: 1.026321, 0.794854, 0.727836, 0.664185, 1.147072, 0.670315, 0.635969, 0.718698, 0.735851, 0.681875, 0.648515, 0.657554, 0.634367, 0.668866, 0.692750, 0.670226, 0.693603, 0.638301, 0.638674, 0.670075
Process 20: 1.037524, 0.784972, 0.731176, 0.656173, 1.158435, 0.672260, 0.637939, 0.716677, 0.735495, 0.687310, 0.645215, 0.658718, 0.634712, 0.666641, 0.694581, 0.669878, 0.690428, 0.647957, 0.632192, 0.670064
Process 21: 1.038973, 0.781849, 0.730669, 0.658654, 1.156393, 0.673076, 0.637775, 0.716635, 0.736201, 0.695843, 0.636398, 0.658786, 0.634966, 0.666440, 0.694204, 0.669865, 0.691174, 0.646422, 0.633598, 0.670135
Process 22: 1.029869, 0.789212, 0.729638, 0.653371, 1.162268, 0.671007, 0.637194, 0.718660, 0.733855, 0.687945, 0.645104, 0.657682, 0.634855, 0.667353, 0.696571, 0.668743, 0.691035, 0.645876, 0.632426, 0.670009
Process 23: 1.027344, 0.792192, 0.731922, 0.658745, 1.147776, 0.671371, 0.635953, 0.717531, 0.736284, 0.683753, 0.649513, 0.657506, 0.633718, 0.667992, 0.694527, 0.669498, 0.695061, 0.637767, 0.638691, 0.669400
Process 24: 1.044801, 0.784677, 0.730611, 0.652021, 1.163032, 0.671854, 0.637788, 0.716664, 0.735742, 0.687564, 0.644787, 0.658534, 0.635479, 0.665567, 0.695417, 0.669501, 0.690161, 0.646638, 0.633634, 0.670581
Process 25: 1.042955, 0.786641, 0.729685, 0.653030, 1.160888, 0.673301, 0.635794, 0.717577, 0.736090, 0.692593, 0.640893, 0.657837, 0.635381, 0.665701, 0.695302, 0.669922, 0.691092, 0.642862, 0.636728, 0.670550
Process 26: 1.039321, 0.790524, 0.728814, 0.652361, 1.163605, 0.672616, 0.637352, 0.717808, 0.734004, 0.686554, 0.646540, 0.658833, 0.635238, 0.669171, 0.692651, 0.669059, 0.689482, 0.646895, 0.633989, 0.670685
Process 27: 1.038641, 0.790420, 0.725669, 0.661833, 1.150941, 0.673204, 0.637461, 0.715239, 0.737122, 0.683384, 0.649950, 0.656981, 0.636536, 0.665657, 0.694842, 0.669871, 0.692722, 0.640551, 0.636841, 0.670690
Process 28: 1.067641, 0.777987, 0.731198, 0.657822, 1.156019, 0.673048, 0.640758, 0.713597, 0.735911, 0.689750, 0.642309, 0.658930, 0.637058, 0.662916, 0.696435, 0.669593, 0.689207, 0.647271, 0.633486, 0.670762
Process 29: 1.067799, 0.777745, 0.731204, 0.660081, 1.153236, 0.672957, 0.639568, 0.714639, 0.735960, 0.690015, 0.642152, 0.658756, 0.636518, 0.663725, 0.696510, 0.669085, 0.690015, 0.647339, 0.633327, 0.670544
Process 30: 1.067793, 0.777747, 0.731070, 0.660701, 1.153343, 0.672774, 0.640845, 0.713139, 0.736860, 0.689354, 0.642251, 0.658740, 0.637500, 0.665904, 0.693239, 0.669639, 0.689300, 0.647455, 0.633346, 0.670413
Process 31: 1.064624, 0.781425, 0.731338, 0.657269, 1.156115, 0.672960, 0.640528, 0.713849, 0.737149, 0.684362, 0.647080, 0.658293, 0.637519, 0.662734, 0.696720, 0.669002, 0.690074, 0.647324, 0.633130, 0.670566
