Process 0: 1.763747, 1.384789, 1.328067, 1.265023, 1.287256, 1.296290, 1.259322, 1.312028, 1.293237, 1.249875, 1.273092, 1.282238, 1.257361, 1.321651, 1.251500, 1.269553, 1.235218, 1.221572, 1.262191, 1.278222
Process 1: 1.639851, 1.448541, 1.352683, 1.276779, 1.281331, 1.288607, 1.273842, 1.268442, 1.352475, 1.244698, 1.274296, 1.256680, 1.279824, 1.260765, 1.311179, 1.247050, 1.261358, 1.240523, 1.218669, 1.298066
Process 2: 1.644716, 1.448077, 1.349991, 1.280425, 1.278704, 1.292980, 1.269077, 1.270404, 1.351530, 1.241492, 1.279636, 1.256175, 1.279907, 1.259274, 1.309863, 1.247329, 1.264702, 1.238519, 1.218451, 1.297673
Process 3: 1.643780, 1.446847, 1.352786, 1.278645, 1.278323, 1.291185, 1.272229, 1.275056, 1.348944, 1.243032, 1.274269, 1.256818, 1.279839, 1.260391, 1.310966, 1.245349, 1.265688, 1.237707, 1.216318, 1.300692
Process 4: 1.641022, 1.450608, 1.346688, 1.282492, 1.276980, 1.294997, 1.267069, 1.276299, 1.345717, 1.239611, 1.278322, 1.261487, 1.279798, 1.256868, 1.310009, 1.247776, 1.269085, 1.233031, 1.219125, 1.289782
Process 5: 1.643340, 1.448334, 1.351724, 1.278645, 1.279973, 1.290383, 1.271955, 1.269729, 1.351533, 1.243389, 1.275409, 1.257772, 1.279465, 1.260112, 1.310884, 1.246929, 1.262982, 1.239069, 1.218505, 1.297827
Process 6: 1.644368, 1.447629, 1.348902, 1.281278, 1.279184, 1.292598, 1.269341, 1.270963, 1.349920, 1.242900, 1.278786, 1.256708, 1.279580, 1.259295, 1.310306, 1.247617, 1.264075, 1.238520, 1.218692, 1.297273
Process 7: 1.643220, 1.445759, 1.353882, 1.277934, 1.278757, 1.289599, 1.273128, 1.276148, 1.348598, 1.243489, 1.274062, 1.256610, 1.279150, 1.260976, 1.311311, 1.245249, 1.265570, 1.237217, 1.216685, 1.300566
Process 8: 1.639350, 1.451918, 1.345481, 1.283885, 1.274746, 1.296374, 1.267761, 1.276313, 1.343696, 1.239580, 1.277698, 1.264350, 1.279282, 1.254786, 1.310427, 1.247375, 1.270737, 1.233064, 1.218401, 1.289974
Process 9: 1.642636, 1.448104, 1.351340, 1.279611, 1.279514, 1.291113, 1.271604, 1.269124, 1.351516, 1.243419, 1.276189, 1.257791, 1.279553, 1.260290, 1.310092, 1.247327, 1.263049, 1.239036, 1.218482, 1.297675
Process 10: 1.642341, 1.447496, 1.348293, 1.281201, 1.279399, 1.292437, 1.269708, 1.270175, 1.350129, 1.242718, 1.280683, 1.255609, 1.279336, 1.259295, 1.310394, 1.247703, 1.263398, 1.239446, 1.219274, 1.296731
Process 11: 1.641002, 1.445693, 1.355021, 1.277434, 1.278765, 1.289042, 1.273756, 1.276225, 1.349012, 1.243299, 1.273972, 1.256181, 1.279101, 1.261888, 1.310903, 1.244813, 1.266268, 1.236695, 1.216493, 1.300910
Process 12: 1.633311, 1.453602, 1.344850, 1.283568, 1.276861, 1.295368, 1.266372, 1.278531, 1.343774, 1.240338, 1.277391, 1.262639, 1.279916, 1.255689, 1.309999, 1.247945, 1.271589, 1.229946, 1.219174, 1.292464
Process 13: 1.639178, 1.448999, 1.352181, 1.280730, 1.278280, 1.288864, 1.274874, 1.266237, 1.352742, 1.243673, 1.275042, 1.257209, 1.280622, 1.260341, 1.310815, 1.248578, 1.258947, 1.243248, 1.216862, 1.296422
Process 14: 1.641488, 1.446638, 1.348354, 1.282304, 1.279817, 1.292366, 1.269420, 1.269138, 1.349852, 1.242601, 1.281178, 1.256181, 1.280539, 1.258484, 1.309988, 1.247524, 1.262344, 1.241003, 1.218606, 1.296670
Process 15: 1.639529, 1.443777, 1.357107, 1.276418, 1.278608, 1.288562, 1.274644, 1.277780, 1.349501, 1.242146, 1.273520, 1.255498, 1.279311, 1.262499, 1.311422, 1.243499, 1.266689, 1.237222, 1.214789, 1.302894
Process 16: 1.632215, 1.450778, 1.349304, 1.280260, 1.279885, 1.291166, 1.270762, 1.273865, 1.348132, 1.241968, 1.276906, 1.258208, 1.279671, 1.258823, 1.311043, 1.247216, 1.267293, 1.234622, 1.219041, 1.294390
Process 17: 1.632590, 1.450414, 1.351837, 1.279876, 1.279520, 1.288927, 1.274611, 1.270899, 1.349384, 1.247030, 1.272409, 1.257818, 1.279835, 1.258480, 1.311870, 1.248125, 1.263892, 1.237956, 1.217563, 1.297211
Process 18: 1.633977, 1.448852, 1.350743, 1.279215, 1.280598, 1.292145, 1.269783, 1.271343, 1.350362, 1.243543, 1.277721, 1.255564, 1.279470, 1.259824, 1.311474, 1.247009, 1.264366, 1.237860, 1.219513, 1.296662
Process 19: 1.632882, 1.448444, 1.353232, 1.277664, 1.280393, 1.289203, 1.272845, 1.275230, 1.348893, 1.243785, 1.274775, 1.255636, 1.279174, 1.260987, 1.312293, 1.245351, 1.265438, 1.236979, 1.218072, 1.298309
Process 20: 1.628284, 1.452157, 1.348538, 1.280465, 1.279419, 1.292038, 1.270203, 1.274677, 1.347337, 1.240742, 1.277118, 1.259119, 1.280231, 1.258578, 1.310206, 1.248136, 1.267710, 1.233999, 1.218435, 1.293969
Process 21: 1.630412, 1.449702, 1.351749, 1.280641, 1.281071, 1.286981, 1.275005, 1.270100, 1.349746, 1.244414, 1.274741, 1.256327, 1.281720, 1.258392, 1.311636, 1.248937, 1.263420, 1.238163, 1.219321, 1.295002
Process 22: 1.631287, 1.449213, 1.350508, 1.279403, 1.280702, 1.290892, 1.270877, 1.268073, 1.353333, 1.243373, 1.278536, 1.255333, 1.279163, 1.259813, 1.311501, 1.247349, 1.263608, 1.238301, 1.219559, 1.296618
Process 23: 1.630198, 1.449977, 1.352520, 1.278842, 1.280639, 1.288456, 1.273360, 1.274785, 1.349242, 1.243639, 1.274471, 1.255347, 1.280094, 1.260946, 1.312049, 1.244847, 1.266113, 1.236594, 1.218168, 1.298203
Process 24: 1.622187, 1.452428, 1.349117, 1.280718, 1.278892, 1.293422, 1.269129, 1.272605, 1.349111, 1.241036, 1.276754, 1.258857, 1.280682, 1.258784, 1.309327, 1.249280, 1.268578, 1.232754, 1.218924, 1.293093
Process 25: 1.624822, 1.451935, 1.351362, 1.278638, 1.283314, 1.287012, 1.275348, 1.269072, 1.350411, 1.243837, 1.274670, 1.258374, 1.280470, 1.257028, 1.315126, 1.244636, 1.261937, 1.238433, 1.219591, 1.296205
Process 26: 1.626515, 1.450281, 1.351910, 1.277847, 1.282399, 1.290952, 1.270695, 1.267591, 1.353612, 1.242549, 1.280015, 1.253341, 1.279905, 1.259398, 1.311651, 1.248543, 1.263174, 1.238072, 1.219869, 1.295779
Process 27: 1.624385, 1.451084, 1.354539, 1.276226, 1.281795, 1.287217, 1.274052, 1.276346, 1.349682, 1.243973, 1.273844, 1.253045, 1.280878, 1.260778, 1.313341, 1.244710, 1.264854, 1.237312, 1.216993, 1.298461
Process 28: 1.615854, 1.452547, 1.348848, 1.280879, 1.279388, 1.292601, 1.269830, 1.272565, 1.348735, 1.240989, 1.276711, 1.259406, 1.279953, 1.259340, 1.309150, 1.249396, 1.269366, 1.232529, 1.218453, 1.292877
Process 29: 1.617731, 1.451972, 1.354075, 1.278392, 1.280722, 1.288284, 1.275019, 1.266785, 1.353690, 1.245118, 1.273902, 1.254249, 1.280293, 1.260182, 1.313526, 1.247180, 1.260851, 1.238975, 1.219996, 1.296246
Process 30: 1.618312, 1.451170, 1.351899, 1.278003, 1.281753, 1.292270, 1.269859, 1.267634, 1.352989, 1.243245, 1.280677, 1.252227, 1.279512, 1.260800, 1.311845, 1.247334, 1.262434, 1.239099, 1.220630, 1.295403
Process 31: 1.615837, 1.451374, 1.354167, 1.276606, 1.281074, 1.288697, 1.273317, 1.277459, 1.348813, 1.242446, 1.274217, 1.254018, 1.279750, 1.261181, 1.312086, 1.246400, 1.264016, 1.237473, 1.218803, 1.297985
