Process 0: 0.930459, 0.723630, 0.689837, 0.631795, 0.624292, 0.672114, 0.615225, 0.658519, 0.609034, 0.633359, 0.617075, 0.626479, 0.628109, 0.675981, 0.618206, 0.613732, 0.630455, 0.668551, 0.629550, 0.650876
Process 1: 1.016628, 0.749098, 0.694718, 0.646608, 0.629583, 0.663496, 0.630987, 0.620196, 0.644218, 0.618281, 0.636845, 0.621215, 0.621391, 0.689693, 0.618631, 0.607938, 0.615584, 0.637373, 0.660463, 0.671312
Process 2: 1.015436, 0.754350, 0.698450, 0.646500, 0.628275, 0.663400, 0.631989, 0.621375, 0.643187, 0.616745, 0.636865, 0.619064, 0.627249, 0.686926, 0.618566, 0.610657, 0.615167, 0.636494, 0.661772, 0.667919
Process 3: 1.015108, 0.757706, 0.694254, 0.646856, 0.627891, 0.665324, 0.632402, 0.616797, 0.640468, 0.622548, 0.633463, 0.625609, 0.621697, 0.686750, 0.621159, 0.610891, 0.612581, 0.638763, 0.659530, 0.671097
Process 4: 1.019116, 0.753411, 0.686866, 0.656498, 0.628548, 0.663181, 0.632954, 0.619931, 0.641534, 0.620728, 0.632430, 0.623539, 0.622301, 0.686014, 0.619525, 0.613262, 0.614503, 0.634077, 0.663870, 0.667544
Process 5: 1.020139, 0.752894, 0.692661, 0.649929, 0.629121, 0.662788, 0.632400, 0.619856, 0.642290, 0.619660, 0.635498, 0.621865, 0.623293, 0.687212, 0.619428, 0.610620, 0.614660, 0.636392, 0.661710, 0.669135
Process 6: 1.015783, 0.753950, 0.698704, 0.645859, 0.627901, 0.664629, 0.633049, 0.622797, 0.639719, 0.618460, 0.635823, 0.619881, 0.625391, 0.687212, 0.619105, 0.607401, 0.618770, 0.635867, 0.662158, 0.667924
Process 7: 1.015442, 0.757153, 0.695777, 0.644365, 0.630294, 0.663536, 0.633603, 0.616638, 0.642197, 0.620246, 0.633465, 0.626290, 0.622442, 0.686826, 0.620073, 0.610972, 0.613006, 0.638115, 0.659976, 0.670447
Process 8: 1.021020, 0.750677, 0.690843, 0.653033, 0.629044, 0.663515, 0.632362, 0.620007, 0.640952, 0.620531, 0.633675, 0.623040, 0.622358, 0.687336, 0.616909, 0.614577, 0.614297, 0.636263, 0.661461, 0.668203
Process 9: 1.021562, 0.751955, 0.695146, 0.646849, 0.629864, 0.663736, 0.631620, 0.619931, 0.643073, 0.619096, 0.635160, 0.621136, 0.623593, 0.687601, 0.619065, 0.610897, 0.613894, 0.636893, 0.662105, 0.668807
Process 10: 1.017110, 0.752935, 0.698855, 0.644667, 0.630756, 0.661868, 0.630910, 0.622323, 0.643820, 0.618599, 0.635280, 0.615740, 0.629317, 0.687243, 0.617945, 0.609236, 0.617832, 0.634220, 0.664286, 0.668235
Process 11: 1.013881, 0.759327, 0.695717, 0.642365, 0.632858, 0.663682, 0.631593, 0.616073, 0.642856, 0.622181, 0.630620, 0.626629, 0.621549, 0.687833, 0.621384, 0.610406, 0.612653, 0.637207, 0.661072, 0.670343
Process 12: 1.021379, 0.751348, 0.692819, 0.649961, 0.630016, 0.663321, 0.631616, 0.619075, 0.643506, 0.619605, 0.633975, 0.621952, 0.623870, 0.686056, 0.618123, 0.613160, 0.614351, 0.635458, 0.662631, 0.667280
Process 13: 1.021318, 0.751615, 0.696444, 0.645480, 0.630702, 0.663154, 0.631392, 0.620156, 0.643257, 0.618735, 0.635724, 0.620607, 0.623935, 0.687682, 0.619062, 0.610532, 0.613932, 0.636701, 0.661325, 0.670277
Process 14: 1.016250, 0.754066, 0.698714, 0.645162, 0.629340, 0.662079, 0.633809, 0.620517, 0.642872, 0.618957, 0.635141, 0.617276, 0.628175, 0.686676, 0.618102, 0.609424, 0.616647, 0.638691, 0.660524, 0.667773
Process 15: 1.014118, 0.758740, 0.696030, 0.643637, 0.630965, 0.664104, 0.631725, 0.617046, 0.642619, 0.621883, 0.631991, 0.625583, 0.622602, 0.685559, 0.622120, 0.610924, 0.610249, 0.639610, 0.661388, 0.670335
Process 16: 1.019919, 0.753303, 0.691641, 0.651417, 0.629222, 0.662278, 0.632998, 0.619081, 0.644259, 0.618689, 0.631742, 0.623705, 0.624413, 0.683556, 0.617756, 0.614859, 0.615487, 0.637038, 0.661303, 0.665838
Process 17: 1.021335, 0.752323, 0.696819, 0.645645, 0.630480, 0.662227, 0.631382, 0.620331, 0.643490, 0.618656, 0.636370, 0.620102, 0.623827, 0.688170, 0.617908, 0.610554, 0.616085, 0.636477, 0.661163, 0.668946
Process 18: 1.013977, 0.755640, 0.701859, 0.642179, 0.627677, 0.664701, 0.632562, 0.622090, 0.644240, 0.613784, 0.640445, 0.615097, 0.629244, 0.685852, 0.618116, 0.608205, 0.617008, 0.636111, 0.664773, 0.666978
Process 19: 1.011397, 0.761225, 0.699303, 0.642123, 0.631958, 0.663115, 0.632509, 0.617202, 0.642579, 0.618966, 0.635551, 0.623828, 0.623784, 0.686168, 0.619535, 0.610776, 0.615817, 0.636714, 0.659372, 0.670687
Process 20: 1.022718, 0.751976, 0.696242, 0.647028, 0.629440, 0.662852, 0.633205, 0.619011, 0.643851, 0.616673, 0.633496, 0.621660, 0.622848, 0.684801, 0.619555, 0.612822, 0.616496, 0.636729, 0.661951, 0.664953
Process 21: 1.024902, 0.749554, 0.695416, 0.645371, 0.630682, 0.662485, 0.632926, 0.620340, 0.642969, 0.618521, 0.635843, 0.620972, 0.622700, 0.687825, 0.619200, 0.610245, 0.615258, 0.636842, 0.661390, 0.669645
Process 22: 1.017917, 0.753929, 0.699517, 0.643469, 0.628813, 0.661030, 0.634342, 0.620816, 0.645289, 0.613830, 0.639923, 0.617133, 0.627948, 0.685432, 0.618069, 0.609035, 0.619110, 0.636308, 0.662225, 0.666620
Process 23: 1.012268, 0.762934, 0.697913, 0.644126, 0.630408, 0.663155, 0.632684, 0.618428, 0.643714, 0.618800, 0.634890, 0.622409, 0.623256, 0.686850, 0.619232, 0.610475, 0.615587, 0.636991, 0.660666, 0.670000
Process 24: 1.024975, 0.752132, 0.695379, 0.648527, 0.629504, 0.663142, 0.632616, 0.617185, 0.645492, 0.617910, 0.635511, 0.621368, 0.623967, 0.686818, 0.618174, 0.611518, 0.616018, 0.636695, 0.660321, 0.669247
Process 25: 1.028405, 0.750395, 0.696734, 0.645692, 0.629637, 0.663040, 0.632588, 0.617412, 0.645292, 0.618394, 0.635958, 0.620865, 0.623802, 0.687231, 0.618675, 0.610182, 0.616219, 0.636862, 0.660557, 0.669694
Process 26: 1.021570, 0.755496, 0.699011, 0.645116, 0.629012, 0.663410, 0.632817, 0.620376, 0.642735, 0.616461, 0.637572, 0.620149, 0.624170, 0.687260, 0.618389, 0.610574, 0.616575, 0.636549, 0.660819, 0.669028
Process 27: 1.019670, 0.758515, 0.697116, 0.643776, 0.630475, 0.662471, 0.633939, 0.616519, 0.642093, 0.619454, 0.637205, 0.622147, 0.622130, 0.687557, 0.619063, 0.610412, 0.617011, 0.636607, 0.659516, 0.671252
Process 28: 1.025390, 0.751383, 0.693451, 0.650594, 0.629443, 0.663353, 0.632036, 0.616479, 0.646909, 0.617731, 0.634508, 0.621208, 0.624994, 0.686377, 0.617511, 0.612939, 0.615552, 0.636260, 0.659700, 0.669498
Process 29: 1.025556, 0.753026, 0.695201, 0.646907, 0.629735, 0.662573, 0.633101, 0.617310, 0.645393, 0.618440, 0.635909, 0.620940, 0.623276, 0.687735, 0.618762, 0.609792, 0.616237, 0.636943, 0.660839, 0.669280
Process 30: 1.021418, 0.755834, 0.698480, 0.645122, 0.629462, 0.663073, 0.632707, 0.620959, 0.642065, 0.616802, 0.637350, 0.620096, 0.624537, 0.687085, 0.618548, 0.610442, 0.616560, 0.636288, 0.660980, 0.669085
Process 31: 1.018785, 0.759863, 0.697393, 0.641490, 0.631305, 0.661680, 0.634835, 0.617477, 0.641263, 0.619097, 0.636865, 0.623327, 0.620940, 0.687955, 0.619301, 0.609639, 0.617278, 0.635262, 0.661316, 0.672684
