MPI_insiderank_optimisedserial
Process 0: 1.152744, 1.168357, 1.151999, 1.146827, 1.148536, 1.149965, 1.155729, 1.150269, 1.148186, 1.152366, 1.148221, 1.154726, 1.144065, 1.144553, 1.143979, 1.140238, 1.148342, 1.159106, 1.143048, 1.145675, 1.151798, 1.143742, 1.145782, 1.145801, 1.151626, 1.151226, 1.159236, 1.151320, 1.153297, 1.143892
Process 1: 0.871316, 0.887880, 0.870700, 0.864841, 0.863358, 0.867472, 0.864769, 0.864248, 0.863360, 0.868428, 0.865223, 0.867164, 0.856504, 0.857011, 0.856492, 0.855303, 0.863706, 0.861369, 0.855832, 0.857490, 0.868904, 0.858037, 0.858621, 0.856810, 0.862641, 0.859372, 0.864976, 0.864397, 0.858860, 0.858004
Process 2: 0.900170, 0.916557, 0.899527, 0.893298, 0.892087, 0.896618, 0.893523, 0.893039, 0.892013, 0.897049, 0.893470, 0.896047, 0.885309, 0.886031, 0.885541, 0.884252, 0.893077, 0.890160, 0.885129, 0.886793, 0.897663, 0.887157, 0.887655, 0.886216, 0.891687, 0.888558, 0.893906, 0.893495, 0.888220, 0.887028
Process 3: 0.929340, 0.945259, 0.927794, 0.922817, 0.921085, 0.925668, 0.922628, 0.921969, 0.921085, 0.926013, 0.922231, 0.925265, 0.915158, 0.915264, 0.914558, 0.913774, 0.922306, 0.920067, 0.914377, 0.916033, 0.926580, 0.916151, 0.916694, 0.915352, 0.921476, 0.917731, 0.923174, 0.922819, 0.917224, 0.915838
Process 4: 0.956081, 0.972239, 0.954656, 0.949757, 0.948442, 0.952926, 0.949796, 0.949124, 0.948289, 0.952937, 0.949078, 0.952502, 0.942203, 0.942424, 0.941716, 0.941014, 0.949441, 0.947294, 0.941419, 0.943372, 0.953128, 0.943528, 0.943858, 0.942639, 0.948547, 0.945312, 0.950442, 0.950089, 0.944618, 0.943284
Process 5: 0.977446, 0.993387, 0.975650, 0.971249, 0.974638, 0.974098, 0.971191, 0.972067, 0.969539, 0.974071, 0.970492, 0.978932, 0.963494, 0.968767, 0.962869, 0.962220, 0.970679, 0.969813, 0.963721, 0.965922, 0.975746, 0.966556, 0.966514, 0.965761, 0.974979, 0.971073, 0.973310, 0.972179, 0.966955, 0.965730
Process 6: 1.002124, 1.017834, 1.000672, 0.996998, 0.997521, 0.999740, 0.996183, 0.998238, 0.994337, 0.998898, 0.995338, 1.000968, 0.988002, 0.990781, 0.987429, 0.986562, 0.994811, 0.995583, 0.989860, 0.992044, 1.001807, 0.992716, 0.992573, 0.992195, 1.000957, 0.997295, 0.999435, 0.998439, 0.993160, 0.991825
Process 7: 1.027819, 1.043598, 1.026331, 1.022863, 1.023329, 1.025605, 1.022078, 1.023684, 1.020153, 1.024601, 1.021228, 1.026708, 1.013696, 1.016542, 1.013149, 1.012293, 1.020624, 1.021318, 1.015448, 1.017641, 1.027413, 1.018314, 1.018110, 1.017842, 1.026478, 1.022880, 1.024953, 1.024050, 1.018960, 1.017291
Process 8: 1.046670, 1.062475, 1.051827, 1.048321, 1.042367, 1.044772, 1.041218, 1.042869, 1.039257, 1.043586, 1.039952, 1.045846, 1.039083, 1.035553, 1.034169, 1.031490, 1.039692, 1.042861, 1.036603, 1.043187, 1.046325, 1.037354, 1.037173, 1.036903, 1.045802, 1.043788, 1.044038, 1.049559, 1.037888, 1.037646
Process 9: 1.068090, 1.083767, 1.070257, 1.066792, 1.063903, 1.065351, 1.062394, 1.064637, 1.063452, 1.067692, 1.063433, 1.070011, 1.059441, 1.059890, 1.059529, 1.055459, 1.063587, 1.067861, 1.062059, 1.061543, 1.067263, 1.059219, 1.061192, 1.061318, 1.067117, 1.069215, 1.066393, 1.068112, 1.062139, 1.059292
Process 10: 1.093409, 1.109106, 1.092499, 1.087424, 1.089074, 1.090442, 1.087509, 1.089587, 1.088585, 1.093219, 1.088791, 1.095728, 1.084931, 1.085504, 1.084760, 1.080975, 1.089220, 1.093149, 1.083434, 1.086218, 1.092619, 1.084238, 1.086685, 1.086411, 1.092298, 1.091726, 1.091358, 1.091952, 1.087304, 1.084673
Process 11: 1.118084, 1.133743, 1.118256, 1.113001, 1.114678, 1.116124, 1.112838, 1.114784, 1.114182, 1.118570, 1.113508, 1.120902, 1.110238, 1.110746, 1.110135, 1.106257, 1.114457, 1.118091, 1.109030, 1.111858, 1.117280, 1.109994, 1.112123, 1.112113, 1.117935, 1.117322, 1.116444, 1.117489, 1.112283, 1.109302
Process 12: 1.135638, 1.151226, 1.135504, 1.130377, 1.131978, 1.133423, 1.131898, 1.132600, 1.131580, 1.135831, 1.131086, 1.138258, 1.127615, 1.128025, 1.127494, 1.123729, 1.131833, 1.143398, 1.126478, 1.129189, 1.134704, 1.127223, 1.129320, 1.129290, 1.135169, 1.134696, 1.135578, 1.134704, 1.137512, 1.126794
Process 13: 1.154044, 1.169639, 1.153260, 1.148081, 1.149789, 1.151185, 1.157223, 1.151562, 1.149490, 1.153628, 1.149493, 1.155993, 1.145326, 1.145783, 1.145216, 1.141547, 1.149560, 1.160341, 1.144337, 1.146923, 1.153036, 1.145007, 1.147036, 1.147049, 1.152886, 1.152471, 1.160735, 1.152567, 1.154511, 1.145140
