MPI_insiderank_optimisedserial
Process 0: 1.129299, 1.153656, 1.128383, 1.135192, 1.127279, 1.136486, 1.127098, 1.127871, 1.136859, 1.135412, 1.128264, 1.138040, 1.128620, 1.131111, 1.141515, 1.135611, 1.138636, 1.134774, 1.134043, 1.130525, 1.128340, 1.127986, 1.127410, 1.125728, 1.125488, 1.128341, 1.126429, 1.139814, 1.128463, 1.126865
Process 1: 0.834086, 0.860512, 0.836071, 0.837052, 0.835874, 0.834642, 0.834957, 0.835506, 0.839391, 0.841711, 0.835113, 0.840105, 0.837642, 0.841814, 0.837305, 0.836048, 0.835758, 0.835242, 0.845068, 0.840861, 0.836712, 0.834485, 0.834736, 0.834765, 0.834467, 0.835140, 0.835688, 0.842229, 0.835716, 0.835895
Process 2: 0.862621, 0.888700, 0.863748, 0.865454, 0.864001, 0.862515, 0.862689, 0.863237, 0.867233, 0.869739, 0.862751, 0.867655, 0.865112, 0.869353, 0.864920, 0.863649, 0.863504, 0.863040, 0.872589, 0.868385, 0.864490, 0.861982, 0.862318, 0.862365, 0.862085, 0.862876, 0.862990, 0.869657, 0.863006, 0.863736
Process 3: 0.891160, 0.917449, 0.892098, 0.893757, 0.892789, 0.890896, 0.891263, 0.891498, 0.895694, 0.898027, 0.891661, 0.896405, 0.893803, 0.896152, 0.893416, 0.892149, 0.891940, 0.891295, 0.900312, 0.896714, 0.892908, 0.890629, 0.890716, 0.891171, 0.891569, 0.891019, 0.891851, 0.897738, 0.891619, 0.892103
Process 4: 0.917500, 0.943533, 0.918600, 0.920006, 0.919038, 0.917341, 0.917590, 0.918023, 0.921964, 0.924466, 0.917738, 0.922615, 0.921029, 0.922540, 0.919775, 0.918455, 0.918228, 0.917594, 0.926762, 0.923107, 0.919093, 0.917165, 0.917159, 0.917466, 0.918279, 0.917355, 0.917891, 0.923825, 0.917925, 0.918268
Process 5: 0.943103, 0.968992, 0.944068, 0.945541, 0.944459, 0.942893, 0.942952, 0.943411, 0.947397, 0.950127, 0.943093, 0.948140, 0.946569, 0.947892, 0.945278, 0.943927, 0.943685, 0.943010, 0.951938, 0.948382, 0.944484, 0.942595, 0.942553, 0.942686, 0.943672, 0.942896, 0.943210, 0.948451, 0.943264, 0.943710
Process 6: 0.965027, 0.989813, 0.965096, 0.966580, 0.965157, 0.963994, 0.963753, 0.964707, 0.968322, 0.971230, 0.964023, 0.969344, 0.967388, 0.969245, 0.966658, 0.965264, 0.964920, 0.964489, 0.973520, 0.969285, 0.965845, 0.964265, 0.967388, 0.967364, 0.964759, 0.964208, 0.964350, 0.970620, 0.964523, 0.965066
Process 7: 0.989479, 1.014338, 0.989673, 0.990981, 0.989701, 0.988625, 0.988325, 0.989186, 0.993008, 0.995778, 0.988471, 0.993893, 0.991739, 0.993705, 0.991317, 0.989720, 0.989431, 0.989116, 0.997695, 0.993668, 0.990082, 0.988911, 0.991638, 0.991680, 0.989098, 0.988685, 0.988771, 0.994822, 0.989087, 0.989445
Process 8: 1.009425, 1.033757, 1.008480, 1.009306, 1.007968, 1.007752, 1.012118, 1.008778, 1.011223, 1.015436, 1.008234, 1.012115, 1.009940, 1.017515, 1.009979, 1.008064, 1.007767, 1.007375, 1.015910, 1.012252, 1.009706, 1.012633, 1.009775, 1.009810, 1.007343, 1.008443, 1.010037, 1.013020, 1.009469, 1.007738
Process 9: 1.033026, 1.057431, 1.032113, 1.032693, 1.030951, 1.031342, 1.030906, 1.032384, 1.034580, 1.039109, 1.031944, 1.035743, 1.032723, 1.035221, 1.033644, 1.030623, 1.030373, 1.029637, 1.038069, 1.036195, 1.033728, 1.031835, 1.031322, 1.029394, 1.029612, 1.032153, 1.030354, 1.036133, 1.033559, 1.030528
Process 10: 1.056527, 1.081216, 1.055809, 1.056391, 1.054567, 1.054601, 1.054327, 1.055414, 1.057839, 1.062474, 1.055737, 1.059025, 1.055967, 1.058182, 1.057082, 1.053918, 1.053718, 1.052902, 1.061335, 1.057527, 1.055425, 1.055163, 1.054609, 1.052727, 1.052827, 1.055888, 1.053654, 1.059420, 1.055481, 1.053823
Process 11: 1.080818, 1.105192, 1.079652, 1.079877, 1.078735, 1.078373, 1.078536, 1.079093, 1.081733, 1.086631, 1.079604, 1.082830, 1.079850, 1.082495, 1.080933, 1.077795, 1.077677, 1.076809, 1.085189, 1.081768, 1.079606, 1.079405, 1.078884, 1.077065, 1.076738, 1.079740, 1.077559, 1.083251, 1.079735, 1.078160
Process 12: 1.096671, 1.121048, 1.095651, 1.096148, 1.094685, 1.097577, 1.094556, 1.095228, 1.105200, 1.102736, 1.095577, 1.106234, 1.095961, 1.098449, 1.102713, 1.096775, 1.093930, 1.095979, 1.101340, 1.097846, 1.095598, 1.095359, 1.094777, 1.093013, 1.092893, 1.095784, 1.093688, 1.099523, 1.095737, 1.094142
Process 13: 1.113873, 1.138226, 1.112897, 1.120537, 1.111872, 1.121855, 1.111716, 1.112001, 1.121441, 1.119940, 1.112827, 1.122600, 1.112724, 1.115635, 1.126925, 1.121080, 1.116508, 1.120226, 1.118279, 1.115052, 1.112886, 1.112569, 1.111962, 1.110267, 1.109689, 1.112965, 1.110598, 1.117707, 1.112948, 1.111431
Process 14: 1.130479, 1.154823, 1.129521, 1.136342, 1.128415, 1.137610, 1.128199, 1.129029, 1.137997, 1.136539, 1.129406, 1.139191, 1.129771, 1.132240, 1.142661, 1.136737, 1.140030, 1.135918, 1.135181, 1.131661, 1.129461, 1.129124, 1.128548, 1.126859, 1.126645, 1.129482, 1.127559, 1.141242, 1.129598, 1.128031
