MPI_insiderank_openmp
Process 0: 16.163034, 16.099428, 15.950093, 15.859344, 15.895570, 15.814350, 15.878336, 15.823043, 15.866380, 15.902604, 15.928921, 15.991970, 15.723998, 15.811980, 15.889711, 15.888719, 15.903024, 15.863397, 16.014958, 15.974294, 15.910305, 15.901654, 15.921211, 15.968484, 15.915347, 15.900218, 15.905356, 15.664067, 15.962246, 15.971958
Process 1: 14.842691, 14.778841, 14.637972, 14.580835, 14.565199, 14.472281, 14.576561, 14.495514, 14.453506, 14.587113, 14.602570, 14.662778, 14.452025, 14.485346, 14.599142, 14.545920, 14.583188, 14.547538, 14.714306, 14.644532, 14.600327, 14.581262, 14.612395, 14.642771, 14.576878, 14.584220, 14.580498, 14.346215, 14.621789, 14.650147
Process 2: 15.498384, 15.435468, 15.309350, 15.220011, 15.246701, 15.151719, 15.260809, 15.166507, 15.130832, 15.267529, 15.295040, 15.350555, 15.092264, 15.181780, 15.234225, 15.216363, 15.258449, 15.218438, 15.369780, 15.325395, 15.258835, 15.259849, 15.290984, 15.318859, 15.255935, 15.261132, 15.248785, 15.018610, 15.296830, 15.330113
Process 3: 16.168293, 16.104071, 15.955454, 15.864470, 15.900884, 15.819292, 15.883250, 15.827954, 15.873272, 15.906918, 15.933527, 15.996701, 15.728901, 15.817106, 15.894605, 15.893603, 15.907917, 15.868311, 16.019897, 15.979189, 15.915323, 15.906468, 15.925913, 15.972979, 15.920286, 15.904925, 15.910207, 15.668966, 15.966834, 15.976760
