MPI_insiderank_openmp
Process 0: 3.738345, 3.579376, 4.545809, 3.498380, 3.526345, 3.487879, 3.490456, 3.491343, 3.450469, 3.493663, 3.485998, 3.457979, 3.532624, 3.500317, 3.502655, 3.466551, 3.500903, 3.459130, 3.496231, 3.510924, 3.527717, 3.495774, 3.527028, 3.510602, 3.488638, 3.495552, 3.470911, 3.496657, 3.490157, 3.493287
Process 1: 3.386902, 3.185784, 4.178075, 3.136931, 3.167793, 3.133491, 3.135166, 3.130384, 3.090196, 3.138515, 3.111550, 3.084613, 3.177506, 3.144167, 3.147883, 3.102127, 3.146659, 3.108661, 3.140667, 3.156363, 3.172286, 3.140659, 3.163455, 3.154308, 3.129920, 3.143257, 3.109763, 3.140422, 3.138547, 3.135873
Process 2: 3.419160, 3.217792, 4.213240, 3.169822, 3.199735, 3.165999, 3.168222, 3.163202, 3.125555, 3.171758, 3.146183, 3.120312, 3.210477, 3.177331, 3.180327, 3.137456, 3.178498, 3.138525, 3.173697, 3.188243, 3.206208, 3.173925, 3.196433, 3.186671, 3.162798, 3.174885, 3.145310, 3.173067, 3.170683, 3.168512
Process 3: 3.458100, 3.256672, 4.251945, 3.208527, 3.238707, 3.204575, 3.207014, 3.201845, 3.164214, 3.210933, 3.183829, 3.159015, 3.249102, 3.216168, 3.218983, 3.177224, 3.216773, 3.177400, 3.212654, 3.227370, 3.244922, 3.212821, 3.235316, 3.225419, 3.201270, 3.212280, 3.184067, 3.211664, 3.208376, 3.207108
Process 4: 3.493967, 3.292966, 4.287823, 3.245316, 3.274737, 3.240524, 3.243289, 3.238179, 3.199758, 3.247899, 3.220604, 3.195557, 3.285487, 3.252180, 3.256629, 3.212465, 3.252715, 3.213430, 3.249023, 3.263182, 3.281260, 3.248947, 3.272255, 3.261493, 3.237291, 3.249451, 3.220394, 3.247885, 3.244558, 3.243102
Process 5: 3.537090, 3.336162, 4.327928, 3.290284, 3.318681, 3.284743, 3.287521, 3.282608, 3.238820, 3.290003, 3.260037, 3.250908, 3.327900, 3.296133, 3.299108, 3.251455, 3.294568, 3.256654, 3.292904, 3.307502, 3.324991, 3.292933, 3.315798, 3.305922, 3.281015, 3.292233, 3.263485, 3.291561, 3.287919, 3.286369
Process 6: 3.569985, 3.368610, 4.363815, 3.323018, 3.350210, 3.317119, 3.320151, 3.315377, 3.273417, 3.323973, 3.294697, 3.279715, 3.361760, 3.328173, 3.332131, 3.289411, 3.328531, 3.289962, 3.324721, 3.339145, 3.357932, 3.325674, 3.349214, 3.338980, 3.314594, 3.325493, 3.297293, 3.324286, 3.319235, 3.321092
Process 7: 3.604406, 3.405340, 4.401430, 3.359072, 3.386908, 3.351697, 3.354659, 3.351255, 3.310419, 3.358442, 3.338058, 3.329759, 3.396910, 3.364136, 3.366674, 3.328430, 3.362758, 3.324416, 3.358946, 3.373947, 3.392330, 3.360567, 3.385471, 3.373783, 3.351797, 3.360733, 3.331518, 3.358748, 3.354369, 3.357203
Process 8: 3.637611, 3.440605, 4.435860, 3.393919, 3.421502, 3.386171, 3.389374, 3.386475, 3.344194, 3.393594, 3.371381, 3.354137, 3.432160, 3.398371, 3.401382, 3.359467, 3.397420, 3.358701, 3.392355, 3.407886, 3.426044, 3.395106, 3.420958, 3.407457, 3.386505, 3.395194, 3.367579, 3.392359, 3.388837, 3.392414
Process 9: 3.675369, 3.480864, 4.472880, 3.431095, 3.460708, 3.424194, 3.425650, 3.424958, 3.380603, 3.429428, 3.408775, 3.388198, 3.468961, 3.437064, 3.437081, 3.394356, 3.435457, 3.395016, 3.431572, 3.447219, 3.463277, 3.431947, 3.460165, 3.445785, 3.424814, 3.431142, 3.405106, 3.431020, 3.426454, 3.428433
Process 10: 3.706202, 3.522745, 4.509025, 3.463527, 3.491475, 3.455363, 3.456505, 3.455196, 3.415010, 3.460874, 3.446249, 3.422752, 3.498972, 3.466205, 3.469349, 3.429940, 3.467104, 3.426322, 3.462610, 3.476864, 3.494463, 3.462370, 3.490928, 3.476738, 3.455148, 3.462153, 3.435789, 3.461816, 3.456331, 3.459132
Process 11: 3.738618, 3.579381, 4.545814, 3.498383, 3.526349, 3.487881, 3.490457, 3.491342, 3.450467, 3.493665, 3.485998, 3.457979, 3.532625, 3.500316, 3.502654, 3.466553, 3.500907, 3.459134, 3.496233, 3.510924, 3.527716, 3.495774, 3.527024, 3.510600, 3.488638, 3.495546, 3.470911, 3.496656, 3.490165, 3.493294
