MPI_insiderank_openmp
Process 0: 54.018023, 53.203280, 53.331168, 53.245856, 53.107433, 53.501100, 53.266169, 53.772705, 53.350844, 53.389908, 53.248302, 53.799380, 53.376912, 53.702835, 53.646572, 53.320534, 53.162962, 53.598781, 53.550211, 53.754255, 53.782281, 54.008347, 53.601380, 53.568435, 54.007302, 54.043939, 54.085288, 53.368497, 53.789098, 53.579216
Process 1: 54.019516, 53.205996, 53.334091, 53.249019, 53.110625, 53.504062, 53.268876, 53.775646, 53.353737, 53.392888, 53.251043, 53.802785, 53.379600, 53.705494, 53.649461, 53.323522, 53.165739, 53.601880, 53.553128, 53.756956, 53.785150, 54.010981, 53.604094, 53.571169, 54.010378, 54.046766, 54.088362, 53.371462, 53.791911, 53.582323
