[eu-a2p-452:110473:0:110753] Caught signal 7 (Bus error: nonexistent physical address)
==== backtrace (tid: 110753) ====
 0  /cluster/spack/apps/linux-centos7-x86_64/gcc-9.3.0/ucx-1.12.1-xfljgpcc4jht7wamy2hjr2mdvn7y3u5g/lib/libucs.so.0(ucs_handle_error+0x2a4) [0x2ad01fc72574]
 1  /cluster/spack/apps/linux-centos7-x86_64/gcc-9.3.0/ucx-1.12.1-xfljgpcc4jht7wamy2hjr2mdvn7y3u5g/lib/libucs.so.0(+0x2f777) [0x2ad01fc72777]
 2  /cluster/spack/apps/linux-centos7-x86_64/gcc-9.3.0/ucx-1.12.1-xfljgpcc4jht7wamy2hjr2mdvn7y3u5g/lib/libucs.so.0(+0x2fa36) [0x2ad01fc72a36]
 3  /lib64/libpthread.so.0(+0xf630) [0x2ad01dda5630]
 4  /cluster/scratch/galoisi/DPHPC/2022_hs_polybench_parallelization/src/seidel/OUT/./mpi_insiderank_openmp.out() [0x400f70]
 5  /cluster/scratch/galoisi/DPHPC/2022_hs_polybench_parallelization/src/seidel/OUT/./mpi_insiderank_openmp.out() [0x401d14]
 6  /cluster/spack/apps/linux-centos7-x86_64/gcc-4.8.5/gcc-9.3.0-mjmsvu3362usxjr7tas4ywkd2e4ko5x3/lib64/libgomp.so.1(+0x1a136) [0x2ad01db7a136]
 7  /lib64/libpthread.so.0(+0x7ea5) [0x2ad01dd9dea5]
 8  /lib64/libc.so.6(clone+0x6d) [0x2ad01e0b0b0d]
=================================
srun: error: eu-a2p-452: task 0: Bus error
srun: Job step aborted: Waiting up to 32 seconds for job step to finish.
slurmstepd: error: *** STEP 4285064.0 ON eu-a2p-452 CANCELLED AT 2022-12-14T13:19:41 DUE TO TIME LIMIT ***
slurmstepd: error: *** JOB 4285064 ON eu-a2p-452 CANCELLED AT 2022-12-14T13:19:41 DUE TO TIME LIMIT ***
