MPI_insiderank_openmp
Process 0: 5.549735, 5.609443, 5.456666, 5.485851, 5.520462, 5.510872, 5.605387, 5.491840, 5.453421, 5.488428, 5.474124, 5.545556, 5.503598, 5.480770, 5.480221, 5.503559, 5.564518, 5.517082, 5.471712, 5.455732, 5.525858, 5.604755, 5.518114, 5.455889, 5.455228, 5.560569, 5.610576, 5.524604, 5.503593, 5.510208
Process 1: 4.579135, 4.633869, 4.539385, 4.483629, 4.546235, 4.516922, 4.622902, 4.551823, 4.460809, 4.497093, 4.497558, 4.558373, 4.558485, 4.503710, 4.512647, 4.519401, 4.577462, 4.553334, 4.493269, 4.484956, 4.543074, 4.618362, 4.553077, 4.469837, 4.500647, 4.561708, 4.628737, 4.557308, 4.537607, 4.529627
Process 2: 4.662960, 4.724481, 4.619376, 4.576182, 4.631276, 4.616710, 4.696758, 4.632325, 4.560838, 4.586759, 4.584185, 4.652964, 4.646070, 4.591568, 4.596917, 4.607210, 4.665401, 4.640750, 4.594005, 4.570934, 4.640539, 4.711702, 4.639034, 4.567091, 4.585051, 4.663704, 4.716414, 4.648504, 4.631112, 4.627513
Process 3: 4.778492, 4.839900, 4.734945, 4.691573, 4.749500, 4.735265, 4.819802, 4.737147, 4.677420, 4.707809, 4.699839, 4.764813, 4.758231, 4.709445, 4.710606, 4.726626, 4.784686, 4.756150, 4.703003, 4.688431, 4.753243, 4.831994, 4.755846, 4.681285, 4.703038, 4.772064, 4.834021, 4.761183, 4.749691, 4.743825
Process 4: 4.862266, 4.928248, 4.813832, 4.795035, 4.837370, 4.824440, 4.912871, 4.829414, 4.769613, 4.801821, 4.801163, 4.864681, 4.839891, 4.800742, 4.798880, 4.818773, 4.884547, 4.836197, 4.804230, 4.779788, 4.851274, 4.922528, 4.840955, 4.778972, 4.781703, 4.867378, 4.931044, 4.843675, 4.844766, 4.831994
Process 5: 4.980019, 5.045953, 4.927796, 4.906744, 4.953204, 4.938427, 5.033441, 4.933219, 4.885478, 4.917071, 4.919104, 4.974920, 4.943678, 4.912647, 4.907489, 4.932811, 4.994175, 4.952228, 4.917625, 4.895540, 4.963311, 5.039232, 4.955108, 4.887950, 4.892106, 4.989520, 5.047612, 4.953990, 4.958382, 4.945811
Process 6: 5.057492, 5.125901, 5.000785, 4.993464, 5.034501, 5.016987, 5.118770, 5.005194, 4.970732, 4.999558, 4.995998, 5.065170, 5.031991, 4.997129, 5.001018, 5.022147, 5.079154, 5.030768, 4.993908, 4.977444, 5.043689, 5.123306, 5.036121, 4.979409, 4.980502, 5.068597, 5.126216, 5.038073, 5.033691, 5.026291
Process 7: 5.171844, 5.246803, 5.108410, 5.107227, 5.153475, 5.125184, 5.239655, 5.105203, 5.083333, 5.118424, 5.105953, 5.177992, 5.145929, 5.114770, 5.114916, 5.129064, 5.195411, 5.141753, 5.103426, 5.091782, 5.156810, 5.235317, 5.136017, 5.088930, 5.089388, 5.182449, 5.245902, 5.151043, 5.141286, 5.137699
Process 8: 5.248601, 5.320455, 5.187173, 5.184185, 5.230649, 5.214983, 5.315389, 5.197613, 5.162625, 5.196812, 5.190015, 5.255972, 5.223552, 5.189587, 5.192055, 5.206564, 5.273006, 5.221926, 5.185887, 5.168557, 5.236680, 5.312716, 5.224133, 5.165839, 5.169572, 5.265948, 5.322436, 5.232815, 5.223857, 5.228448
Process 9: 5.354238, 5.432307, 5.280661, 5.306395, 5.340363, 5.326937, 5.428744, 5.314177, 5.270804, 5.308330, 5.293254, 5.368773, 5.327027, 5.300495, 5.303347, 5.314517, 5.382076, 5.337405, 5.295553, 5.276805, 5.344891, 5.423895, 5.313270, 5.276755, 5.275401, 5.379579, 5.431123, 5.334344, 5.325142, 5.338315
Process 10: 5.448313, 5.509194, 5.363866, 5.371854, 5.416308, 5.411236, 5.505015, 5.390376, 5.349343, 5.383821, 5.374640, 5.444259, 5.407093, 5.376819, 5.379067, 5.396446, 5.461096, 5.415790, 5.372584, 5.355697, 5.427711, 5.502489, 5.415656, 5.354712, 5.363070, 5.458850, 5.511903, 5.422254, 5.410338, 5.411437
Process 11: 5.551603, 5.611146, 5.458051, 5.487536, 5.522630, 5.512481, 5.607200, 5.493382, 5.455097, 5.490209, 5.475547, 5.547550, 5.505354, 5.482369, 5.481788, 5.505265, 5.566244, 5.518250, 5.473311, 5.457635, 5.527470, 5.606708, 5.520096, 5.457539, 5.456877, 5.562288, 5.612450, 5.526337, 5.505257, 5.512289
