MPI_insiderank_openmp_handopt
Process 0: 1.006622, 0.558904, 0.405855, 0.472963, 0.448315, 0.492101, 0.481473, 0.429696, 0.529046, 0.448860, 0.406739, 0.426436, 0.483527, 0.421531, 0.492599, 0.428310, 0.457542, 0.494977, 0.487934, 0.450385, 0.442982, 0.443189, 0.466203, 0.469790, 0.454402, 0.498205, 0.441958, 0.457467, 0.444956, 0.469177
Process 1: 0.876053, 0.451490, 0.299304, 0.352290, 0.328904, 0.372012, 0.357650, 0.307768, 0.415945, 0.333733, 0.292483, 0.310675, 0.358615, 0.306590, 0.376008, 0.308053, 0.331098, 0.373325, 0.366506, 0.329616, 0.328567, 0.331459, 0.347354, 0.346383, 0.331272, 0.375652, 0.327553, 0.343659, 0.326100, 0.337852
Process 2: 0.878149, 0.455317, 0.301818, 0.355839, 0.331802, 0.374378, 0.360162, 0.310490, 0.418813, 0.337439, 0.295736, 0.314250, 0.362582, 0.309853, 0.378511, 0.311813, 0.333545, 0.376833, 0.370780, 0.332760, 0.332059, 0.334929, 0.350757, 0.349801, 0.333800, 0.379313, 0.331084, 0.347124, 0.329637, 0.340770
Process 3: 0.882985, 0.459387, 0.305229, 0.359674, 0.335663, 0.377243, 0.364556, 0.313460, 0.421635, 0.341869, 0.298541, 0.319033, 0.368497, 0.312768, 0.381483, 0.315610, 0.336969, 0.381024, 0.373114, 0.337220, 0.335738, 0.337723, 0.353722, 0.354354, 0.338824, 0.384312, 0.334083, 0.351479, 0.334331, 0.346239
Process 4: 0.885420, 0.462263, 0.306395, 0.362360, 0.338160, 0.379978, 0.367124, 0.315766, 0.423964, 0.345197, 0.300256, 0.322310, 0.372433, 0.315699, 0.384087, 0.318157, 0.339631, 0.383872, 0.375813, 0.340362, 0.337924, 0.339464, 0.355506, 0.357895, 0.342194, 0.388020, 0.335815, 0.354627, 0.337416, 0.349117
Process 5: 0.889877, 0.464537, 0.309569, 0.365426, 0.342272, 0.384239, 0.371304, 0.318583, 0.426894, 0.348351, 0.303050, 0.325511, 0.376572, 0.318717, 0.387146, 0.321069, 0.343814, 0.388517, 0.379023, 0.343783, 0.341254, 0.342243, 0.358633, 0.360848, 0.347414, 0.391852, 0.338929, 0.357118, 0.340671, 0.354004
Process 6: 0.892015, 0.466649, 0.310826, 0.367799, 0.346449, 0.386895, 0.373777, 0.321891, 0.429210, 0.351119, 0.305686, 0.327796, 0.379191, 0.321481, 0.389808, 0.323407, 0.346186, 0.390903, 0.381219, 0.346079, 0.343645, 0.344735, 0.361033, 0.364395, 0.350812, 0.395117, 0.341340, 0.359539, 0.343188, 0.357697
Process 7: 0.896159, 0.469014, 0.313515, 0.371676, 0.349916, 0.390943, 0.377688, 0.327350, 0.432600, 0.353977, 0.308650, 0.331595, 0.382886, 0.324493, 0.393177, 0.326822, 0.350382, 0.394920, 0.385145, 0.349372, 0.347408, 0.348608, 0.364142, 0.368282, 0.356520, 0.398446, 0.344844, 0.362410, 0.346501, 0.362962
Process 8: 0.898607, 0.471547, 0.315681, 0.374224, 0.351901, 0.393627, 0.380478, 0.331050, 0.435320, 0.356459, 0.311987, 0.334299, 0.385632, 0.327162, 0.396094, 0.330177, 0.353100, 0.397683, 0.387980, 0.351849, 0.350444, 0.351572, 0.366848, 0.370645, 0.360520, 0.401167, 0.347409, 0.364774, 0.349271, 0.366384
Process 9: 0.901533, 0.473808, 0.318246, 0.376832, 0.355312, 0.396899, 0.383712, 0.335597, 0.438361, 0.359013, 0.314543, 0.336696, 0.388827, 0.329655, 0.398518, 0.333012, 0.356119, 0.400825, 0.391196, 0.354885, 0.353270, 0.354045, 0.369511, 0.373045, 0.364788, 0.403624, 0.349997, 0.367290, 0.351711, 0.372186
Process 10: 0.903912, 0.475513, 0.320086, 0.379290, 0.357261, 0.398687, 0.385751, 0.338429, 0.440106, 0.361026, 0.316484, 0.338601, 0.390670, 0.331790, 0.400544, 0.335322, 0.358247, 0.402545, 0.393047, 0.357194, 0.355276, 0.356121, 0.372207, 0.374949, 0.368013, 0.406112, 0.351951, 0.369247, 0.354130, 0.375048
Process 11: 0.907528, 0.477253, 0.322163, 0.381997, 0.360464, 0.401824, 0.388426, 0.340844, 0.442426, 0.363790, 0.318835, 0.340952, 0.392893, 0.334281, 0.402802, 0.338211, 0.360932, 0.404970, 0.396049, 0.359889, 0.357782, 0.358558, 0.374537, 0.377008, 0.370471, 0.408595, 0.354794, 0.371821, 0.356300, 0.379514
Process 12: 0.909715, 0.478837, 0.323754, 0.384441, 0.362309, 0.403621, 0.390365, 0.342820, 0.444110, 0.365840, 0.320900, 0.342680, 0.395203, 0.336211, 0.404873, 0.340806, 0.363145, 0.406835, 0.398184, 0.361985, 0.359713, 0.360728, 0.376784, 0.379066, 0.372538, 0.410760, 0.357176, 0.373837, 0.358356, 0.382079
Process 13: 0.912692, 0.482229, 0.326415, 0.386928, 0.365000, 0.406470, 0.393338, 0.344855, 0.446435, 0.368257, 0.323301, 0.344886, 0.398070, 0.338640, 0.407735, 0.343234, 0.365536, 0.409428, 0.400706, 0.365008, 0.362208, 0.362626, 0.378925, 0.381578, 0.374813, 0.412992, 0.359525, 0.375971, 0.360983, 0.384566
Process 14: 0.914624, 0.484244, 0.328923, 0.389395, 0.367081, 0.408904, 0.395129, 0.346983, 0.448462, 0.370128, 0.325138, 0.346739, 0.399935, 0.340937, 0.409855, 0.345517, 0.367901, 0.411471, 0.402698, 0.367270, 0.364431, 0.364303, 0.381096, 0.383799, 0.376801, 0.415176, 0.361636, 0.378469, 0.363245, 0.386605
Process 15: 0.917288, 0.485662, 0.331585, 0.391394, 0.369565, 0.412893, 0.398298, 0.349558, 0.450758, 0.372286, 0.327214, 0.349023, 0.402422, 0.343378, 0.412078, 0.348032, 0.370649, 0.414425, 0.405833, 0.370266, 0.367031, 0.366266, 0.383600, 0.386525, 0.379074, 0.417504, 0.363755, 0.380642, 0.365823, 0.388676
Process 16: 0.919709, 0.487978, 0.333943, 0.393408, 0.371434, 0.416433, 0.400282, 0.351598, 0.452799, 0.374546, 0.329442, 0.351103, 0.404576, 0.345580, 0.414060, 0.349938, 0.373248, 0.416790, 0.407936, 0.372344, 0.368922, 0.368472, 0.385468, 0.389188, 0.381324, 0.419679, 0.365864, 0.382736, 0.368213, 0.390778
Process 17: 0.922022, 0.489286, 0.336472, 0.395784, 0.373966, 0.419299, 0.402985, 0.353542, 0.454933, 0.376803, 0.332140, 0.353483, 0.407335, 0.347862, 0.416180, 0.351971, 0.375692, 0.419582, 0.410569, 0.375093, 0.371104, 0.370711, 0.387644, 0.391797, 0.383524, 0.421679, 0.367893, 0.384762, 0.370509, 0.392854
Process 18: 0.923138, 0.490835, 0.338043, 0.397828, 0.375425, 0.421218, 0.404957, 0.355755, 0.456337, 0.378939, 0.334009, 0.355301, 0.409392, 0.349403, 0.417954, 0.353199, 0.377839, 0.421695, 0.412704, 0.377178, 0.372754, 0.372768, 0.389437, 0.393061, 0.385210, 0.423341, 0.369347, 0.386563, 0.372219, 0.394890
Process 19: 0.925533, 0.492598, 0.339388, 0.399805, 0.377783, 0.423187, 0.406746, 0.357617, 0.457936, 0.380723, 0.335316, 0.357110, 0.411770, 0.351557, 0.419434, 0.354891, 0.380048, 0.423705, 0.415108, 0.379279, 0.374595, 0.374611, 0.391260, 0.394701, 0.387064, 0.424765, 0.371153, 0.387861, 0.373508, 0.396775
Process 20: 0.926525, 0.494097, 0.340490, 0.401278, 0.379043, 0.424054, 0.408070, 0.359288, 0.459222, 0.382423, 0.336424, 0.358679, 0.413514, 0.352945, 0.420941, 0.356063, 0.381617, 0.424575, 0.416819, 0.380920, 0.376363, 0.376297, 0.392846, 0.395940, 0.388697, 0.426464, 0.372509, 0.389453, 0.374685, 0.398446
Process 21: 0.929117, 0.495871, 0.342357, 0.403119, 0.381447, 0.426169, 0.410317, 0.361173, 0.460898, 0.384207, 0.338211, 0.360498, 0.415941, 0.354821, 0.422327, 0.357787, 0.383895, 0.426742, 0.419132, 0.383232, 0.378413, 0.378064, 0.394782, 0.397942, 0.390455, 0.428371, 0.374306, 0.391482, 0.376852, 0.400358
Process 22: 0.930003, 0.497287, 0.343856, 0.404751, 0.382878, 0.427848, 0.411795, 0.362803, 0.462171, 0.385783, 0.339883, 0.362145, 0.417532, 0.356465, 0.423741, 0.358979, 0.385381, 0.428419, 0.420717, 0.384910, 0.380016, 0.379734, 0.396437, 0.399607, 0.391731, 0.430066, 0.375694, 0.393137, 0.378481, 0.401971
Process 23: 0.932824, 0.498842, 0.345817, 0.406542, 0.385265, 0.430323, 0.414078, 0.364767, 0.463933, 0.387584, 0.341668, 0.364071, 0.419963, 0.358384, 0.425538, 0.360697, 0.387711, 0.430926, 0.423146, 0.387432, 0.381854, 0.381644, 0.398268, 0.401388, 0.393647, 0.431944, 0.377495, 0.395029, 0.380252, 0.403842
Process 24: 0.934028, 0.500433, 0.347458, 0.407831, 0.386644, 0.431840, 0.415543, 0.366337, 0.465626, 0.388885, 0.343020, 0.365609, 0.421430, 0.359992, 0.427448, 0.362246, 0.389148, 0.432421, 0.424627, 0.388969, 0.383235, 0.383264, 0.399625, 0.402803, 0.395214, 0.433503, 0.378950, 0.396592, 0.381704, 0.405398
Process 25: 0.936297, 0.501791, 0.349265, 0.409497, 0.388830, 0.433908, 0.417933, 0.367913, 0.467736, 0.390554, 0.345298, 0.367207, 0.423554, 0.361597, 0.429521, 0.363797, 0.391519, 0.434708, 0.426992, 0.391081, 0.385038, 0.385513, 0.401891, 0.404729, 0.396799, 0.435307, 0.380565, 0.398427, 0.383580, 0.407233
Process 26: 0.937492, 0.503458, 0.350685, 0.411306, 0.390033, 0.435215, 0.419099, 0.369214, 0.469527, 0.391694, 0.347609, 0.368841, 0.424943, 0.362760, 0.430916, 0.364940, 0.392959, 0.435981, 0.428339, 0.392483, 0.386186, 0.386867, 0.403426, 0.405851, 0.397988, 0.436473, 0.381728, 0.400018, 0.385037, 0.408850
Process 27: 0.939698, 0.505684, 0.352438, 0.413332, 0.392233, 0.437880, 0.421539, 0.371436, 0.471917, 0.393830, 0.349668, 0.371415, 0.426885, 0.364900, 0.433216, 0.367361, 0.395602, 0.438050, 0.430939, 0.394979, 0.387844, 0.388702, 0.405503, 0.407641, 0.399426, 0.438056, 0.383983, 0.402336, 0.387459, 0.411081
Process 28: 0.941197, 0.507374, 0.353530, 0.415670, 0.393007, 0.439367, 0.422420, 0.373413, 0.473823, 0.395511, 0.351454, 0.372697, 0.427649, 0.366696, 0.434464, 0.369690, 0.397068, 0.438934, 0.431820, 0.396040, 0.389191, 0.390030, 0.407511, 0.409659, 0.400899, 0.440014, 0.385722, 0.403885, 0.389223, 0.413046
Process 29: 0.944296, 0.508915, 0.355221, 0.418089, 0.394919, 0.441340, 0.424692, 0.376175, 0.476418, 0.398038, 0.353122, 0.375092, 0.429431, 0.369056, 0.436778, 0.371848, 0.400062, 0.441952, 0.434285, 0.398408, 0.391068, 0.391673, 0.409979, 0.412083, 0.402414, 0.442272, 0.387549, 0.405949, 0.391416, 0.415168
Process 30: 0.946382, 0.510466, 0.356635, 0.420190, 0.395707, 0.442146, 0.425961, 0.378588, 0.479095, 0.400245, 0.355186, 0.377257, 0.430229, 0.370776, 0.438743, 0.373834, 0.401147, 0.442992, 0.435076, 0.399375, 0.392569, 0.392835, 0.412334, 0.414214, 0.404818, 0.444696, 0.389991, 0.407084, 0.393489, 0.417323
Process 31: 0.949032, 0.511984, 0.358540, 0.422912, 0.398373, 0.444835, 0.428660, 0.381118, 0.481821, 0.402967, 0.357477, 0.379368, 0.432723, 0.373432, 0.441526, 0.376217, 0.403476, 0.445726, 0.437447, 0.401392, 0.395512, 0.394942, 0.414741, 0.416811, 0.407663, 0.447200, 0.392567, 0.408863, 0.395989, 0.419783
Process 32: 0.951519, 0.514002, 0.360075, 0.425288, 0.399773, 0.446577, 0.430640, 0.383362, 0.484066, 0.404789, 0.359653, 0.381852, 0.434307, 0.376233, 0.444042, 0.378663, 0.405267, 0.447014, 0.438802, 0.402748, 0.397504, 0.396954, 0.416344, 0.419399, 0.409732, 0.449644, 0.395073, 0.411661, 0.397927, 0.421297
Process 33: 0.954763, 0.515836, 0.362047, 0.427318, 0.402046, 0.448963, 0.433085, 0.385533, 0.486397, 0.406605, 0.361658, 0.383902, 0.436858, 0.378657, 0.446074, 0.380762, 0.409691, 0.449240, 0.441349, 0.405753, 0.399429, 0.399145, 0.418347, 0.421912, 0.411863, 0.451740, 0.397130, 0.414005, 0.400116, 0.423784
Process 34: 0.956430, 0.517988, 0.363693, 0.428697, 0.403526, 0.450484, 0.435077, 0.387167, 0.488006, 0.407809, 0.363330, 0.385272, 0.438485, 0.380316, 0.448116, 0.382153, 0.412155, 0.450913, 0.443431, 0.407092, 0.401309, 0.401772, 0.419737, 0.423630, 0.413535, 0.453589, 0.398644, 0.415281, 0.401662, 0.425474
Process 35: 0.959111, 0.519591, 0.365581, 0.430719, 0.405622, 0.452287, 0.437374, 0.388714, 0.490095, 0.409126, 0.365283, 0.386586, 0.440663, 0.382228, 0.449779, 0.383805, 0.414021, 0.452644, 0.445527, 0.408813, 0.403299, 0.403980, 0.421399, 0.425541, 0.415476, 0.455513, 0.399959, 0.417451, 0.403504, 0.427677
Process 36: 0.960867, 0.520981, 0.367485, 0.432674, 0.407562, 0.454115, 0.439220, 0.390071, 0.492192, 0.410102, 0.367144, 0.387906, 0.443101, 0.383945, 0.451777, 0.385806, 0.414773, 0.453389, 0.447804, 0.409790, 0.405468, 0.406455, 0.423346, 0.427400, 0.417822, 0.457289, 0.401464, 0.418727, 0.405429, 0.430028
Process 37: 0.963944, 0.523183, 0.369371, 0.434751, 0.409696, 0.456510, 0.442130, 0.392219, 0.494017, 0.411932, 0.369173, 0.389822, 0.445473, 0.385774, 0.454133, 0.387759, 0.417630, 0.456295, 0.449981, 0.412713, 0.407511, 0.408490, 0.425550, 0.429678, 0.419771, 0.459476, 0.403250, 0.421250, 0.407663, 0.432372
Process 38: 0.966168, 0.527200, 0.371441, 0.436486, 0.411999, 0.457337, 0.444191, 0.393958, 0.495385, 0.414020, 0.371113, 0.391938, 0.446729, 0.387145, 0.456199, 0.389820, 0.419282, 0.457963, 0.451062, 0.414573, 0.408883, 0.410047, 0.427602, 0.431883, 0.421159, 0.461444, 0.404949, 0.423400, 0.409556, 0.434193
Process 39: 0.968361, 0.529248, 0.373473, 0.439091, 0.414202, 0.459448, 0.447061, 0.396025, 0.497213, 0.416164, 0.373631, 0.394189, 0.449049, 0.389279, 0.458779, 0.392545, 0.421874, 0.460353, 0.453504, 0.417190, 0.410905, 0.412001, 0.429879, 0.434350, 0.423172, 0.463977, 0.407084, 0.425559, 0.411727, 0.436613
Process 40: 0.970511, 0.530861, 0.374940, 0.441253, 0.417160, 0.460633, 0.449353, 0.398270, 0.499397, 0.417730, 0.376001, 0.396237, 0.450732, 0.391662, 0.461098, 0.395179, 0.423997, 0.462181, 0.455283, 0.418984, 0.412836, 0.413777, 0.431929, 0.436410, 0.425273, 0.466304, 0.408754, 0.427723, 0.414060, 0.438598
Process 41: 0.973171, 0.532460, 0.376942, 0.443056, 0.419198, 0.463234, 0.451326, 0.400239, 0.501427, 0.419607, 0.378423, 0.398244, 0.453371, 0.393493, 0.463161, 0.397588, 0.426361, 0.464504, 0.457691, 0.421027, 0.415088, 0.415413, 0.433797, 0.438473, 0.427293, 0.468668, 0.410576, 0.429992, 0.415978, 0.440267
Process 42: 0.974156, 0.534216, 0.378516, 0.444637, 0.421019, 0.464774, 0.452966, 0.401811, 0.502886, 0.421119, 0.379396, 0.400208, 0.454950, 0.394735, 0.464432, 0.398599, 0.427607, 0.465743, 0.459365, 0.422778, 0.416375, 0.416677, 0.435508, 0.439768, 0.428283, 0.469762, 0.411865, 0.431150, 0.417348, 0.441629
Process 43: 0.975845, 0.535898, 0.380194, 0.446136, 0.423276, 0.466563, 0.455591, 0.403623, 0.504699, 0.422841, 0.380978, 0.401671, 0.457025, 0.396176, 0.466331, 0.400110, 0.429374, 0.467535, 0.461500, 0.424575, 0.417940, 0.418071, 0.437483, 0.441376, 0.429684, 0.471177, 0.413289, 0.432583, 0.418891, 0.443359
Process 44: 0.977300, 0.536790, 0.381559, 0.447112, 0.424096, 0.467282, 0.456752, 0.404694, 0.505605, 0.424086, 0.381902, 0.402571, 0.457998, 0.397104, 0.467508, 0.401036, 0.430133, 0.468221, 0.462188, 0.425274, 0.418847, 0.419021, 0.438766, 0.442639, 0.430616, 0.472122, 0.414261, 0.433521, 0.419803, 0.444825
Process 45: 0.979535, 0.538086, 0.383352, 0.448680, 0.425772, 0.468933, 0.457966, 0.406576, 0.506960, 0.425824, 0.383471, 0.403953, 0.460000, 0.398606, 0.468945, 0.402705, 0.432310, 0.470292, 0.463834, 0.426984, 0.420208, 0.420362, 0.440583, 0.444421, 0.431982, 0.474261, 0.415672, 0.434889, 0.421195, 0.446547
Process 46: 0.980362, 0.539028, 0.384354, 0.449854, 0.427380, 0.469714, 0.458820, 0.408004, 0.507858, 0.427356, 0.384989, 0.404898, 0.460819, 0.399607, 0.470046, 0.403781, 0.433667, 0.471052, 0.464513, 0.428216, 0.421123, 0.421277, 0.441876, 0.446010, 0.432904, 0.475720, 0.416818, 0.435805, 0.422124, 0.447845
Process 47: 0.982164, 0.540422, 0.386352, 0.451779, 0.429334, 0.471751, 0.461203, 0.409868, 0.509355, 0.429090, 0.387033, 0.406735, 0.462882, 0.401396, 0.471588, 0.406292, 0.435799, 0.473475, 0.466190, 0.430012, 0.422835, 0.423027, 0.443705, 0.447724, 0.434729, 0.477621, 0.419051, 0.437263, 0.423853, 0.449591
Process 48: 0.983936, 0.541522, 0.387720, 0.453263, 0.430131, 0.472867, 0.462643, 0.411366, 0.510534, 0.430443, 0.388420, 0.407998, 0.464137, 0.402828, 0.473048, 0.407956, 0.437245, 0.474593, 0.467425, 0.431036, 0.424136, 0.424186, 0.445560, 0.449406, 0.436064, 0.479127, 0.420644, 0.438645, 0.425511, 0.450919
Process 49: 0.986016, 0.542762, 0.389174, 0.454885, 0.431993, 0.474774, 0.464663, 0.413052, 0.512109, 0.431870, 0.390081, 0.409431, 0.465874, 0.404486, 0.474839, 0.410096, 0.439078, 0.476341, 0.469056, 0.432760, 0.425739, 0.425530, 0.447277, 0.451144, 0.437646, 0.480828, 0.422332, 0.440502, 0.426965, 0.452639
Process 50: 0.987183, 0.543678, 0.390229, 0.455922, 0.432834, 0.475954, 0.465533, 0.414150, 0.513115, 0.432938, 0.391367, 0.410486, 0.466774, 0.405536, 0.476110, 0.412475, 0.440156, 0.477236, 0.469886, 0.433607, 0.426771, 0.426532, 0.448683, 0.452488, 0.438688, 0.481834, 0.423765, 0.441768, 0.428162, 0.453707
Process 51: 0.989177, 0.544974, 0.391652, 0.457265, 0.434334, 0.477536, 0.467084, 0.415552, 0.514438, 0.434324, 0.392698, 0.411783, 0.468318, 0.406857, 0.477626, 0.414107, 0.441833, 0.478914, 0.471430, 0.435176, 0.428088, 0.427827, 0.450419, 0.453922, 0.440011, 0.483139, 0.425249, 0.443134, 0.429474, 0.455084
Process 52: 0.990312, 0.545929, 0.392687, 0.458275, 0.435087, 0.478404, 0.467856, 0.416562, 0.515398, 0.435371, 0.393627, 0.412739, 0.469106, 0.407821, 0.478813, 0.415106, 0.443173, 0.479722, 0.472149, 0.436086, 0.429208, 0.428788, 0.452168, 0.454968, 0.440957, 0.484106, 0.426240, 0.444146, 0.430423, 0.456094
Process 53: 0.992414, 0.547150, 0.394032, 0.459611, 0.436590, 0.480135, 0.469351, 0.417916, 0.517296, 0.436729, 0.394960, 0.414069, 0.470898, 0.409138, 0.480042, 0.416360, 0.444887, 0.481787, 0.473898, 0.437904, 0.430777, 0.430044, 0.453900, 0.457071, 0.442283, 0.485377, 0.427545, 0.445501, 0.431724, 0.457462
Process 54: 0.993426, 0.548189, 0.395123, 0.460890, 0.437472, 0.480968, 0.470187, 0.419011, 0.518178, 0.437809, 0.396097, 0.415109, 0.471621, 0.410196, 0.481219, 0.417328, 0.446123, 0.483110, 0.474666, 0.439232, 0.432035, 0.431072, 0.455067, 0.458889, 0.443402, 0.486423, 0.428751, 0.446545, 0.432715, 0.458522
Process 55: 0.995057, 0.549599, 0.396538, 0.462934, 0.439027, 0.482739, 0.472023, 0.420405, 0.519775, 0.439199, 0.397459, 0.416647, 0.473701, 0.411886, 0.482533, 0.418651, 0.447894, 0.485421, 0.476741, 0.440952, 0.433621, 0.432585, 0.456778, 0.460663, 0.444998, 0.488059, 0.430974, 0.447896, 0.434300, 0.459923
Process 56: 0.996158, 0.550861, 0.397681, 0.464569, 0.439949, 0.483687, 0.473121, 0.421550, 0.520964, 0.440328, 0.398593, 0.417899, 0.474999, 0.413318, 0.483753, 0.420075, 0.449018, 0.486508, 0.479095, 0.441907, 0.434853, 0.434106, 0.457977, 0.461704, 0.446241, 0.489622, 0.433223, 0.449010, 0.436151, 0.461044
Process 57: 0.998041, 0.552280, 0.399069, 0.466059, 0.441505, 0.485215, 0.474670, 0.422924, 0.522317, 0.441709, 0.399956, 0.419296, 0.476629, 0.414700, 0.485222, 0.421523, 0.450600, 0.488069, 0.481027, 0.443529, 0.436239, 0.436190, 0.459395, 0.463058, 0.447613, 0.491350, 0.434849, 0.450386, 0.438221, 0.462407
Process 58: 0.999209, 0.553172, 0.400068, 0.467068, 0.442340, 0.486074, 0.475515, 0.423955, 0.523279, 0.442879, 0.400953, 0.420526, 0.477499, 0.415723, 0.486426, 0.422516, 0.451453, 0.488957, 0.481906, 0.444387, 0.437233, 0.437424, 0.460376, 0.464054, 0.448623, 0.492404, 0.435865, 0.451363, 0.439169, 0.463409
Process 59: 1.001109, 0.554527, 0.401373, 0.468405, 0.443843, 0.487621, 0.477023, 0.425262, 0.524613, 0.444506, 0.402246, 0.422012, 0.479012, 0.417045, 0.487794, 0.423826, 0.452988, 0.490474, 0.483423, 0.445926, 0.438538, 0.438731, 0.461689, 0.465343, 0.449923, 0.493726, 0.437174, 0.453112, 0.440486, 0.464709
Process 60: 1.002231, 0.555424, 0.402330, 0.469408, 0.444611, 0.488398, 0.477791, 0.426224, 0.525562, 0.445377, 0.403214, 0.422958, 0.479790, 0.418002, 0.488944, 0.424817, 0.453789, 0.491252, 0.484226, 0.446679, 0.439498, 0.439686, 0.462679, 0.466305, 0.450884, 0.494702, 0.438138, 0.454010, 0.441464, 0.465664
Process 61: 1.004137, 0.556665, 0.403603, 0.470729, 0.446098, 0.489870, 0.479262, 0.427500, 0.526839, 0.446666, 0.404497, 0.424233, 0.481257, 0.419321, 0.490239, 0.426101, 0.455267, 0.492739, 0.485710, 0.448161, 0.440769, 0.440951, 0.463945, 0.467609, 0.452167, 0.495990, 0.439436, 0.455256, 0.442733, 0.466978
Process 62: 1.004978, 0.557657, 0.404588, 0.471724, 0.446891, 0.490660, 0.480053, 0.428457, 0.527806, 0.447626, 0.405479, 0.425194, 0.482056, 0.420294, 0.491472, 0.427074, 0.456058, 0.493535, 0.486501, 0.448953, 0.441735, 0.441945, 0.464930, 0.468559, 0.453149, 0.496976, 0.440403, 0.456219, 0.443707, 0.467942
Process 63: 1.006903, 0.558906, 0.405851, 0.472972, 0.448315, 0.492099, 0.481473, 0.429696, 0.529048, 0.448861, 0.406739, 0.426437, 0.483527, 0.421533, 0.492599, 0.428310, 0.457542, 0.494978, 0.487935, 0.450385, 0.442983, 0.443190, 0.466206, 0.469790, 0.454401, 0.498206, 0.441958, 0.457468, 0.444956, 0.469178
