MPI_insiderank_openmp_handopt
Process 0: 1.540536, 1.486574, 1.428307, 1.425496, 1.377950, 1.402534, 1.408619, 1.452220, 1.364554, 1.414844, 1.405466, 1.401124, 1.412535, 1.470768, 1.352139, 1.401926, 1.414993, 1.409182, 1.418214, 1.416836, 1.425353, 1.429227, 1.444298, 1.399717, 1.408843, 1.409445, 1.424591, 1.405025, 1.405601, 1.426990
Process 1: 1.397195, 1.329535, 1.278656, 1.255902, 1.221144, 1.255161, 1.255838, 1.265671, 1.215093, 1.261887, 1.254023, 1.253454, 1.257218, 1.293697, 1.199851, 1.250882, 1.261159, 1.257555, 1.267495, 1.260689, 1.269720, 1.278621, 1.255402, 1.247437, 1.256480, 1.254411, 1.273442, 1.252551, 1.249072, 1.276827
Process 2: 1.411216, 1.343823, 1.292926, 1.270352, 1.235780, 1.269470, 1.270180, 1.279661, 1.229210, 1.276258, 1.268234, 1.268025, 1.271832, 1.307704, 1.214328, 1.265181, 1.275729, 1.271985, 1.281698, 1.275017, 1.283926, 1.292409, 1.269596, 1.261582, 1.270561, 1.268589, 1.287296, 1.266591, 1.263214, 1.291059
Process 3: 1.425480, 1.358303, 1.306986, 1.284941, 1.250298, 1.284514, 1.284669, 1.294600, 1.243303, 1.290954, 1.282998, 1.281741, 1.287025, 1.322672, 1.229194, 1.280145, 1.290269, 1.286222, 1.296286, 1.289512, 1.298743, 1.306757, 1.284776, 1.276349, 1.285339, 1.282888, 1.301768, 1.281239, 1.277650, 1.305294
Process 4: 1.439253, 1.372141, 1.319755, 1.298773, 1.263619, 1.297757, 1.297811, 1.308459, 1.256257, 1.303875, 1.296124, 1.295646, 1.299987, 1.336738, 1.242546, 1.293619, 1.303717, 1.299466, 1.309266, 1.303171, 1.312210, 1.319945, 1.298472, 1.289308, 1.298283, 1.295717, 1.314983, 1.294253, 1.290986, 1.318335
Process 5: 1.453337, 1.387961, 1.332788, 1.312603, 1.277580, 1.310213, 1.311559, 1.321697, 1.269966, 1.317498, 1.310097, 1.307614, 1.312766, 1.350591, 1.256337, 1.306133, 1.316909, 1.313319, 1.322694, 1.316261, 1.325435, 1.333329, 1.311960, 1.302828, 1.312141, 1.309674, 1.328646, 1.308153, 1.303856, 1.331585
Process 6: 1.464279, 1.400717, 1.344765, 1.324732, 1.289662, 1.321457, 1.323545, 1.333512, 1.281587, 1.329121, 1.321909, 1.319268, 1.324694, 1.362290, 1.268563, 1.317895, 1.328607, 1.325214, 1.334249, 1.328005, 1.337357, 1.344739, 1.325111, 1.314788, 1.324416, 1.321537, 1.340368, 1.319685, 1.315645, 1.343586
Process 7: 1.476428, 1.413448, 1.357364, 1.334744, 1.302609, 1.333801, 1.336306, 1.347306, 1.293989, 1.341762, 1.334511, 1.331968, 1.337991, 1.372349, 1.280741, 1.331095, 1.341662, 1.337978, 1.347439, 1.341197, 1.350095, 1.357960, 1.334884, 1.328076, 1.337301, 1.334080, 1.353371, 1.332808, 1.328951, 1.356635
Process 8: 1.486238, 1.427383, 1.368672, 1.343882, 1.313796, 1.344965, 1.347636, 1.360812, 1.305389, 1.352994, 1.344902, 1.343142, 1.349008, 1.382302, 1.291891, 1.342121, 1.352754, 1.349097, 1.358644, 1.352133, 1.361048, 1.368971, 1.345023, 1.338877, 1.348630, 1.345321, 1.364589, 1.343901, 1.340181, 1.367611
Process 9: 1.497303, 1.439581, 1.381707, 1.353985, 1.328695, 1.356716, 1.361787, 1.372092, 1.318157, 1.366001, 1.358542, 1.355402, 1.362495, 1.393067, 1.305000, 1.355263, 1.366366, 1.362800, 1.371339, 1.365506, 1.374069, 1.382090, 1.355913, 1.352191, 1.361961, 1.358506, 1.377634, 1.357607, 1.353235, 1.380697
Process 10: 1.507156, 1.452687, 1.393027, 1.369569, 1.341309, 1.367516, 1.373671, 1.383114, 1.329914, 1.378208, 1.370345, 1.366295, 1.373615, 1.407360, 1.317486, 1.366676, 1.378324, 1.374688, 1.383024, 1.377422, 1.386407, 1.394014, 1.370457, 1.364485, 1.373858, 1.370359, 1.389976, 1.369502, 1.364673, 1.391908
Process 11: 1.517812, 1.462411, 1.403816, 1.389079, 1.352039, 1.378181, 1.384177, 1.401403, 1.340394, 1.388450, 1.380981, 1.376697, 1.384613, 1.427080, 1.327876, 1.377410, 1.388703, 1.385084, 1.393770, 1.388625, 1.397538, 1.404876, 1.389539, 1.375318, 1.384566, 1.381332, 1.400413, 1.380606, 1.376030, 1.402501
Process 12: 1.524454, 1.470250, 1.410958, 1.403053, 1.360002, 1.385133, 1.391112, 1.418898, 1.347341, 1.395457, 1.387926, 1.383681, 1.391458, 1.443435, 1.334777, 1.384418, 1.395747, 1.392031, 1.400690, 1.395382, 1.404273, 1.411814, 1.408801, 1.382254, 1.391561, 1.388165, 1.406993, 1.387717, 1.382851, 1.409385
Process 13: 1.530858, 1.476078, 1.418026, 1.413136, 1.367564, 1.392268, 1.398317, 1.438308, 1.354281, 1.402615, 1.395154, 1.390823, 1.399652, 1.455052, 1.341865, 1.391628, 1.402786, 1.398858, 1.407905, 1.403758, 1.412497, 1.418920, 1.429153, 1.389420, 1.398569, 1.396251, 1.414296, 1.394752, 1.391090, 1.416705
Process 14: 1.535582, 1.481401, 1.423056, 1.420244, 1.372175, 1.397302, 1.403344, 1.446216, 1.359313, 1.408279, 1.400223, 1.395893, 1.405731, 1.465212, 1.346914, 1.396700, 1.408473, 1.403925, 1.412981, 1.410080, 1.418570, 1.423986, 1.438300, 1.394475, 1.403618, 1.402671, 1.419346, 1.399788, 1.397786, 1.421763
Process 15: 1.541345, 1.486567, 1.428307, 1.425496, 1.377938, 1.402538, 1.408619, 1.452204, 1.364560, 1.414844, 1.405466, 1.401124, 1.412535, 1.470767, 1.352139, 1.401911, 1.414993, 1.409183, 1.418214, 1.416837, 1.425354, 1.429228, 1.444292, 1.399723, 1.408843, 1.409444, 1.424607, 1.405024, 1.405601, 1.426991
