slurmstepd: error: *** STEP 4333551.0 ON eu-a2p-262 CANCELLED AT 2022-12-17T07:07:21 DUE TO TIME LIMIT ***
slurmstepd: error: *** JOB 4333551 ON eu-a2p-262 CANCELLED AT 2022-12-17T07:07:21 DUE TO TIME LIMIT ***
srun: Job step aborted: Waiting up to 32 seconds for job step to finish.
