MPI_insiderank_openmp_handopt
Process 0: 2.323651, 2.224321, 2.220251, 2.254448, 2.376679, 2.188484, 2.230282, 2.220283, 2.262343, 2.193850, 2.223956, 2.235510, 2.210432, 2.236324, 2.220352, 2.231236, 2.247109, 2.253690, 2.252922, 2.252834, 2.216573, 2.210251, 2.246123, 2.229873, 2.199727, 2.208730, 2.222536, 2.215148, 2.218549, 2.230596
Process 1: 2.234386, 2.140901, 2.134214, 2.160090, 2.293090, 2.095093, 2.141045, 2.129509, 2.176572, 2.105911, 2.134032, 2.150162, 2.120054, 2.147606, 2.130639, 2.146263, 2.158274, 2.167142, 2.165536, 2.163963, 2.132331, 2.122015, 2.163609, 2.139461, 2.115047, 2.125717, 2.131131, 2.127284, 2.130006, 2.142796
Process 2: 2.253783, 2.156959, 2.155005, 2.181686, 2.302872, 2.114827, 2.161888, 2.151266, 2.196315, 2.125416, 2.152543, 2.170368, 2.139997, 2.167981, 2.152526, 2.164457, 2.180478, 2.185758, 2.182528, 2.187245, 2.151079, 2.141526, 2.180484, 2.157023, 2.131406, 2.142401, 2.152980, 2.147234, 2.150229, 2.158770
Process 3: 2.275296, 2.178820, 2.176087, 2.203210, 2.314724, 2.137074, 2.183204, 2.174460, 2.217404, 2.146618, 2.174140, 2.190791, 2.162424, 2.189352, 2.174542, 2.186071, 2.200429, 2.207666, 2.204698, 2.208137, 2.172173, 2.162356, 2.198399, 2.181671, 2.152860, 2.163047, 2.174313, 2.167836, 2.173069, 2.181367
Process 4: 2.288159, 2.191809, 2.190012, 2.216306, 2.331112, 2.150371, 2.196627, 2.187219, 2.231169, 2.159089, 2.187106, 2.202890, 2.174527, 2.201640, 2.188652, 2.198427, 2.213485, 2.220190, 2.217661, 2.220348, 2.183994, 2.174782, 2.211044, 2.193744, 2.165207, 2.176005, 2.187093, 2.180009, 2.185802, 2.193451
Process 5: 2.303129, 2.203804, 2.203260, 2.230725, 2.353118, 2.165682, 2.209997, 2.199709, 2.244753, 2.173570, 2.201093, 2.214948, 2.189667, 2.215622, 2.202677, 2.210458, 2.226337, 2.233105, 2.232239, 2.232332, 2.195979, 2.189710, 2.225556, 2.211921, 2.179086, 2.187961, 2.201778, 2.194594, 2.197823, 2.207541
Process 6: 2.312350, 2.212702, 2.211078, 2.241224, 2.368512, 2.174429, 2.218772, 2.208620, 2.254064, 2.182368, 2.209880, 2.224024, 2.198891, 2.224740, 2.212239, 2.219620, 2.235566, 2.242182, 2.241409, 2.241307, 2.205042, 2.198733, 2.234580, 2.221742, 2.188151, 2.197204, 2.211027, 2.203635, 2.207002, 2.216557
Process 7: 2.324988, 2.225418, 2.221333, 2.255537, 2.377766, 2.189563, 2.231217, 2.221210, 2.263265, 2.194774, 2.224887, 2.236612, 2.211525, 2.237423, 2.221447, 2.232341, 2.248217, 2.254782, 2.254030, 2.253931, 2.217669, 2.211363, 2.247234, 2.230988, 2.200830, 2.209836, 2.223640, 2.216256, 2.219652, 2.231699
