MPI_insiderank_openmp_handopt
Process 0: 2.284082, 2.099729, 1.906989, 1.897419, 1.895629, 1.914756, 1.895556, 1.868149, 1.895615, 1.902308, 1.892638, 1.898587, 1.885190, 2.010768, 1.899419, 1.901242, 1.912851, 1.880871, 1.883832, 1.899972, 1.888895, 1.897410, 2.021198, 1.905379, 1.890793, 1.882842, 1.908399, 1.886147, 1.894591, 1.893518
Process 1: 2.001689, 1.836772, 1.631828, 1.623969, 1.634301, 1.643580, 1.623881, 1.605408, 1.627007, 1.637151, 1.620340, 1.632769, 1.615479, 1.733730, 1.622290, 1.638259, 1.645494, 1.614272, 1.619833, 1.625436, 1.628148, 1.618092, 1.749031, 1.628718, 1.617355, 1.610898, 1.633140, 1.639052, 1.628326, 1.618728
Process 2: 2.027380, 1.865404, 1.657616, 1.651307, 1.656546, 1.668782, 1.649466, 1.631146, 1.651858, 1.662842, 1.646758, 1.658473, 1.641557, 1.760553, 1.647949, 1.665439, 1.671188, 1.639521, 1.644801, 1.651258, 1.652393, 1.647376, 1.774887, 1.654547, 1.643563, 1.636336, 1.658711, 1.666048, 1.654435, 1.645079
Process 3: 2.054089, 1.890998, 1.683282, 1.677157, 1.683711, 1.693679, 1.674214, 1.655683, 1.676145, 1.688544, 1.672101, 1.683358, 1.666637, 1.786043, 1.672830, 1.688995, 1.697417, 1.663976, 1.669429, 1.675837, 1.677080, 1.672717, 1.799902, 1.680255, 1.669118, 1.660615, 1.684519, 1.690534, 1.679091, 1.671241
Process 4: 2.078188, 1.916516, 1.706953, 1.700735, 1.709519, 1.717443, 1.698112, 1.678709, 1.699066, 1.713430, 1.695541, 1.706925, 1.690827, 1.810433, 1.696699, 1.712954, 1.722699, 1.687870, 1.693440, 1.700344, 1.702390, 1.697023, 1.824429, 1.704072, 1.692713, 1.684925, 1.708200, 1.715590, 1.704013, 1.694903
Process 5: 2.103818, 1.939891, 1.731781, 1.724380, 1.732733, 1.741686, 1.722118, 1.701595, 1.722121, 1.738060, 1.719730, 1.730685, 1.713113, 1.834502, 1.721327, 1.735691, 1.747422, 1.711559, 1.716490, 1.724798, 1.724655, 1.721947, 1.848193, 1.728420, 1.717475, 1.708985, 1.733107, 1.738922, 1.727422, 1.719600
Process 6: 2.124595, 1.964221, 1.753915, 1.746553, 1.755924, 1.763757, 1.743185, 1.723798, 1.742994, 1.761427, 1.741786, 1.752586, 1.734410, 1.856826, 1.743688, 1.758056, 1.769355, 1.733383, 1.738544, 1.744459, 1.746147, 1.743854, 1.870808, 1.750149, 1.738518, 1.731224, 1.755493, 1.760620, 1.749360, 1.741522
Process 7: 2.146865, 1.978093, 1.777477, 1.767070, 1.776478, 1.783945, 1.763254, 1.745009, 1.765759, 1.780555, 1.762262, 1.773650, 1.754785, 1.877671, 1.763499, 1.777466, 1.789722, 1.753655, 1.759348, 1.767270, 1.766728, 1.764073, 1.892299, 1.770239, 1.760304, 1.752458, 1.773894, 1.779539, 1.770431, 1.762492
Process 8: 2.164750, 1.998124, 1.796317, 1.785743, 1.792533, 1.802474, 1.785527, 1.763570, 1.784360, 1.794917, 1.781132, 1.792084, 1.777144, 1.898011, 1.781635, 1.795759, 1.804873, 1.772290, 1.778315, 1.785979, 1.788998, 1.783920, 1.910741, 1.788685, 1.779047, 1.771471, 1.793058, 1.795534, 1.788665, 1.781171
Process 9: 2.222886, 2.016679, 1.814751, 1.804744, 1.808602, 1.821874, 1.805080, 1.782208, 1.803406, 1.811876, 1.800479, 1.810509, 1.796172, 1.915393, 1.802937, 1.813867, 1.822750, 1.791351, 1.797145, 1.804994, 1.807366, 1.802192, 1.928578, 1.808881, 1.797076, 1.790458, 1.813270, 1.814024, 1.807902, 1.800200
Process 10: 2.229073, 2.032246, 1.833512, 1.821040, 1.825338, 1.839256, 1.822331, 1.797713, 1.820900, 1.828846, 1.817049, 1.826503, 1.813010, 1.933867, 1.821921, 1.829275, 1.840438, 1.807692, 1.813430, 1.823069, 1.822134, 1.820859, 1.945562, 1.827336, 1.815259, 1.807157, 1.831773, 1.828461, 1.821988, 1.817057
Process 11: 2.236333, 2.054728, 1.865175, 1.851377, 1.852306, 1.869882, 1.851890, 1.824932, 1.849614, 1.857752, 1.848205, 1.854568, 1.841219, 1.966935, 1.854308, 1.856334, 1.869962, 1.836855, 1.839404, 1.853916, 1.845754, 1.853807, 1.976621, 1.859424, 1.846090, 1.838274, 1.863853, 1.842976, 1.850095, 1.848774
Process 12: 2.248477, 2.069712, 1.880317, 1.864321, 1.864911, 1.882922, 1.867148, 1.837574, 1.862396, 1.870567, 1.860825, 1.867398, 1.856765, 1.979640, 1.867155, 1.869027, 1.882661, 1.849528, 1.852270, 1.866692, 1.860626, 1.866577, 1.989436, 1.872264, 1.858897, 1.850975, 1.876561, 1.854470, 1.862676, 1.861613
Process 13: 2.265244, 2.080172, 1.890517, 1.875740, 1.875176, 1.895100, 1.877361, 1.848245, 1.874276, 1.881318, 1.873208, 1.878288, 1.867018, 1.990495, 1.879707, 1.879869, 1.892853, 1.859708, 1.863433, 1.879085, 1.870819, 1.876766, 2.001556, 1.884577, 1.870346, 1.863190, 1.889054, 1.866547, 1.873572, 1.872188
Process 14: 2.274526, 2.090118, 1.899449, 1.885642, 1.885513, 1.904705, 1.886403, 1.858092, 1.885537, 1.892206, 1.882497, 1.888489, 1.876057, 2.000705, 1.889357, 1.891151, 1.902735, 1.870822, 1.873780, 1.889892, 1.879809, 1.887345, 2.011139, 1.895320, 1.880735, 1.872758, 1.898324, 1.876013, 1.884509, 1.883418
Process 15: 2.285400, 2.099723, 1.906986, 1.897417, 1.895630, 1.914745, 1.895547, 1.868148, 1.895614, 1.902309, 1.892635, 1.898591, 1.885191, 2.010768, 1.899420, 1.901238, 1.912848, 1.880869, 1.883829, 1.899974, 1.888898, 1.897398, 2.021202, 1.905378, 1.890795, 1.882845, 1.908399, 1.886144, 1.894590, 1.893519
