MPI_insiderank_openmp_handopt
Process 0: 1.750911, 1.210258, 1.119550, 1.110501, 1.088709, 1.093562, 1.083126, 1.098746, 1.127858, 1.095688, 1.084087, 1.081846, 1.104217, 1.101434, 1.085418, 1.119992, 1.082433, 1.079698, 1.088225, 1.089343, 1.101128, 1.116461, 1.114672, 1.079596, 1.092422, 1.104374, 1.113761, 1.095797, 1.081372, 1.091243
Process 1: 1.304667, 0.758937, 0.674511, 0.659840, 0.637351, 0.638319, 0.640014, 0.654168, 0.683796, 0.640244, 0.642321, 0.636661, 0.662722, 0.660409, 0.639569, 0.669091, 0.634179, 0.638088, 0.643511, 0.639338, 0.657505, 0.669867, 0.670167, 0.640979, 0.642761, 0.665415, 0.665470, 0.642530, 0.635493, 0.633971
Process 2: 1.313767, 0.769070, 0.684377, 0.670216, 0.648127, 0.648292, 0.650240, 0.663897, 0.693795, 0.650261, 0.652501, 0.646305, 0.672971, 0.670584, 0.649887, 0.679642, 0.644356, 0.649092, 0.653289, 0.649408, 0.667711, 0.679577, 0.680350, 0.651093, 0.652540, 0.675766, 0.675503, 0.652460, 0.645179, 0.644470
Process 3: 1.325167, 0.779402, 0.695215, 0.681197, 0.659108, 0.658608, 0.660455, 0.677092, 0.704205, 0.660831, 0.663043, 0.656787, 0.683556, 0.681311, 0.659795, 0.690411, 0.654921, 0.659416, 0.664119, 0.659766, 0.677546, 0.689845, 0.690969, 0.661670, 0.663321, 0.686400, 0.685948, 0.663140, 0.655525, 0.655527
Process 4: 1.335164, 0.788744, 0.704537, 0.690764, 0.669325, 0.667824, 0.670514, 0.686179, 0.713714, 0.670953, 0.672717, 0.666344, 0.692942, 0.691133, 0.669719, 0.699345, 0.664756, 0.668573, 0.674134, 0.669604, 0.688259, 0.699388, 0.701185, 0.671162, 0.673453, 0.695640, 0.695275, 0.672698, 0.665190, 0.665083
Process 5: 1.345281, 0.799332, 0.713484, 0.699418, 0.678303, 0.677158, 0.679486, 0.696472, 0.723451, 0.680023, 0.681491, 0.676071, 0.701860, 0.700347, 0.679180, 0.708829, 0.673967, 0.677539, 0.682713, 0.678861, 0.696533, 0.709117, 0.708955, 0.681022, 0.682980, 0.704978, 0.704395, 0.681949, 0.674517, 0.674211
Process 6: 1.351499, 0.808472, 0.721846, 0.707789, 0.687140, 0.685804, 0.687901, 0.705912, 0.732158, 0.688009, 0.690189, 0.684608, 0.711167, 0.708995, 0.687494, 0.717463, 0.682631, 0.686878, 0.691756, 0.687755, 0.704443, 0.718260, 0.717712, 0.689766, 0.691488, 0.713547, 0.712968, 0.690179, 0.683377, 0.682994
Process 7: 1.360957, 0.816927, 0.731303, 0.716541, 0.696110, 0.695843, 0.697401, 0.715113, 0.741178, 0.697722, 0.699532, 0.693985, 0.720486, 0.718515, 0.696676, 0.726540, 0.691417, 0.696115, 0.700911, 0.697149, 0.713513, 0.728074, 0.726960, 0.699172, 0.700695, 0.723097, 0.722699, 0.698729, 0.692635, 0.691931
Process 8: 1.369351, 0.825196, 0.739713, 0.725049, 0.705178, 0.704548, 0.705893, 0.723308, 0.750522, 0.706541, 0.708425, 0.702568, 0.729225, 0.727180, 0.705331, 0.735041, 0.700067, 0.704982, 0.709695, 0.706054, 0.722164, 0.736470, 0.735619, 0.707550, 0.709480, 0.731647, 0.731312, 0.707601, 0.701197, 0.701094
Process 9: 1.378885, 0.833765, 0.748412, 0.734021, 0.714289, 0.713259, 0.714465, 0.731247, 0.759240, 0.715135, 0.716691, 0.711243, 0.737982, 0.735803, 0.714240, 0.743718, 0.708833, 0.713786, 0.718519, 0.714716, 0.730851, 0.745284, 0.744079, 0.716321, 0.717918, 0.740133, 0.739791, 0.716472, 0.710306, 0.709438
Process 10: 1.386345, 0.841962, 0.756535, 0.742017, 0.721937, 0.721259, 0.722397, 0.738935, 0.767471, 0.723035, 0.724965, 0.719343, 0.746140, 0.743994, 0.722430, 0.751704, 0.717089, 0.721778, 0.726599, 0.722926, 0.738432, 0.753403, 0.752496, 0.724418, 0.726068, 0.748378, 0.748044, 0.724469, 0.718129, 0.717611
Process 11: 1.393985, 0.849936, 0.764072, 0.749982, 0.729987, 0.729155, 0.730201, 0.746746, 0.775431, 0.730482, 0.732884, 0.727177, 0.754041, 0.751912, 0.730831, 0.758372, 0.725070, 0.729456, 0.734862, 0.730379, 0.746424, 0.760617, 0.760169, 0.732210, 0.733792, 0.755769, 0.755822, 0.732443, 0.725958, 0.725503
Process 12: 1.400911, 0.856875, 0.771061, 0.756992, 0.737056, 0.736148, 0.737462, 0.753959, 0.782551, 0.737671, 0.740097, 0.733976, 0.761106, 0.759240, 0.737581, 0.765551, 0.732291, 0.736240, 0.741856, 0.737258, 0.753680, 0.767118, 0.767557, 0.739353, 0.740982, 0.762805, 0.762902, 0.739360, 0.732891, 0.732306
Process 13: 1.409631, 0.865079, 0.779608, 0.765102, 0.745266, 0.744490, 0.745985, 0.762168, 0.790818, 0.746285, 0.748624, 0.742093, 0.769866, 0.767240, 0.745002, 0.774109, 0.740478, 0.744798, 0.750272, 0.745790, 0.762260, 0.775638, 0.775993, 0.747715, 0.749169, 0.771931, 0.771064, 0.747540, 0.740992, 0.739815
Process 14: 1.416077, 0.871666, 0.786343, 0.771861, 0.751478, 0.751101, 0.752604, 0.769940, 0.797435, 0.752784, 0.755110, 0.748910, 0.776782, 0.774093, 0.752067, 0.780589, 0.747063, 0.751850, 0.756797, 0.752569, 0.768667, 0.782148, 0.782684, 0.754516, 0.755841, 0.778998, 0.777912, 0.754149, 0.747658, 0.746613
Process 15: 1.423762, 0.879212, 0.793600, 0.779476, 0.759197, 0.758712, 0.759865, 0.777666, 0.805239, 0.760021, 0.762879, 0.756607, 0.784582, 0.781680, 0.759789, 0.787818, 0.754760, 0.759209, 0.764517, 0.759965, 0.776463, 0.789530, 0.789990, 0.762019, 0.763594, 0.787250, 0.785678, 0.761865, 0.755304, 0.754341
Process 16: 1.430456, 0.885896, 0.800579, 0.786326, 0.765914, 0.764984, 0.766931, 0.784538, 0.811330, 0.767185, 0.769592, 0.763401, 0.791628, 0.788700, 0.766780, 0.794780, 0.761188, 0.765915, 0.771444, 0.766355, 0.783403, 0.795847, 0.796986, 0.768460, 0.770018, 0.793417, 0.792407, 0.768661, 0.761629, 0.760840
Process 17: 1.437278, 0.892604, 0.807363, 0.792512, 0.772575, 0.771726, 0.773805, 0.791201, 0.818165, 0.773616, 0.776083, 0.769733, 0.797803, 0.795223, 0.773196, 0.801500, 0.767859, 0.772808, 0.777994, 0.773462, 0.789886, 0.802745, 0.803483, 0.775298, 0.776686, 0.800967, 0.798771, 0.775158, 0.768461, 0.767784
Process 18: 1.442885, 0.898448, 0.813144, 0.799657, 0.778366, 0.777862, 0.779510, 0.795278, 0.823991, 0.779219, 0.782094, 0.775602, 0.803321, 0.800940, 0.778989, 0.807308, 0.773939, 0.778139, 0.783487, 0.779272, 0.795806, 0.808626, 0.809263, 0.780956, 0.782743, 0.806089, 0.804494, 0.782321, 0.774527, 0.774928
Process 19: 1.449889, 0.906116, 0.820726, 0.807673, 0.785551, 0.785948, 0.787177, 0.802934, 0.829979, 0.787031, 0.789239, 0.783008, 0.809188, 0.807388, 0.785617, 0.815131, 0.780644, 0.783749, 0.789161, 0.786100, 0.802716, 0.814638, 0.815648, 0.786781, 0.790681, 0.812612, 0.811336, 0.790555, 0.781292, 0.782912
Process 20: 1.457091, 0.913278, 0.828009, 0.815164, 0.793223, 0.793325, 0.793993, 0.809193, 0.836762, 0.794007, 0.795830, 0.789644, 0.814528, 0.814555, 0.792522, 0.822679, 0.787244, 0.790034, 0.795825, 0.793035, 0.809725, 0.819421, 0.822197, 0.793318, 0.797797, 0.816855, 0.818808, 0.797956, 0.788685, 0.790785
Process 21: 1.464887, 0.921206, 0.835749, 0.823301, 0.801692, 0.801604, 0.802132, 0.817191, 0.844712, 0.801598, 0.803771, 0.797521, 0.822124, 0.822533, 0.800775, 0.830550, 0.795256, 0.798252, 0.803455, 0.800755, 0.818196, 0.827538, 0.830672, 0.801585, 0.805799, 0.825039, 0.826739, 0.806843, 0.796801, 0.799086
Process 22: 1.472058, 0.928594, 0.843126, 0.830991, 0.808941, 0.809090, 0.809347, 0.825007, 0.851628, 0.809469, 0.811481, 0.804989, 0.829280, 0.829876, 0.807987, 0.837824, 0.803000, 0.805666, 0.811383, 0.808520, 0.825804, 0.835005, 0.837631, 0.808479, 0.813267, 0.831644, 0.834179, 0.814812, 0.804264, 0.807008
Process 23: 1.480957, 0.936623, 0.851063, 0.839034, 0.816890, 0.817344, 0.817010, 0.833108, 0.859878, 0.818266, 0.819564, 0.812288, 0.837084, 0.838178, 0.815973, 0.846374, 0.811637, 0.813794, 0.818672, 0.817247, 0.833590, 0.843581, 0.846046, 0.816102, 0.821295, 0.840565, 0.841908, 0.823657, 0.812695, 0.816008
Process 24: 1.488736, 0.944269, 0.858939, 0.846816, 0.825187, 0.826032, 0.824618, 0.840550, 0.867814, 0.826171, 0.827403, 0.819859, 0.843955, 0.845632, 0.824006, 0.854739, 0.819649, 0.821046, 0.826699, 0.824450, 0.840962, 0.851732, 0.852989, 0.823566, 0.828976, 0.847665, 0.848982, 0.832320, 0.819831, 0.824385
Process 25: 1.496858, 0.953208, 0.867043, 0.855267, 0.834109, 0.835116, 0.833154, 0.848687, 0.876285, 0.835684, 0.835767, 0.827880, 0.852157, 0.853886, 0.833986, 0.863992, 0.828103, 0.829418, 0.835486, 0.832549, 0.849386, 0.859944, 0.860760, 0.831985, 0.838131, 0.856282, 0.858294, 0.840936, 0.828385, 0.832664
Process 26: 1.503659, 0.962184, 0.875469, 0.864452, 0.842490, 0.843896, 0.841323, 0.856683, 0.883976, 0.843765, 0.844290, 0.836491, 0.860576, 0.862305, 0.841564, 0.872369, 0.836381, 0.837566, 0.843576, 0.839958, 0.857556, 0.867902, 0.868905, 0.839223, 0.845767, 0.863246, 0.867015, 0.850231, 0.836433, 0.841211
Process 27: 1.513282, 0.971861, 0.884965, 0.875773, 0.852279, 0.853338, 0.851314, 0.868227, 0.893498, 0.853508, 0.853349, 0.846541, 0.869128, 0.872035, 0.850409, 0.883324, 0.846069, 0.846971, 0.853009, 0.850361, 0.867295, 0.877607, 0.878887, 0.848324, 0.855627, 0.872387, 0.876870, 0.859598, 0.846193, 0.850512
Process 28: 1.520409, 0.980172, 0.893053, 0.885406, 0.860990, 0.861443, 0.859078, 0.876881, 0.901620, 0.862522, 0.861417, 0.854957, 0.877623, 0.879979, 0.860751, 0.891764, 0.854604, 0.854632, 0.860576, 0.859125, 0.875531, 0.886540, 0.888599, 0.856271, 0.865168, 0.880106, 0.886259, 0.867880, 0.854263, 0.860025
Process 29: 1.529553, 0.990480, 0.902280, 0.896089, 0.870639, 0.871904, 0.868384, 0.885796, 0.911088, 0.871681, 0.870689, 0.863430, 0.888087, 0.888764, 0.870412, 0.901634, 0.864290, 0.863659, 0.869724, 0.868662, 0.884190, 0.896429, 0.900009, 0.865326, 0.874575, 0.890005, 0.898714, 0.876990, 0.864364, 0.870644
Process 30: 1.538936, 0.999458, 0.911169, 0.904760, 0.879720, 0.881071, 0.877434, 0.894212, 0.919604, 0.881029, 0.879148, 0.872376, 0.896209, 0.896979, 0.878873, 0.910590, 0.873392, 0.872050, 0.878090, 0.878433, 0.892388, 0.907344, 0.909225, 0.873552, 0.883481, 0.897816, 0.906052, 0.886541, 0.874848, 0.879511
Process 31: 1.549452, 1.008972, 0.920633, 0.913739, 0.889441, 0.891449, 0.886860, 0.904888, 0.930104, 0.891329, 0.889553, 0.882765, 0.905740, 0.905984, 0.889002, 0.920342, 0.883148, 0.881573, 0.888315, 0.889431, 0.902350, 0.919212, 0.919417, 0.883070, 0.893089, 0.907143, 0.915860, 0.896762, 0.885588, 0.889115
Process 32: 1.558969, 1.018376, 0.929622, 0.923080, 0.899337, 0.900795, 0.895175, 0.914929, 0.938325, 0.900313, 0.899680, 0.892070, 0.915000, 0.915803, 0.898973, 0.930017, 0.892683, 0.889422, 0.897300, 0.899046, 0.911649, 0.928372, 0.928418, 0.891744, 0.903167, 0.916396, 0.926795, 0.906523, 0.895781, 0.899460
Process 33: 1.568941, 1.028365, 0.939489, 0.932845, 0.909427, 0.910876, 0.905004, 0.926167, 0.948354, 0.911669, 0.910658, 0.901859, 0.924220, 0.925344, 0.909960, 0.939977, 0.902881, 0.898764, 0.907424, 0.909803, 0.921253, 0.938200, 0.938815, 0.901136, 0.912539, 0.925969, 0.938641, 0.916777, 0.907167, 0.909999
Process 34: 1.578054, 1.038661, 0.948456, 0.942464, 0.918661, 0.919550, 0.913522, 0.936076, 0.957700, 0.920721, 0.917707, 0.912418, 0.933613, 0.933756, 0.918355, 0.949405, 0.912504, 0.906735, 0.916444, 0.917341, 0.930546, 0.947707, 0.947930, 0.909646, 0.922706, 0.934799, 0.946175, 0.925814, 0.915530, 0.919481
Process 35: 1.587898, 1.049468, 0.958744, 0.952937, 0.927969, 0.929715, 0.923188, 0.945985, 0.968666, 0.931296, 0.926587, 0.922229, 0.942825, 0.943623, 0.927907, 0.959796, 0.922365, 0.916151, 0.925649, 0.926584, 0.940031, 0.957352, 0.958229, 0.918385, 0.933167, 0.944535, 0.955950, 0.935796, 0.925957, 0.929609
Process 36: 1.595545, 1.057423, 0.966457, 0.959893, 0.934581, 0.937174, 0.930343, 0.950643, 0.976791, 0.940615, 0.935005, 0.930097, 0.950325, 0.952031, 0.934552, 0.968027, 0.929937, 0.924887, 0.933931, 0.933081, 0.946721, 0.964757, 0.966057, 0.926647, 0.940948, 0.951955, 0.961187, 0.943250, 0.930972, 0.936609
Process 37: 1.604836, 1.065282, 0.974557, 0.968214, 0.942884, 0.945433, 0.938703, 0.958767, 0.985649, 0.948177, 0.941983, 0.938477, 0.957590, 0.959466, 0.942578, 0.977207, 0.937849, 0.933443, 0.943429, 0.940637, 0.955679, 0.972529, 0.973699, 0.935191, 0.948671, 0.960018, 0.968418, 0.951728, 0.938913, 0.945491
Process 38: 1.612147, 1.072727, 0.982207, 0.976601, 0.951037, 0.953766, 0.946760, 0.964285, 0.993478, 0.956532, 0.947819, 0.946823, 0.965344, 0.967012, 0.948654, 0.985456, 0.945872, 0.941842, 0.951756, 0.947695, 0.963355, 0.979882, 0.978828, 0.943224, 0.956799, 0.968033, 0.976817, 0.959927, 0.947554, 0.953394
Process 39: 1.622462, 1.082321, 0.991754, 0.985257, 0.960472, 0.963152, 0.956274, 0.973469, 1.002710, 0.965707, 0.956640, 0.955872, 0.974255, 0.975849, 0.957028, 0.994535, 0.955673, 0.951150, 0.961267, 0.956943, 0.973238, 0.988592, 0.987840, 0.952600, 0.965703, 0.976036, 0.986165, 0.968771, 0.956807, 0.961809
Process 40: 1.632270, 1.090014, 0.999573, 0.993016, 0.968650, 0.971402, 0.963993, 0.981038, 1.010933, 0.974145, 0.964952, 0.964140, 0.982638, 0.983470, 0.965193, 1.002358, 0.963952, 0.959040, 0.969038, 0.964576, 0.981966, 0.996809, 0.995676, 0.960810, 0.973645, 0.983609, 0.994730, 0.976412, 0.964389, 0.969965
Process 41: 1.642846, 1.098949, 1.007938, 1.001322, 0.977352, 0.980447, 0.971945, 0.988490, 1.019286, 0.982332, 0.973033, 0.972209, 0.990864, 0.991622, 0.973542, 1.010940, 0.971881, 0.967675, 0.977509, 0.972588, 0.989941, 1.005718, 1.003811, 0.969370, 0.982155, 0.992521, 1.003044, 0.984996, 0.972645, 0.978665
Process 42: 1.648103, 1.107410, 1.015508, 1.008704, 0.984890, 0.988434, 0.978958, 0.995873, 1.026547, 0.990410, 0.980935, 0.978952, 0.998561, 0.999102, 0.981478, 1.018614, 0.979563, 0.974990, 0.985141, 0.979655, 0.997606, 1.013660, 1.010839, 0.976522, 0.989562, 0.999507, 1.009059, 0.992807, 0.979957, 0.986886
Process 43: 1.655680, 1.115531, 1.023327, 1.015830, 0.992511, 0.996545, 0.987040, 1.002883, 1.034091, 1.013227, 0.988767, 0.986515, 1.006255, 1.006635, 0.989537, 1.026947, 0.987489, 0.983085, 0.992957, 0.986499, 1.005482, 1.021596, 1.018717, 0.983910, 0.997209, 1.006893, 1.016326, 1.000993, 0.987956, 0.995012
Process 44: 1.661673, 1.120385, 1.030314, 1.022308, 0.999698, 1.003159, 0.994396, 1.009999, 1.038360, 1.019547, 0.995512, 0.992559, 1.013076, 1.013315, 0.996483, 1.034048, 0.994297, 0.990402, 1.000251, 0.991421, 1.012355, 1.028308, 1.025438, 0.990501, 1.004256, 1.013579, 1.023386, 1.007897, 0.994118, 1.001874
Process 45: 1.668851, 1.127710, 1.037657, 1.029760, 1.006808, 1.010413, 1.001581, 1.017108, 1.045600, 1.023985, 1.003209, 0.999484, 1.019966, 1.020601, 1.003301, 1.041390, 1.001535, 0.997546, 1.007324, 0.997693, 1.019215, 1.035399, 1.032669, 0.997805, 1.011458, 1.021128, 1.030175, 1.014774, 1.001080, 1.008982
Process 46: 1.675079, 1.134031, 1.044251, 1.036387, 1.013072, 1.016925, 1.008312, 1.023960, 1.052126, 1.026621, 1.009922, 1.006092, 1.026971, 1.027124, 1.010187, 1.048055, 1.008232, 1.003922, 1.013542, 1.004507, 1.026190, 1.041988, 1.038985, 1.004281, 1.017935, 1.027577, 1.036850, 1.021539, 1.007449, 1.015758
Process 47: 1.682681, 1.141366, 1.051204, 1.043267, 1.020677, 1.023712, 1.015393, 1.030928, 1.059132, 1.028743, 1.016949, 1.012859, 1.033910, 1.033892, 1.017174, 1.054933, 1.015552, 1.011081, 1.020533, 1.011489, 1.033440, 1.049008, 1.046468, 1.011645, 1.024727, 1.034343, 1.043792, 1.028411, 1.014420, 1.022954
Process 48: 1.689635, 1.148290, 1.057894, 1.049795, 1.027440, 1.030803, 1.021845, 1.037405, 1.065953, 1.034768, 1.023084, 1.018731, 1.040258, 1.040816, 1.023735, 1.061518, 1.022418, 1.017338, 1.027189, 1.018071, 1.039676, 1.055706, 1.053043, 1.018410, 1.031197, 1.041219, 1.050550, 1.034572, 1.020760, 1.029607
Process 49: 1.696623, 1.155242, 1.064678, 1.056722, 1.034228, 1.037801, 1.028605, 1.044560, 1.073008, 1.041477, 1.030138, 1.025611, 1.047050, 1.047703, 1.031042, 1.068213, 1.029273, 1.024176, 1.034116, 1.024996, 1.046328, 1.062854, 1.059873, 1.025244, 1.038041, 1.048181, 1.058041, 1.041689, 1.027639, 1.036475
Process 50: 1.701643, 1.160775, 1.069548, 1.061858, 1.039424, 1.043100, 1.033960, 1.049962, 1.078500, 1.045524, 1.035079, 1.030853, 1.052293, 1.052700, 1.036471, 1.073461, 1.034383, 1.029713, 1.039598, 1.030675, 1.051604, 1.068090, 1.065474, 1.030872, 1.043215, 1.053262, 1.063140, 1.047093, 1.033133, 1.041885
Process 51: 1.707968, 1.166675, 1.075460, 1.067551, 1.045209, 1.049067, 1.039569, 1.055615, 1.084299, 1.051200, 1.040949, 1.036798, 1.058066, 1.058703, 1.041940, 1.079000, 1.040058, 1.035903, 1.045210, 1.036412, 1.057237, 1.073526, 1.071008, 1.036360, 1.049253, 1.058756, 1.068978, 1.052929, 1.038918, 1.047903
Process 52: 1.711866, 1.170989, 1.080559, 1.072209, 1.049818, 1.054238, 1.044251, 1.060039, 1.088997, 1.055967, 1.045476, 1.040820, 1.062232, 1.062692, 1.046284, 1.081944, 1.044131, 1.041276, 1.049750, 1.041147, 1.061642, 1.078226, 1.076231, 1.040800, 1.053681, 1.063879, 1.073448, 1.057097, 1.043089, 1.051790
Process 53: 1.717609, 1.176462, 1.085722, 1.077708, 1.055068, 1.059797, 1.049574, 1.065045, 1.094400, 1.061373, 1.051177, 1.046274, 1.067499, 1.068243, 1.051828, 1.087162, 1.049450, 1.046663, 1.055022, 1.046528, 1.066973, 1.083310, 1.081528, 1.046214, 1.059118, 1.069301, 1.078707, 1.062421, 1.048310, 1.057192
Process 54: 1.721920, 1.181289, 1.090422, 1.082427, 1.059842, 1.064783, 1.054547, 1.069724, 1.099184, 1.066763, 1.055996, 1.050949, 1.072427, 1.072885, 1.056504, 1.092046, 1.054016, 1.051349, 1.059861, 1.051392, 1.071894, 1.087915, 1.086232, 1.051185, 1.063900, 1.074126, 1.083723, 1.067287, 1.053199, 1.062138
Process 55: 1.727583, 1.187026, 1.096319, 1.087591, 1.065618, 1.070708, 1.060379, 1.075295, 1.105365, 1.071596, 1.061503, 1.056192, 1.077614, 1.078861, 1.061730, 1.097456, 1.059543, 1.057049, 1.065554, 1.056572, 1.077201, 1.093627, 1.092070, 1.056894, 1.069332, 1.079555, 1.089370, 1.072828, 1.058804, 1.067197
Process 56: 1.732348, 1.191832, 1.100851, 1.092076, 1.070159, 1.075275, 1.064988, 1.080164, 1.109747, 1.076338, 1.066008, 1.061123, 1.082523, 1.083346, 1.066791, 1.102088, 1.063974, 1.061615, 1.070128, 1.061524, 1.081820, 1.097848, 1.096470, 1.061803, 1.073890, 1.084371, 1.094516, 1.077380, 1.063389, 1.072174
Process 57: 1.737625, 1.197194, 1.106262, 1.097162, 1.075344, 1.080503, 1.070107, 1.085386, 1.114695, 1.081445, 1.071000, 1.067242, 1.087576, 1.088585, 1.071875, 1.107326, 1.069208, 1.066862, 1.075308, 1.067440, 1.087107, 1.102984, 1.101772, 1.067001, 1.079106, 1.089455, 1.099777, 1.082533, 1.068546, 1.077371
Process 58: 1.740408, 1.199726, 1.108901, 1.099990, 1.077955, 1.083109, 1.072620, 1.087960, 1.117382, 1.084436, 1.073714, 1.071237, 1.089932, 1.091005, 1.075080, 1.109761, 1.072133, 1.069333, 1.077735, 1.073957, 1.090360, 1.106167, 1.104322, 1.069310, 1.081848, 1.091850, 1.101966, 1.085220, 1.070796, 1.079709
Process 59: 1.743475, 1.202604, 1.111793, 1.102669, 1.080843, 1.085707, 1.075317, 1.090980, 1.120075, 1.086922, 1.076362, 1.073942, 1.093643, 1.093700, 1.077676, 1.112220, 1.074697, 1.071940, 1.080473, 1.079240, 1.093370, 1.108675, 1.106905, 1.071806, 1.084486, 1.095240, 1.105026, 1.088055, 1.073632, 1.082841
Process 60: 1.744845, 1.204274, 1.113541, 1.104465, 1.082676, 1.087510, 1.077077, 1.092668, 1.121842, 1.089096, 1.078055, 1.075440, 1.096213, 1.095408, 1.079369, 1.113945, 1.076395, 1.073629, 1.082181, 1.083220, 1.095103, 1.110441, 1.108604, 1.073567, 1.086376, 1.097454, 1.107171, 1.089760, 1.075331, 1.085560
Process 61: 1.747243, 1.206585, 1.115773, 1.106753, 1.084926, 1.089771, 1.079329, 1.094918, 1.124108, 1.091381, 1.080313, 1.078019, 1.099431, 1.097667, 1.081633, 1.116208, 1.078661, 1.075922, 1.084431, 1.085259, 1.097353, 1.112687, 1.110888, 1.075829, 1.088669, 1.100572, 1.109439, 1.092021, 1.077597, 1.088119
Process 62: 1.748775, 1.208180, 1.117458, 1.108421, 1.086608, 1.091445, 1.081024, 1.096619, 1.125769, 1.093331, 1.082006, 1.079409, 1.101304, 1.099348, 1.083314, 1.117900, 1.080350, 1.077601, 1.086125, 1.086981, 1.099054, 1.114366, 1.112572, 1.077506, 1.090341, 1.102279, 1.111396, 1.093708, 1.079293, 1.089305
Process 63: 1.750979, 1.210263, 1.119551, 1.110515, 1.088712, 1.093563, 1.083128, 1.098749, 1.127857, 1.095696, 1.084091, 1.081849, 1.104218, 1.101433, 1.085419, 1.119993, 1.082432, 1.079698, 1.088219, 1.089343, 1.101128, 1.116466, 1.114675, 1.079596, 1.092425, 1.104374, 1.113762, 1.095799, 1.081373, 1.091243
