MPI_insiderank_optimisedserial
Process 0: 1.597421, 1.580691, 1.572457, 1.570968, 1.573756, 1.570784, 1.571141, 1.575384, 1.574828, 1.579807, 1.573280, 1.578131, 1.572058, 1.573006, 1.611616, 1.570687, 1.570672, 1.570235, 1.570972, 1.569936, 1.570542, 1.571819, 1.569069, 1.570746, 1.571337, 1.572048, 1.572666, 1.570749, 1.571716, 1.573483
Process 1: 1.554703, 1.537877, 1.529692, 1.528224, 1.530952, 1.528174, 1.528497, 1.532198, 1.532030, 1.537023, 1.530521, 1.534229, 1.529213, 1.530198, 1.568737, 1.527905, 1.527837, 1.527460, 1.528058, 1.527170, 1.527665, 1.528893, 1.526237, 1.528007, 1.528524, 1.529182, 1.529830, 1.527962, 1.528787, 1.530583
Process 2: 1.577221, 1.560317, 1.552159, 1.550770, 1.553459, 1.550597, 1.550932, 1.554712, 1.554614, 1.559569, 1.553008, 1.557827, 1.551813, 1.552726, 1.591434, 1.550455, 1.550426, 1.549991, 1.550697, 1.549621, 1.550270, 1.551451, 1.548887, 1.550436, 1.551141, 1.551635, 1.552386, 1.550475, 1.551390, 1.553168
Process 3: 1.599132, 1.582387, 1.574158, 1.572662, 1.575449, 1.572470, 1.572820, 1.577070, 1.576511, 1.581491, 1.574956, 1.579811, 1.573745, 1.574697, 1.613281, 1.572361, 1.572370, 1.571946, 1.572666, 1.571632, 1.572196, 1.573488, 1.570734, 1.572411, 1.573021, 1.573725, 1.574345, 1.572420, 1.573402, 1.575190
