MPI_insiderank_optimisedserial
Process 0: 0.882274, 0.896488, 0.833131, 0.834424, 0.834677, 0.833732, 0.833588, 0.832816, 0.831517, 0.834488, 0.832495, 0.831948, 0.832793, 0.831358, 0.831896, 0.833275, 0.832054, 0.831548, 0.831017, 0.831467, 0.831891, 0.833443, 0.832852, 0.830305, 0.832608, 0.831117, 0.830817, 0.832684, 0.831574, 0.837797
Process 1: 0.782705, 0.803554, 0.740106, 0.739178, 0.737871, 0.737751, 0.737413, 0.738215, 0.738293, 0.738517, 0.738360, 0.738681, 0.739611, 0.739678, 0.739970, 0.740111, 0.738589, 0.738357, 0.738516, 0.738540, 0.738349, 0.738027, 0.737598, 0.737489, 0.738276, 0.737476, 0.737705, 0.737597, 0.739135, 0.741052
Process 2: 0.793137, 0.814146, 0.750723, 0.749706, 0.748482, 0.748362, 0.747859, 0.748741, 0.748822, 0.749064, 0.748959, 0.749067, 0.750107, 0.750235, 0.750455, 0.750646, 0.749074, 0.748909, 0.748992, 0.749142, 0.748822, 0.748494, 0.748179, 0.748070, 0.748812, 0.748015, 0.748237, 0.748162, 0.749619, 0.751792
Process 3: 0.801777, 0.822803, 0.759360, 0.758398, 0.757306, 0.757132, 0.756652, 0.757423, 0.757534, 0.757748, 0.757725, 0.757680, 0.758896, 0.758905, 0.759181, 0.761077, 0.757844, 0.757679, 0.759245, 0.759480, 0.757632, 0.757286, 0.756949, 0.756838, 0.757472, 0.756722, 0.756957, 0.756858, 0.758181, 0.760482
Process 4: 0.810797, 0.830993, 0.768012, 0.766646, 0.765644, 0.765566, 0.764969, 0.765642, 0.765779, 0.766009, 0.765896, 0.765760, 0.767443, 0.766971, 0.767285, 0.769306, 0.766039, 0.765842, 0.767551, 0.767836, 0.765750, 0.765544, 0.765181, 0.766862, 0.766038, 0.764967, 0.765432, 0.765186, 0.766364, 0.768688
Process 5: 0.820778, 0.839352, 0.777820, 0.774489, 0.773880, 0.774132, 0.773417, 0.773556, 0.774153, 0.774067, 0.773748, 0.773665, 0.777252, 0.774765, 0.775080, 0.777065, 0.774588, 0.774317, 0.775217, 0.775515, 0.773652, 0.774006, 0.773133, 0.774640, 0.774147, 0.772867, 0.775261, 0.773090, 0.774161, 0.776613
Process 6: 0.830383, 0.849161, 0.785446, 0.783129, 0.783555, 0.783855, 0.783111, 0.782283, 0.783910, 0.782533, 0.782839, 0.782319, 0.785176, 0.783114, 0.783570, 0.785323, 0.784395, 0.784059, 0.783289, 0.783782, 0.782332, 0.782953, 0.782189, 0.783210, 0.783467, 0.781630, 0.782970, 0.782548, 0.782584, 0.784869
Process 7: 0.840194, 0.858793, 0.795202, 0.792756, 0.793153, 0.793471, 0.792695, 0.791875, 0.793635, 0.792214, 0.792414, 0.791883, 0.794889, 0.792674, 0.793106, 0.795028, 0.793952, 0.793736, 0.792985, 0.793554, 0.791944, 0.792564, 0.791763, 0.792946, 0.793099, 0.791239, 0.792764, 0.792202, 0.792128, 0.794445
Process 8: 0.847835, 0.865907, 0.802156, 0.799863, 0.800287, 0.801336, 0.799823, 0.798959, 0.800681, 0.799761, 0.802078, 0.799429, 0.802007, 0.799866, 0.800377, 0.802068, 0.801032, 0.800793, 0.799985, 0.800519, 0.801638, 0.799682, 0.798917, 0.799942, 0.802754, 0.800950, 0.799789, 0.800267, 0.799314, 0.802126
Process 9: 0.857355, 0.873657, 0.810266, 0.808182, 0.808676, 0.811120, 0.808293, 0.807471, 0.808667, 0.809172, 0.809591, 0.808791, 0.809923, 0.808122, 0.808734, 0.810433, 0.809255, 0.808677, 0.808184, 0.808618, 0.809041, 0.808151, 0.807573, 0.807486, 0.809696, 0.808249, 0.807986, 0.810047, 0.808424, 0.811809
Process 10: 0.866918, 0.883114, 0.819815, 0.817928, 0.818407, 0.820532, 0.817981, 0.817176, 0.818180, 0.818860, 0.819226, 0.817998, 0.819414, 0.817360, 0.817951, 0.819937, 0.818789, 0.818204, 0.817706, 0.818138, 0.818638, 0.817842, 0.817276, 0.816994, 0.819297, 0.817841, 0.817491, 0.819492, 0.817658, 0.821287
Process 11: 0.876581, 0.889848, 0.826512, 0.825026, 0.825274, 0.827139, 0.827382, 0.826565, 0.824877, 0.828270, 0.825876, 0.825111, 0.826133, 0.824490, 0.825063, 0.826624, 0.825423, 0.824897, 0.824406, 0.824849, 0.825288, 0.827257, 0.826663, 0.823673, 0.825962, 0.824485, 0.824159, 0.826084, 0.824734, 0.828414
Process 12: 0.882815, 0.896484, 0.833131, 0.834417, 0.834679, 0.833743, 0.833597, 0.832813, 0.831514, 0.834486, 0.832492, 0.831943, 0.832789, 0.831353, 0.831892, 0.833271, 0.832051, 0.831546, 0.831015, 0.831465, 0.831889, 0.833442, 0.832850, 0.830304, 0.832606, 0.831114, 0.830814, 0.832682, 0.831570, 0.837794
