MPI_insiderank_optimisedserial
Process 0: 0.847256, 0.856063, 0.788777, 0.787509, 0.786843, 0.786609, 0.787244, 0.788264, 0.787737, 0.787568, 0.787646, 0.787379, 0.786634, 0.786600, 0.787146, 0.787785, 0.787654, 0.786541, 0.787262, 0.786388, 0.787824, 0.786878, 0.786449, 0.786586, 0.787954, 0.786572, 0.787831, 0.787406, 0.787634, 0.788610
Process 1: 0.736169, 0.744077, 0.676572, 0.675515, 0.674421, 0.675009, 0.675359, 0.675250, 0.676136, 0.675792, 0.675713, 0.675038, 0.675068, 0.674875, 0.675303, 0.675358, 0.674665, 0.675009, 0.675436, 0.674687, 0.675320, 0.674734, 0.674739, 0.674728, 0.675157, 0.674853, 0.674963, 0.674739, 0.674761, 0.675439
Process 2: 0.746010, 0.754094, 0.686444, 0.685354, 0.684379, 0.684903, 0.685340, 0.685099, 0.686027, 0.685712, 0.685782, 0.684978, 0.684899, 0.684860, 0.685244, 0.685287, 0.684571, 0.684930, 0.685341, 0.684567, 0.685167, 0.684664, 0.684644, 0.684686, 0.684961, 0.684733, 0.684810, 0.684628, 0.684713, 0.685308
Process 3: 0.754852, 0.763616, 0.695471, 0.694318, 0.693331, 0.693637, 0.694088, 0.694759, 0.694677, 0.694627, 0.695224, 0.693781, 0.693680, 0.693559, 0.694889, 0.694133, 0.693500, 0.693735, 0.694160, 0.693453, 0.694195, 0.693538, 0.693472, 0.693668, 0.693846, 0.693553, 0.693760, 0.693466, 0.693554, 0.694364
Process 4: 0.763588, 0.772060, 0.704798, 0.702871, 0.701560, 0.702393, 0.703036, 0.703164, 0.703391, 0.703962, 0.703507, 0.702157, 0.702293, 0.702383, 0.703221, 0.702429, 0.701843, 0.702911, 0.702439, 0.702801, 0.702515, 0.701944, 0.701922, 0.701948, 0.702208, 0.701895, 0.702213, 0.701964, 0.701966, 0.703770
Process 5: 0.772455, 0.779908, 0.712524, 0.710882, 0.709652, 0.711321, 0.711810, 0.711199, 0.712219, 0.711821, 0.711321, 0.709898, 0.711147, 0.711198, 0.710998, 0.710530, 0.709569, 0.710740, 0.711223, 0.710528, 0.710180, 0.709672, 0.709721, 0.709675, 0.710067, 0.709680, 0.709829, 0.709656, 0.709637, 0.712681
Process 6: 0.780461, 0.788357, 0.720861, 0.719556, 0.718291, 0.719928, 0.719588, 0.719939, 0.720915, 0.719944, 0.720145, 0.718386, 0.718989, 0.719024, 0.719427, 0.719296, 0.718223, 0.719012, 0.719913, 0.718874, 0.718766, 0.718319, 0.718325, 0.718284, 0.718788, 0.718373, 0.718466, 0.718254, 0.718329, 0.721089
Process 7: 0.788628, 0.796527, 0.729113, 0.727750, 0.726454, 0.728100, 0.727801, 0.728169, 0.729206, 0.728160, 0.728396, 0.726526, 0.727231, 0.727225, 0.727623, 0.727551, 0.726429, 0.727200, 0.728167, 0.727063, 0.726994, 0.726565, 0.726537, 0.726450, 0.726979, 0.726671, 0.726642, 0.726464, 0.726446, 0.729361
Process 8: 0.795133, 0.803406, 0.736013, 0.735555, 0.734351, 0.734987, 0.734604, 0.735030, 0.737469, 0.734830, 0.736724, 0.734466, 0.734117, 0.734174, 0.734350, 0.735880, 0.734651, 0.733917, 0.736468, 0.734402, 0.735220, 0.734554, 0.734390, 0.734589, 0.734254, 0.735034, 0.734263, 0.733850, 0.734005, 0.737681
Process 9: 0.801950, 0.810220, 0.742907, 0.743215, 0.741953, 0.740846, 0.741414, 0.742425, 0.743319, 0.741800, 0.742494, 0.742040, 0.740761, 0.740808, 0.741279, 0.743437, 0.742281, 0.740689, 0.742485, 0.740509, 0.742802, 0.742151, 0.741995, 0.742231, 0.741896, 0.742587, 0.741902, 0.741497, 0.741638, 0.745267
Process 10: 0.809723, 0.818005, 0.750643, 0.750985, 0.749703, 0.748582, 0.749207, 0.750196, 0.749636, 0.749540, 0.749573, 0.749952, 0.748532, 0.748535, 0.749056, 0.749740, 0.750114, 0.748487, 0.749156, 0.748253, 0.750555, 0.749938, 0.749769, 0.749967, 0.749836, 0.748764, 0.749738, 0.749314, 0.749549, 0.753051
Process 11: 0.817376, 0.825658, 0.758293, 0.756994, 0.756360, 0.756243, 0.756872, 0.757853, 0.757324, 0.757197, 0.757227, 0.757564, 0.756180, 0.756187, 0.756706, 0.757417, 0.757771, 0.756137, 0.756860, 0.755939, 0.757436, 0.756475, 0.756114, 0.756162, 0.757613, 0.756160, 0.757472, 0.757115, 0.757292, 0.760748
Process 12: 0.825057, 0.833303, 0.765936, 0.764649, 0.764024, 0.763894, 0.764473, 0.765466, 0.764975, 0.764819, 0.764830, 0.764612, 0.763812, 0.763802, 0.764336, 0.765012, 0.764830, 0.763759, 0.764472, 0.763597, 0.765056, 0.764124, 0.763716, 0.763812, 0.765208, 0.763778, 0.765073, 0.764684, 0.764868, 0.767622
Process 13: 0.832780, 0.840931, 0.773610, 0.772295, 0.771685, 0.771524, 0.772084, 0.773104, 0.772577, 0.772444, 0.772487, 0.772231, 0.771470, 0.771431, 0.771978, 0.772635, 0.772490, 0.771387, 0.772123, 0.771248, 0.772670, 0.771755, 0.771335, 0.771427, 0.772834, 0.771407, 0.772707, 0.772264, 0.772474, 0.775227
Process 14: 0.840342, 0.848508, 0.781207, 0.780025, 0.779287, 0.779071, 0.779681, 0.780702, 0.780166, 0.780008, 0.780075, 0.779803, 0.779060, 0.779012, 0.779568, 0.780238, 0.780089, 0.778955, 0.779686, 0.778834, 0.780263, 0.779347, 0.778905, 0.779036, 0.780400, 0.779007, 0.780290, 0.779829, 0.780059, 0.782690
Process 15: 0.847820, 0.856059, 0.788770, 0.787504, 0.786837, 0.786609, 0.787245, 0.788259, 0.787736, 0.787569, 0.787651, 0.787380, 0.786629, 0.786601, 0.787146, 0.787783, 0.787654, 0.786542, 0.787267, 0.786388, 0.787829, 0.786884, 0.786454, 0.786591, 0.787959, 0.786573, 0.787834, 0.787407, 0.787634, 0.788611
