MPI_insiderank_optimisedserial
Process 0: 1.167964, 0.763061, 0.667606, 0.595900, 0.587756, 0.662647, 1.169080, 0.604532, 1.546551, 0.954310, 0.596492, 0.594818, 0.650144, 0.654356, 1.121855, 0.591370, 0.638699, 0.942352, 0.630157, 0.633219, 0.602143, 0.605481, 0.628475, 1.775850, 0.990600, 0.631319, 0.630252, 0.599535, 0.630261, 0.618213
Process 1: 0.886448, 0.472392, 0.360712, 0.307427, 0.299261, 0.306559, 0.868338, 0.317646, 1.266170, 0.333088, 0.326958, 0.308419, 0.345025, 0.392183, 0.854205, 0.308256, 0.350725, 0.304362, 0.343690, 0.346605, 0.337683, 0.315644, 0.342194, 1.180311, 0.346534, 0.343297, 0.340809, 0.305327, 0.348960, 0.352415
Process 2: 0.900754, 0.488263, 0.374102, 0.322106, 0.315664, 0.322162, 0.885327, 0.332702, 1.280207, 0.346424, 0.337437, 0.323019, 0.359290, 0.400544, 0.866053, 0.322579, 0.365675, 0.319897, 0.358564, 0.360333, 0.349787, 0.330758, 0.355672, 1.194495, 0.362499, 0.357679, 0.355782, 0.320904, 0.399857, 0.364715
Process 3: 0.917054, 0.503327, 0.390888, 0.338049, 0.330603, 0.337928, 0.899447, 0.347390, 1.294567, 0.360434, 0.348943, 0.337675, 0.374834, 0.415502, 0.878031, 0.336854, 0.381073, 0.335726, 0.373681, 0.377261, 0.363807, 0.347021, 0.372332, 1.211763, 0.377554, 0.373021, 0.372108, 0.336198, 0.411887, 0.377076
Process 4: 0.932866, 0.517846, 0.408930, 0.351933, 0.343599, 0.351708, 0.912777, 0.361702, 1.305845, 0.373195, 0.361435, 0.351457, 0.392745, 0.428959, 0.888010, 0.351049, 0.395604, 0.347838, 0.388253, 0.390489, 0.374680, 0.360655, 0.386103, 1.230865, 0.391395, 0.387429, 0.387673, 0.355319, 0.422616, 0.390438
Process 5: 0.945097, 0.529728, 0.422581, 0.364880, 0.356762, 0.396487, 0.927051, 0.375363, 1.318395, 0.386244, 0.372787, 0.364656, 0.405378, 0.437805, 0.899150, 0.364683, 0.409160, 0.362004, 0.400839, 0.403243, 0.384363, 0.373916, 0.400007, 1.247060, 0.404258, 0.400906, 0.400545, 0.370098, 0.433063, 0.400029
Process 6: 0.959487, 0.544745, 0.435180, 0.376850, 0.370739, 0.440257, 0.942880, 0.386520, 1.329729, 0.398377, 0.383613, 0.376744, 0.416857, 0.448537, 0.909093, 0.376360, 0.421556, 0.377598, 0.412705, 0.415140, 0.394121, 0.386875, 0.412611, 1.258680, 0.415788, 0.413800, 0.412667, 0.382617, 0.443404, 0.410019
Process 7: 0.966439, 0.554775, 0.445693, 0.387512, 0.381990, 0.482648, 0.959922, 0.396761, 1.339993, 0.408372, 0.392654, 0.386974, 0.426797, 0.455931, 0.918124, 0.386896, 0.432435, 0.387291, 0.423401, 0.425469, 0.402565, 0.397139, 0.422392, 1.269998, 0.426041, 0.424510, 0.423148, 0.392371, 0.453204, 0.417988
Process 8: 0.978011, 0.571155, 0.457998, 0.400289, 0.393555, 0.522885, 0.971058, 0.407417, 1.353381, 0.420611, 0.404020, 0.398216, 0.437883, 0.504420, 0.929094, 0.398350, 0.443378, 0.398601, 0.434179, 0.436625, 0.412475, 0.408008, 0.433635, 1.280410, 0.437566, 0.436223, 0.434058, 0.403552, 0.464893, 0.427260
Process 9: 0.986377, 0.578416, 0.469801, 0.408618, 0.403597, 0.564050, 0.980534, 0.417122, 1.363633, 0.428282, 0.412828, 0.408237, 0.447884, 0.546205, 0.937469, 0.407513, 0.452570, 0.408106, 0.443508, 0.445845, 0.419738, 0.417897, 0.443139, 1.289751, 0.447076, 0.445023, 0.443109, 0.413186, 0.473835, 0.435774
Process 10: 0.996291, 0.588063, 0.483793, 0.418203, 0.413214, 0.593687, 0.989248, 0.426949, 1.372266, 0.439676, 0.422851, 0.417443, 0.457407, 0.566918, 0.946726, 0.428722, 0.462054, 0.417358, 0.453308, 0.455648, 0.428866, 0.427868, 0.452272, 1.322088, 0.456735, 0.454839, 0.452527, 0.422787, 0.481601, 0.445117
Process 11: 1.005591, 0.595982, 0.496554, 0.426132, 0.421592, 0.596475, 0.999001, 0.436747, 1.381789, 0.447931, 0.430772, 0.426487, 0.464892, 0.569476, 0.954756, 0.437337, 0.470925, 0.425837, 0.461866, 0.464670, 0.436990, 0.437077, 0.460622, 1.364029, 0.465565, 0.463506, 0.461649, 0.431166, 0.486448, 0.453333
Process 12: 1.013330, 0.604946, 0.508708, 0.435798, 0.431033, 0.599745, 1.008027, 0.446547, 1.389563, 0.455770, 0.439641, 0.436112, 0.479513, 0.572631, 0.964798, 0.446578, 0.480593, 0.435453, 0.471759, 0.473779, 0.445309, 0.446689, 0.469684, 1.405762, 0.476764, 0.472026, 0.471461, 0.440285, 0.491541, 0.462410
Process 13: 1.021097, 0.613217, 0.517734, 0.446236, 0.438707, 0.602984, 1.016823, 0.455344, 1.398701, 0.463768, 0.448105, 0.444396, 0.488489, 0.575684, 0.973085, 0.455622, 0.489344, 0.444775, 0.480714, 0.482664, 0.454129, 0.455832, 0.478417, 1.446419, 0.483693, 0.480263, 0.480105, 0.449854, 0.495613, 0.470840
Process 14: 1.029817, 0.622429, 0.526283, 0.455661, 0.447546, 0.606299, 1.025243, 0.463536, 1.406210, 0.472189, 0.456404, 0.454066, 0.498942, 0.578547, 0.981215, 0.464958, 0.498246, 0.453275, 0.489408, 0.491793, 0.462703, 0.463761, 0.487279, 1.487686, 0.491811, 0.489387, 0.488974, 0.458083, 0.499937, 0.479564
Process 15: 1.037580, 0.631298, 0.534858, 0.463859, 0.456431, 0.609638, 1.035186, 0.472504, 1.415263, 0.480146, 0.464580, 0.463583, 0.507776, 0.582019, 0.989939, 0.473462, 0.507136, 0.461966, 0.498330, 0.500245, 0.470592, 0.472656, 0.495978, 1.528240, 0.501011, 0.497736, 0.497964, 0.466908, 0.504259, 0.488480
Process 16: 1.046425, 0.641299, 0.543749, 0.472846, 0.464998, 0.613444, 1.047190, 0.481801, 1.423413, 0.488846, 0.473623, 0.471588, 0.515917, 0.585108, 0.998763, 0.481445, 0.515755, 0.471558, 0.507006, 0.509028, 0.479348, 0.481992, 0.505368, 1.569617, 0.509988, 0.507065, 0.506930, 0.476802, 0.509287, 0.497320
Process 17: 1.054501, 0.648075, 0.551415, 0.480365, 0.473006, 0.616579, 1.054175, 0.489307, 1.432277, 0.496682, 0.481178, 0.479863, 0.530428, 0.588201, 1.006041, 0.489976, 0.523682, 0.479215, 0.514919, 0.516669, 0.487156, 0.489896, 0.512861, 1.610620, 0.517445, 0.514809, 0.515320, 0.484518, 0.515658, 0.503313
Process 18: 1.062824, 0.656726, 0.560012, 0.489112, 0.481327, 0.619268, 1.062605, 0.497659, 1.439615, 0.504706, 0.489362, 0.488462, 0.538685, 0.591103, 1.014797, 0.497444, 0.532287, 0.487385, 0.523724, 0.525044, 0.495489, 0.498323, 0.521513, 1.650961, 0.525715, 0.523322, 0.524297, 0.492733, 0.523666, 0.511689
Process 19: 1.070445, 0.664924, 0.568609, 0.497413, 0.489347, 0.622599, 1.070826, 0.505909, 1.448267, 0.513753, 0.497709, 0.496606, 0.547227, 0.594804, 1.023191, 0.505529, 0.540287, 0.495995, 0.531884, 0.533425, 0.503824, 0.507331, 0.529707, 1.693086, 0.534502, 0.531408, 0.531877, 0.501167, 0.531995, 0.520105
Process 20: 1.079456, 0.673610, 0.576630, 0.504778, 0.497061, 0.625949, 1.078900, 0.514189, 1.455778, 0.521395, 0.505370, 0.504026, 0.555502, 0.598375, 1.030473, 0.512707, 0.547894, 0.503688, 0.539236, 0.541324, 0.511868, 0.514871, 0.537202, 1.733065, 0.541974, 0.539587, 0.539396, 0.509212, 0.540146, 0.566222
Process 21: 1.087366, 0.680762, 0.584808, 0.514177, 0.505734, 0.629192, 1.087250, 0.522562, 1.464587, 0.549063, 0.514069, 0.512761, 0.565062, 0.602578, 1.039136, 0.516831, 0.556850, 0.533196, 0.548110, 0.549819, 0.520317, 0.523108, 0.545715, 1.744555, 0.581208, 0.547736, 0.548043, 0.517309, 0.548270, 0.577392
Process 22: 1.095853, 0.690523, 0.592840, 0.522007, 0.514136, 0.632961, 1.095638, 0.530812, 1.472337, 0.589073, 0.522265, 0.521846, 0.572063, 0.606360, 1.048411, 0.520241, 0.564796, 0.573968, 0.556039, 0.557786, 0.528085, 0.531408, 0.553998, 1.747680, 0.622350, 0.555731, 0.556024, 0.525417, 0.556141, 0.581318
Process 23: 1.103250, 0.697187, 0.601634, 0.530168, 0.521909, 0.636367, 1.103506, 0.538960, 1.480751, 0.630243, 0.531508, 0.529183, 0.581756, 0.609829, 1.056247, 0.525438, 0.573002, 0.614986, 0.564271, 0.566428, 0.536532, 0.539627, 0.562365, 1.750877, 0.664202, 0.564207, 0.564423, 0.534023, 0.564649, 0.584596
Process 24: 1.112547, 0.707278, 0.610638, 0.538819, 0.530957, 0.639471, 1.112492, 0.547633, 1.489507, 0.670645, 0.539439, 0.537857, 0.590727, 0.613150, 1.064925, 0.534116, 0.581930, 0.656268, 0.573048, 0.575100, 0.545169, 0.548412, 0.570940, 1.753878, 0.704641, 0.573179, 0.573255, 0.542755, 0.573855, 0.587963
Process 25: 1.120651, 0.713768, 0.617850, 0.546649, 0.539129, 0.642479, 1.120128, 0.555539, 1.497426, 0.711073, 0.547355, 0.545863, 0.598683, 0.616511, 1.072625, 0.542027, 0.589660, 0.697190, 0.580903, 0.582919, 0.553059, 0.556192, 0.578863, 1.756821, 0.746075, 0.580895, 0.581060, 0.550473, 0.581222, 0.591251
Process 26: 1.128860, 0.723503, 0.626115, 0.554836, 0.547021, 0.645749, 1.128439, 0.564626, 1.505564, 0.751324, 0.555563, 0.554156, 0.609793, 0.619601, 1.080698, 0.550483, 0.597922, 0.737599, 0.589200, 0.591061, 0.561152, 0.564493, 0.587103, 1.759748, 0.786687, 0.589057, 0.589234, 0.558693, 0.589643, 0.594086
Process 27: 1.136487, 0.730363, 0.634532, 0.563129, 0.555392, 0.649139, 1.136683, 0.572064, 1.514062, 0.792038, 0.563937, 0.562336, 0.617523, 0.623167, 1.089151, 0.558788, 0.606254, 0.778896, 0.597535, 0.599466, 0.569646, 0.572965, 0.596817, 1.763174, 0.828075, 0.597546, 0.597654, 0.567026, 0.598076, 0.597555
Process 28: 1.144735, 0.739132, 0.642223, 0.570891, 0.563167, 0.652044, 1.144456, 0.579797, 1.521806, 0.832067, 0.571608, 0.570101, 0.625310, 0.629708, 1.096963, 0.566589, 0.614064, 0.819810, 0.605191, 0.607219, 0.577358, 0.580913, 0.603375, 1.766020, 0.869621, 0.605177, 0.605302, 0.574841, 0.606093, 0.600715
Process 29: 1.153223, 0.746700, 0.650874, 0.579571, 0.571718, 0.655664, 1.153082, 0.588782, 1.530540, 0.873067, 0.580408, 0.578766, 0.634716, 0.638165, 1.105642, 0.575185, 0.622664, 0.861806, 0.614043, 0.615962, 0.586145, 0.589465, 0.611935, 1.769623, 0.910805, 0.613922, 0.614089, 0.584051, 0.614296, 0.604353
Process 30: 1.161233, 0.755284, 0.658507, 0.587626, 0.579381, 0.659060, 1.160606, 0.596206, 1.537998, 0.913418, 0.588552, 0.586340, 0.641906, 0.645694, 1.113141, 0.582888, 0.630483, 0.902034, 0.622037, 0.623533, 0.593907, 0.596896, 0.619711, 1.772256, 0.951652, 0.621546, 0.621935, 0.591164, 0.622447, 0.609870
Process 31: 1.168733, 0.763063, 0.667601, 0.595901, 0.587756, 0.662646, 1.169080, 0.604536, 1.546551, 0.954308, 0.596487, 0.594817, 0.650143, 0.654352, 1.121852, 0.591367, 0.638704, 0.942351, 0.630156, 0.633214, 0.602142, 0.605481, 0.628472, 1.775848, 0.990596, 0.631311, 0.630252, 0.599535, 0.630257, 0.618211
