MPI_insiderank_optimisedserial
Process 0: 3.376969, 3.020872, 2.991464, 4.083634, 2.849725, 3.102467, 2.881400, 2.802650, 2.824771, 2.926715, 2.903301, 2.802563, 2.800998, 2.753699, 2.869315, 2.929175, 2.908917, 2.868883, 2.816531, 2.809951, 2.825284, 2.832013, 2.803972, 2.927481, 2.805706, 2.812842, 2.865631, 2.881610, 2.854335, 2.857542
Process 1: 3.387305, 3.035689, 3.002588, 4.101559, 2.860254, 3.114679, 2.895813, 2.811290, 2.833924, 2.936402, 2.914614, 2.811247, 2.809923, 2.763221, 2.879171, 2.940996, 2.918305, 2.881131, 2.828755, 2.820225, 2.834301, 2.841573, 2.818276, 2.936310, 2.814570, 2.821495, 2.874491, 2.891468, 2.864418, 2.867693
