MPI_insiderank_optimisedserial
Process 0: 0.481834, 0.437310, 0.342268, 0.304468, 0.307137, 0.308830, 0.305818, 0.305289, 0.306271, 0.336138, 0.308896, 0.303907, 0.307623, 0.306388, 0.303565, 0.304540, 0.317828, 0.299217, 0.298459, 0.302136, 0.334848, 0.298561, 0.299681, 0.297198, 0.300922, 0.298788, 0.301332, 0.326325, 0.304715, 0.306846
Process 1: 0.433187, 0.390497, 0.303902, 0.265615, 0.268752, 0.270679, 0.266855, 0.267714, 0.267218, 0.293479, 0.271784, 0.265374, 0.268901, 0.267478, 0.266250, 0.266813, 0.270600, 0.261535, 0.260732, 0.264814, 0.297123, 0.261092, 0.261685, 0.259654, 0.263339, 0.260821, 0.263110, 0.275334, 0.267466, 0.269110
Process 2: 0.436028, 0.395341, 0.306387, 0.268622, 0.271547, 0.273553, 0.270899, 0.270471, 0.271471, 0.298942, 0.274677, 0.268810, 0.273939, 0.270905, 0.269264, 0.269787, 0.273603, 0.263653, 0.263851, 0.267391, 0.299989, 0.263317, 0.264157, 0.261630, 0.265979, 0.263895, 0.266097, 0.279361, 0.269646, 0.271426
Process 3: 0.439876, 0.398229, 0.309409, 0.272672, 0.274354, 0.276012, 0.273314, 0.272891, 0.273077, 0.303256, 0.277579, 0.272066, 0.275651, 0.272762, 0.272045, 0.272240, 0.277424, 0.267010, 0.266578, 0.270279, 0.302644, 0.266744, 0.267778, 0.265028, 0.268832, 0.266210, 0.268564, 0.283219, 0.272657, 0.274904
Process 4: 0.443191, 0.401556, 0.312426, 0.275416, 0.276848, 0.279573, 0.275797, 0.275136, 0.275743, 0.305713, 0.280007, 0.274664, 0.277416, 0.275611, 0.274176, 0.274362, 0.280604, 0.269338, 0.269629, 0.272477, 0.304773, 0.269818, 0.270045, 0.267134, 0.271163, 0.269050, 0.271892, 0.287888, 0.274878, 0.277782
Process 5: 0.446291, 0.404049, 0.315704, 0.277193, 0.280563, 0.281427, 0.278141, 0.278368, 0.278675, 0.308712, 0.282192, 0.276677, 0.280111, 0.278712, 0.277152, 0.278516, 0.284526, 0.272104, 0.271402, 0.275879, 0.308085, 0.272198, 0.273070, 0.270472, 0.274334, 0.271697, 0.274922, 0.291847, 0.277987, 0.279924
Process 6: 0.450220, 0.406552, 0.317404, 0.279685, 0.282397, 0.283389, 0.280800, 0.280275, 0.280846, 0.311022, 0.285349, 0.279017, 0.283438, 0.280574, 0.278597, 0.280035, 0.287087, 0.274083, 0.274090, 0.277512, 0.309588, 0.274146, 0.274770, 0.271998, 0.275850, 0.274636, 0.276876, 0.294702, 0.279518, 0.282381
Process 7: 0.454040, 0.411087, 0.320517, 0.284137, 0.285422, 0.286421, 0.284616, 0.284088, 0.283830, 0.313803, 0.287491, 0.281675, 0.285912, 0.283564, 0.282433, 0.283021, 0.291019, 0.277156, 0.276822, 0.281348, 0.313580, 0.277623, 0.278658, 0.275955, 0.279827, 0.277497, 0.279885, 0.299048, 0.283584, 0.285176
Process 8: 0.457250, 0.413497, 0.322481, 0.286111, 0.287110, 0.288668, 0.286843, 0.285937, 0.287175, 0.316328, 0.289636, 0.284029, 0.287928, 0.286811, 0.283909, 0.284731, 0.294442, 0.279564, 0.279006, 0.283206, 0.315358, 0.279385, 0.280211, 0.278451, 0.281439, 0.280018, 0.283347, 0.301764, 0.285084, 0.288012
Process 9: 0.461198, 0.417859, 0.325528, 0.288379, 0.291216, 0.291740, 0.289638, 0.289667, 0.289681, 0.320037, 0.292341, 0.287127, 0.290932, 0.289346, 0.288095, 0.287951, 0.298330, 0.282613, 0.282051, 0.286860, 0.319011, 0.283096, 0.283811, 0.281482, 0.284571, 0.282859, 0.285298, 0.305510, 0.289034, 0.290776
Process 10: 0.464569, 0.420256, 0.328040, 0.291046, 0.293074, 0.294301, 0.292377, 0.291306, 0.292030, 0.322221, 0.295007, 0.289596, 0.294288, 0.291644, 0.290054, 0.290877, 0.301128, 0.286077, 0.284616, 0.288960, 0.320846, 0.284863, 0.285760, 0.282966, 0.286837, 0.285712, 0.287876, 0.308536, 0.290558, 0.293702
Process 11: 0.467995, 0.424756, 0.331161, 0.293408, 0.296564, 0.297385, 0.295340, 0.295719, 0.295131, 0.325005, 0.297879, 0.292840, 0.297110, 0.295170, 0.293509, 0.293250, 0.305344, 0.288280, 0.287515, 0.292288, 0.324454, 0.288713, 0.289335, 0.287274, 0.289808, 0.288347, 0.290345, 0.312750, 0.294491, 0.297048
Process 12: 0.471378, 0.426824, 0.334018, 0.296238, 0.298331, 0.299983, 0.297909, 0.297624, 0.299212, 0.327539, 0.300360, 0.295522, 0.299958, 0.297174, 0.295087, 0.296174, 0.307909, 0.290569, 0.290122, 0.294330, 0.326409, 0.290039, 0.291415, 0.289368, 0.292380, 0.291176, 0.293442, 0.315778, 0.297682, 0.299007
Process 13: 0.474865, 0.431657, 0.336965, 0.299271, 0.301497, 0.303073, 0.301127, 0.300220, 0.301599, 0.331895, 0.303779, 0.298838, 0.302770, 0.300292, 0.298509, 0.299177, 0.311271, 0.293835, 0.293049, 0.297521, 0.329252, 0.293290, 0.294466, 0.291941, 0.295414, 0.293679, 0.295954, 0.319581, 0.300265, 0.301644
Process 14: 0.478149, 0.434203, 0.339323, 0.301811, 0.304095, 0.305556, 0.303283, 0.302601, 0.303304, 0.333927, 0.305926, 0.301223, 0.305130, 0.304346, 0.301348, 0.301692, 0.314310, 0.297243, 0.295972, 0.299455, 0.331784, 0.295371, 0.296754, 0.294069, 0.298413, 0.296150, 0.298287, 0.322584, 0.301717, 0.304004
Process 15: 0.482121, 0.437310, 0.342264, 0.304467, 0.307133, 0.308836, 0.305817, 0.305292, 0.306277, 0.336137, 0.308897, 0.303908, 0.307623, 0.306387, 0.303565, 0.304541, 0.317826, 0.299216, 0.298458, 0.302139, 0.334849, 0.298561, 0.299680, 0.297202, 0.300922, 0.298789, 0.301332, 0.326327, 0.304716, 0.306846
