MPI_insiderank_optimisedserial
Process 0: 0.254778, 0.223746, 0.194852, 0.192316, 0.171807, 0.171124, 0.168801, 0.169599, 0.168651, 0.170820, 0.169093, 0.170989, 0.170596, 0.170282, 0.170105, 0.189542, 0.169758, 0.170341, 0.171526, 0.170499, 0.169288, 0.171096, 0.168659, 0.170058, 0.169804, 0.173233, 0.169751, 0.173834, 0.173399, 0.170463
Process 1: 0.211848, 0.181676, 0.146577, 0.146691, 0.129904, 0.130648, 0.128391, 0.129828, 0.128770, 0.130990, 0.128535, 0.130294, 0.130097, 0.129889, 0.128630, 0.147717, 0.129437, 0.129661, 0.130896, 0.129927, 0.128931, 0.129854, 0.128338, 0.129639, 0.128365, 0.132949, 0.129449, 0.132348, 0.132984, 0.130147
Process 2: 0.212678, 0.182793, 0.148066, 0.148175, 0.131065, 0.131857, 0.129608, 0.130668, 0.129535, 0.131672, 0.129792, 0.131554, 0.131345, 0.131140, 0.129905, 0.149012, 0.130630, 0.130918, 0.132122, 0.131143, 0.130147, 0.131073, 0.129570, 0.130863, 0.129618, 0.134096, 0.130682, 0.133496, 0.134266, 0.131407
Process 3: 0.214246, 0.184238, 0.149989, 0.150157, 0.132661, 0.133396, 0.131120, 0.132559, 0.131488, 0.133713, 0.131370, 0.133051, 0.132834, 0.132850, 0.131750, 0.150924, 0.132100, 0.132413, 0.133610, 0.132682, 0.131874, 0.132694, 0.131153, 0.132458, 0.131118, 0.135731, 0.132260, 0.135215, 0.135925, 0.133088
Process 4: 0.215267, 0.185301, 0.151331, 0.151587, 0.133704, 0.134539, 0.132278, 0.133292, 0.132193, 0.134360, 0.132588, 0.134298, 0.134051, 0.133839, 0.132607, 0.151676, 0.133318, 0.133597, 0.134825, 0.133845, 0.132827, 0.133740, 0.132250, 0.133533, 0.132302, 0.136768, 0.133351, 0.136317, 0.136903, 0.134059
Process 5: 0.217091, 0.187088, 0.153494, 0.153758, 0.135221, 0.136033, 0.133767, 0.134767, 0.133691, 0.135850, 0.134133, 0.135824, 0.135529, 0.135333, 0.134044, 0.153168, 0.134820, 0.135088, 0.136310, 0.135370, 0.134348, 0.135273, 0.133758, 0.135037, 0.133794, 0.138275, 0.134843, 0.137833, 0.138355, 0.135577
Process 6: 0.217892, 0.187969, 0.154736, 0.154948, 0.136401, 0.137221, 0.134960, 0.135954, 0.134882, 0.137025, 0.135317, 0.137000, 0.136715, 0.136520, 0.135226, 0.154366, 0.136010, 0.136282, 0.137490, 0.136539, 0.135504, 0.136460, 0.134930, 0.136206, 0.134981, 0.139442, 0.136021, 0.138919, 0.139544, 0.136729
Process 7: 0.219643, 0.189917, 0.156527, 0.156774, 0.137942, 0.138791, 0.136510, 0.137477, 0.136456, 0.138559, 0.136872, 0.138538, 0.138256, 0.138035, 0.136748, 0.155860, 0.137548, 0.137846, 0.139022, 0.138165, 0.137065, 0.138130, 0.136494, 0.137761, 0.136507, 0.141027, 0.137632, 0.140589, 0.141058, 0.138295
Process 8: 0.220588, 0.190675, 0.158014, 0.158269, 0.139113, 0.139913, 0.137647, 0.138633, 0.137591, 0.139717, 0.138052, 0.139717, 0.139427, 0.139216, 0.137908, 0.157059, 0.138723, 0.138964, 0.140209, 0.139248, 0.138197, 0.139317, 0.137628, 0.138962, 0.137666, 0.142151, 0.138773, 0.141702, 0.142224, 0.139410
Process 9: 0.222375, 0.192623, 0.160302, 0.160528, 0.140629, 0.141445, 0.139170, 0.140214, 0.139113, 0.141263, 0.139696, 0.141250, 0.140964, 0.140740, 0.139430, 0.158557, 0.140270, 0.140498, 0.141742, 0.140823, 0.139757, 0.140904, 0.139174, 0.140504, 0.139200, 0.143706, 0.140265, 0.143319, 0.143764, 0.140973
Process 10: 0.223300, 0.193394, 0.161427, 0.161681, 0.141839, 0.142703, 0.140400, 0.141360, 0.140358, 0.142513, 0.140783, 0.142455, 0.142190, 0.141959, 0.140646, 0.161421, 0.141468, 0.141721, 0.142977, 0.142030, 0.140949, 0.142222, 0.140360, 0.141753, 0.141130, 0.144904, 0.141487, 0.144380, 0.144973, 0.142166
Process 11: 0.225492, 0.195410, 0.163648, 0.163976, 0.143902, 0.144703, 0.142344, 0.143300, 0.142294, 0.144532, 0.142790, 0.144448, 0.144218, 0.143925, 0.142632, 0.162999, 0.143469, 0.143728, 0.144945, 0.144064, 0.142984, 0.144169, 0.142360, 0.143750, 0.143494, 0.146927, 0.143454, 0.146644, 0.146949, 0.144185
Process 12: 0.226518, 0.196009, 0.164699, 0.164945, 0.144504, 0.145388, 0.143091, 0.144006, 0.143029, 0.145226, 0.143466, 0.145148, 0.144888, 0.144612, 0.143326, 0.164059, 0.144149, 0.144405, 0.145669, 0.144729, 0.143599, 0.144792, 0.143046, 0.144418, 0.144190, 0.147560, 0.144141, 0.147786, 0.147611, 0.144805
Process 13: 0.229044, 0.197970, 0.166975, 0.167302, 0.146504, 0.147423, 0.145055, 0.145987, 0.145047, 0.147250, 0.145540, 0.147204, 0.146954, 0.146612, 0.145397, 0.165916, 0.146075, 0.146341, 0.147661, 0.146772, 0.145631, 0.146889, 0.145074, 0.146535, 0.146259, 0.149725, 0.146219, 0.149761, 0.149688, 0.146923
Process 14: 0.229582, 0.198668, 0.168019, 0.168274, 0.147181, 0.148065, 0.145777, 0.146650, 0.145723, 0.147945, 0.146152, 0.147844, 0.147590, 0.147303, 0.146001, 0.166741, 0.146834, 0.147079, 0.148369, 0.147435, 0.146264, 0.147473, 0.145705, 0.147161, 0.146852, 0.150337, 0.146799, 0.150848, 0.150338, 0.147495
Process 15: 0.231214, 0.200281, 0.169964, 0.170126, 0.148690, 0.149597, 0.147313, 0.148168, 0.147234, 0.149442, 0.147679, 0.149352, 0.149111, 0.148842, 0.147521, 0.168323, 0.148355, 0.148589, 0.149897, 0.149000, 0.147785, 0.149549, 0.147216, 0.148651, 0.148369, 0.151780, 0.148331, 0.152164, 0.151907, 0.149025
Process 16: 0.232258, 0.201339, 0.171487, 0.171599, 0.149869, 0.150748, 0.148471, 0.149348, 0.148403, 0.150588, 0.148835, 0.150530, 0.150293, 0.149985, 0.148695, 0.169460, 0.149510, 0.149760, 0.151073, 0.150173, 0.148969, 0.150786, 0.148375, 0.149790, 0.149539, 0.152936, 0.149510, 0.153216, 0.153083, 0.150175
Process 17: 0.234060, 0.203160, 0.173479, 0.173445, 0.151369, 0.152303, 0.150016, 0.150879, 0.149964, 0.152143, 0.150366, 0.152071, 0.151827, 0.151515, 0.150233, 0.170937, 0.151043, 0.151272, 0.152627, 0.151710, 0.150508, 0.152336, 0.149917, 0.151366, 0.151090, 0.154498, 0.151015, 0.154539, 0.154621, 0.151722
Process 18: 0.235200, 0.204159, 0.174701, 0.174735, 0.152551, 0.153474, 0.151208, 0.152050, 0.151095, 0.153287, 0.151523, 0.153253, 0.153007, 0.152716, 0.151388, 0.172149, 0.152196, 0.152459, 0.153787, 0.152889, 0.151691, 0.153471, 0.151077, 0.152515, 0.152246, 0.155637, 0.152187, 0.155579, 0.155794, 0.152912
Process 19: 0.236615, 0.205787, 0.176486, 0.176260, 0.154019, 0.154936, 0.152708, 0.153530, 0.152633, 0.154798, 0.153024, 0.154855, 0.154500, 0.154237, 0.152910, 0.173615, 0.153702, 0.153927, 0.155268, 0.154358, 0.153173, 0.154987, 0.152596, 0.153999, 0.153773, 0.157158, 0.153650, 0.156924, 0.157276, 0.154396
Process 20: 0.237855, 0.206759, 0.178032, 0.177506, 0.155302, 0.156219, 0.153994, 0.154776, 0.153851, 0.156029, 0.154284, 0.156044, 0.155738, 0.155464, 0.155080, 0.174861, 0.154959, 0.155182, 0.156529, 0.155632, 0.154433, 0.156226, 0.153814, 0.155224, 0.154993, 0.158388, 0.154923, 0.158028, 0.158556, 0.155654
Process 21: 0.239727, 0.208748, 0.180240, 0.179465, 0.157910, 0.157956, 0.155894, 0.156721, 0.155774, 0.157914, 0.156195, 0.157936, 0.157704, 0.157432, 0.157292, 0.176616, 0.156914, 0.157072, 0.158539, 0.157458, 0.156405, 0.158231, 0.155799, 0.157247, 0.157047, 0.160391, 0.156540, 0.160028, 0.160518, 0.157613
Process 22: 0.241086, 0.209796, 0.181348, 0.180145, 0.159349, 0.158873, 0.156651, 0.157422, 0.156494, 0.158763, 0.156946, 0.158726, 0.158409, 0.158127, 0.157998, 0.177456, 0.157625, 0.157847, 0.159275, 0.158283, 0.157097, 0.158871, 0.156477, 0.157860, 0.157646, 0.161040, 0.157577, 0.161095, 0.161292, 0.158337
Process 23: 0.242985, 0.211528, 0.183094, 0.181580, 0.160781, 0.160359, 0.158093, 0.158865, 0.157933, 0.160107, 0.158371, 0.160173, 0.159858, 0.159573, 0.159455, 0.178886, 0.159048, 0.159385, 0.160682, 0.159728, 0.158549, 0.160307, 0.157925, 0.159310, 0.159093, 0.162515, 0.159037, 0.162338, 0.162674, 0.159766
Process 24: 0.244373, 0.213134, 0.184660, 0.182842, 0.162042, 0.161607, 0.159340, 0.160122, 0.159184, 0.161373, 0.159624, 0.161446, 0.161109, 0.160820, 0.160682, 0.180176, 0.160304, 0.160720, 0.161960, 0.160991, 0.159811, 0.161586, 0.159190, 0.160561, 0.160357, 0.163754, 0.160287, 0.163519, 0.163905, 0.161034
Process 25: 0.246355, 0.215136, 0.186725, 0.184746, 0.163529, 0.163102, 0.160809, 0.161587, 0.160658, 0.162824, 0.161094, 0.162953, 0.162582, 0.162303, 0.162168, 0.181590, 0.161767, 0.162297, 0.163461, 0.162453, 0.161301, 0.163064, 0.160696, 0.162053, 0.161876, 0.165229, 0.161752, 0.165194, 0.165386, 0.162509
Process 26: 0.247720, 0.216380, 0.187831, 0.185590, 0.164981, 0.164390, 0.162097, 0.162872, 0.161920, 0.164132, 0.162368, 0.164241, 0.163875, 0.163577, 0.163431, 0.182937, 0.163057, 0.163649, 0.164750, 0.163728, 0.162574, 0.164332, 0.161950, 0.163328, 0.163156, 0.166517, 0.163034, 0.166349, 0.166657, 0.163782
Process 27: 0.249641, 0.218612, 0.190148, 0.186982, 0.166498, 0.165752, 0.163478, 0.164279, 0.163307, 0.165496, 0.163764, 0.165663, 0.165265, 0.164963, 0.164776, 0.184232, 0.164432, 0.165021, 0.166167, 0.165156, 0.163946, 0.165720, 0.163314, 0.164718, 0.164497, 0.167894, 0.164411, 0.167778, 0.168045, 0.165164
Process 28: 0.251583, 0.220114, 0.190940, 0.188533, 0.167923, 0.167333, 0.164913, 0.165657, 0.164847, 0.167020, 0.165170, 0.167080, 0.166651, 0.166342, 0.166229, 0.185791, 0.165892, 0.166398, 0.167782, 0.166756, 0.165368, 0.167270, 0.164801, 0.166259, 0.165944, 0.169325, 0.165854, 0.169180, 0.169552, 0.166557
Process 29: 0.252384, 0.221001, 0.192686, 0.190204, 0.169562, 0.168876, 0.166686, 0.167472, 0.166535, 0.168683, 0.167007, 0.168897, 0.168490, 0.168173, 0.167740, 0.187321, 0.167658, 0.168233, 0.169444, 0.168384, 0.167161, 0.168969, 0.166550, 0.167949, 0.167588, 0.171098, 0.167591, 0.171068, 0.171280, 0.168412
Process 30: 0.254089, 0.222725, 0.193668, 0.191023, 0.170569, 0.169937, 0.167559, 0.168307, 0.167470, 0.169659, 0.167926, 0.169745, 0.169301, 0.168996, 0.168871, 0.188409, 0.168517, 0.169204, 0.170357, 0.169313, 0.168015, 0.169862, 0.167419, 0.168883, 0.168691, 0.171962, 0.168511, 0.172460, 0.172138, 0.169197
Process 31: 0.254951, 0.223748, 0.194849, 0.192314, 0.171805, 0.171127, 0.168801, 0.169600, 0.168657, 0.170817, 0.169092, 0.170989, 0.170596, 0.170287, 0.170106, 0.189543, 0.169761, 0.170339, 0.171520, 0.170498, 0.169287, 0.171097, 0.168657, 0.170058, 0.169806, 0.173241, 0.169748, 0.173831, 0.173399, 0.170472
