MPI_insiderank_optimisedserial
Process 0: 3.599508, 3.024630, 3.017036, 2.960159, 3.011960, 2.950404, 2.945657, 3.023890, 2.956778, 2.944559, 2.927501, 2.923608, 3.027819, 2.952479, 2.986486, 2.939068, 2.956521, 2.942884, 2.937019, 2.907531, 2.969081, 2.956354, 3.337338, 2.929540, 2.944883, 3.045870, 5.152247, 3.341219, 3.044178, 3.015188
Process 1: 3.604015, 3.028714, 3.021100, 2.964347, 3.016295, 2.954182, 2.950823, 3.029012, 2.961751, 2.949618, 2.932471, 2.928771, 3.033261, 2.958048, 2.991277, 2.944250, 2.961415, 2.947836, 2.941955, 2.912287, 2.973920, 2.961304, 3.342281, 2.934897, 2.949871, 3.050996, 5.157963, 3.346927, 3.049197, 3.020463
