MPI_insiderank_optimisedserial
Process 0: 1.183771, 0.953708, 0.955175, 0.922341, 0.916319, 0.952505, 0.914995, 0.918598, 0.907411, 0.968009, 0.931641, 0.910731, 0.907355, 0.899986, 0.912511, 0.898377, 0.917886, 0.905416, 0.950818, 0.922254, 0.895228, 0.905090, 0.899919, 0.918012, 0.913439, 0.898724, 0.901870, 0.904953, 0.906524, 0.907655
Process 1: 1.098944, 0.887703, 0.881039, 0.846514, 0.849276, 0.877339, 0.846023, 0.850465, 0.838930, 0.899112, 0.855471, 0.844631, 0.839458, 0.829343, 0.844657, 0.830601, 0.850018, 0.833302, 0.885347, 0.854349, 0.827304, 0.837251, 0.832841, 0.849709, 0.845448, 0.830912, 0.833941, 0.836814, 0.838904, 0.839642
Process 2: 1.108831, 0.896638, 0.884424, 0.851634, 0.852444, 0.882005, 0.850241, 0.859095, 0.842754, 0.902970, 0.859361, 0.847707, 0.842798, 0.832917, 0.848080, 0.834051, 0.853573, 0.836774, 0.888398, 0.857675, 0.830779, 0.840829, 0.836074, 0.858507, 0.848841, 0.834152, 0.837240, 0.840364, 0.842361, 0.843239
Process 3: 1.126768, 0.912535, 0.902620, 0.869831, 0.869714, 0.902495, 0.868178, 0.874918, 0.860911, 0.921035, 0.877290, 0.863947, 0.860787, 0.856763, 0.866080, 0.851751, 0.871469, 0.854540, 0.904287, 0.875550, 0.848809, 0.858645, 0.853975, 0.873887, 0.866510, 0.852080, 0.854990, 0.858032, 0.860000, 0.860898
Process 4: 1.136947, 0.921467, 0.908836, 0.875952, 0.875813, 0.907966, 0.874523, 0.883983, 0.867142, 0.927310, 0.883602, 0.870230, 0.867056, 0.865594, 0.872382, 0.858206, 0.877873, 0.860949, 0.910419, 0.881979, 0.855187, 0.865035, 0.860313, 0.882968, 0.872884, 0.858383, 0.861424, 0.864373, 0.866379, 0.867440
Process 5: 1.156978, 0.936767, 0.926490, 0.899640, 0.893397, 0.925495, 0.891902, 0.899599, 0.884718, 0.944950, 0.901101, 0.887296, 0.884483, 0.880859, 0.889705, 0.875303, 0.895164, 0.878355, 0.927858, 0.899381, 0.872606, 0.882617, 0.877371, 0.898562, 0.890207, 0.875387, 0.878545, 0.881764, 0.883541, 0.884575
Process 6: 1.167205, 0.944322, 0.934342, 0.908514, 0.899693, 0.931532, 0.898605, 0.908350, 0.890638, 0.951013, 0.907391, 0.893732, 0.890820, 0.889662, 0.896215, 0.881733, 0.901615, 0.884667, 0.934232, 0.905518, 0.879257, 0.888732, 0.883966, 0.907353, 0.896601, 0.881847, 0.885057, 0.888019, 0.890057, 0.890972
Process 7: 1.184968, 0.954767, 0.956279, 0.923388, 0.917324, 0.953574, 0.915896, 0.919661, 0.908448, 0.968927, 0.932671, 0.911806, 0.908270, 0.900923, 0.913614, 0.899409, 0.918916, 0.906458, 0.951776, 0.923321, 0.896270, 0.906181, 0.900975, 0.919048, 0.914460, 0.899759, 0.902890, 0.905989, 0.907547, 0.908723
