MPI_insiderank_optimisedserial
Process 0: 1.380460, 0.947388, 0.801802, 0.787515, 0.772522, 0.822817, 0.786584, 0.798782, 0.777097, 0.799340, 0.774659, 0.769231, 0.831082, 0.766931, 0.770397, 0.790016, 0.776675, 0.792385, 0.763319, 0.760037, 0.759301, 0.765981, 0.734853, 0.815657, 0.735834, 0.744353, 0.783401, 0.778434, 0.790578, 0.756360
Process 1: 1.177702, 0.806306, 0.628065, 0.644337, 0.619494, 0.653584, 0.630375, 0.652642, 0.625703, 0.625061, 0.622674, 0.614566, 0.684180, 0.613341, 0.615427, 0.618613, 0.624659, 0.634817, 0.608266, 0.605499, 0.605763, 0.613752, 0.569295, 0.666866, 0.588422, 0.587983, 0.626102, 0.623869, 0.632629, 0.603178
Process 2: 1.195833, 0.819944, 0.641962, 0.658734, 0.632301, 0.663967, 0.644199, 0.666493, 0.638578, 0.640934, 0.634396, 0.627069, 0.701646, 0.624272, 0.628247, 0.630185, 0.638542, 0.646814, 0.620118, 0.618468, 0.625252, 0.625537, 0.581277, 0.676514, 0.598342, 0.600761, 0.637133, 0.634200, 0.645051, 0.612896
Process 3: 1.205511, 0.836805, 0.651010, 0.675861, 0.641232, 0.677000, 0.655903, 0.680209, 0.646386, 0.649081, 0.643907, 0.637609, 0.715008, 0.633106, 0.637306, 0.640017, 0.646077, 0.659287, 0.632950, 0.628187, 0.637661, 0.635877, 0.590758, 0.686159, 0.608285, 0.611850, 0.651688, 0.647252, 0.656961, 0.625420
Process 4: 1.226695, 0.851660, 0.662885, 0.689961, 0.653305, 0.688356, 0.668378, 0.694885, 0.659880, 0.659495, 0.657782, 0.650178, 0.728923, 0.646766, 0.648431, 0.652635, 0.657596, 0.670623, 0.645094, 0.640210, 0.650759, 0.646797, 0.603356, 0.699196, 0.621118, 0.624256, 0.662954, 0.658605, 0.667968, 0.634781
Process 5: 1.234188, 0.866888, 0.672084, 0.704107, 0.663477, 0.696874, 0.678573, 0.707031, 0.667744, 0.668860, 0.666333, 0.659481, 0.741951, 0.655745, 0.659505, 0.663202, 0.666924, 0.679739, 0.655554, 0.649557, 0.664091, 0.656969, 0.613671, 0.708535, 0.631937, 0.632246, 0.673401, 0.667313, 0.677233, 0.646269
Process 6: 1.247909, 0.878588, 0.682654, 0.715147, 0.674222, 0.708336, 0.688363, 0.718928, 0.677121, 0.680511, 0.674469, 0.669903, 0.753920, 0.664969, 0.669966, 0.672500, 0.676950, 0.691994, 0.664593, 0.659106, 0.675402, 0.667446, 0.622920, 0.717305, 0.639404, 0.642757, 0.682057, 0.677440, 0.687824, 0.655692
Process 7: 1.272352, 0.893072, 0.694293, 0.729552, 0.685213, 0.719656, 0.698563, 0.734095, 0.689906, 0.692135, 0.687214, 0.681242, 0.766058, 0.677835, 0.681149, 0.684655, 0.689417, 0.701932, 0.675494, 0.672302, 0.688905, 0.677725, 0.634184, 0.729491, 0.652482, 0.658146, 0.693207, 0.690230, 0.699589, 0.667541
Process 8: 1.283971, 0.900225, 0.710043, 0.736783, 0.694946, 0.736112, 0.710019, 0.740520, 0.702598, 0.708124, 0.697197, 0.690999, 0.773134, 0.688659, 0.692132, 0.698901, 0.698475, 0.711374, 0.686214, 0.682796, 0.694534, 0.688631, 0.644630, 0.739901, 0.661061, 0.667151, 0.705838, 0.700119, 0.710602, 0.678882
Process 9: 1.300361, 0.908054, 0.722838, 0.744652, 0.707050, 0.749482, 0.721359, 0.748424, 0.712240, 0.721460, 0.708352, 0.702957, 0.778421, 0.699338, 0.703637, 0.711370, 0.711174, 0.724561, 0.697864, 0.695217, 0.700677, 0.701476, 0.656394, 0.750787, 0.671962, 0.679870, 0.715755, 0.711284, 0.722288, 0.689925
Process 10: 1.310949, 0.913663, 0.735897, 0.750279, 0.715528, 0.761791, 0.731159, 0.755025, 0.722460, 0.733251, 0.719484, 0.714025, 0.784622, 0.709769, 0.712879, 0.723121, 0.720905, 0.734410, 0.708121, 0.705095, 0.705294, 0.711731, 0.666610, 0.761310, 0.683351, 0.689414, 0.725019, 0.722268, 0.732944, 0.699420
Process 11: 1.328857, 0.919772, 0.752453, 0.755919, 0.729409, 0.774187, 0.742229, 0.762916, 0.735739, 0.749212, 0.733249, 0.727486, 0.793944, 0.724087, 0.728600, 0.739624, 0.734394, 0.747012, 0.719772, 0.717057, 0.715913, 0.724805, 0.684521, 0.775497, 0.694348, 0.700776, 0.737361, 0.733510, 0.744241, 0.713008
Process 12: 1.340058, 0.924434, 0.763754, 0.760930, 0.738596, 0.785536, 0.751430, 0.770267, 0.743335, 0.760694, 0.742383, 0.735377, 0.799466, 0.732117, 0.738100, 0.751148, 0.744384, 0.755936, 0.729069, 0.726874, 0.725717, 0.733186, 0.698047, 0.782084, 0.702416, 0.710890, 0.747684, 0.742952, 0.755345, 0.722700
Process 13: 1.353964, 0.930120, 0.777772, 0.767121, 0.752677, 0.799533, 0.765158, 0.775454, 0.753848, 0.774412, 0.753930, 0.749078, 0.808907, 0.742557, 0.748519, 0.765625, 0.755684, 0.768030, 0.741488, 0.739216, 0.736722, 0.743360, 0.713328, 0.793635, 0.714772, 0.723169, 0.760440, 0.756676, 0.771505, 0.735771
Process 14: 1.362876, 0.936058, 0.788438, 0.775235, 0.757984, 0.809915, 0.775379, 0.784911, 0.766589, 0.786119, 0.764007, 0.759541, 0.820128, 0.754923, 0.758998, 0.777249, 0.765652, 0.778576, 0.751302, 0.749285, 0.747384, 0.753946, 0.723436, 0.803845, 0.726206, 0.733397, 0.772422, 0.766737, 0.777856, 0.744482
Process 15: 1.381731, 0.947390, 0.801800, 0.787507, 0.772523, 0.822816, 0.786582, 0.798776, 0.777097, 0.799344, 0.774657, 0.769236, 0.831076, 0.766931, 0.770395, 0.790006, 0.776679, 0.792385, 0.763323, 0.760034, 0.759297, 0.765970, 0.734856, 0.815655, 0.735835, 0.744351, 0.783403, 0.778431, 0.790573, 0.756358
