MPI_insiderank_optimisedserial
Process 0: 1.508966, 0.518759, 0.411460, 0.410910, 0.411239, 0.410469, 0.410493, 0.411482, 0.415477, 0.410891, 0.410530, 0.417680, 0.410829, 0.410533, 0.410837, 0.411001, 0.411118, 0.410846, 0.410858, 0.436971, 0.433023, 0.416667, 0.415726, 0.447817, 0.417262, 0.416480, 0.412170, 0.411325, 0.411558, 0.411999
Process 1: 1.246439, 0.281477, 0.177423, 0.176806, 0.177020, 0.176610, 0.176373, 0.177046, 0.176204, 0.177054, 0.176631, 0.184843, 0.176684, 0.176511, 0.176602, 0.176842, 0.176877, 0.176690, 0.176336, 0.184454, 0.196903, 0.177266, 0.178634, 0.180584, 0.181075, 0.180016, 0.177573, 0.176690, 0.176499, 0.176607
Process 2: 1.247743, 0.283058, 0.178977, 0.178329, 0.178555, 0.178122, 0.177898, 0.178604, 0.177783, 0.178605, 0.178118, 0.186373, 0.178180, 0.178018, 0.178120, 0.178379, 0.178391, 0.178293, 0.177918, 0.186299, 0.198457, 0.178842, 0.180255, 0.182104, 0.182628, 0.181561, 0.179098, 0.178228, 0.178043, 0.178212
Process 3: 1.250174, 0.285091, 0.181031, 0.180471, 0.180668, 0.180300, 0.180093, 0.180730, 0.179926, 0.180679, 0.180255, 0.188893, 0.180300, 0.180163, 0.180266, 0.180587, 0.180542, 0.180402, 0.180071, 0.189216, 0.200671, 0.181054, 0.182404, 0.184339, 0.184796, 0.183665, 0.181263, 0.180426, 0.180243, 0.180330
Process 4: 1.251979, 0.286745, 0.182638, 0.182130, 0.182297, 0.181890, 0.181659, 0.182307, 0.181502, 0.182329, 0.181900, 0.190493, 0.181926, 0.181813, 0.181898, 0.182210, 0.182144, 0.182008, 0.181664, 0.191959, 0.202301, 0.182663, 0.183993, 0.185918, 0.186414, 0.185285, 0.182937, 0.182036, 0.181817, 0.181937
Process 5: 1.254763, 0.288797, 0.184823, 0.184672, 0.184832, 0.184246, 0.183811, 0.184449, 0.184048, 0.184461, 0.184255, 0.192569, 0.184407, 0.184395, 0.184240, 0.184366, 0.184499, 0.184176, 0.183814, 0.194223, 0.204702, 0.185107, 0.186370, 0.188082, 0.188594, 0.187428, 0.185076, 0.184372, 0.184188, 0.184134
Process 6: 1.256234, 0.290424, 0.186424, 0.186252, 0.186430, 0.186064, 0.185761, 0.186054, 0.185642, 0.186105, 0.186027, 0.194274, 0.186118, 0.185960, 0.186009, 0.185973, 0.186284, 0.185965, 0.185606, 0.195933, 0.206493, 0.186903, 0.188148, 0.189695, 0.190166, 0.189109, 0.186875, 0.186128, 0.186016, 0.186147
Process 7: 1.258306, 0.292578, 0.188568, 0.188374, 0.188573, 0.188226, 0.187909, 0.188251, 0.187822, 0.188243, 0.188217, 0.196418, 0.188423, 0.188085, 0.188216, 0.188151, 0.188425, 0.188309, 0.187974, 0.198158, 0.208645, 0.189038, 0.190365, 0.191840, 0.192305, 0.191636, 0.189265, 0.188323, 0.188209, 0.188337
Process 8: 1.260460, 0.294472, 0.190730, 0.190154, 0.190330, 0.190042, 0.189710, 0.190416, 0.189602, 0.190016, 0.189970, 0.197987, 0.190141, 0.189869, 0.189976, 0.189899, 0.190256, 0.190062, 0.189762, 0.199904, 0.210448, 0.190832, 0.192136, 0.193662, 0.194073, 0.193410, 0.191004, 0.190164, 0.189997, 0.190129
Process 9: 1.262012, 0.296425, 0.192686, 0.192165, 0.192333, 0.192013, 0.191679, 0.192394, 0.191513, 0.192000, 0.191942, 0.200118, 0.192092, 0.191818, 0.191951, 0.192086, 0.192171, 0.191995, 0.191711, 0.201859, 0.212383, 0.192802, 0.194059, 0.195608, 0.196044, 0.195378, 0.193285, 0.192098, 0.192016, 0.192189
Process 10: 1.264140, 0.298114, 0.194490, 0.193929, 0.194098, 0.193757, 0.193448, 0.194161, 0.193295, 0.193963, 0.193705, 0.201845, 0.193901, 0.193655, 0.193718, 0.193994, 0.193929, 0.193784, 0.193477, 0.203630, 0.214140, 0.194580, 0.195837, 0.197384, 0.197832, 0.197161, 0.194812, 0.193879, 0.193799, 0.193999
Process 11: 1.265863, 0.300078, 0.196427, 0.195877, 0.196090, 0.195738, 0.195416, 0.196143, 0.195273, 0.196090, 0.195641, 0.203810, 0.195861, 0.195611, 0.195684, 0.195968, 0.195903, 0.195777, 0.195439, 0.206802, 0.216113, 0.196616, 0.197808, 0.199608, 0.199772, 0.199169, 0.196759, 0.195869, 0.195826, 0.195997
Process 12: 1.268566, 0.301848, 0.198230, 0.197809, 0.197893, 0.197554, 0.197235, 0.197946, 0.197152, 0.197930, 0.197457, 0.205680, 0.197683, 0.197441, 0.197510, 0.197799, 0.197734, 0.197591, 0.197326, 0.209299, 0.217907, 0.198440, 0.199704, 0.201554, 0.201576, 0.201026, 0.198604, 0.197691, 0.197632, 0.197911
Process 13: 1.270519, 0.303852, 0.200200, 0.199753, 0.199868, 0.199599, 0.199227, 0.199968, 0.199106, 0.199895, 0.199438, 0.207476, 0.199634, 0.199396, 0.199479, 0.199770, 0.199720, 0.199623, 0.199292, 0.211250, 0.219938, 0.200437, 0.201679, 0.203542, 0.203534, 0.202978, 0.200588, 0.199669, 0.199684, 0.199925
Process 14: 1.273059, 0.305714, 0.202051, 0.201595, 0.201737, 0.201441, 0.201157, 0.201795, 0.200944, 0.201784, 0.201328, 0.209512, 0.201487, 0.201242, 0.201368, 0.201650, 0.201601, 0.201452, 0.201148, 0.213104, 0.221788, 0.202274, 0.203507, 0.205411, 0.205359, 0.204827, 0.202489, 0.201554, 0.201524, 0.201745
Process 15: 1.274550, 0.307603, 0.203936, 0.203549, 0.203654, 0.203345, 0.203063, 0.203731, 0.202840, 0.203711, 0.203242, 0.211426, 0.203463, 0.203207, 0.203280, 0.203565, 0.203508, 0.203376, 0.203057, 0.215037, 0.223692, 0.204197, 0.205425, 0.207350, 0.207320, 0.206754, 0.204420, 0.203470, 0.203455, 0.203680
Process 16: 1.277729, 0.309498, 0.205705, 0.205251, 0.205373, 0.205061, 0.204769, 0.205413, 0.204601, 0.205396, 0.204957, 0.213031, 0.205148, 0.204928, 0.204986, 0.205283, 0.205225, 0.205096, 0.204763, 0.216893, 0.225438, 0.205902, 0.207131, 0.209074, 0.209024, 0.208519, 0.206135, 0.205206, 0.205147, 0.205395
Process 17: 1.279832, 0.311479, 0.207726, 0.207285, 0.207382, 0.207057, 0.206758, 0.207426, 0.206581, 0.207409, 0.206948, 0.215150, 0.207162, 0.206925, 0.206980, 0.207292, 0.207225, 0.207105, 0.206770, 0.218931, 0.227439, 0.207986, 0.209157, 0.211093, 0.211250, 0.210526, 0.208135, 0.207234, 0.207166, 0.207470
Process 18: 1.281168, 0.313116, 0.209395, 0.208954, 0.209070, 0.208735, 0.208437, 0.209201, 0.208305, 0.209099, 0.208638, 0.216748, 0.208836, 0.208604, 0.208669, 0.208976, 0.208906, 0.208815, 0.208491, 0.220635, 0.229170, 0.209652, 0.210874, 0.212872, 0.212835, 0.212189, 0.209820, 0.208919, 0.208898, 0.209130
Process 19: 1.285066, 0.315135, 0.211400, 0.210982, 0.211136, 0.210796, 0.210489, 0.211411, 0.210310, 0.211114, 0.210678, 0.218760, 0.210846, 0.210600, 0.210719, 0.211054, 0.210934, 0.210834, 0.210464, 0.222667, 0.231177, 0.211706, 0.212897, 0.214940, 0.214807, 0.214204, 0.211835, 0.210951, 0.210929, 0.211147
Process 20: 1.286801, 0.316838, 0.213145, 0.212771, 0.212851, 0.212544, 0.212212, 0.213267, 0.212044, 0.212896, 0.212421, 0.220573, 0.212662, 0.212385, 0.212533, 0.212797, 0.212685, 0.212571, 0.212198, 0.224419, 0.232861, 0.213437, 0.214637, 0.216688, 0.216551, 0.215963, 0.213620, 0.212669, 0.212677, 0.212910
Process 21: 1.288873, 0.318895, 0.215229, 0.214852, 0.214904, 0.214575, 0.214472, 0.215349, 0.214087, 0.214937, 0.214465, 0.222568, 0.214734, 0.214480, 0.214596, 0.214876, 0.214740, 0.214623, 0.214243, 0.226522, 0.234931, 0.215507, 0.216680, 0.218751, 0.218577, 0.218002, 0.215666, 0.214708, 0.214768, 0.214958
Process 22: 1.290434, 0.320672, 0.216983, 0.216614, 0.216658, 0.216316, 0.216157, 0.217120, 0.215824, 0.216679, 0.216217, 0.224319, 0.216495, 0.216228, 0.216387, 0.216636, 0.216506, 0.216370, 0.216005, 0.228301, 0.236669, 0.217316, 0.218475, 0.220532, 0.220342, 0.219818, 0.217446, 0.216504, 0.216527, 0.216717
Process 23: 1.292873, 0.322723, 0.219029, 0.218663, 0.218688, 0.218339, 0.218211, 0.219167, 0.217885, 0.218698, 0.218230, 0.226311, 0.218519, 0.218256, 0.218396, 0.218691, 0.218550, 0.218437, 0.218054, 0.230298, 0.238693, 0.219426, 0.220563, 0.222565, 0.222383, 0.221865, 0.219477, 0.218589, 0.218570, 0.218823
Process 24: 1.294564, 0.324559, 0.220751, 0.220392, 0.220409, 0.220097, 0.219925, 0.220925, 0.219610, 0.220399, 0.219942, 0.227994, 0.220236, 0.219954, 0.220108, 0.220442, 0.220297, 0.220171, 0.219787, 0.232047, 0.240441, 0.221147, 0.222274, 0.224311, 0.224118, 0.223582, 0.221195, 0.220330, 0.220314, 0.220505
Process 25: 1.296408, 0.326606, 0.222817, 0.222501, 0.222544, 0.222165, 0.221972, 0.222991, 0.221640, 0.222522, 0.222047, 0.230089, 0.222288, 0.222082, 0.222191, 0.222518, 0.222360, 0.222221, 0.221851, 0.234054, 0.242503, 0.223244, 0.224360, 0.226407, 0.226227, 0.225640, 0.223316, 0.222406, 0.222380, 0.222571
Process 26: 1.298643, 0.328231, 0.224566, 0.224231, 0.224283, 0.223891, 0.223686, 0.224690, 0.223348, 0.224246, 0.223765, 0.231753, 0.224058, 0.223783, 0.223975, 0.224231, 0.224093, 0.223942, 0.223568, 0.235793, 0.244213, 0.224939, 0.226060, 0.228133, 0.227931, 0.227361, 0.225028, 0.224130, 0.224154, 0.224289
Process 27: 1.301053, 0.330287, 0.226628, 0.226305, 0.226383, 0.225954, 0.225773, 0.226763, 0.225440, 0.226301, 0.225850, 0.233868, 0.226117, 0.225874, 0.226023, 0.226319, 0.226178, 0.226025, 0.225645, 0.237932, 0.246276, 0.227133, 0.228152, 0.230206, 0.229996, 0.229485, 0.227111, 0.226208, 0.226283, 0.226405
Process 28: 1.302094, 0.332064, 0.228377, 0.228053, 0.228133, 0.227701, 0.227534, 0.228563, 0.227202, 0.228059, 0.227598, 0.235634, 0.227864, 0.227615, 0.227756, 0.228064, 0.227916, 0.227766, 0.227443, 0.239707, 0.248007, 0.228864, 0.229946, 0.231948, 0.231750, 0.231239, 0.228856, 0.227965, 0.228056, 0.228219
Process 29: 1.304872, 0.334126, 0.230469, 0.230131, 0.230221, 0.229787, 0.229675, 0.230652, 0.229291, 0.230208, 0.229703, 0.237565, 0.229941, 0.229705, 0.229829, 0.230195, 0.230036, 0.229912, 0.229529, 0.242763, 0.250145, 0.230973, 0.232047, 0.234074, 0.233842, 0.233316, 0.230941, 0.230060, 0.230195, 0.230322
Process 30: 1.306019, 0.335881, 0.232236, 0.231935, 0.232058, 0.231573, 0.231458, 0.232377, 0.231070, 0.231995, 0.231524, 0.239484, 0.231713, 0.231458, 0.231661, 0.231943, 0.231829, 0.231670, 0.231308, 0.245337, 0.251924, 0.233416, 0.233818, 0.235860, 0.235606, 0.235084, 0.232729, 0.231880, 0.231960, 0.232112
Process 31: 1.308782, 0.337897, 0.234341, 0.233977, 0.234084, 0.233607, 0.233486, 0.234422, 0.233120, 0.234034, 0.233557, 0.241471, 0.233807, 0.233537, 0.233692, 0.233994, 0.233886, 0.233710, 0.233341, 0.247420, 0.253981, 0.236275, 0.235868, 0.237899, 0.237709, 0.237134, 0.234789, 0.233924, 0.234025, 0.234164
Process 32: 1.310293, 0.339835, 0.236130, 0.235717, 0.235861, 0.235344, 0.235282, 0.236155, 0.234880, 0.235763, 0.235315, 0.243320, 0.235558, 0.235260, 0.235463, 0.235755, 0.235676, 0.235463, 0.235088, 0.249130, 0.255770, 0.238043, 0.237655, 0.239667, 0.239450, 0.238909, 0.236546, 0.235675, 0.235825, 0.235943
Process 33: 1.312852, 0.341789, 0.238168, 0.237772, 0.237919, 0.237403, 0.237299, 0.238217, 0.236924, 0.237823, 0.237359, 0.245310, 0.237764, 0.237305, 0.237516, 0.237802, 0.237715, 0.237510, 0.237185, 0.251201, 0.257774, 0.240078, 0.239683, 0.241729, 0.241509, 0.240994, 0.238601, 0.237727, 0.237898, 0.238058
Process 34: 1.315074, 0.343451, 0.239789, 0.239402, 0.239599, 0.239040, 0.238921, 0.239849, 0.238609, 0.239450, 0.238988, 0.246933, 0.239232, 0.238978, 0.239145, 0.239441, 0.239392, 0.239187, 0.238805, 0.252825, 0.259488, 0.241854, 0.241346, 0.243359, 0.243152, 0.242643, 0.240261, 0.239365, 0.239578, 0.239678
Process 35: 1.317426, 0.345439, 0.241904, 0.241474, 0.241749, 0.241160, 0.241065, 0.241933, 0.240686, 0.241598, 0.241164, 0.248946, 0.241362, 0.241043, 0.241277, 0.241549, 0.241498, 0.241261, 0.240904, 0.254914, 0.261578, 0.243805, 0.276072, 0.245480, 0.245242, 0.244735, 0.242364, 0.241500, 0.241643, 0.241761
Process 36: 1.318406, 0.347094, 0.243575, 0.243141, 0.243379, 0.242770, 0.242677, 0.243548, 0.242308, 0.243202, 0.242790, 0.250770, 0.243021, 0.242680, 0.242875, 0.243174, 0.243115, 0.242898, 0.242531, 0.256575, 0.263217, 0.247497, 0.276740, 0.247095, 0.246903, 0.246348, 0.243999, 0.243132, 0.243246, 0.243386
Process 37: 1.321214, 0.349359, 0.245617, 0.245215, 0.245414, 0.244858, 0.244815, 0.245658, 0.244374, 0.245288, 0.244857, 0.252602, 0.245107, 0.244777, 0.244986, 0.245243, 0.245178, 0.244989, 0.244592, 0.258678, 0.265306, 0.249680, 0.277640, 0.249186, 0.248976, 0.248413, 0.246064, 0.245225, 0.245324, 0.245471
Process 38: 1.322309, 0.351054, 0.247302, 0.246913, 0.247096, 0.246557, 0.246468, 0.247358, 0.246062, 0.246978, 0.246519, 0.254558, 0.246783, 0.246488, 0.246674, 0.246929, 0.246851, 0.246647, 0.246307, 0.260390, 0.266964, 0.251440, 0.278348, 0.250880, 0.250673, 0.250142, 0.247752, 0.246931, 0.247007, 0.247185
Process 39: 1.325025, 0.353214, 0.249352, 0.248944, 0.249104, 0.248594, 0.248530, 0.249473, 0.248131, 0.249018, 0.248580, 0.256408, 0.248852, 0.248552, 0.248743, 0.248979, 0.248899, 0.248741, 0.248437, 0.262402, 0.270631, 0.253505, 0.279225, 0.252893, 0.252965, 0.252191, 0.249803, 0.248956, 0.249082, 0.249250
Process 40: 1.326235, 0.355143, 0.251016, 0.250588, 0.250744, 0.250285, 0.250209, 0.251082, 0.249760, 0.250684, 0.250214, 0.258074, 0.250512, 0.250185, 0.250399, 0.250680, 0.250598, 0.250394, 0.250088, 0.264334, 0.272454, 0.255157, 0.279883, 0.254578, 0.254730, 0.253844, 0.251462, 0.250654, 0.250721, 0.250980
Process 41: 1.328232, 0.357217, 0.253124, 0.252745, 0.252895, 0.252372, 0.252295, 0.253220, 0.251851, 0.252820, 0.252335, 0.260260, 0.252657, 0.252319, 0.252534, 0.252765, 0.252706, 0.252472, 0.252174, 0.266507, 0.274598, 0.257492, 0.280733, 0.256664, 0.256917, 0.255950, 0.253608, 0.252727, 0.252808, 0.253057
Process 42: 1.329877, 0.358785, 0.254784, 0.254364, 0.254479, 0.253985, 0.253894, 0.254830, 0.253490, 0.254408, 0.253952, 0.261788, 0.254240, 0.253915, 0.254133, 0.254382, 0.254350, 0.254100, 0.253770, 0.269534, 0.276241, 0.259177, 0.281408, 0.258280, 0.258544, 0.257583, 0.255229, 0.254351, 0.254424, 0.254658
Process 43: 1.332627, 0.360821, 0.256868, 0.256418, 0.256553, 0.256066, 0.255967, 0.256951, 0.255587, 0.256464, 0.256016, 0.263807, 0.256320, 0.255976, 0.256206, 0.256479, 0.256436, 0.256158, 0.255845, 0.272495, 0.278341, 0.261286, 0.282262, 0.260393, 0.260636, 0.259703, 0.257286, 0.256464, 0.256514, 0.256712
Process 44: 1.333845, 0.362490, 0.258539, 0.258092, 0.258219, 0.257732, 0.257628, 0.258674, 0.257289, 0.258106, 0.257668, 0.265589, 0.257986, 0.257648, 0.257873, 0.258179, 0.258113, 0.257817, 0.257567, 0.274203, 0.280049, 0.262942, 0.282933, 0.262068, 0.262288, 0.261374, 0.258964, 0.258136, 0.258188, 0.258392
Process 45: 1.336238, 0.364587, 0.260662, 0.260219, 0.260322, 0.259883, 0.259737, 0.260793, 0.259410, 0.260230, 0.259803, 0.267590, 0.260107, 0.259772, 0.260003, 0.260319, 0.260260, 0.260001, 0.259665, 0.276384, 0.282196, 0.265098, 0.283841, 0.264226, 0.264411, 0.263507, 0.261062, 0.260314, 0.260370, 0.260506
Process 46: 1.337787, 0.366288, 0.262358, 0.261948, 0.262069, 0.261574, 0.261432, 0.262447, 0.261094, 0.261927, 0.261530, 0.269466, 0.261805, 0.261457, 0.261701, 0.262010, 0.261945, 0.261672, 0.261347, 0.278084, 0.283853, 0.266800, 0.284580, 0.265940, 0.266145, 0.265203, 0.262811, 0.262002, 0.262051, 0.262206
Process 47: 1.340312, 0.368294, 0.264449, 0.263995, 0.264106, 0.263625, 0.263482, 0.264515, 0.263142, 0.264002, 0.263572, 0.271426, 0.263890, 0.263537, 0.263763, 0.264051, 0.263990, 0.263713, 0.263382, 0.281785, 0.285910, 0.268874, 0.285476, 0.267985, 0.268182, 0.267265, 0.264870, 0.264053, 0.264112, 0.264264
Process 48: 1.341804, 0.370133, 0.266105, 0.265638, 0.265757, 0.265245, 0.265148, 0.266143, 0.264787, 0.265659, 0.265216, 0.273062, 0.265548, 0.265169, 0.265432, 0.265718, 0.265652, 0.265375, 0.265034, 0.283535, 0.287558, 0.270527, 0.286109, 0.269645, 0.269833, 0.268981, 0.266519, 0.265699, 0.265781, 0.265934
Process 49: 1.344408, 0.372195, 0.268168, 0.267702, 0.267837, 0.267319, 0.267199, 0.268210, 0.266846, 0.267711, 0.267278, 0.275183, 0.267613, 0.267250, 0.267791, 0.267769, 0.267714, 0.267447, 0.267155, 0.285617, 0.289686, 0.272599, 0.286933, 0.271716, 0.271905, 0.271027, 0.268566, 0.267764, 0.267829, 0.268053
Process 50: 1.346639, 0.373766, 0.269813, 0.269342, 0.269468, 0.268973, 0.268857, 0.269904, 0.268560, 0.269347, 0.268913, 0.276819, 0.269242, 0.268900, 0.269152, 0.269432, 0.269419, 0.269148, 0.268801, 0.287334, 0.291316, 0.274271, 0.287600, 0.273344, 0.273553, 0.272729, 0.270233, 0.269413, 0.269527, 0.269677
Process 51: 1.348215, 0.375756, 0.271842, 0.271382, 0.271541, 0.271071, 0.270949, 0.271943, 0.270594, 0.271388, 0.270981, 0.278795, 0.271286, 0.270935, 0.271191, 0.271507, 0.271461, 0.271186, 0.270836, 0.289341, 0.293379, 0.276408, 0.288455, 0.275425, 0.275600, 0.274804, 0.272313, 0.271511, 0.271590, 0.271733
Process 52: 1.350069, 0.377414, 0.273563, 0.273111, 0.273187, 0.272743, 0.272587, 0.273606, 0.272265, 0.273095, 0.272683, 0.280518, 0.272960, 0.272646, 0.272873, 0.273161, 0.273120, 0.272833, 0.272690, 0.292887, 0.295064, 0.278089, 0.289117, 0.277094, 0.277312, 0.276483, 0.274003, 0.273191, 0.273245, 0.273415
Process 53: 1.352331, 0.379476, 0.275656, 0.275183, 0.275267, 0.274829, 0.274633, 0.275712, 0.274361, 0.275162, 0.274753, 0.282479, 0.275056, 0.274713, 0.274976, 0.275237, 0.275212, 0.274940, 0.274683, 0.295301, 0.297176, 0.280200, 0.290013, 0.279178, 0.279396, 0.278613, 0.276102, 0.275290, 0.275319, 0.275481
Process 54: 1.353999, 0.381152, 0.277309, 0.276837, 0.276933, 0.276492, 0.276306, 0.277349, 0.276033, 0.276829, 0.276406, 0.284222, 0.276718, 0.276369, 0.276643, 0.276897, 0.276874, 0.276605, 0.276353, 0.297480, 0.298830, 0.281850, 0.290688, 0.280859, 0.281071, 0.280329, 0.277775, 0.276973, 0.277012, 0.277199
Process 55: 1.355975, 0.383197, 0.279362, 0.278889, 0.278976, 0.278554, 0.278356, 0.279453, 0.278148, 0.278889, 0.278488, 0.285791, 0.278789, 0.278437, 0.278709, 0.278943, 0.278947, 0.278687, 0.278429, 0.299519, 0.300952, 0.283924, 0.291569, 0.282922, 0.283131, 0.282821, 0.279831, 0.279028, 0.279083, 0.279260
Process 56: 1.358158, 0.385051, 0.281016, 0.280549, 0.280620, 0.280244, 0.280075, 0.281113, 0.279789, 0.280558, 0.280131, 0.287444, 0.280431, 0.280110, 0.280373, 0.280630, 0.280660, 0.280383, 0.280084, 0.301211, 0.302590, 0.285567, 0.292216, 0.284614, 0.284812, 0.284542, 0.281503, 0.280749, 0.280792, 0.280941
Process 57: 1.360239, 0.387044, 0.283055, 0.282613, 0.282710, 0.282267, 0.282094, 0.283149, 0.287152, 0.282611, 0.282211, 0.289488, 0.282507, 0.282186, 0.282441, 0.282677, 0.282683, 0.282427, 0.282125, 0.303263, 0.304625, 0.287669, 0.293026, 0.286662, 0.286908, 0.286583, 0.283553, 0.282800, 0.282818, 0.282961
Process 58: 1.362660, 0.388647, 0.284762, 0.284243, 0.284363, 0.283926, 0.283744, 0.284794, 0.288836, 0.284249, 0.283870, 0.291195, 0.284144, 0.283834, 0.284099, 0.284338, 0.284337, 0.284083, 0.283778, 0.304946, 0.306300, 0.289318, 0.293693, 0.288315, 0.288541, 0.288199, 0.285216, 0.284452, 0.284501, 0.284620
Process 59: 1.365555, 0.390617, 0.286784, 0.286277, 0.286382, 0.285956, 0.285755, 0.286830, 0.290882, 0.286265, 0.285878, 0.293205, 0.286161, 0.285867, 0.286108, 0.286352, 0.286367, 0.286100, 0.285807, 0.306998, 0.308324, 0.291377, 0.294542, 0.290353, 0.290576, 0.290264, 0.287256, 0.286496, 0.286502, 0.286660
Process 60: 1.367260, 0.392361, 0.288445, 0.287947, 0.288062, 0.287617, 0.287430, 0.288488, 0.292559, 0.287950, 0.287540, 0.294859, 0.287838, 0.287539, 0.287773, 0.288019, 0.288052, 0.287792, 0.287520, 0.308712, 0.310029, 0.293076, 0.295202, 0.292036, 0.292277, 0.291964, 0.288939, 0.288193, 0.288191, 0.288363
Process 61: 1.369875, 0.394332, 0.290489, 0.289972, 0.290091, 0.289685, 0.289513, 0.290557, 0.294584, 0.289987, 0.289598, 0.296897, 0.289863, 0.289571, 0.289809, 0.290085, 0.290110, 0.289854, 0.289552, 0.310718, 0.312103, 0.295139, 0.296083, 0.294144, 0.294318, 0.293933, 0.290973, 0.290230, 0.290260, 0.290428
Process 62: 1.371807, 0.396018, 0.292140, 0.291638, 0.291777, 0.291333, 0.291144, 0.292196, 0.296247, 0.291703, 0.291271, 0.298575, 0.291526, 0.291233, 0.291514, 0.291753, 0.291755, 0.291523, 0.291223, 0.312414, 0.313756, 0.296808, 0.296778, 0.295788, 0.296045, 0.295738, 0.292655, 0.291922, 0.291949, 0.292104
Process 63: 1.375150, 0.398002, 0.294218, 0.293698, 0.293753, 0.293354, 0.293179, 0.294199, 0.298318, 0.293679, 0.293291, 0.300554, 0.293540, 0.293266, 0.293517, 0.293746, 0.293733, 0.293501, 0.293222, 0.314435, 0.315760, 0.298855, 0.297645, 0.297794, 0.298026, 0.297529, 0.294665, 0.293904, 0.293910, 0.294097
Process 64: 1.377223, 0.400021, 0.295961, 0.295423, 0.295495, 0.295095, 0.294902, 0.295958, 0.300033, 0.295409, 0.295004, 0.302339, 0.295274, 0.294999, 0.295259, 0.295488, 0.295482, 0.295252, 0.294952, 0.316185, 0.317489, 0.300591, 0.298414, 0.299533, 0.299768, 0.299414, 0.296408, 0.295641, 0.295659, 0.295829
Process 65: 1.379474, 0.402101, 0.297955, 0.297450, 0.297506, 0.297097, 0.296927, 0.297984, 0.302072, 0.297421, 0.297031, 0.304345, 0.297301, 0.297024, 0.297297, 0.297502, 0.297506, 0.297267, 0.296982, 0.319996, 0.319537, 0.302639, 0.299851, 0.301553, 0.301779, 0.301496, 0.298413, 0.297650, 0.297683, 0.297945
Process 66: 1.382241, 0.403577, 0.299580, 0.299083, 0.299138, 0.298726, 0.298552, 0.299665, 0.303721, 0.299078, 0.298651, 0.305979, 0.298927, 0.298651, 0.298950, 0.299125, 0.299182, 0.298970, 0.298669, 0.323082, 0.321205, 0.304239, 0.301486, 0.303181, 0.303410, 0.303160, 0.300067, 0.299289, 0.299365, 0.299556
Process 67: 1.384148, 0.405580, 0.301575, 0.301076, 0.301171, 0.300748, 0.300548, 0.301638, 0.305729, 0.301036, 0.300667, 0.307950, 0.300904, 0.300634, 0.300989, 0.301161, 0.301162, 0.300948, 0.300688, 0.325428, 0.323181, 0.306315, 0.303479, 0.305208, 0.305411, 0.305004, 0.302118, 0.301320, 0.301383, 0.301527
Process 68: 1.385601, 0.407138, 0.303187, 0.302735, 0.302761, 0.302351, 0.302153, 0.303239, 0.307400, 0.302706, 0.302287, 0.309550, 0.302500, 0.302262, 0.302593, 0.302759, 0.302755, 0.302537, 0.302287, 0.327092, 0.324774, 0.307910, 0.305057, 0.306797, 0.307064, 0.306651, 0.303726, 0.302930, 0.302960, 0.303128
Process 69: 1.387945, 0.409154, 0.305238, 0.304780, 0.304764, 0.304355, 0.304187, 0.305263, 0.309434, 0.304707, 0.304292, 0.311595, 0.304535, 0.304282, 0.304638, 0.304796, 0.304778, 0.304542, 0.304296, 0.329162, 0.326829, 0.309922, 0.307097, 0.308818, 0.309087, 0.308754, 0.305744, 0.304961, 0.304980, 0.305161
Process 70: 1.389493, 0.410820, 0.306903, 0.306430, 0.306425, 0.306027, 0.305829, 0.306916, 0.311105, 0.306353, 0.305948, 0.313254, 0.306192, 0.305948, 0.306281, 0.306448, 0.306416, 0.306201, 0.305943, 0.330863, 0.328484, 0.311565, 0.308746, 0.310482, 0.310734, 0.310509, 0.307420, 0.306629, 0.306645, 0.306836
Process 71: 1.391534, 0.412849, 0.308929, 0.308437, 0.308408, 0.308014, 0.307851, 0.308944, 0.313508, 0.308327, 0.307967, 0.315255, 0.308182, 0.307940, 0.308291, 0.308438, 0.308424, 0.308265, 0.307989, 0.332851, 0.330470, 0.313579, 0.310775, 0.312508, 0.312752, 0.312302, 0.309446, 0.308632, 0.308717, 0.308881
Process 72: 1.394113, 0.415652, 0.310524, 0.310041, 0.310018, 0.309659, 0.309442, 0.310550, 0.315131, 0.309934, 0.309547, 0.316841, 0.309805, 0.309536, 0.309858, 0.310095, 0.310061, 0.309854, 0.309614, 0.334484, 0.332076, 0.315202, 0.312388, 0.314128, 0.314375, 0.314024, 0.311057, 0.310257, 0.310310, 0.310461
Process 73: 1.396208, 0.417695, 0.312519, 0.312076, 0.312092, 0.311659, 0.311475, 0.312568, 0.317173, 0.311972, 0.311587, 0.319058, 0.311998, 0.311594, 0.311913, 0.312107, 0.312073, 0.311861, 0.311665, 0.336571, 0.334498, 0.317261, 0.314399, 0.316405, 0.316382, 0.316185, 0.313096, 0.312280, 0.312317, 0.312477
Process 74: 1.398577, 0.419409, 0.314214, 0.313714, 0.313730, 0.313328, 0.313144, 0.314207, 0.318807, 0.313635, 0.313248, 0.320935, 0.313838, 0.313243, 0.313558, 0.313762, 0.313719, 0.313516, 0.313318, 0.339125, 0.336090, 0.318916, 0.316047, 0.318205, 0.318075, 0.318129, 0.314753, 0.313948, 0.313962, 0.314144
Process 75: 1.402429, 0.421374, 0.316599, 0.316112, 0.315920, 0.315517, 0.315504, 0.316546, 0.320763, 0.315798, 0.315417, 0.322891, 0.315824, 0.315407, 0.315735, 0.315889, 0.315907, 0.315711, 0.315275, 0.341808, 0.338067, 0.320901, 0.318240, 0.320187, 0.320064, 0.320010, 0.316940, 0.315916, 0.316159, 0.316110
Process 76: 1.404008, 0.423014, 0.318153, 0.317622, 0.317631, 0.317261, 0.317016, 0.318114, 0.322368, 0.317570, 0.317086, 0.324477, 0.317420, 0.317135, 0.317390, 0.317634, 0.317528, 0.317345, 0.316883, 0.343403, 0.339672, 0.322524, 0.319991, 0.321770, 0.321662, 0.321667, 0.318664, 0.317516, 0.317860, 0.317745
Process 77: 1.406060, 0.425074, 0.320170, 0.319637, 0.319687, 0.319324, 0.319051, 0.320194, 0.324366, 0.319615, 0.319134, 0.326486, 0.319434, 0.319160, 0.319445, 0.319725, 0.319635, 0.319425, 0.319136, 0.345387, 0.341673, 0.324787, 0.321998, 0.323863, 0.323699, 0.323626, 0.320689, 0.319726, 0.319989, 0.320005
Process 78: 1.408465, 0.426776, 0.321842, 0.321307, 0.321397, 0.321064, 0.320763, 0.321863, 0.326056, 0.321266, 0.320867, 0.328173, 0.321126, 0.320837, 0.321151, 0.321452, 0.321330, 0.321100, 0.320930, 0.347096, 0.343375, 0.326667, 0.323633, 0.325493, 0.325426, 0.325395, 0.322408, 0.321633, 0.321677, 0.321883
Process 79: 1.410033, 0.428758, 0.323839, 0.323333, 0.323366, 0.323056, 0.322740, 0.323859, 0.328082, 0.323258, 0.322858, 0.330143, 0.323161, 0.322884, 0.323125, 0.323435, 0.323332, 0.323079, 0.322921, 0.349102, 0.345423, 0.328691, 0.326291, 0.327485, 0.327476, 0.327246, 0.324397, 0.323629, 0.323687, 0.323871
Process 80: 1.412566, 0.430602, 0.325471, 0.324944, 0.324987, 0.324665, 0.324374, 0.325439, 0.329696, 0.324865, 0.324454, 0.331751, 0.324803, 0.324508, 0.324744, 0.325029, 0.324940, 0.324700, 0.324523, 0.350741, 0.347036, 0.330291, 0.328708, 0.329191, 0.329097, 0.328996, 0.326028, 0.325247, 0.325299, 0.325485
Process 81: 1.415193, 0.432609, 0.327459, 0.326953, 0.326988, 0.326654, 0.326445, 0.327448, 0.331681, 0.326867, 0.326454, 0.333739, 0.326794, 0.326493, 0.326765, 0.327021, 0.326933, 0.326677, 0.326518, 0.352702, 0.349036, 0.332312, 0.330809, 0.331921, 0.331072, 0.330975, 0.328029, 0.327231, 0.327311, 0.327517
Process 82: 1.417800, 0.434357, 0.329179, 0.328682, 0.328722, 0.328373, 0.328116, 0.329238, 0.333410, 0.328595, 0.328189, 0.335480, 0.328535, 0.328212, 0.328480, 0.328750, 0.328667, 0.328465, 0.328277, 0.354453, 0.350817, 0.334014, 0.332574, 0.333739, 0.332812, 0.332809, 0.329758, 0.328971, 0.329094, 0.329255
Process 83: 1.420515, 0.436234, 0.331050, 0.330572, 0.330612, 0.330299, 0.330046, 0.331118, 0.335293, 0.330476, 0.330078, 0.337349, 0.330403, 0.330091, 0.330373, 0.330685, 0.330614, 0.330353, 0.330181, 0.356374, 0.352673, 0.335905, 0.334503, 0.335723, 0.334671, 0.334622, 0.331648, 0.330898, 0.330980, 0.331152
Process 84: 1.422599, 0.437903, 0.332687, 0.332256, 0.332277, 0.331934, 0.331674, 0.332746, 0.336920, 0.332148, 0.331747, 0.338962, 0.332026, 0.331749, 0.332057, 0.332298, 0.332234, 0.331985, 0.331807, 0.358004, 0.354299, 0.337566, 0.336162, 0.337387, 0.336371, 0.336246, 0.333341, 0.332535, 0.332603, 0.332781
Process 85: 1.425200, 0.439887, 0.334710, 0.334278, 0.334278, 0.333943, 0.333698, 0.334772, 0.338984, 0.334148, 0.333772, 0.341025, 0.334080, 0.333790, 0.334136, 0.334320, 0.334239, 0.333985, 0.333852, 0.359999, 0.356287, 0.339596, 0.338199, 0.339407, 0.338360, 0.338220, 0.335337, 0.334557, 0.334598, 0.334825
Process 86: 1.427890, 0.441640, 0.336384, 0.335943, 0.335960, 0.335609, 0.335393, 0.336446, 0.340650, 0.335810, 0.335439, 0.342700, 0.335749, 0.335447, 0.335786, 0.335988, 0.335909, 0.335646, 0.335517, 0.361685, 0.357961, 0.341261, 0.339935, 0.341130, 0.340049, 0.340015, 0.337021, 0.336230, 0.336266, 0.336489
Process 87: 1.430004, 0.443643, 0.338372, 0.337930, 0.337931, 0.337586, 0.337376, 0.338446, 0.342630, 0.337800, 0.337400, 0.344683, 0.337715, 0.337443, 0.337757, 0.337961, 0.337889, 0.337625, 0.337539, 0.363667, 0.359977, 0.343249, 0.341945, 0.343200, 0.342035, 0.342008, 0.338987, 0.338217, 0.338233, 0.338533
Process 88: 1.432915, 0.445432, 0.339997, 0.339542, 0.339565, 0.339208, 0.338998, 0.340110, 0.344260, 0.339422, 0.339028, 0.346325, 0.339339, 0.339068, 0.339389, 0.339590, 0.339587, 0.339308, 0.339191, 0.365290, 0.361619, 0.344877, 0.343594, 0.344935, 0.343656, 0.343622, 0.340619, 0.339884, 0.339908, 0.340162
Process 89: 1.437449, 0.447381, 0.341964, 0.341509, 0.341582, 0.341211, 0.341028, 0.342116, 0.346242, 0.341387, 0.341052, 0.348290, 0.341298, 0.341039, 0.341399, 0.341609, 0.341572, 0.341279, 0.341162, 0.367339, 0.363594, 0.346902, 0.345602, 0.346973, 0.345688, 0.345526, 0.342632, 0.341866, 0.341885, 0.342188
Process 90: 1.438603, 0.449047, 0.343707, 0.343232, 0.343249, 0.342888, 0.342722, 0.343794, 0.347947, 0.343139, 0.342724, 0.349973, 0.343026, 0.342760, 0.343076, 0.343299, 0.343281, 0.342975, 0.342845, 0.368991, 0.365270, 0.348569, 0.347300, 0.348698, 0.347403, 0.347330, 0.344319, 0.343542, 0.343568, 0.343905
Process 91: 1.441223, 0.450950, 0.345692, 0.345188, 0.345197, 0.344819, 0.344718, 0.345809, 0.349869, 0.345117, 0.344670, 0.352006, 0.345012, 0.344686, 0.345067, 0.345232, 0.345270, 0.344946, 0.344834, 0.370915, 0.367197, 0.350541, 0.349404, 0.351352, 0.349314, 0.349238, 0.346264, 0.345470, 0.345542, 0.345879
Process 92: 1.442218, 0.452674, 0.347374, 0.346872, 0.346904, 0.346468, 0.346436, 0.347465, 0.351548, 0.346810, 0.346366, 0.353711, 0.346709, 0.346357, 0.346729, 0.346890, 0.346952, 0.346629, 0.346529, 0.372556, 0.368845, 0.352225, 0.351107, 0.353852, 0.350998, 0.350936, 0.347937, 0.347169, 0.347243, 0.347613
Process 93: 1.444968, 0.454670, 0.349419, 0.348901, 0.349017, 0.348499, 0.348481, 0.349579, 0.353585, 0.348855, 0.348409, 0.355760, 0.348753, 0.348399, 0.348769, 0.348931, 0.349011, 0.348715, 0.348623, 0.374527, 0.370925, 0.354285, 0.353179, 0.355891, 0.353051, 0.352892, 0.349962, 0.349210, 0.349335, 0.349656
Process 94: 1.445993, 0.456410, 0.351133, 0.350611, 0.350863, 0.350251, 0.350256, 0.351274, 0.355270, 0.350577, 0.350141, 0.357478, 0.350481, 0.350115, 0.350490, 0.350657, 0.350781, 0.350435, 0.350331, 0.376253, 0.372635, 0.355993, 0.354913, 0.357605, 0.354773, 0.354729, 0.351707, 0.350967, 0.351077, 0.351374
Process 95: 1.448708, 0.458373, 0.353134, 0.352687, 0.352875, 0.352283, 0.352252, 0.353293, 0.357320, 0.352618, 0.352187, 0.359478, 0.352529, 0.352156, 0.352550, 0.352692, 0.352795, 0.352435, 0.352330, 0.378210, 0.374629, 0.358068, 0.356946, 0.359630, 0.356856, 0.356650, 0.353767, 0.352974, 0.353084, 0.353377
Process 96: 1.449973, 0.460329, 0.354925, 0.354405, 0.354596, 0.354021, 0.353989, 0.355052, 0.359044, 0.354364, 0.353933, 0.361273, 0.354282, 0.353904, 0.354293, 0.354429, 0.354530, 0.354181, 0.354073, 0.379947, 0.376367, 0.359796, 0.358736, 0.361389, 0.358582, 0.359767, 0.355510, 0.354698, 0.354842, 0.355242
Process 97: 1.452801, 0.463452, 0.356948, 0.356391, 0.356616, 0.356037, 0.355982, 0.357062, 0.361021, 0.356346, 0.355942, 0.363247, 0.356282, 0.355880, 0.356294, 0.356456, 0.356529, 0.356189, 0.356141, 0.381965, 0.378347, 0.361832, 0.360811, 0.390144, 0.360622, 0.362103, 0.357504, 0.356708, 0.356848, 0.357335
Process 98: 1.454208, 0.465837, 0.358566, 0.358065, 0.358263, 0.357665, 0.357596, 0.358720, 0.362639, 0.357961, 0.357562, 0.364870, 0.357918, 0.357509, 0.357942, 0.358080, 0.358197, 0.357812, 0.357794, 0.383595, 0.380013, 0.363416, 0.362454, 0.390840, 0.362245, 0.363877, 0.359132, 0.358340, 0.358499, 0.358961
Process 99: 1.455641, 0.467919, 0.360610, 0.360162, 0.360291, 0.359758, 0.359702, 0.360748, 0.364666, 0.360007, 0.359612, 0.366911, 0.359947, 0.359536, 0.359964, 0.360131, 0.360277, 0.359922, 0.359841, 0.385643, 0.382024, 0.365473, 0.364450, 0.391767, 0.364283, 0.365823, 0.361175, 0.360425, 0.360557, 0.361001
Process 100: 1.457407, 0.469476, 0.362158, 0.361795, 0.361935, 0.361321, 0.361287, 0.362343, 0.366248, 0.361674, 0.361251, 0.368521, 0.361536, 0.361127, 0.361594, 0.361715, 0.361845, 0.361500, 0.361413, 0.387230, 0.383619, 0.367084, 0.366051, 0.392449, 0.365938, 0.367426, 0.362801, 0.362039, 0.362125, 0.362566
Process 101: 1.459315, 0.471469, 0.364281, 0.363787, 0.363991, 0.363367, 0.363318, 0.364350, 0.368317, 0.363730, 0.363288, 0.370606, 0.363586, 0.363223, 0.363675, 0.363743, 0.363896, 0.363568, 0.363480, 0.389301, 0.385663, 0.369128, 0.368085, 0.393361, 0.367973, 0.369517, 0.364824, 0.364058, 0.364202, 0.364629
Process 102: 1.461053, 0.473122, 0.365920, 0.365439, 0.365633, 0.365029, 0.364968, 0.365985, 0.369958, 0.365355, 0.364949, 0.372244, 0.365223, 0.364884, 0.365316, 0.365417, 0.365574, 0.365244, 0.365124, 0.390891, 0.387335, 0.370759, 0.369858, 0.394096, 0.369643, 0.371332, 0.366489, 0.365718, 0.365831, 0.366281
Process 103: 1.463816, 0.475134, 0.367933, 0.367432, 0.367673, 0.367023, 0.367011, 0.368008, 0.371989, 0.367385, 0.366971, 0.374258, 0.367239, 0.366903, 0.367348, 0.367437, 0.367597, 0.367254, 0.367193, 0.392939, 0.389379, 0.372813, 0.371878, 0.395028, 0.372511, 0.373139, 0.368483, 0.367748, 0.367880, 0.368364
Process 104: 1.464952, 0.476868, 0.369540, 0.369024, 0.369274, 0.368602, 0.368597, 0.369640, 0.373584, 0.368982, 0.368555, 0.375834, 0.368854, 0.368510, 0.368940, 0.369019, 0.369252, 0.368907, 0.368779, 0.394519, 0.390954, 0.374402, 0.373517, 0.395708, 0.374867, 0.374875, 0.370072, 0.369335, 0.369502, 0.369922
Process 105: 1.467559, 0.478844, 0.371579, 0.371029, 0.371293, 0.370654, 0.370634, 0.371666, 0.375584, 0.370983, 0.370623, 0.377852, 0.370860, 0.370506, 0.370987, 0.371085, 0.371259, 0.370911, 0.370775, 0.396604, 0.392961, 0.376504, 0.375544, 0.396542, 0.376940, 0.376873, 0.372124, 0.371384, 0.371538, 0.371930
Process 106: 1.468315, 0.480409, 0.373249, 0.372693, 0.372937, 0.372268, 0.372259, 0.373278, 0.377262, 0.372664, 0.372255, 0.379478, 0.372537, 0.372176, 0.372620, 0.372706, 0.372861, 0.372540, 0.372405, 0.398223, 0.394611, 0.378103, 0.377174, 0.397247, 0.378582, 0.378583, 0.373725, 0.373016, 0.373150, 0.373534
Process 107: 1.470507, 0.482406, 0.375273, 0.374712, 0.374938, 0.374274, 0.374266, 0.375284, 0.379262, 0.374653, 0.374269, 0.381510, 0.374568, 0.374169, 0.374622, 0.374732, 0.374892, 0.374561, 0.374429, 0.400252, 0.396607, 0.380134, 0.379232, 0.398139, 0.380606, 0.380463, 0.375730, 0.375018, 0.375166, 0.375572
Process 108: 1.472232, 0.484036, 0.376831, 0.376312, 0.376536, 0.375863, 0.375865, 0.376879, 0.380837, 0.376231, 0.375882, 0.383101, 0.376181, 0.375797, 0.376234, 0.376345, 0.376466, 0.376164, 0.376062, 0.401835, 0.398210, 0.381743, 0.380891, 0.398829, 0.382237, 0.382190, 0.377387, 0.376624, 0.376767, 0.377226
Process 109: 1.474926, 0.486037, 0.378851, 0.378316, 0.378551, 0.377884, 0.377863, 0.378945, 0.382851, 0.378261, 0.377944, 0.385118, 0.378218, 0.377848, 0.378267, 0.378359, 0.378490, 0.378214, 0.378145, 0.403855, 0.400272, 0.383809, 0.382958, 0.399710, 0.384285, 0.384208, 0.379424, 0.378642, 0.378828, 0.379255
Process 110: 1.476360, 0.487731, 0.380613, 0.380059, 0.380290, 0.379672, 0.379668, 0.380655, 0.384594, 0.380001, 0.379661, 0.386844, 0.379972, 0.379592, 0.380018, 0.380143, 0.380253, 0.379932, 0.379874, 0.405600, 0.401986, 0.385532, 0.384706, 0.400491, 0.386053, 0.386050, 0.381172, 0.380433, 0.380546, 0.381002
Process 111: 1.478529, 0.489936, 0.382570, 0.382041, 0.382302, 0.381612, 0.381595, 0.382602, 0.386520, 0.382007, 0.381650, 0.388791, 0.381932, 0.381566, 0.381998, 0.382068, 0.382199, 0.381873, 0.381839, 0.407545, 0.403939, 0.387559, 0.386678, 0.401416, 0.388016, 0.387881, 0.383134, 0.382375, 0.382526, 0.382923
Process 112: 1.479766, 0.491738, 0.384257, 0.383593, 0.383887, 0.383190, 0.383207, 0.384171, 0.388159, 0.383593, 0.383242, 0.390437, 0.383592, 0.383164, 0.383603, 0.383678, 0.383789, 0.383469, 0.383430, 0.409137, 0.405539, 0.389126, 0.388236, 0.402093, 0.389593, 0.389485, 0.384717, 0.383969, 0.384108, 0.384512
Process 113: 1.481609, 0.493737, 0.386218, 0.385611, 0.385888, 0.385200, 0.385189, 0.386198, 0.390165, 0.385596, 0.385236, 0.392453, 0.385583, 0.385175, 0.385616, 0.385681, 0.385776, 0.385478, 0.385431, 0.411558, 0.407535, 0.391156, 0.390294, 0.402932, 0.391814, 0.391573, 0.386702, 0.385972, 0.386102, 0.386528
Process 114: 1.483345, 0.495317, 0.387852, 0.387266, 0.387538, 0.386853, 0.386841, 0.387841, 0.391801, 0.387238, 0.386894, 0.394093, 0.387224, 0.386821, 0.387283, 0.387354, 0.387430, 0.387144, 0.387157, 0.413231, 0.409211, 0.392795, 0.391944, 0.403675, 0.393596, 0.393335, 0.388382, 0.387640, 0.387778, 0.388227
Process 115: 1.485288, 0.497288, 0.389873, 0.389252, 0.389524, 0.388842, 0.388854, 0.389888, 0.393779, 0.389214, 0.388862, 0.396082, 0.389211, 0.388809, 0.389270, 0.389340, 0.389457, 0.389174, 0.389146, 0.415248, 0.411208, 0.394801, 0.393936, 0.437237, 0.395576, 0.395165, 0.390359, 0.389645, 0.389810, 0.390215
Process 116: 1.486936, 0.498859, 0.391451, 0.390841, 0.391161, 0.390487, 0.390470, 0.391458, 0.395371, 0.390814, 0.390463, 0.397670, 0.390805, 0.390390, 0.390863, 0.390973, 0.391052, 0.390762, 0.390732, 0.416868, 0.412809, 0.396448, 0.395539, 0.437982, 0.397215, 0.396843, 0.392012, 0.391289, 0.391389, 0.391828
Process 117: 1.490694, 0.500809, 0.393428, 0.392890, 0.393168, 0.392468, 0.392453, 0.393448, 0.397426, 0.392871, 0.392527, 0.399642, 0.392820, 0.392429, 0.392894, 0.392954, 0.393042, 0.392776, 0.392747, 0.418934, 0.414836, 0.398457, 0.397561, 0.439223, 0.399194, 0.398893, 0.394021, 0.393283, 0.393429, 0.393823
Process 118: 1.492551, 0.502513, 0.395133, 0.394561, 0.394837, 0.394125, 0.394128, 0.395115, 0.399092, 0.394548, 0.394188, 0.401328, 0.394487, 0.394092, 0.394553, 0.394607, 0.394711, 0.394461, 0.394421, 0.420581, 0.416508, 0.400205, 0.399230, 0.440175, 0.400837, 0.400640, 0.395692, 0.394963, 0.395112, 0.395503
Process 119: 1.494486, 0.504464, 0.397125, 0.396575, 0.396835, 0.396114, 0.396097, 0.397120, 0.401081, 0.396526, 0.396190, 0.403336, 0.396483, 0.396097, 0.396545, 0.396606, 0.396703, 0.396468, 0.396435, 0.422579, 0.418523, 0.402230, 0.401287, 0.441132, 0.402842, 0.402534, 0.397700, 0.396940, 0.397076, 0.397566
Process 120: 1.496119, 0.506219, 0.398738, 0.398169, 0.398441, 0.397718, 0.397702, 0.398749, 0.402679, 0.398126, 0.397809, 0.404934, 0.398078, 0.397715, 0.398157, 0.398220, 0.398312, 0.398133, 0.398105, 0.424164, 0.420191, 0.403823, 0.402888, 0.441834, 0.404440, 0.404212, 0.399323, 0.398534, 0.398758, 0.399184
Process 121: 1.498202, 0.508147, 0.400712, 0.400157, 0.400406, 0.399741, 0.399743, 0.400756, 0.404650, 0.400100, 0.399777, 0.406911, 0.400072, 0.399703, 0.400121, 0.400234, 0.400326, 0.400103, 0.400099, 0.426111, 0.422157, 0.405862, 0.404891, 0.442712, 0.406448, 0.406210, 0.401304, 0.400541, 0.400702, 0.401162
Process 122: 1.499775, 0.509731, 0.402355, 0.401856, 0.402095, 0.401400, 0.401393, 0.402369, 0.406305, 0.401810, 0.401482, 0.408573, 0.401730, 0.401361, 0.401803, 0.401872, 0.401959, 0.401751, 0.401741, 0.427816, 0.423799, 0.407553, 0.406568, 0.443457, 0.408122, 0.407588, 0.402997, 0.402202, 0.402357, 0.402828
Process 123: 1.502358, 0.511696, 0.404385, 0.403837, 0.404078, 0.403386, 0.403387, 0.404359, 0.408328, 0.403802, 0.403468, 0.410608, 0.403775, 0.403389, 0.403771, 0.403854, 0.403951, 0.403732, 0.403738, 0.429781, 0.425813, 0.409559, 0.408534, 0.444444, 0.410144, 0.409351, 0.404999, 0.404189, 0.404356, 0.404832
Process 124: 1.503505, 0.513307, 0.405964, 0.405428, 0.405676, 0.404973, 0.404981, 0.405953, 0.409930, 0.405396, 0.405066, 0.412202, 0.405371, 0.404979, 0.405362, 0.405468, 0.405560, 0.405338, 0.405353, 0.431396, 0.427419, 0.411166, 0.410200, 0.445358, 0.411734, 0.410945, 0.406598, 0.405799, 0.405981, 0.406435
Process 125: 1.505398, 0.515253, 0.407942, 0.407404, 0.407645, 0.406952, 0.406955, 0.407945, 0.411897, 0.407385, 0.407035, 0.414183, 0.407308, 0.406948, 0.407358, 0.407458, 0.407558, 0.407319, 0.407383, 0.433366, 0.429424, 0.413161, 0.412185, 0.446214, 0.413742, 0.412931, 0.408586, 0.407778, 0.407954, 0.408482
Process 126: 1.506865, 0.516893, 0.409603, 0.409077, 0.409328, 0.408615, 0.408624, 0.409652, 0.413818, 0.409044, 0.408689, 0.415841, 0.408984, 0.408622, 0.409001, 0.409133, 0.409259, 0.409021, 0.409012, 0.435036, 0.431126, 0.414806, 0.413845, 0.446932, 0.415408, 0.414597, 0.410282, 0.409448, 0.409671, 0.410142
Process 127: 1.508831, 0.518757, 0.411459, 0.410918, 0.411231, 0.410473, 0.410492, 0.411493, 0.415475, 0.410891, 0.410530, 0.417680, 0.410828, 0.410534, 0.410838, 0.411000, 0.411117, 0.410846, 0.410858, 0.436971, 0.433022, 0.416675, 0.415726, 0.447817, 0.417264, 0.416479, 0.412167, 0.411324, 0.411542, 0.412001
