MPI_insiderank_optimisedserial
Process 0: 2.688689, 3.225804, 2.399816, 2.499256, 2.335021, 2.363180, 2.354004, 2.288847, 2.234188, 2.219619, 2.271180, 2.353998, 2.188959, 2.330890, 2.377163, 2.318666, 2.346848, 2.361719, 2.398537, 2.322376, 2.275359, 2.247257, 2.218579, 2.166469, 2.185880, 2.164244, 2.183791, 2.325088, 2.377639, 2.409048
Process 1: 2.589136, 2.267963, 2.285138, 2.445430, 2.235782, 2.313723, 2.238707, 2.200386, 2.153530, 2.163647, 2.186333, 2.240394, 2.105930, 2.242306, 2.318405, 2.236885, 2.263288, 2.278260, 2.282139, 2.238453, 2.194756, 2.164412, 2.135623, 2.103395, 2.098867, 2.078389, 2.106567, 2.242847, 2.296809, 2.293840
Process 2: 2.635138, 3.173767, 2.356789, 2.481919, 2.290393, 2.334496, 2.296733, 2.238810, 2.191576, 2.182533, 2.226320, 2.300041, 2.145968, 2.279298, 2.337586, 2.275482, 2.298675, 2.318511, 2.344298, 2.273686, 2.239647, 2.206616, 2.177350, 2.128161, 2.135749, 2.121177, 2.139291, 2.286943, 2.338578, 2.353231
Process 3: 2.690593, 3.227442, 2.401782, 2.501867, 2.336806, 2.365717, 2.355873, 2.290725, 2.236186, 2.221513, 2.273290, 2.355862, 2.190902, 2.333462, 2.379446, 2.321430, 2.348999, 2.363649, 2.400368, 2.324237, 2.277505, 2.249244, 2.220457, 2.168535, 2.188744, 2.166432, 2.185959, 2.327119, 2.379578, 2.411262
