MPI_insiderank_optimisedserial
Process 0: 8.189443, 5.248503, 5.572623, 6.549866, 8.077445, 7.134661, 4.644069, 3.602108, 3.843343, 3.612396, 3.594384, 3.581929, 3.628929, 3.581136, 3.571776, 3.766128, 3.590268, 3.583316, 3.586450, 3.630057, 3.577144, 3.570342, 3.572191, 3.633645, 3.703370, 3.576543, 3.575898, 3.595544, 3.570745, 3.586310
Process 1: 8.195860, 5.256617, 5.579547, 6.556150, 8.083976, 7.142812, 4.649898, 3.608728, 3.849583, 3.618888, 3.602390, 3.590104, 3.635642, 3.588029, 3.578712, 3.772559, 3.598731, 3.591733, 3.593070, 3.637252, 3.589442, 3.580788, 3.583950, 3.644594, 3.714937, 3.588884, 3.587754, 3.607828, 3.582819, 3.598532
