mpi_trmm_opt3
Process 0: 11.049040, 11.028111, 11.050735, 11.077920, 11.104779, 11.075880, 11.102346, 11.091371, 11.129306, 11.113884, 11.041848, 11.090570, 11.071052, 11.178129, 11.146645, 11.122936, 11.158589, 11.175841, 11.105221, 11.091064, 11.108305, 11.164397, 11.141527, 11.092927, 11.168578, 11.112583, 11.082342, 11.118501, 11.161532, 11.156306
Process 1: 10.997122, 10.977201, 10.999672, 11.027013, 11.053905, 11.024216, 11.050754, 11.039686, 11.077750, 11.060783, 10.990135, 11.039084, 11.019627, 11.126579, 11.094936, 11.071213, 11.106882, 11.124113, 11.053383, 11.039365, 11.056579, 11.112418, 11.089808, 11.041172, 11.116849, 11.060820, 11.031315, 11.067540, 11.109835, 11.104559
Process 2: 11.000755, 10.980400, 11.002916, 11.030215, 11.057203, 11.028274, 11.054884, 11.043785, 11.081847, 11.064958, 10.994231, 11.043132, 11.023733, 11.130656, 11.099053, 11.075290, 11.110982, 11.128198, 11.057513, 11.043426, 11.060674, 11.116507, 11.093942, 11.045235, 11.120959, 11.064865, 11.034514, 11.070405, 11.113660, 11.108446
Process 3: 11.004130, 10.983611, 11.006139, 11.033433, 11.060406, 11.031507, 11.058083, 11.046992, 11.085081, 11.068290, 10.997480, 11.046354, 11.026944, 11.133870, 11.102287, 11.078513, 11.114197, 11.131434, 11.060738, 11.046645, 11.063889, 11.119744, 11.097177, 11.048463, 11.124175, 11.068103, 11.037740, 11.074260, 11.117564, 11.112347
Process 4: 11.007583, 10.987077, 11.010185, 11.036910, 11.063930, 11.035009, 11.061595, 11.050483, 11.088535, 11.071815, 11.001525, 11.049815, 11.030397, 11.137815, 11.106207, 11.081895, 11.117623, 11.135346, 11.064200, 11.050169, 11.067411, 11.123182, 11.101098, 11.051888, 11.127581, 11.071558, 11.041139, 11.077699, 11.120950, 11.116257
Process 5: 11.012094, 10.991481, 11.014035, 11.041329, 11.068355, 11.039452, 11.066048, 11.054927, 11.092969, 11.076440, 11.005370, 11.054245, 11.034831, 11.141108, 11.109496, 11.085932, 11.121639, 11.138656, 11.068195, 11.054582, 11.071859, 11.127223, 11.104384, 11.055869, 11.131579, 11.075546, 11.045151, 11.081740, 11.124987, 11.119552
Process 6: 11.015414, 10.994805, 11.017369, 11.044657, 11.071674, 11.042726, 11.069346, 11.058261, 11.096286, 11.079872, 11.008694, 11.057556, 11.038157, 11.145097, 11.113538, 11.089920, 11.125668, 11.142647, 11.072216, 11.057901, 11.075181, 11.131215, 11.108419, 11.059889, 11.135598, 11.079559, 11.049188, 11.085944, 11.129255, 11.123770
Process 7: 11.019441, 10.998799, 11.021402, 11.048651, 11.075690, 11.046743, 11.073381, 11.062272, 11.100273, 11.083983, 11.012683, 11.061547, 11.042148, 11.149099, 11.117513, 11.093924, 11.129672, 11.146665, 11.076237, 11.061897, 11.079161, 11.135247, 11.112459, 11.063902, 11.139602, 11.083571, 11.053204, 11.089315, 11.132604, 11.127127
Process 8: 11.023810, 11.003065, 11.024844, 11.052169, 11.079186, 11.050278, 11.076865, 11.065785, 11.103796, 11.087575, 11.016161, 11.065096, 11.045634, 11.152613, 11.121014, 11.097444, 11.133109, 11.150137, 11.080210, 11.065436, 11.082660, 11.138737, 11.115908, 11.067451, 11.143093, 11.087091, 11.056645, 11.092790, 11.136045, 11.130619
Process 9: 11.027167, 11.006359, 11.028857, 11.056116, 11.083191, 11.054224, 11.080874, 11.069756, 11.107788, 11.091612, 11.020175, 11.069027, 11.049682, 11.156556, 11.125038, 11.101410, 11.137150, 11.154119, 11.083591, 11.069374, 11.086685, 11.142715, 11.119925, 11.071357, 11.147134, 11.091070, 11.060689, 11.096749, 11.140092, 11.134576
Process 10: 11.030637, 11.010295, 11.032275, 11.060085, 11.086578, 11.057653, 11.084257, 11.073161, 11.111189, 11.095161, 11.023603, 11.072483, 11.053099, 11.160505, 11.129064, 11.105450, 11.141179, 11.158184, 11.087623, 11.073420, 11.090706, 11.146765, 11.123983, 11.075440, 11.151162, 11.095112, 11.064710, 11.100783, 11.144117, 11.138622
Process 11: 11.034632, 11.013575, 11.036217, 11.063318, 11.090581, 11.061635, 11.088260, 11.077176, 11.115194, 11.099218, 11.027557, 11.076966, 11.057542, 11.163775, 11.132910, 11.109313, 11.145016, 11.162037, 11.091441, 11.077279, 11.094538, 11.150763, 11.127793, 11.079280, 11.154967, 11.098966, 11.068537, 11.104642, 11.147927, 11.142471
Process 12: 11.039105, 11.017542, 11.040204, 11.067298, 11.095031, 11.065632, 11.092233, 11.081158, 11.119185, 11.103309, 11.031592, 11.080224, 11.060799, 11.167789, 11.136133, 11.112555, 11.148293, 11.165277, 11.094696, 11.080544, 11.097785, 11.154586, 11.131002, 11.082517, 11.158228, 11.102234, 11.071781, 11.107923, 11.151182, 11.145734
Process 13: 11.042312, 11.021459, 11.044079, 11.071186, 11.098140, 11.070160, 11.096606, 11.085550, 11.123537, 11.108044, 11.035961, 11.084616, 11.065148, 11.172170, 11.140015, 11.116966, 11.152685, 11.169152, 11.098545, 11.084399, 11.101655, 11.157737, 11.134906, 11.086447, 11.162090, 11.106621, 11.075685, 11.111810, 11.155085, 11.149630
Process 14: 11.046297, 11.025369, 11.047993, 11.075176, 11.102050, 11.073919, 11.099768, 11.088778, 11.126728, 11.111940, 11.039119, 11.087830, 11.068348, 11.175385, 11.143931, 11.120170, 11.155829, 11.173075, 11.102485, 11.088339, 11.105578, 11.161653, 11.138776, 11.090350, 11.165997, 11.109807, 11.079592, 11.115730, 11.159534, 11.153539
Process 15: 11.050195, 11.029280, 11.051911, 11.079082, 11.105941, 11.077028, 11.104068, 11.093108, 11.131040, 11.115169, 11.043021, 11.091733, 11.072206, 11.179304, 11.147809, 11.124095, 11.159752, 11.176997, 11.106390, 11.092237, 11.109456, 11.165558, 11.142730, 11.094680, 11.170327, 11.113770, 11.083524, 11.119716, 11.162715, 11.157506
