mpi_trmm_opt3
Process 0: 11.682342, 12.256342, 12.266391, 12.259664, 12.264050, 12.241888, 12.255424, 11.910497, 11.841639, 11.870251, 11.716408, 11.912127, 11.875484, 12.327934, 12.338963, 11.781064, 11.729716, 11.861105, 11.575111, 11.855426, 11.881911, 11.720815, 11.900962, 12.269165, 12.259566, 12.252521, 11.919858, 12.265011, 11.838770, 11.908830
Process 1: 11.616619, 12.191009, 12.200902, 12.194511, 12.198689, 12.177437, 12.190394, 11.845437, 11.776360, 11.805077, 11.665999, 11.846228, 11.811300, 12.262215, 12.273943, 11.730704, 11.664519, 11.795880, 11.524753, 11.789892, 11.816287, 11.656600, 11.835704, 12.203969, 12.195459, 12.187231, 11.854599, 12.199370, 11.772597, 11.842750
Process 2: 11.623260, 12.197437, 12.207379, 12.200882, 12.205081, 12.183188, 12.196820, 11.851968, 11.783520, 11.811515, 11.671257, 11.852745, 11.816921, 12.268670, 12.279704, 11.735864, 11.670923, 11.803030, 11.529867, 11.796444, 11.822736, 11.662238, 11.842139, 12.210298, 12.201132, 12.193668, 11.860999, 12.205790, 11.779801, 11.849878
Process 3: 11.630695, 12.204808, 12.214807, 12.208281, 12.212526, 12.190506, 12.204228, 11.859350, 11.790326, 11.818879, 11.677000, 11.860180, 11.824319, 12.276123, 12.287122, 11.741649, 11.678324, 11.809825, 11.535677, 11.803847, 11.830179, 11.669572, 11.849507, 12.217703, 12.208471, 12.201055, 11.868382, 12.213260, 11.786647, 11.856752
Process 4: 11.637443, 12.211526, 12.221526, 12.214988, 12.219266, 12.197218, 12.210943, 11.866031, 11.797051, 11.825598, 11.681893, 11.866952, 11.831063, 12.282884, 12.293941, 11.746389, 11.685067, 11.816526, 11.540526, 11.810573, 11.836907, 11.676285, 11.856222, 12.224393, 12.215192, 12.207745, 11.875089, 12.220030, 11.793508, 11.863576
Process 5: 11.643588, 12.217604, 12.227566, 12.220960, 12.225281, 12.203280, 12.216878, 11.872008, 11.803097, 11.831595, 11.686644, 11.873111, 11.836989, 12.288977, 12.300085, 11.751157, 11.691717, 11.822644, 11.545288, 11.817317, 11.843798, 11.682292, 11.862406, 12.230561, 12.221264, 12.213833, 11.881825, 12.226112, 11.799571, 11.869639
Process 6: 11.650114, 12.224876, 12.234061, 12.227473, 12.232486, 12.209858, 12.223444, 11.879260, 11.809558, 11.838055, 11.691859, 11.880549, 11.843490, 12.295546, 12.306622, 11.756450, 11.697788, 11.829109, 11.550556, 11.823330, 11.849685, 11.688765, 11.868901, 12.237058, 12.227749, 12.221092, 11.887875, 12.233416, 11.806208, 11.876273
Process 7: 11.656697, 12.230897, 12.240627, 12.234132, 12.238481, 12.216355, 12.229990, 11.885236, 11.816089, 11.844577, 11.697117, 11.886468, 11.850062, 12.302906, 12.313196, 11.761730, 11.704389, 11.835744, 11.555800, 11.829865, 11.856237, 11.695309, 11.875470, 12.243660, 12.234296, 12.227098, 11.894486, 12.239462, 11.812920, 11.883010
Process 8: 11.664230, 12.237712, 12.247393, 12.241600, 12.245287, 12.223100, 12.236623, 11.891920, 11.822774, 11.852062, 11.702516, 11.893245, 11.856722, 12.309167, 12.320037, 11.767201, 11.711049, 11.842447, 11.561248, 11.836580, 11.862951, 11.702076, 11.882137, 12.251117, 12.240930, 12.233779, 11.901110, 12.246226, 11.819732, 11.889769
Process 9: 11.670210, 12.244250, 12.254066, 12.247615, 12.251931, 12.229742, 12.243178, 11.898419, 11.829420, 11.858111, 11.707724, 11.899933, 11.863273, 12.315717, 12.326693, 11.772459, 11.717642, 11.848993, 11.566476, 11.843255, 11.869620, 11.708731, 11.888743, 12.257182, 12.247499, 12.241156, 11.907773, 12.252827, 11.826419, 11.896473
Process 10: 11.676914, 12.250957, 12.261804, 12.254317, 12.258656, 12.236476, 12.250856, 11.905098, 11.836252, 11.864908, 11.713137, 11.906661, 11.870046, 12.322482, 12.333460, 11.777846, 11.724318, 11.855702, 11.571816, 11.849972, 11.876470, 11.715423, 11.896420, 12.263801, 12.254169, 12.247192, 11.914438, 12.259563, 11.833262, 11.903306
Process 11: 11.684578, 12.258546, 12.268588, 12.261855, 12.266255, 12.244043, 12.257606, 11.912667, 11.843839, 11.872424, 11.718624, 11.914304, 11.877677, 12.330114, 12.341160, 11.783244, 11.731904, 11.863284, 11.577317, 11.857615, 11.884134, 11.723013, 11.903163, 12.271338, 12.261792, 12.254711, 11.922080, 12.267178, 11.840972, 11.911022
