MPI_insiderank_optimisedserial
Process 0: 3.468348, 3.470023, 3.461631, 3.483440, 3.477074, 3.477855, 3.458090, 3.482356, 3.477833, 3.477441, 3.479720, 3.480058, 3.486747, 3.465184, 3.465151, 3.465452, 3.475795, 3.473247, 3.477152, 3.493421, 3.460681, 3.471146, 3.472694, 3.479404, 3.491054, 3.482417, 3.459880, 3.484216, 3.463797, 3.463338
Process 1: 3.473891, 3.475542, 3.467159, 3.488977, 3.482586, 3.483380, 3.463602, 3.487891, 3.483364, 3.483023, 3.485202, 3.485602, 3.492292, 3.470693, 3.470686, 3.470972, 3.481302, 3.478738, 3.482690, 3.498971, 3.466223, 3.476670, 3.478220, 3.484948, 3.496557, 3.488012, 3.465365, 3.489729, 3.469309, 3.468829
