MPI_insiderank_optimisedserial
Process 0: 1.131526, 1.144251, 1.131896, 1.129073, 1.128877, 1.127993, 1.131148, 1.131171, 1.131392, 1.143697, 1.147725, 1.137680, 1.138991, 1.138996, 1.141371, 1.138435, 1.138240, 1.142715, 1.138252, 1.138536, 1.135603, 1.141583, 1.137476, 1.142144, 1.146762, 1.146100, 1.141616, 1.139141, 1.139864, 1.138904
Process 1: 0.949153, 0.962613, 0.946826, 0.944464, 0.944136, 0.942862, 0.947143, 0.946694, 0.946215, 0.946434, 0.952150, 0.943040, 0.944638, 0.944182, 0.945870, 0.943409, 0.943646, 0.948964, 0.943748, 0.942319, 0.941333, 0.942853, 0.940049, 0.944261, 0.951335, 0.948705, 0.945725, 0.941015, 0.944153, 0.943643
Process 2: 0.967738, 0.980828, 0.965220, 0.962762, 0.962566, 0.961244, 0.965268, 0.964978, 0.964592, 0.965132, 0.970559, 0.961448, 0.962996, 0.962507, 0.964129, 0.961720, 0.962225, 0.967053, 0.961984, 0.960971, 0.959932, 0.961530, 0.958606, 0.963297, 0.969830, 0.967129, 0.964135, 0.959534, 0.962698, 0.961920
Process 3: 0.983385, 0.996347, 0.981326, 0.977993, 0.978795, 0.976519, 0.982239, 0.981236, 0.982532, 0.983329, 0.988982, 0.979853, 0.981690, 0.980919, 0.982471, 0.979916, 0.980550, 0.985550, 0.980237, 0.979519, 0.978104, 0.979906, 0.976881, 0.981453, 0.988359, 0.985557, 0.982541, 0.977855, 0.981203, 0.980630
Process 4: 0.998798, 1.011532, 0.998896, 0.994944, 0.996352, 0.992338, 0.999543, 0.998774, 0.996931, 1.001246, 1.006704, 0.997713, 0.999133, 0.998814, 1.000118, 0.997521, 0.998459, 1.003186, 0.998207, 0.997399, 0.996231, 0.997770, 0.994532, 0.999331, 1.006146, 1.003351, 1.000396, 0.995751, 0.999056, 0.998039
Process 5: 1.015382, 1.028301, 1.014233, 1.011830, 1.011876, 1.009206, 1.016302, 1.013862, 1.013344, 1.018732, 1.024069, 1.014887, 1.016967, 1.015845, 1.017780, 1.015148, 1.015712, 1.020444, 1.015752, 1.014487, 1.015185, 1.015151, 1.011946, 1.016632, 1.023292, 1.020650, 1.017620, 1.013172, 1.017326, 1.015663
Process 6: 1.031681, 1.044690, 1.030756, 1.028583, 1.028513, 1.025887, 1.032651, 1.030446, 1.029988, 1.036238, 1.041291, 1.032246, 1.034292, 1.033262, 1.034840, 1.032307, 1.032969, 1.038102, 1.033335, 1.032203, 1.033198, 1.032475, 1.028804, 1.034004, 1.040634, 1.037519, 1.034890, 1.030353, 1.033762, 1.032551
Process 7: 1.047947, 1.060910, 1.047072, 1.044874, 1.044777, 1.042171, 1.048834, 1.046820, 1.046330, 1.053244, 1.058436, 1.049253, 1.051340, 1.050069, 1.051848, 1.049484, 1.050149, 1.055015, 1.050129, 1.049125, 1.047642, 1.049319, 1.046010, 1.051107, 1.057414, 1.054834, 1.052104, 1.047658, 1.050893, 1.049522
Process 8: 1.060513, 1.073269, 1.060424, 1.057382, 1.057324, 1.055327, 1.060792, 1.058877, 1.059276, 1.066515, 1.070623, 1.061939, 1.063393, 1.062071, 1.064365, 1.062250, 1.062347, 1.067096, 1.062266, 1.062858, 1.060370, 1.064369, 1.061270, 1.065149, 1.073146, 1.070666, 1.067827, 1.063397, 1.066666, 1.065317
Process 9: 1.075928, 1.088759, 1.076043, 1.073070, 1.072998, 1.070967, 1.076060, 1.074208, 1.074916, 1.082097, 1.086306, 1.077614, 1.078820, 1.077659, 1.079991, 1.077821, 1.078073, 1.082699, 1.077935, 1.078716, 1.076000, 1.080145, 1.077068, 1.081019, 1.086672, 1.086284, 1.081854, 1.077615, 1.079912, 1.078999
Process 10: 1.091832, 1.104755, 1.092089, 1.089099, 1.089047, 1.087000, 1.091941, 1.090155, 1.090889, 1.098119, 1.102199, 1.093425, 1.094646, 1.093500, 1.095940, 1.093742, 1.093961, 1.098786, 1.093938, 1.094417, 1.091674, 1.095881, 1.092853, 1.096800, 1.102522, 1.102112, 1.097917, 1.093713, 1.095920, 1.094989
Process 11: 1.105815, 1.118410, 1.105989, 1.103103, 1.102975, 1.102072, 1.105268, 1.105266, 1.105481, 1.113442, 1.117692, 1.107361, 1.108771, 1.108819, 1.111142, 1.108154, 1.107972, 1.112585, 1.108008, 1.108240, 1.105777, 1.111485, 1.107231, 1.111969, 1.116405, 1.115882, 1.111627, 1.108824, 1.109678, 1.108768
Process 12: 1.121071, 1.133817, 1.122185, 1.119321, 1.119122, 1.118142, 1.120715, 1.121301, 1.121518, 1.129222, 1.133220, 1.123124, 1.124354, 1.124477, 1.126876, 1.123843, 1.123679, 1.128139, 1.123650, 1.123962, 1.121418, 1.127004, 1.122879, 1.127635, 1.132105, 1.131570, 1.127154, 1.124724, 1.125408, 1.124428
Process 13: 1.132451, 1.145102, 1.132742, 1.129870, 1.129772, 1.128810, 1.131985, 1.131961, 1.132260, 1.144721, 1.148702, 1.138657, 1.139984, 1.140000, 1.142340, 1.139402, 1.139213, 1.143692, 1.139250, 1.139510, 1.136659, 1.142556, 1.138493, 1.143127, 1.147740, 1.147072, 1.142629, 1.140150, 1.140826, 1.139867
