MPI_insiderank_optimisedserial
Process 0: 1.925353, 1.931395, 1.925321, 1.935536, 1.934983, 1.930449, 1.928534, 1.949262, 1.924679, 1.926019, 1.928094, 1.932343, 1.924435, 1.930398, 1.931093, 1.924363, 1.924124, 1.923003, 1.924079, 1.946653, 1.946054, 1.946444, 1.950268, 1.936690, 1.954993, 1.944348, 1.930332, 1.937698, 1.929913, 1.937841
Process 1: 1.847360, 1.853547, 1.847395, 1.857679, 1.856981, 1.852499, 1.850459, 1.871315, 1.846536, 1.848026, 1.850113, 1.854210, 1.846379, 1.852297, 1.852031, 1.846358, 1.846057, 1.844998, 1.846005, 1.868469, 1.868103, 1.868271, 1.872292, 1.858656, 1.877004, 1.866363, 1.852166, 1.859744, 1.851811, 1.859748
Process 2: 1.887782, 1.893740, 1.887598, 1.897895, 1.897350, 1.892778, 1.890820, 1.911524, 1.886896, 1.888373, 1.890404, 1.894524, 1.886710, 1.892665, 1.893418, 1.886638, 1.886371, 1.885301, 1.886323, 1.908833, 1.908267, 1.908621, 1.912421, 1.898897, 1.917269, 1.906636, 1.892548, 1.899985, 1.892111, 1.900033
Process 3: 1.928096, 1.934109, 1.928020, 1.938235, 1.937715, 1.933154, 1.931249, 1.951989, 1.927375, 1.928734, 1.930796, 1.935063, 1.927161, 1.933105, 1.933826, 1.927106, 1.926883, 1.925712, 1.926770, 1.949371, 1.948756, 1.949170, 1.952982, 1.939396, 1.957737, 1.947052, 1.933044, 1.940407, 1.932630, 1.940658
