MPI_insiderank_optimisedserial
Process 0: 1.124332, 1.138926, 1.124076, 1.121518, 1.121216, 1.122740, 1.120564, 1.120968, 1.122642, 1.124211, 1.120952, 1.122353, 1.121832, 1.125342, 1.123066, 1.121689, 1.120737, 1.125174, 1.118884, 1.122091, 1.119514, 1.122376, 1.122581, 1.119212, 1.118840, 1.119569, 1.119177, 1.120329, 1.120109, 1.122510
Process 1: 0.931102, 0.944656, 0.929060, 0.928534, 0.927896, 0.927869, 0.927214, 0.927436, 0.929409, 0.931440, 0.927542, 0.928880, 0.927732, 0.929473, 0.930375, 0.928243, 0.927672, 0.933377, 0.922981, 0.926888, 0.923504, 0.926952, 0.926274, 0.923577, 0.923252, 0.923323, 0.923362, 0.922458, 0.924450, 0.927902
Process 2: 0.949413, 0.962537, 0.946745, 0.946251, 0.945508, 0.945777, 0.945070, 0.945222, 0.947039, 0.949144, 0.945067, 0.946434, 0.945437, 0.947089, 0.948157, 0.945955, 0.945463, 0.946759, 0.940477, 0.944636, 0.941714, 0.944399, 0.944096, 0.941132, 0.940900, 0.941183, 0.941046, 0.940232, 0.941790, 0.945324
Process 3: 0.967213, 0.980267, 0.964658, 0.964208, 0.963176, 0.963552, 0.962863, 0.963114, 0.964901, 0.967057, 0.962874, 0.964215, 0.963185, 0.965056, 0.965929, 0.963783, 0.963386, 0.964096, 0.958373, 0.962497, 0.959444, 0.962344, 0.962054, 0.959014, 0.958683, 0.959150, 0.958950, 0.958226, 0.959796, 0.963317
Process 4: 0.983825, 0.996824, 0.981272, 0.980812, 0.979949, 0.979917, 0.979413, 0.979676, 0.981728, 0.983636, 0.979457, 0.980619, 0.980022, 0.981575, 0.982428, 0.980348, 0.979761, 0.981011, 0.975008, 0.979321, 0.976592, 0.979269, 0.978827, 0.975943, 0.975579, 0.976190, 0.975761, 0.975390, 0.976671, 0.980102
Process 5: 1.000766, 1.013723, 0.998040, 0.998013, 0.996724, 0.996975, 0.996305, 0.996752, 0.998569, 1.000561, 0.996253, 0.997614, 0.996925, 0.998583, 0.999098, 0.997124, 0.996690, 0.997886, 0.992002, 0.996333, 0.993574, 0.996200, 0.995935, 0.993091, 0.992380, 0.993268, 0.992818, 0.992430, 0.993899, 0.996830
Process 6: 1.014075, 1.027979, 1.012361, 1.011023, 1.009743, 1.009979, 1.009159, 1.009420, 1.012803, 1.014526, 1.011763, 1.011116, 1.011352, 1.013097, 1.012039, 1.011429, 1.009653, 1.013354, 1.005485, 1.010255, 1.007283, 1.009413, 1.009224, 1.006931, 1.008023, 1.007624, 1.006178, 1.008165, 1.007343, 1.010418
Process 7: 1.029214, 1.043423, 1.027468, 1.026021, 1.024945, 1.025222, 1.024280, 1.024520, 1.027924, 1.029575, 1.025681, 1.026295, 1.026500, 1.028263, 1.027079, 1.026729, 1.024776, 1.028616, 1.020886, 1.025728, 1.022629, 1.024831, 1.024480, 1.022174, 1.020899, 1.022956, 1.021458, 1.021961, 1.022752, 1.025761
Process 8: 1.044515, 1.058496, 1.042724, 1.041195, 1.040048, 1.040411, 1.039407, 1.039683, 1.043181, 1.044783, 1.040968, 1.041398, 1.041711, 1.043488, 1.042333, 1.041747, 1.040002, 1.043736, 1.036243, 1.040757, 1.037906, 1.040010, 1.039646, 1.037301, 1.036169, 1.038086, 1.036648, 1.037218, 1.037969, 1.040950
Process 9: 1.056609, 1.070290, 1.054485, 1.053043, 1.053202, 1.052964, 1.051949, 1.052280, 1.054926, 1.057676, 1.053223, 1.054972, 1.053929, 1.055363, 1.056087, 1.054038, 1.053178, 1.058558, 1.050972, 1.055471, 1.052633, 1.054738, 1.054478, 1.051990, 1.050919, 1.052754, 1.051395, 1.051954, 1.052672, 1.055688
Process 10: 1.071187, 1.084874, 1.069011, 1.067688, 1.067833, 1.067483, 1.066487, 1.066778, 1.069497, 1.072377, 1.067854, 1.069572, 1.068569, 1.069888, 1.069853, 1.068621, 1.067685, 1.071500, 1.064729, 1.068695, 1.065817, 1.067718, 1.067615, 1.066780, 1.063894, 1.067630, 1.066319, 1.066016, 1.066020, 1.068646
Process 11: 1.086037, 1.099769, 1.084127, 1.082622, 1.082447, 1.082279, 1.081353, 1.081586, 1.084329, 1.087159, 1.082741, 1.084201, 1.083360, 1.084735, 1.084715, 1.083525, 1.082545, 1.086276, 1.079738, 1.083614, 1.080875, 1.082645, 1.082437, 1.081528, 1.079032, 1.082512, 1.081057, 1.081107, 1.080994, 1.083680
Process 12: 1.096607, 1.111175, 1.096302, 1.096707, 1.093455, 1.094914, 1.095536, 1.093260, 1.094887, 1.097674, 1.093226, 1.094688, 1.094077, 1.097623, 1.095324, 1.094020, 1.093042, 1.100911, 1.090841, 1.094139, 1.091486, 1.094334, 1.097099, 1.092219, 1.090887, 1.092862, 1.091507, 1.092274, 1.092064, 1.094388
Process 13: 1.110844, 1.125426, 1.110785, 1.108017, 1.107736, 1.109397, 1.107078, 1.107462, 1.109144, 1.110682, 1.107426, 1.108863, 1.108326, 1.112047, 1.109564, 1.108191, 1.107254, 1.111328, 1.105069, 1.108311, 1.105743, 1.108514, 1.108724, 1.105362, 1.105058, 1.105796, 1.105356, 1.106476, 1.106295, 1.108619
Process 14: 1.125309, 1.139906, 1.125004, 1.122497, 1.122168, 1.123681, 1.121524, 1.121937, 1.123569, 1.125148, 1.121900, 1.123310, 1.122796, 1.126282, 1.123998, 1.122637, 1.121684, 1.126067, 1.119782, 1.122984, 1.120409, 1.123260, 1.123472, 1.120105, 1.119734, 1.120466, 1.120066, 1.121232, 1.121009, 1.123403
