MPI_insiderank_optimisedserial
Process 0: 0.901165, 0.692647, 0.631384, 0.627112, 0.653892, 0.610952, 0.656597, 0.603909, 0.621854, 0.643832, 0.644699, 0.619815, 0.656421, 0.605773, 0.657721, 0.601593, 0.654027, 0.614834, 0.659387, 0.603526, 0.657267, 0.622893, 0.647912, 0.632777, 0.624918, 0.646544, 0.611905, 0.658039, 0.605953, 0.659413
Process 1: 0.867191, 0.657873, 0.594463, 0.592107, 0.617121, 0.575978, 0.621043, 0.566910, 0.584937, 0.609104, 0.606723, 0.583102, 0.620898, 0.568565, 0.621414, 0.565451, 0.617263, 0.570159, 0.621987, 0.566391, 0.620292, 0.585773, 0.611970, 0.595392, 0.589799, 0.609180, 0.575755, 0.621298, 0.567915, 0.622605
Process 2: 0.872002, 0.663703, 0.600384, 0.597840, 0.622956, 0.581609, 0.626206, 0.574145, 0.590575, 0.614731, 0.612364, 0.588776, 0.626001, 0.573958, 0.627249, 0.571068, 0.623263, 0.582166, 0.627767, 0.572182, 0.626205, 0.591914, 0.617587, 0.601454, 0.595469, 0.615647, 0.581028, 0.627338, 0.573482, 0.628361
Process 3: 0.878620, 0.669291, 0.607562, 0.603763, 0.629962, 0.587576, 0.633189, 0.580604, 0.598284, 0.620657, 0.619759, 0.594640, 0.632971, 0.580947, 0.633880, 0.577785, 0.630138, 0.588606, 0.634654, 0.579581, 0.633227, 0.599006, 0.623580, 0.608862, 0.601875, 0.622605, 0.587500, 0.634275, 0.580917, 0.635459
Process 4: 0.884028, 0.675244, 0.613154, 0.609568, 0.635816, 0.593334, 0.638428, 0.586983, 0.603903, 0.626354, 0.625243, 0.600386, 0.638388, 0.586375, 0.639725, 0.583608, 0.635977, 0.596576, 0.640493, 0.585122, 0.639113, 0.604920, 0.629352, 0.614523, 0.607498, 0.628460, 0.592832, 0.640156, 0.586402, 0.641338
Process 5: 0.890345, 0.680887, 0.619758, 0.615443, 0.642249, 0.599379, 0.644997, 0.592231, 0.610245, 0.632497, 0.632577, 0.606360, 0.644296, 0.593579, 0.646238, 0.590027, 0.642439, 0.603102, 0.646963, 0.591956, 0.645611, 0.610718, 0.635789, 0.621143, 0.613554, 0.634948, 0.599818, 0.646528, 0.593746, 0.647760
Process 6: 0.895563, 0.686444, 0.625117, 0.620682, 0.647611, 0.604639, 0.650300, 0.597266, 0.615672, 0.637597, 0.636954, 0.611547, 0.650182, 0.598087, 0.651400, 0.595363, 0.647711, 0.608481, 0.652256, 0.597252, 0.651143, 0.616591, 0.640647, 0.626455, 0.618683, 0.640188, 0.604134, 0.651660, 0.598240, 0.653164
Process 7: 0.901848, 0.692645, 0.631389, 0.627112, 0.653902, 0.610950, 0.656584, 0.603907, 0.621858, 0.643834, 0.644697, 0.619818, 0.656422, 0.605771, 0.657728, 0.601590, 0.654032, 0.614840, 0.659385, 0.603525, 0.657267, 0.622896, 0.647916, 0.632774, 0.624923, 0.646547, 0.611904, 0.658038, 0.605957, 0.659417
