MPI_insiderank_optimisedserial
Process 0: 0.247717, 0.157594, 0.134977, 0.134686, 0.134774, 0.135759, 0.138477, 0.136394, 0.134435, 0.134785, 0.134675, 0.135158, 0.134629, 0.134680, 0.134400, 0.134468, 0.134331, 0.134461, 0.134656, 0.134884, 0.134460, 0.134854, 0.140179, 0.140244, 0.139054, 0.136171, 0.134800, 0.134702, 0.134972, 0.134664
Process 1: 0.200131, 0.111027, 0.088274, 0.088124, 0.088183, 0.088017, 0.091219, 0.089852, 0.087829, 0.088098, 0.087953, 0.088452, 0.088007, 0.088047, 0.087856, 0.087828, 0.087836, 0.087923, 0.088027, 0.088345, 0.087829, 0.088293, 0.091357, 0.092148, 0.090555, 0.089557, 0.088029, 0.088014, 0.088223, 0.088056
Process 2: 0.200505, 0.111659, 0.088809, 0.088680, 0.088721, 0.089489, 0.091801, 0.090416, 0.088370, 0.088643, 0.088496, 0.089011, 0.088562, 0.088609, 0.088394, 0.088387, 0.088405, 0.088474, 0.088576, 0.088900, 0.088382, 0.088826, 0.092027, 0.092716, 0.091204, 0.090120, 0.088605, 0.088561, 0.088781, 0.088618
Process 3: 0.201605, 0.112468, 0.089773, 0.089646, 0.089685, 0.090540, 0.092777, 0.091387, 0.089329, 0.089620, 0.089459, 0.089978, 0.089547, 0.089565, 0.089368, 0.089354, 0.089413, 0.089433, 0.089551, 0.089877, 0.089353, 0.089798, 0.093903, 0.093676, 0.092192, 0.091070, 0.089570, 0.089517, 0.089752, 0.089590
Process 4: 0.201980, 0.113111, 0.090347, 0.090210, 0.090242, 0.091156, 0.093341, 0.091944, 0.089884, 0.090190, 0.090030, 0.090549, 0.090123, 0.090130, 0.089943, 0.089913, 0.089976, 0.089990, 0.090118, 0.090474, 0.089918, 0.090351, 0.094625, 0.094249, 0.092758, 0.091648, 0.090144, 0.090098, 0.090351, 0.090178
Process 5: 0.203140, 0.113978, 0.091322, 0.091164, 0.091202, 0.092114, 0.094371, 0.092902, 0.090835, 0.091184, 0.090992, 0.091531, 0.091054, 0.091089, 0.090898, 0.090875, 0.090945, 0.090951, 0.091094, 0.091447, 0.090887, 0.091314, 0.095609, 0.095196, 0.093723, 0.092610, 0.091127, 0.091097, 0.091332, 0.091175
Process 6: 0.203558, 0.114644, 0.091864, 0.091706, 0.091750, 0.092702, 0.094910, 0.093469, 0.091378, 0.091735, 0.091552, 0.092104, 0.091600, 0.091629, 0.091447, 0.091416, 0.091467, 0.091490, 0.091656, 0.091975, 0.091425, 0.091852, 0.096163, 0.095751, 0.094259, 0.093135, 0.091663, 0.091607, 0.091866, 0.091710
Process 7: 0.204385, 0.115568, 0.092841, 0.092685, 0.092741, 0.093687, 0.095797, 0.094452, 0.092359, 0.092743, 0.092539, 0.093101, 0.092595, 0.092630, 0.092443, 0.092400, 0.092454, 0.092470, 0.092665, 0.092972, 0.092398, 0.092830, 0.098202, 0.096718, 0.095243, 0.094115, 0.092661, 0.092576, 0.092861, 0.092696
Process 8: 0.205233, 0.116340, 0.093513, 0.093332, 0.093397, 0.094346, 0.096396, 0.095101, 0.093015, 0.093389, 0.093191, 0.093750, 0.093232, 0.093280, 0.093103, 0.093098, 0.093112, 0.093135, 0.093318, 0.093618, 0.093050, 0.093479, 0.098968, 0.097384, 0.095890, 0.094906, 0.093315, 0.093221, 0.093513, 0.093342
Process 9: 0.206189, 0.117159, 0.094366, 0.094182, 0.094240, 0.095204, 0.097384, 0.095952, 0.093858, 0.094249, 0.094052, 0.094607, 0.094091, 0.094129, 0.093960, 0.093950, 0.093961, 0.093997, 0.094181, 0.094476, 0.093901, 0.094327, 0.099813, 0.098222, 0.096731, 0.095756, 0.094170, 0.094074, 0.094369, 0.094189
Process 10: 0.206907, 0.117844, 0.095068, 0.094896, 0.094951, 0.095925, 0.098054, 0.096662, 0.094555, 0.094944, 0.094750, 0.095325, 0.094788, 0.094830, 0.094674, 0.094659, 0.094656, 0.094715, 0.094889, 0.095201, 0.094607, 0.095037, 0.100500, 0.098939, 0.097433, 0.096439, 0.094868, 0.094777, 0.095073, 0.094891
Process 11: 0.207641, 0.118610, 0.095878, 0.095709, 0.095771, 0.096740, 0.098827, 0.097483, 0.095387, 0.095770, 0.095565, 0.096135, 0.095602, 0.095652, 0.095496, 0.095486, 0.095460, 0.095545, 0.095700, 0.096005, 0.095417, 0.095874, 0.101341, 0.099750, 0.098236, 0.097237, 0.095691, 0.095581, 0.095927, 0.095714
Process 12: 0.209012, 0.119309, 0.096555, 0.096404, 0.096438, 0.097405, 0.099464, 0.098149, 0.096086, 0.096417, 0.096229, 0.096789, 0.096281, 0.096331, 0.096161, 0.096159, 0.096124, 0.096213, 0.096369, 0.096659, 0.096073, 0.096532, 0.101974, 0.100417, 0.098920, 0.097890, 0.096367, 0.096256, 0.096584, 0.096366
Process 13: 0.210100, 0.120148, 0.097406, 0.097266, 0.097307, 0.098268, 0.100295, 0.099003, 0.096945, 0.097264, 0.097116, 0.097653, 0.097170, 0.097198, 0.097030, 0.097016, 0.096976, 0.097080, 0.097239, 0.097540, 0.096936, 0.097395, 0.102834, 0.101297, 0.099772, 0.098745, 0.097232, 0.097114, 0.097434, 0.097226
Process 14: 0.210915, 0.120857, 0.098129, 0.097948, 0.097986, 0.098963, 0.101044, 0.099697, 0.097623, 0.097957, 0.097793, 0.098333, 0.097844, 0.097874, 0.097733, 0.097698, 0.097664, 0.097760, 0.097919, 0.098195, 0.097618, 0.098084, 0.103501, 0.101987, 0.100505, 0.099411, 0.097907, 0.097821, 0.098111, 0.097908
Process 15: 0.211736, 0.121645, 0.098968, 0.098792, 0.098841, 0.099817, 0.101960, 0.100503, 0.098467, 0.098799, 0.098627, 0.099171, 0.098675, 0.098710, 0.098561, 0.098538, 0.098491, 0.098601, 0.098759, 0.099031, 0.098461, 0.098918, 0.104341, 0.102829, 0.101313, 0.100247, 0.098746, 0.098656, 0.098948, 0.098746
Process 16: 0.212514, 0.122407, 0.099641, 0.099436, 0.099516, 0.100443, 0.103247, 0.101164, 0.099094, 0.099420, 0.099257, 0.099791, 0.099304, 0.099331, 0.099180, 0.099154, 0.099136, 0.099218, 0.099377, 0.099650, 0.099090, 0.099546, 0.104977, 0.103454, 0.102650, 0.100866, 0.099374, 0.099296, 0.099587, 0.099369
Process 17: 0.213445, 0.123209, 0.100483, 0.100272, 0.100311, 0.101301, 0.104201, 0.102013, 0.099942, 0.100257, 0.100101, 0.100638, 0.100153, 0.100189, 0.100019, 0.099993, 0.099981, 0.100067, 0.100251, 0.100503, 0.099940, 0.100396, 0.105820, 0.104304, 0.103695, 0.101736, 0.100219, 0.100145, 0.100423, 0.100208
Process 18: 0.214012, 0.123847, 0.101114, 0.100916, 0.100966, 0.101966, 0.104862, 0.102670, 0.100589, 0.100903, 0.100755, 0.101292, 0.100803, 0.100826, 0.100672, 0.100632, 0.100620, 0.100718, 0.100884, 0.101142, 0.100611, 0.101041, 0.106472, 0.104946, 0.104406, 0.102374, 0.100859, 0.100812, 0.101076, 0.100890
Process 19: 0.214915, 0.124669, 0.101976, 0.101767, 0.101838, 0.102820, 0.105741, 0.103525, 0.101442, 0.101765, 0.101587, 0.102155, 0.101648, 0.101676, 0.101502, 0.101476, 0.101467, 0.101552, 0.101727, 0.101982, 0.101451, 0.101899, 0.107318, 0.105799, 0.105254, 0.103218, 0.101698, 0.101659, 0.101920, 0.101722
Process 20: 0.215365, 0.125383, 0.102661, 0.102467, 0.102522, 0.103519, 0.106484, 0.104214, 0.102139, 0.102453, 0.102288, 0.102824, 0.102346, 0.102401, 0.102189, 0.102173, 0.102162, 0.102246, 0.102422, 0.102680, 0.102145, 0.102584, 0.108018, 0.106481, 0.106420, 0.103899, 0.102392, 0.102357, 0.102609, 0.102405
Process 21: 0.216452, 0.126156, 0.103489, 0.103282, 0.103329, 0.104343, 0.107364, 0.105030, 0.102974, 0.103293, 0.103102, 0.103649, 0.103165, 0.103246, 0.103020, 0.102978, 0.102982, 0.103075, 0.103242, 0.103510, 0.102967, 0.103422, 0.108831, 0.107328, 0.107434, 0.104694, 0.103214, 0.103198, 0.103437, 0.103222
Process 22: 0.216891, 0.126858, 0.104132, 0.103929, 0.103974, 0.105003, 0.107928, 0.105677, 0.103606, 0.103921, 0.103747, 0.104296, 0.103818, 0.103858, 0.103657, 0.103649, 0.103628, 0.103710, 0.103892, 0.104144, 0.103627, 0.104062, 0.109502, 0.107968, 0.108109, 0.105365, 0.103858, 0.103841, 0.104072, 0.103874
Process 23: 0.217824, 0.127676, 0.105002, 0.104808, 0.104850, 0.105877, 0.108749, 0.106540, 0.104482, 0.104783, 0.104611, 0.105161, 0.104683, 0.104738, 0.104521, 0.104521, 0.104491, 0.104609, 0.104772, 0.105017, 0.104504, 0.104932, 0.110354, 0.108845, 0.108983, 0.106239, 0.104730, 0.104715, 0.104945, 0.104752
Process 24: 0.218490, 0.128480, 0.105650, 0.105452, 0.105489, 0.106516, 0.109416, 0.107177, 0.105119, 0.105421, 0.105251, 0.105798, 0.105320, 0.105379, 0.105154, 0.105159, 0.105133, 0.105243, 0.105400, 0.105677, 0.105141, 0.105567, 0.111022, 0.109694, 0.109639, 0.106878, 0.105403, 0.105394, 0.105623, 0.105384
Process 25: 0.219352, 0.129262, 0.106492, 0.106334, 0.106331, 0.107385, 0.110374, 0.108014, 0.105968, 0.106258, 0.106104, 0.106652, 0.106178, 0.106233, 0.106005, 0.105996, 0.105982, 0.106077, 0.106242, 0.106526, 0.105988, 0.106440, 0.111857, 0.110655, 0.110503, 0.107730, 0.106251, 0.106231, 0.106448, 0.106231
Process 26: 0.219862, 0.129914, 0.107170, 0.106992, 0.107014, 0.108066, 0.110999, 0.108688, 0.106640, 0.106935, 0.106798, 0.107330, 0.106855, 0.106904, 0.106670, 0.106682, 0.106662, 0.106755, 0.106919, 0.107202, 0.106674, 0.107123, 0.112533, 0.111353, 0.111183, 0.108414, 0.106934, 0.106922, 0.107141, 0.106924
Process 27: 0.220883, 0.130709, 0.108001, 0.107815, 0.107838, 0.108886, 0.111832, 0.109520, 0.107479, 0.107771, 0.107617, 0.108161, 0.107699, 0.107738, 0.107534, 0.107512, 0.107492, 0.107586, 0.107751, 0.108035, 0.107499, 0.107951, 0.113367, 0.112199, 0.112012, 0.109238, 0.107752, 0.107784, 0.107968, 0.107740
Process 28: 0.221457, 0.131388, 0.108671, 0.108484, 0.108491, 0.109541, 0.112475, 0.110172, 0.108135, 0.108417, 0.108276, 0.108851, 0.108365, 0.108393, 0.108182, 0.108174, 0.108152, 0.108248, 0.108408, 0.108689, 0.108156, 0.108606, 0.114029, 0.112872, 0.112681, 0.109893, 0.108421, 0.108445, 0.108657, 0.108397
Process 29: 0.222443, 0.132202, 0.109532, 0.109337, 0.109355, 0.110407, 0.113300, 0.111037, 0.109043, 0.109279, 0.109132, 0.109732, 0.109221, 0.109262, 0.109041, 0.109033, 0.109030, 0.109111, 0.109264, 0.109546, 0.109018, 0.109468, 0.114888, 0.113760, 0.113545, 0.110754, 0.109277, 0.109311, 0.109504, 0.109260
Process 30: 0.222847, 0.132905, 0.110214, 0.110001, 0.110037, 0.111069, 0.114037, 0.111710, 0.109699, 0.109952, 0.109824, 0.110382, 0.109882, 0.109923, 0.109705, 0.109726, 0.109696, 0.109776, 0.109955, 0.110209, 0.109681, 0.110128, 0.115548, 0.115219, 0.114212, 0.111425, 0.109931, 0.109964, 0.110217, 0.109934
Process 31: 0.223910, 0.133661, 0.111039, 0.110803, 0.110878, 0.111892, 0.114869, 0.112539, 0.110519, 0.110784, 0.110677, 0.111201, 0.110695, 0.110744, 0.110518, 0.110574, 0.110504, 0.110582, 0.110762, 0.111026, 0.110521, 0.110958, 0.116367, 0.116261, 0.115024, 0.112240, 0.110757, 0.110795, 0.111046, 0.110765
Process 32: 0.224559, 0.134449, 0.111717, 0.111457, 0.111561, 0.112542, 0.115287, 0.113181, 0.111166, 0.111435, 0.111305, 0.111841, 0.111353, 0.111405, 0.111150, 0.111238, 0.111156, 0.111232, 0.111394, 0.111654, 0.111154, 0.111605, 0.117014, 0.117024, 0.115670, 0.112898, 0.111420, 0.111446, 0.111694, 0.111396
Process 33: 0.225529, 0.135374, 0.112636, 0.112376, 0.112479, 0.113471, 0.116179, 0.114103, 0.112070, 0.112394, 0.112230, 0.112774, 0.112272, 0.112358, 0.112069, 0.112175, 0.112057, 0.112149, 0.112325, 0.112588, 0.112079, 0.112527, 0.117933, 0.117944, 0.116611, 0.113816, 0.112342, 0.112364, 0.112649, 0.112316
Process 34: 0.225977, 0.135895, 0.113195, 0.112936, 0.113037, 0.114048, 0.116716, 0.114674, 0.112639, 0.112956, 0.112799, 0.113344, 0.112845, 0.112914, 0.112636, 0.112746, 0.112625, 0.112717, 0.112898, 0.113147, 0.112644, 0.113091, 0.118498, 0.118547, 0.117175, 0.114408, 0.112906, 0.112923, 0.113223, 0.112889
Process 35: 0.226978, 0.136793, 0.114103, 0.113845, 0.113940, 0.114979, 0.117629, 0.115575, 0.113537, 0.113874, 0.113692, 0.114237, 0.113739, 0.113822, 0.113536, 0.113675, 0.113518, 0.113622, 0.113810, 0.114053, 0.113554, 0.114006, 0.119389, 0.119450, 0.118094, 0.115306, 0.113812, 0.113825, 0.114129, 0.113794
Process 36: 0.227483, 0.137400, 0.114719, 0.114439, 0.114541, 0.115558, 0.118225, 0.116173, 0.114135, 0.114480, 0.114286, 0.114835, 0.114353, 0.114427, 0.114131, 0.114281, 0.114122, 0.114256, 0.114425, 0.114659, 0.114151, 0.114604, 0.119994, 0.120063, 0.118704, 0.115919, 0.114416, 0.114428, 0.114732, 0.114411
Process 37: 0.228417, 0.138962, 0.115603, 0.115340, 0.115442, 0.116457, 0.119119, 0.117060, 0.115065, 0.115372, 0.115174, 0.115724, 0.115248, 0.115327, 0.115013, 0.115160, 0.115010, 0.115126, 0.115312, 0.115562, 0.115051, 0.115501, 0.120883, 0.120975, 0.119591, 0.116803, 0.115342, 0.115315, 0.115634, 0.115301
Process 38: 0.229000, 0.139301, 0.116218, 0.115934, 0.116024, 0.117072, 0.119720, 0.117664, 0.115672, 0.115980, 0.115777, 0.116320, 0.115856, 0.115909, 0.115620, 0.115757, 0.115604, 0.115726, 0.115907, 0.116154, 0.115674, 0.116120, 0.121486, 0.121569, 0.120199, 0.117417, 0.116019, 0.115909, 0.116243, 0.115907
Process 39: 0.229946, 0.139758, 0.117096, 0.116840, 0.116907, 0.117954, 0.120607, 0.118582, 0.116589, 0.116888, 0.116700, 0.117211, 0.116742, 0.116810, 0.116522, 0.116645, 0.116485, 0.116611, 0.116807, 0.117041, 0.116569, 0.117013, 0.122362, 0.122457, 0.121116, 0.118292, 0.116911, 0.116808, 0.117127, 0.116793
Process 40: 0.230462, 0.140436, 0.117684, 0.117421, 0.117500, 0.118534, 0.121200, 0.119165, 0.117158, 0.117497, 0.117280, 0.117784, 0.117347, 0.117396, 0.117109, 0.117234, 0.117067, 0.117192, 0.117390, 0.117623, 0.117171, 0.117600, 0.122960, 0.123050, 0.121731, 0.118894, 0.117499, 0.117388, 0.117716, 0.117375
Process 41: 0.231533, 0.141343, 0.118603, 0.118343, 0.118424, 0.119447, 0.122122, 0.120082, 0.118082, 0.118418, 0.118196, 0.118702, 0.118261, 0.118328, 0.118051, 0.118153, 0.117992, 0.118116, 0.118312, 0.118545, 0.118092, 0.118520, 0.123870, 0.123963, 0.122643, 0.119790, 0.118422, 0.118318, 0.118627, 0.118286
Process 42: 0.231960, 0.141880, 0.119183, 0.118916, 0.119002, 0.120030, 0.122709, 0.120657, 0.118669, 0.118994, 0.118772, 0.119275, 0.118853, 0.118903, 0.118650, 0.118733, 0.118606, 0.118689, 0.118900, 0.119132, 0.118673, 0.119092, 0.124443, 0.124541, 0.123231, 0.120387, 0.118993, 0.118890, 0.119207, 0.118868
Process 43: 0.232944, 0.142775, 0.120054, 0.119823, 0.119896, 0.120907, 0.123595, 0.121540, 0.119549, 0.119900, 0.119668, 0.120213, 0.119778, 0.119795, 0.119543, 0.119620, 0.119485, 0.119572, 0.119805, 0.120019, 0.119564, 0.119974, 0.125334, 0.125424, 0.124121, 0.121261, 0.119885, 0.119774, 0.120085, 0.119746
Process 44: 0.233464, 0.143378, 0.120682, 0.120416, 0.120523, 0.121517, 0.124225, 0.122143, 0.120163, 0.120539, 0.120302, 0.120819, 0.120393, 0.120414, 0.120162, 0.120238, 0.120105, 0.120203, 0.120402, 0.120632, 0.120223, 0.120595, 0.125942, 0.126040, 0.124744, 0.121899, 0.120501, 0.120426, 0.120701, 0.120359
Process 45: 0.234412, 0.144248, 0.121581, 0.121308, 0.121420, 0.122388, 0.125113, 0.123049, 0.121043, 0.121450, 0.121179, 0.121710, 0.121267, 0.121302, 0.121041, 0.121117, 0.120982, 0.121081, 0.121292, 0.121517, 0.121099, 0.121471, 0.126814, 0.126916, 0.125619, 0.122784, 0.121388, 0.121292, 0.121592, 0.121261
Process 46: 0.234922, 0.144879, 0.122204, 0.121912, 0.122047, 0.123007, 0.125725, 0.123659, 0.121658, 0.122095, 0.121832, 0.122343, 0.121889, 0.121918, 0.121670, 0.121726, 0.121604, 0.121706, 0.121913, 0.122130, 0.121705, 0.122099, 0.127449, 0.127530, 0.126251, 0.123401, 0.121995, 0.121909, 0.122215, 0.121879
Process 47: 0.235933, 0.145723, 0.123059, 0.122792, 0.122924, 0.123884, 0.126591, 0.124528, 0.122540, 0.122957, 0.122708, 0.123269, 0.122762, 0.122815, 0.122549, 0.122596, 0.122478, 0.122584, 0.122782, 0.123008, 0.122583, 0.122967, 0.128305, 0.128401, 0.127122, 0.124241, 0.122875, 0.122779, 0.123088, 0.122759
Process 48: 0.236508, 0.146410, 0.123679, 0.123392, 0.123526, 0.124482, 0.127202, 0.125129, 0.123142, 0.123555, 0.123310, 0.123885, 0.123371, 0.123418, 0.123147, 0.123226, 0.123083, 0.123178, 0.123379, 0.123605, 0.123187, 0.123568, 0.128912, 0.128999, 0.127745, 0.124880, 0.123498, 0.123393, 0.123691, 0.123356
Process 49: 0.237490, 0.147320, 0.124573, 0.124291, 0.124438, 0.125374, 0.128087, 0.126027, 0.124046, 0.124434, 0.124201, 0.124790, 0.124271, 0.124323, 0.124045, 0.124120, 0.123981, 0.124073, 0.124281, 0.124503, 0.124076, 0.124464, 0.129801, 0.129889, 0.128632, 0.125770, 0.124394, 0.124286, 0.124594, 0.124252
Process 50: 0.237967, 0.147848, 0.125171, 0.124875, 0.125024, 0.125963, 0.128691, 0.126611, 0.124637, 0.125043, 0.124835, 0.125396, 0.124872, 0.124908, 0.124631, 0.124705, 0.124574, 0.124700, 0.124877, 0.125113, 0.124678, 0.125067, 0.130411, 0.130495, 0.129230, 0.126376, 0.124991, 0.124895, 0.125195, 0.124861
Process 51: 0.238811, 0.148712, 0.126038, 0.125749, 0.125891, 0.126861, 0.129560, 0.127495, 0.125525, 0.125911, 0.125749, 0.126258, 0.125732, 0.125780, 0.125499, 0.125581, 0.125442, 0.125565, 0.125744, 0.125982, 0.125551, 0.125965, 0.131282, 0.131379, 0.130109, 0.127245, 0.125880, 0.125764, 0.126083, 0.125726
Process 52: 0.239440, 0.149403, 0.126688, 0.126406, 0.126533, 0.127489, 0.130220, 0.128130, 0.126184, 0.126541, 0.126383, 0.126890, 0.126370, 0.126418, 0.126127, 0.126225, 0.126075, 0.126198, 0.126391, 0.126629, 0.126187, 0.126598, 0.131925, 0.132023, 0.130788, 0.127892, 0.126538, 0.126408, 0.126728, 0.126365
Process 53: 0.240502, 0.150215, 0.127562, 0.127265, 0.127397, 0.128364, 0.131098, 0.128985, 0.127049, 0.127407, 0.127260, 0.127756, 0.127258, 0.127292, 0.126996, 0.127086, 0.126956, 0.127064, 0.127253, 0.127498, 0.127049, 0.127468, 0.132792, 0.132882, 0.131648, 0.128772, 0.127400, 0.127271, 0.127592, 0.127227
Process 54: 0.240846, 0.150853, 0.128176, 0.127879, 0.128001, 0.128998, 0.131709, 0.129612, 0.127665, 0.128027, 0.127892, 0.128370, 0.127878, 0.127905, 0.127626, 0.127696, 0.127546, 0.127693, 0.127879, 0.128105, 0.127675, 0.128096, 0.133422, 0.133513, 0.132267, 0.129375, 0.128020, 0.127894, 0.128202, 0.127846
Process 55: 0.241887, 0.151699, 0.129033, 0.128760, 0.128875, 0.129856, 0.132568, 0.130485, 0.128551, 0.128892, 0.128800, 0.129246, 0.128736, 0.128786, 0.128512, 0.128559, 0.128420, 0.128553, 0.128768, 0.128982, 0.128559, 0.128957, 0.134290, 0.134395, 0.133148, 0.130247, 0.128895, 0.128781, 0.129071, 0.128721
Process 56: 0.242446, 0.152393, 0.129668, 0.129377, 0.129490, 0.130459, 0.133193, 0.131089, 0.129137, 0.129504, 0.129399, 0.129855, 0.129355, 0.129395, 0.129116, 0.129181, 0.129065, 0.129162, 0.129365, 0.129598, 0.129142, 0.129567, 0.134906, 0.134985, 0.133765, 0.130870, 0.129493, 0.129380, 0.129687, 0.129325
Process 57: 0.243571, 0.153271, 0.130530, 0.130251, 0.130355, 0.131335, 0.134062, 0.131972, 0.130023, 0.130373, 0.130270, 0.130727, 0.130226, 0.130260, 0.129998, 0.130052, 0.129937, 0.130033, 0.130265, 0.130473, 0.130010, 0.130434, 0.135763, 0.135842, 0.134621, 0.131770, 0.130384, 0.130252, 0.130550, 0.130203
Process 58: 0.244024, 0.153832, 0.131181, 0.130877, 0.130982, 0.131959, 0.134681, 0.132623, 0.130642, 0.131003, 0.130896, 0.131359, 0.130850, 0.130874, 0.130615, 0.130670, 0.130553, 0.130658, 0.130885, 0.131096, 0.130665, 0.131060, 0.136398, 0.136468, 0.135255, 0.132380, 0.130995, 0.130907, 0.131179, 0.130860
Process 59: 0.245018, 0.154680, 0.132046, 0.131754, 0.131851, 0.132823, 0.135551, 0.133482, 0.131512, 0.131857, 0.131756, 0.132244, 0.131699, 0.131738, 0.131484, 0.131530, 0.131416, 0.131521, 0.131739, 0.131960, 0.131523, 0.131924, 0.137247, 0.137321, 0.136129, 0.133240, 0.131869, 0.131772, 0.132032, 0.131728
Process 60: 0.245411, 0.155335, 0.132703, 0.132398, 0.132496, 0.133473, 0.136207, 0.134123, 0.132155, 0.132512, 0.132399, 0.132887, 0.132357, 0.132409, 0.132117, 0.132175, 0.132071, 0.132166, 0.132389, 0.132601, 0.132167, 0.132567, 0.137893, 0.137967, 0.136782, 0.133903, 0.132525, 0.132416, 0.132691, 0.132366
Process 61: 0.246451, 0.156173, 0.133568, 0.133274, 0.133370, 0.134349, 0.137066, 0.134991, 0.133026, 0.133381, 0.133271, 0.133761, 0.133222, 0.133273, 0.133003, 0.133064, 0.132937, 0.133048, 0.133255, 0.133476, 0.133040, 0.133438, 0.138774, 0.138836, 0.137647, 0.134759, 0.133393, 0.133294, 0.133557, 0.133250
Process 62: 0.247124, 0.156826, 0.134184, 0.133892, 0.133992, 0.134971, 0.137676, 0.135608, 0.133639, 0.134007, 0.133885, 0.134371, 0.133838, 0.133884, 0.133617, 0.133681, 0.133547, 0.133669, 0.133874, 0.134094, 0.133666, 0.134071, 0.139394, 0.139458, 0.138272, 0.135382, 0.134008, 0.133914, 0.134180, 0.133869
Process 63: 0.247966, 0.157594, 0.134977, 0.134686, 0.134775, 0.135759, 0.138476, 0.136392, 0.134435, 0.134784, 0.134674, 0.135159, 0.134628, 0.134679, 0.134399, 0.134467, 0.134330, 0.134461, 0.134658, 0.134888, 0.134459, 0.134852, 0.140177, 0.140244, 0.139055, 0.136168, 0.134803, 0.134702, 0.134971, 0.134663
