MPI_insiderank_optimisedserial
Process 0: 3.570428, 3.070638, 3.076804, 2.993957, 3.061973, 2.973657, 2.981397, 3.049583, 2.967918, 2.979080, 2.969651, 2.980784, 3.061928, 2.968968, 2.974593, 2.980358, 2.965744, 2.960518, 2.965061, 2.976387, 3.054561, 2.976019, 2.965974, 2.974438, 2.971039, 2.977825, 2.977568, 2.965443, 2.977992, 2.979473
Process 1: 3.577702, 3.077169, 3.083324, 3.000576, 3.069279, 2.980568, 2.988068, 3.056320, 2.975211, 2.985901, 2.976585, 2.987542, 3.068611, 2.975884, 2.981829, 2.987212, 2.972735, 2.967524, 2.971882, 2.982398, 3.061627, 2.982983, 2.973017, 2.981727, 2.978020, 2.985218, 2.984115, 2.972372, 2.984578, 2.986369
