MPI_insiderank_optimisedserial
Process 0: 2.517706, 2.095765, 2.102714, 2.053726, 2.046011, 2.087384, 2.368016, 1.995210, 2.210433, 1.959011, 2.309139, 2.003536, 2.399741, 1.905682, 2.091033, 2.103144, 2.307135, 2.022813, 2.284819, 1.923477, 2.287215, 2.248458, 1.973554, 2.188369, 1.951171, 2.353127, 1.968847, 2.411591, 2.346465, 1.895462
Process 1: 2.182006, 1.986325, 2.053756, 1.928141, 1.930711, 1.972104, 2.105688, 1.878898, 1.968733, 1.839069, 2.043910, 1.885573, 2.081051, 1.853811, 1.995315, 1.984083, 2.046681, 1.897608, 2.031229, 1.870433, 2.025178, 1.987185, 1.858383, 1.938443, 1.831613, 2.024797, 1.915798, 2.075023, 2.032438, 1.844964
Process 2: 2.327284, 2.005882, 2.080356, 1.958526, 1.956123, 1.999096, 2.256529, 1.907077, 2.106397, 1.867682, 2.195344, 1.915445, 2.226886, 1.883012, 2.014340, 2.012887, 2.194481, 1.937108, 2.173525, 1.895823, 2.170401, 2.135550, 1.887952, 2.079900, 1.862374, 2.169207, 1.944909, 2.230864, 2.175450, 1.875170
Process 3: 2.520229, 2.098301, 2.104902, 2.056163, 2.048440, 2.089808, 2.370159, 1.997636, 2.212680, 1.961471, 2.311248, 2.005962, 2.402249, 1.907865, 2.093190, 2.105240, 2.309254, 2.025249, 2.286961, 1.925585, 2.289318, 2.250660, 1.976065, 2.190640, 1.953310, 2.355627, 1.971014, 2.414040, 2.348971, 1.897591
