mpi_trmm_opt3
Process 0: 43.174480, 42.552960, 42.479413, 42.224632, 42.152798, 42.167730, 42.173689, 42.547478, 42.280341, 42.474440, 42.219886, 42.103222, 42.161482, 42.363581, 42.576690, 42.288290, 42.454040, 42.402464, 42.240648, 42.356455, 42.405833, 42.276934, 42.318421, 42.416540, 42.241911, 42.422050, 42.297420, 42.358522, 42.198801, 42.326919
Process 1: 43.183398, 42.561797, 42.488211, 42.233451, 42.161737, 42.176572, 42.182498, 42.556452, 42.289304, 42.483524, 42.228699, 42.112243, 42.170365, 42.372453, 42.585742, 42.297121, 42.463079, 42.411278, 42.249635, 42.365291, 42.414636, 42.285944, 42.327248, 42.425361, 42.250874, 42.431047, 42.306244, 42.367336, 42.207811, 42.335730
