mpi_trmm_opt3
Process 0: 31.700302, 31.743334, 31.739526, 31.534444, 31.599868, 31.543475, 31.642096, 31.545330, 31.593632, 31.623649, 31.682752, 31.668229, 31.584374, 31.568586, 31.541214, 31.564335, 31.580754, 31.584711, 31.661777, 31.645205, 31.619590, 31.618063, 31.584788, 31.618598, 31.553397, 31.697061, 31.539335, 31.635177, 31.600253, 31.589561
Process 1: 31.391284, 31.496834, 31.480981, 31.314921, 31.345958, 31.350360, 31.366477, 31.351469, 31.353099, 31.405454, 31.440892, 31.446706, 31.373900, 31.309930, 31.335709, 31.339365, 31.352871, 31.341184, 31.406958, 31.404575, 31.397725, 31.358663, 31.364775, 31.363484, 31.362179, 31.419198, 31.336203, 31.393198, 31.366791, 31.368530
Process 2: 31.393135, 31.497815, 31.481941, 31.315864, 31.346914, 31.351296, 31.367507, 31.352420, 31.354058, 31.406379, 31.441891, 31.447640, 31.375069, 31.311303, 31.336679, 31.340639, 31.353829, 31.342210, 31.408240, 31.405662, 31.399013, 31.359633, 31.365839, 31.364475, 31.363175, 31.420239, 31.337129, 31.394173, 31.367746, 31.369487
Process 3: 31.395224, 31.499860, 31.484067, 31.317712, 31.349069, 31.353058, 31.369654, 31.354231, 31.356106, 31.408201, 31.443907, 31.449469, 31.376921, 31.313162, 31.338567, 31.342493, 31.355720, 31.344437, 31.410136, 31.407922, 31.400816, 31.361895, 31.367593, 31.366616, 31.365010, 31.422284, 31.338971, 31.396153, 31.369500, 31.371491
Process 4: 31.396314, 31.500816, 31.485009, 31.318629, 31.350005, 31.354307, 31.370611, 31.355427, 31.357042, 31.409092, 31.445143, 31.450369, 31.378162, 31.314068, 31.339524, 31.343397, 31.356623, 31.345470, 31.411030, 31.408900, 31.401761, 31.362854, 31.368500, 31.367562, 31.365916, 31.423234, 31.339910, 31.397380, 31.370412, 31.372708
Process 5: 31.398277, 31.502827, 31.487195, 31.320431, 31.352195, 31.356056, 31.372728, 31.357331, 31.359106, 31.410839, 31.447176, 31.452248, 31.380048, 31.315877, 31.341463, 31.345216, 31.358509, 31.347136, 31.412863, 31.411171, 31.403512, 31.365072, 31.370236, 31.369771, 31.367736, 31.425285, 31.341744, 31.399419, 31.372157, 31.374783
Process 6: 31.399959, 31.503774, 31.488135, 31.321325, 31.353126, 31.356934, 31.373681, 31.358214, 31.360034, 31.411723, 31.448130, 31.453137, 31.380965, 31.316774, 31.342364, 31.346115, 31.359410, 31.348177, 31.413748, 31.412146, 31.404400, 31.365984, 31.371137, 31.370718, 31.368632, 31.426233, 31.342647, 31.400414, 31.373034, 31.375731
Process 7: 31.404453, 31.507297, 31.491686, 31.324934, 31.356736, 31.358684, 31.379129, 31.360014, 31.363724, 31.415013, 31.451895, 31.456501, 31.382811, 31.322083, 31.344206, 31.349943, 31.362721, 31.350265, 31.419015, 31.414316, 31.407977, 31.369517, 31.374746, 31.374242, 31.370477, 31.431454, 31.344456, 31.403974, 31.376286, 31.377640
Process 8: 31.406808, 31.508649, 31.493636, 31.326133, 31.358635, 31.359823, 31.380841, 31.361220, 31.365029, 31.416657, 31.453169, 31.458096, 31.384042, 31.323605, 31.345453, 31.351077, 31.364441, 31.351855, 31.420592, 31.416198, 31.409115, 31.371587, 31.375882, 31.376247, 31.371600, 31.433272, 31.345896, 31.405300, 31.378250, 31.378934
Process 9: 31.409713, 31.510692, 31.495835, 31.327941, 31.360821, 31.361548, 31.382929, 31.363040, 31.367082, 31.418418, 31.455200, 31.459915, 31.385901, 31.325427, 31.347355, 31.352886, 31.366309, 31.354052, 31.422429, 31.418451, 31.410860, 31.373847, 31.377640, 31.378433, 31.373433, 31.435299, 31.347779, 31.407277, 31.380049, 31.380931
Process 10: 31.411177, 31.512047, 31.497271, 31.329130, 31.362228, 31.362761, 31.384294, 31.364188, 31.368396, 31.419573, 31.456498, 31.461117, 31.387141, 31.326814, 31.348584, 31.354266, 31.367481, 31.355631, 31.423806, 31.419952, 31.412267, 31.375307, 31.378794, 31.379901, 31.374580, 31.436716, 31.348927, 31.408614, 31.381194, 31.382229
Process 11: 31.413613, 31.514050, 31.499370, 31.330924, 31.364354, 31.364496, 31.386387, 31.366016, 31.370462, 31.421328, 31.458485, 31.462960, 31.389016, 31.328711, 31.350536, 31.356115, 31.369362, 31.357792, 31.425672, 31.422170, 31.414037, 31.377481, 31.380558, 31.382032, 31.376406, 31.438750, 31.350805, 31.410607, 31.382959, 31.384236
Process 12: 31.414530, 31.515401, 31.500820, 31.332061, 31.365745, 31.365845, 31.387731, 31.367390, 31.371790, 31.422462, 31.459904, 31.464093, 31.390405, 31.329837, 31.351739, 31.357233, 31.370515, 31.359389, 31.426795, 31.423695, 31.415166, 31.378931, 31.381690, 31.383456, 31.377526, 31.440131, 31.351927, 31.412054, 31.384094, 31.385713
Process 13: 31.416685, 31.517383, 31.502903, 31.333871, 31.367872, 31.367605, 31.389837, 31.369234, 31.373846, 31.424201, 31.461916, 31.465914, 31.392354, 31.331660, 31.353644, 31.359101, 31.372369, 31.361551, 31.428661, 31.425881, 31.416915, 31.381114, 31.383487, 31.385587, 31.379356, 31.442149, 31.353770, 31.414046, 31.385878, 31.387731
Process 14: 31.418224, 31.518728, 31.504336, 31.334994, 31.369239, 31.368717, 31.391180, 31.370331, 31.375118, 31.425313, 31.463161, 31.467023, 31.393567, 31.332772, 31.354813, 31.360205, 31.373507, 31.363177, 31.429772, 31.427434, 31.418017, 31.382619, 31.384592, 31.387003, 31.380506, 31.443527, 31.354879, 31.415376, 31.386989, 31.389016
Process 15: 31.424161, 31.522261, 31.507987, 31.338617, 31.372714, 31.370441, 31.396297, 31.372146, 31.378743, 31.428734, 31.466826, 31.470240, 31.395346, 31.337984, 31.356637, 31.363962, 31.376943, 31.365249, 31.435079, 31.429542, 31.421630, 31.386173, 31.388153, 31.390654, 31.382336, 31.448838, 31.356698, 31.418923, 31.390292, 31.390928
Process 16: 31.425589, 31.523562, 31.509779, 31.339740, 31.374692, 31.371563, 31.398094, 31.373322, 31.380015, 31.430235, 31.468083, 31.471996, 31.396556, 31.339577, 31.357883, 31.365090, 31.378471, 31.366792, 31.436508, 31.431088, 31.422743, 31.388051, 31.389272, 31.392526, 31.383446, 31.450500, 31.358145, 31.420284, 31.392128, 31.392169
Process 17: 31.428168, 31.525568, 31.511936, 31.341556, 31.376899, 31.373344, 31.400236, 31.375143, 31.382127, 31.431963, 31.470081, 31.473821, 31.398424, 31.341408, 31.359843, 31.366899, 31.380340, 31.368960, 31.438389, 31.433277, 31.424496, 31.390311, 31.391034, 31.394707, 31.385277, 31.452536, 31.360028, 31.422270, 31.393913, 31.394202
Process 18: 31.429494, 31.526923, 31.513293, 31.342682, 31.378167, 31.374463, 31.401585, 31.376308, 31.383349, 31.433088, 31.471261, 31.474936, 31.399571, 31.342986, 31.360939, 31.368437, 31.381440, 31.370420, 31.439735, 31.434694, 31.425848, 31.391679, 31.392156, 31.396021, 31.386381, 31.453804, 31.361138, 31.423509, 31.395040, 31.395445
Process 19: 31.431625, 31.528881, 31.515403, 31.344503, 31.380323, 31.376196, 31.403675, 31.378122, 31.385378, 31.434830, 31.473256, 31.476757, 31.401429, 31.344731, 31.362851, 31.370265, 31.383323, 31.372609, 31.441616, 31.436965, 31.427629, 31.393880, 31.393946, 31.398166, 31.388220, 31.455832, 31.362977, 31.425473, 31.396786, 31.397449
Process 20: 31.433320, 31.530248, 31.516819, 31.345602, 31.381622, 31.377547, 31.404918, 31.379444, 31.386572, 31.435929, 31.474699, 31.477854, 31.402840, 31.346295, 31.363944, 31.371776, 31.384454, 31.374094, 31.442709, 31.438382, 31.428728, 31.395220, 31.395042, 31.399508, 31.389320, 31.457133, 31.364064, 31.426866, 31.397873, 31.398838
Process 21: 31.435779, 31.532219, 31.518905, 31.347426, 31.383768, 31.379297, 31.406995, 31.381305, 31.388635, 31.437711, 31.476707, 31.479680, 31.404726, 31.348084, 31.365856, 31.373529, 31.386333, 31.376279, 31.444533, 31.440602, 31.430478, 31.397433, 31.396780, 31.401663, 31.391183, 31.459152, 31.365903, 31.428876, 31.399619, 31.400859
Process 22: 31.437104, 31.533507, 31.520253, 31.348547, 31.385006, 31.380381, 31.408250, 31.382376, 31.389809, 31.438784, 31.477839, 31.480809, 31.405814, 31.349624, 31.366919, 31.375030, 31.387388, 31.377735, 31.445595, 31.441983, 31.431574, 31.398769, 31.397848, 31.402961, 31.392253, 31.460389, 31.366973, 31.430129, 31.400690, 31.402018
Process 23: 31.442314, 31.537026, 31.523743, 31.352109, 31.388609, 31.382135, 31.413495, 31.384173, 31.393421, 31.442037, 31.481461, 31.484134, 31.407662, 31.354799, 31.368815, 31.378594, 31.390699, 31.379915, 31.450836, 31.444191, 31.435118, 31.402257, 31.401401, 31.406437, 31.394073, 31.465560, 31.368794, 31.433671, 31.403886, 31.404007
Process 24: 31.444050, 31.538352, 31.525705, 31.353221, 31.390467, 31.383252, 31.415126, 31.385343, 31.394634, 31.443657, 31.482649, 31.485709, 31.408801, 31.356721, 31.369998, 31.380099, 31.392311, 31.381370, 31.452390, 31.445659, 31.436227, 31.404239, 31.402513, 31.408401, 31.395181, 31.467291, 31.370263, 31.434909, 31.405889, 31.405254
Process 25: 31.446557, 31.540422, 31.527870, 31.355027, 31.392741, 31.384990, 31.417254, 31.387188, 31.396719, 31.445400, 31.484712, 31.487524, 31.410698, 31.358521, 31.371947, 31.381864, 31.394242, 31.383099, 31.454237, 31.447953, 31.437970, 31.406536, 31.404275, 31.410669, 31.397030, 31.469343, 31.372152, 31.436917, 31.407685, 31.407283
Process 26: 31.448151, 31.541775, 31.529271, 31.356200, 31.394080, 31.386114, 31.418618, 31.388302, 31.398008, 31.446519, 31.485960, 31.488651, 31.411913, 31.359911, 31.373133, 31.383245, 31.395410, 31.384671, 31.455590, 31.449452, 31.439347, 31.407951, 31.405412, 31.412060, 31.398143, 31.470690, 31.373265, 31.438233, 31.408801, 31.408561
Process 27: 31.450486, 31.543747, 31.531357, 31.358022, 31.396243, 31.387859, 31.420705, 31.390122, 31.400071, 31.448321, 31.487966, 31.490478, 31.413820, 31.361760, 31.375050, 31.385087, 31.397272, 31.386830, 31.457468, 31.451657, 31.441170, 31.410143, 31.407153, 31.414203, 31.400020, 31.472718, 31.375112, 31.440264, 31.410559, 31.410568
Process 28: 31.452028, 31.545073, 31.532777, 31.359152, 31.397597, 31.389194, 31.422024, 31.391480, 31.401356, 31.449428, 31.489368, 31.491619, 31.415193, 31.362859, 31.376221, 31.386178, 31.398394, 31.388403, 31.458576, 31.453173, 31.442270, 31.411626, 31.408246, 31.415612, 31.401112, 31.474058, 31.376204, 31.441692, 31.411655, 31.411990
Process 29: 31.454089, 31.547050, 31.534851, 31.360936, 31.399732, 31.390973, 31.424104, 31.393324, 31.403412, 31.451161, 31.491400, 31.493439, 31.417086, 31.364672, 31.378126, 31.387993, 31.400265, 31.390560, 31.460401, 31.455370, 31.444004, 31.413811, 31.409990, 31.417726, 31.402941, 31.476400, 31.378034, 31.443684, 31.413407, 31.414004
Process 30: 31.455650, 31.548357, 31.536304, 31.362029, 31.401074, 31.392099, 31.425430, 31.394397, 31.404659, 31.452242, 31.492621, 31.494509, 31.418271, 31.365750, 31.379330, 31.389099, 31.401372, 31.392111, 31.461472, 31.456915, 31.445080, 31.415227, 31.411056, 31.419166, 31.404007, 31.478096, 31.379109, 31.444983, 31.414482, 31.415303
Process 31: 31.461669, 31.551885, 31.540113, 31.365606, 31.404573, 31.393830, 31.430541, 31.396243, 31.408267, 31.455617, 31.496242, 31.497699, 31.420135, 31.370917, 31.381204, 31.392685, 31.404849, 31.394314, 31.466759, 31.459103, 31.448653, 31.418795, 31.414601, 31.422746, 31.405828, 31.483197, 31.380965, 31.448516, 31.417833, 31.417276
Process 32: 31.463190, 31.553228, 31.542044, 31.366740, 31.406559, 31.394921, 31.432308, 31.397384, 31.409487, 31.457124, 31.497424, 31.499366, 31.421264, 31.372521, 31.382332, 31.394256, 31.406312, 31.395813, 31.468198, 31.460597, 31.449738, 31.420681, 31.415692, 31.424627, 31.406919, 31.484935, 31.382372, 31.449765, 31.419629, 31.418468
Process 33: 31.465410, 31.555763, 31.544726, 31.368605, 31.408836, 31.396715, 31.434471, 31.399274, 31.411672, 31.458906, 31.499508, 31.501293, 31.423227, 31.374411, 31.384343, 31.396076, 31.408267, 31.397566, 31.470077, 31.462883, 31.451594, 31.423013, 31.417521, 31.426875, 31.408818, 31.487163, 31.384293, 31.452520, 31.421461, 31.420552
Process 34: 31.466950, 31.557430, 31.546321, 31.369702, 31.410224, 31.397791, 31.435820, 31.400350, 31.412945, 31.459984, 31.500747, 31.502377, 31.424438, 31.379861, 31.385484, 31.397390, 31.409373, 31.399174, 31.471382, 31.464428, 31.452908, 31.424480, 31.418593, 31.428302, 31.409927, 31.488669, 31.385367, 31.454002, 31.422536, 31.421830
Process 35: 31.469513, 31.559622, 31.548580, 31.371584, 31.412375, 31.399569, 31.437927, 31.402230, 31.415050, 31.461781, 31.502771, 31.504262, 31.426332, 31.381795, 31.387441, 31.399306, 31.411289, 31.402065, 31.473310, 31.466680, 31.455046, 31.426691, 31.420390, 31.430469, 31.411827, 31.490844, 31.387262, 31.456125, 31.424336, 31.423868
Process 36: 31.471084, 31.561093, 31.550101, 31.372666, 31.413665, 31.400899, 31.439231, 31.403535, 31.416210, 31.462863, 31.504128, 31.505347, 31.427662, 31.383393, 31.388516, 31.400853, 31.412351, 31.403742, 31.474381, 31.468120, 31.456468, 31.428046, 31.421458, 31.431804, 31.412900, 31.492272, 31.388330, 31.457544, 31.425444, 31.425308
Process 37: 31.473631, 31.563234, 31.552360, 31.374525, 31.415833, 31.402749, 31.441335, 31.405453, 31.418331, 31.464923, 31.506195, 31.507200, 31.429586, 31.385189, 31.390513, 31.402670, 31.414293, 31.406115, 31.476261, 31.470359, 31.458403, 31.430262, 31.424014, 31.433970, 31.414786, 31.494465, 31.390245, 31.459839, 31.427965, 31.427384
Process 38: 31.474963, 31.564710, 31.553907, 31.375609, 31.417198, 31.403835, 31.442666, 31.406583, 31.419571, 31.466339, 31.507442, 31.508290, 31.430785, 31.386269, 31.391650, 31.403753, 31.415392, 31.407807, 31.477332, 31.471882, 31.459617, 31.431771, 31.425240, 31.435398, 31.415851, 31.495963, 31.391316, 31.461359, 31.429193, 31.428658
Process 39: 31.480097, 31.568197, 31.557463, 31.379240, 31.420776, 31.405563, 31.447881, 31.408415, 31.423229, 31.469638, 31.511045, 31.511655, 31.432660, 31.391505, 31.393566, 31.407355, 31.418691, 31.410176, 31.482556, 31.474093, 31.463224, 31.435206, 31.428787, 31.438926, 31.417724, 31.501008, 31.393173, 31.464878, 31.432386, 31.430658
Process 40: 31.482271, 31.569686, 31.559467, 31.380394, 31.422666, 31.406655, 31.449548, 31.409545, 31.424397, 31.471331, 31.512201, 31.513188, 31.433768, 31.393489, 31.394691, 31.408926, 31.420267, 31.411775, 31.484060, 31.475570, 31.464433, 31.437180, 31.429999, 31.440889, 31.418801, 31.502835, 31.394652, 31.466245, 31.434290, 31.431842
Process 41: 31.484366, 31.571855, 31.561813, 31.382284, 31.424922, 31.408444, 31.451693, 31.411420, 31.426541, 31.473255, 31.514308, 31.515070, 31.435679, 31.395301, 31.396679, 31.410750, 31.422206, 31.414213, 31.485963, 31.477876, 31.466376, 31.439499, 31.431929, 31.443129, 31.420744, 31.505039, 31.400570, 31.468397, 31.436358, 31.433904
Process 42: 31.486380, 31.573322, 31.563366, 31.383376, 31.426301, 31.409813, 31.453038, 31.412507, 31.427802, 31.474485, 31.515560, 31.516151, 31.436877, 31.396632, 31.397827, 31.412100, 31.423318, 31.415932, 31.487276, 31.479417, 31.467907, 31.440961, 31.433151, 31.444566, 31.421822, 31.506586, 31.401649, 31.469868, 31.437577, 31.435232
Process 43: 31.488690, 31.575846, 31.565686, 31.385258, 31.428469, 31.412231, 31.455162, 31.414379, 31.429911, 31.476807, 31.517599, 31.518032, 31.438783, 31.398574, 31.399853, 31.414003, 31.425289, 31.418310, 31.489251, 31.481651, 31.469837, 31.443215, 31.435228, 31.446714, 31.423730, 31.508799, 31.403694, 31.472410, 31.439713, 31.437267
Process 44: 31.490634, 31.577170, 31.567235, 31.386379, 31.429845, 31.413549, 31.456500, 31.415672, 31.431214, 31.477921, 31.518982, 31.519119, 31.440134, 31.399652, 31.400996, 31.415088, 31.426383, 31.420014, 31.490317, 31.483168, 31.470903, 31.444658, 31.436299, 31.448135, 31.424802, 31.510309, 31.404834, 31.473839, 31.440783, 31.438652
Process 45: 31.493413, 31.579316, 31.569511, 31.388239, 31.432042, 31.415690, 31.458654, 31.417633, 31.433318, 31.479800, 31.521067, 31.521034, 31.442076, 31.401511, 31.402944, 31.416962, 31.428290, 31.422386, 31.492193, 31.485410, 31.472819, 31.446877, 31.438178, 31.450293, 31.426683, 31.512500, 31.406718, 31.475977, 31.442723, 31.440760
Process 46: 31.494959, 31.580626, 31.571030, 31.389330, 31.433316, 31.416772, 31.459908, 31.418711, 31.434478, 31.480882, 31.522215, 31.522120, 31.443203, 31.403611, 31.404007, 31.418529, 31.429348, 31.424038, 31.493262, 31.486889, 31.473894, 31.448241, 31.439246, 31.451638, 31.427754, 31.513907, 31.407786, 31.477207, 31.443809, 31.441943
Process 47: 31.499870, 31.584198, 31.575053, 31.392912, 31.436798, 31.418610, 31.464987, 31.420562, 31.438114, 31.484309, 31.525876, 31.525325, 31.445102, 31.408577, 31.405945, 31.422098, 31.432802, 31.426408, 31.498594, 31.489130, 31.477512, 31.451861, 31.442875, 31.455227, 31.429624, 31.519301, 31.409670, 31.480827, 31.447210, 31.443966
Process 48: 31.502252, 31.585547, 31.576915, 31.394003, 31.438781, 31.419703, 31.466830, 31.421701, 31.439400, 31.485766, 31.527130, 31.526998, 31.446315, 31.410282, 31.407165, 31.423187, 31.434347, 31.428120, 31.499981, 31.490731, 31.478588, 31.453764, 31.443986, 31.457108, 31.430738, 31.520994, 31.414041, 31.482166, 31.453345, 31.445288
Process 49: 31.504961, 31.587653, 31.579159, 31.395886, 31.441018, 31.421576, 31.468990, 31.423584, 31.441520, 31.487673, 31.529168, 31.528881, 31.448228, 31.412209, 31.409126, 31.425071, 31.436256, 31.430491, 31.501880, 31.492960, 31.480480, 31.456065, 31.445880, 31.459355, 31.432635, 31.523281, 31.415988, 31.484244, 31.455314, 31.447314
Process 50: 31.506209, 31.588999, 31.580595, 31.397005, 31.442419, 31.422735, 31.470337, 31.424672, 31.442798, 31.488757, 31.530424, 31.529966, 31.449433, 31.413530, 31.410330, 31.426372, 31.437362, 31.432203, 31.503178, 31.494503, 31.481851, 31.457813, 31.446955, 31.460794, 31.433709, 31.524986, 31.417056, 31.485581, 31.456392, 31.448613
Process 51: 31.509009, 31.591142, 31.582796, 31.398901, 31.444601, 31.424567, 31.472455, 31.426570, 31.444913, 31.490652, 31.532448, 31.531894, 31.451340, 31.415542, 31.412284, 31.428340, 31.439280, 31.434616, 31.505386, 31.496764, 31.483785, 31.460256, 31.448851, 31.463190, 31.435605, 31.527183, 31.418959, 31.487641, 31.458307, 31.450628
Process 52: 31.510439, 31.592470, 31.584224, 31.399981, 31.446246, 31.425874, 31.473799, 31.427843, 31.446165, 31.491732, 31.533901, 31.532972, 31.452743, 31.416789, 31.413424, 31.429413, 31.440378, 31.436323, 31.506794, 31.498289, 31.484855, 31.462047, 31.449917, 31.464934, 31.436673, 31.528690, 31.420076, 31.489072, 31.459379, 31.452025
Process 53: 31.513122, 31.594542, 31.586464, 31.401845, 31.448779, 31.427784, 31.476268, 31.429761, 31.448249, 31.493581, 31.535967, 31.534836, 31.454661, 31.419149, 31.415363, 31.431284, 31.442265, 31.438683, 31.508774, 31.500504, 31.486734, 31.464335, 31.451787, 31.467157, 31.438542, 31.530846, 31.421951, 31.491237, 31.461255, 31.454106
Process 54: 31.514615, 31.595883, 31.587912, 31.402925, 31.450264, 31.428863, 31.477914, 31.430840, 31.449809, 31.494660, 31.537205, 31.535927, 31.455848, 31.420239, 31.416504, 31.432645, 31.443345, 31.440390, 31.509992, 31.502032, 31.487804, 31.465928, 31.452860, 31.468751, 31.439606, 31.532358, 31.423016, 31.492568, 31.462332, 31.455426
Process 55: 31.519364, 31.599505, 31.591453, 31.406588, 31.453856, 31.430703, 31.483033, 31.432688, 31.453675, 31.498013, 31.540832, 31.539256, 31.457715, 31.425371, 31.418424, 31.436394, 31.446738, 31.442755, 31.515004, 31.504248, 31.491442, 31.469368, 31.456506, 31.472207, 31.441500, 31.537412, 31.424882, 31.496175, 31.465594, 31.457427
Process 56: 31.521562, 31.600863, 31.593420, 31.407668, 31.455794, 31.431833, 31.484861, 31.433829, 31.455059, 31.499588, 31.542075, 31.541000, 31.458917, 31.426849, 31.419691, 31.437609, 31.448346, 31.444490, 31.516628, 31.505839, 31.492526, 31.471499, 31.457594, 31.474250, 31.442573, 31.539338, 31.426277, 31.497503, 31.468408, 31.458712
Process 57: 31.524448, 31.602952, 31.595731, 31.409536, 31.458119, 31.433715, 31.487050, 31.435717, 31.457237, 31.501489, 31.544148, 31.542908, 31.460826, 31.428765, 31.421655, 31.439581, 31.450275, 31.446881, 31.518605, 31.508131, 31.494407, 31.473895, 31.459501, 31.476585, 31.444461, 31.541544, 31.428216, 31.499589, 31.470346, 31.460767
Process 58: 31.525827, 31.604281, 31.597156, 31.410616, 31.459615, 31.434794, 31.488577, 31.436853, 31.458634, 31.502582, 31.545402, 31.544002, 31.462020, 31.430105, 31.422798, 31.440918, 31.451583, 31.448592, 31.519936, 31.509638, 31.495728, 31.475479, 31.460581, 31.478109, 31.445541, 31.543046, 31.429291, 31.500962, 31.471426, 31.462043
Process 59: 31.528892, 31.606388, 31.599355, 31.412959, 31.461910, 31.436679, 31.490758, 31.438709, 31.460862, 31.504463, 31.547432, 31.546389, 31.463952, 31.432024, 31.424772, 31.442928, 31.453968, 31.450972, 31.521963, 31.511889, 31.497663, 31.477773, 31.462492, 31.480393, 31.447434, 31.545235, 31.431245, 31.503040, 31.473324, 31.464071
Process 60: 31.530042, 31.607733, 31.600792, 31.414201, 31.463412, 31.437988, 31.492231, 31.440029, 31.462243, 31.505545, 31.548810, 31.547625, 31.465321, 31.433102, 31.425916, 31.444161, 31.455209, 31.452689, 31.523172, 31.513415, 31.498739, 31.479337, 31.463614, 31.481946, 31.448499, 31.546792, 31.432316, 31.504464, 31.474396, 31.465519
Process 61: 31.533003, 31.609847, 31.602993, 31.416129, 31.465651, 31.439907, 31.494400, 31.441922, 31.464399, 31.507458, 31.551415, 31.549527, 31.467271, 31.434982, 31.427872, 31.446455, 31.457158, 31.455064, 31.525478, 31.515656, 31.500617, 31.481691, 31.465459, 31.484183, 31.450423, 31.548969, 31.434206, 31.506593, 31.476301, 31.467834
Process 62: 31.534708, 31.611180, 31.604420, 31.417379, 31.467341, 31.440988, 31.495867, 31.442999, 31.465797, 31.508540, 31.552763, 31.550822, 31.468474, 31.436061, 31.429016, 31.447534, 31.458390, 31.456759, 31.526547, 31.517729, 31.501727, 31.483254, 31.466527, 31.485713, 31.451492, 31.550476, 31.435488, 31.507914, 31.477376, 31.469446
Process 63: 31.539816, 31.614716, 31.608126, 31.421075, 31.471024, 31.442880, 31.501126, 31.444836, 31.469626, 31.511980, 31.556405, 31.554268, 31.470358, 31.441175, 31.431018, 31.451166, 31.462015, 31.459531, 31.531871, 31.520064, 31.505362, 31.486854, 31.470148, 31.489772, 31.453368, 31.555863, 31.437685, 31.511536, 31.480749, 31.471517
Process 64: 31.541277, 31.616121, 31.610039, 31.422223, 31.473184, 31.444034, 31.503363, 31.446076, 31.471374, 31.513499, 31.557870, 31.555994, 31.471628, 31.442829, 31.432286, 31.452317, 31.463554, 31.461330, 31.533307, 31.521855, 31.506506, 31.488931, 31.471292, 31.491695, 31.454510, 31.557630, 31.439142, 31.512935, 31.482569, 31.473014
Process 65: 31.543683, 31.618217, 31.612246, 31.424079, 31.475472, 31.445882, 31.505490, 31.447946, 31.473421, 31.515370, 31.559917, 31.557844, 31.473519, 31.444692, 31.434400, 31.454174, 31.465476, 31.463727, 31.535184, 31.524164, 31.508355, 31.491274, 31.473151, 31.493916, 31.456375, 31.560059, 31.441163, 31.515090, 31.486083, 31.475115
Process 66: 31.545721, 31.619655, 31.613746, 31.425220, 31.477077, 31.447027, 31.507066, 31.449107, 31.474946, 31.516518, 31.561393, 31.558994, 31.475083, 31.446004, 31.435798, 31.455484, 31.466637, 31.465521, 31.536493, 31.525897, 31.509684, 31.492982, 31.474296, 31.495401, 31.457525, 31.561666, 31.442474, 31.516473, 31.487255, 31.476616
Process 67: 31.547901, 31.621714, 31.615937, 31.427103, 31.479262, 31.448867, 31.509248, 31.451188, 31.477026, 31.518414, 31.563480, 31.560879, 31.477588, 31.447954, 31.437758, 31.457386, 31.468528, 31.467886, 31.538441, 31.528232, 31.511638, 31.495258, 31.476164, 31.497545, 31.459369, 31.563807, 31.444523, 31.518514, 31.489129, 31.478837
Process 68: 31.549713, 31.623121, 31.617438, 31.428249, 31.480871, 31.450170, 31.510814, 31.452515, 31.478528, 31.519556, 31.564972, 31.562023, 31.479038, 31.449096, 31.439370, 31.458562, 31.469698, 31.469689, 31.539583, 31.529965, 31.512782, 31.496937, 31.477312, 31.499079, 31.460533, 31.565386, 31.445649, 31.520006, 31.490282, 31.480266
Process 69: 31.551999, 31.625177, 31.619594, 31.430058, 31.483081, 31.452088, 31.512936, 31.454685, 31.481021, 31.521374, 31.567279, 31.563847, 31.481102, 31.450928, 31.441244, 31.460390, 31.471548, 31.472033, 31.541407, 31.532267, 31.514604, 31.499192, 31.479135, 31.501196, 31.462593, 31.567592, 31.447482, 31.522132, 31.493205, 31.482331
Process 70: 31.553800, 31.626563, 31.621093, 31.431203, 31.484683, 31.453227, 31.514497, 31.455818, 31.482357, 31.522515, 31.568592, 31.564994, 31.482553, 31.452067, 31.442454, 31.461532, 31.472714, 31.473832, 31.542546, 31.534007, 31.515752, 31.500850, 31.480276, 31.502684, 31.463915, 31.569162, 31.448613, 31.523508, 31.494360, 31.483662
Process 71: 31.558643, 31.630150, 31.624610, 31.434740, 31.488628, 31.455032, 31.520043, 31.457676, 31.485929, 31.525778, 31.572150, 31.568286, 31.484679, 31.457304, 31.444362, 31.465087, 31.476052, 31.476189, 31.547639, 31.536354, 31.519304, 31.504745, 31.483884, 31.506142, 31.465783, 31.574116, 31.450460, 31.527072, 31.497592, 31.485697
Process 72: 31.561275, 31.631539, 31.626635, 31.435880, 31.490523, 31.456176, 31.521872, 31.458873, 31.487197, 31.527462, 31.573405, 31.569898, 31.485848, 31.459392, 31.445530, 31.466705, 31.477687, 31.477897, 31.549250, 31.538071, 31.520449, 31.506860, 31.485025, 31.508148, 31.467262, 31.576047, 31.451891, 31.528373, 31.499525, 31.486946
Process 73: 31.563889, 31.633620, 31.628893, 31.437777, 31.492779, 31.458028, 31.524000, 31.460707, 31.489246, 31.529316, 31.575416, 31.571793, 31.487798, 31.461192, 31.447448, 31.468537, 31.479587, 31.480248, 31.551105, 31.540384, 31.522324, 31.509218, 31.486889, 31.510410, 31.469089, 31.578246, 31.453781, 31.530481, 31.501438, 31.488966
Process 74: 31.565457, 31.635019, 31.630404, 31.438931, 31.494227, 31.459182, 31.525583, 31.461852, 31.490612, 31.530479, 31.576735, 31.572941, 31.489066, 31.462519, 31.448677, 31.469857, 31.480769, 31.482040, 31.552432, 31.542098, 31.523653, 31.510917, 31.488041, 31.511912, 31.470269, 31.579845, 31.454931, 31.531881, 31.502588, 31.490312
Process 75: 31.567616, 31.637094, 31.632570, 31.440770, 31.496346, 31.461016, 31.527710, 31.463683, 31.492683, 31.532321, 31.578727, 31.574794, 31.491014, 31.464428, 31.450625, 31.471765, 31.482640, 31.484424, 31.554331, 31.544432, 31.525557, 31.513189, 31.489892, 31.514053, 31.472092, 31.581995, 31.456773, 31.533909, 31.504425, 31.492315
Process 76: 31.569644, 31.638485, 31.634075, 31.441916, 31.497794, 31.462373, 31.529327, 31.464989, 31.494032, 31.533470, 31.580135, 31.575956, 31.492569, 31.465579, 31.451849, 31.472912, 31.483846, 31.486225, 31.555468, 31.546189, 31.526695, 31.514866, 31.491037, 31.515549, 31.473229, 31.583598, 31.457919, 31.535385, 31.505589, 31.493757
Process 77: 31.571751, 31.640593, 31.636258, 31.443739, 31.499911, 31.464279, 31.531446, 31.466939, 31.496082, 31.535295, 31.582194, 31.577784, 31.494570, 31.467396, 31.453738, 31.474746, 31.485714, 31.488587, 31.557299, 31.548970, 31.528520, 31.517131, 31.492874, 31.517684, 31.475068, 31.585750, 31.459780, 31.537494, 31.507455, 31.495839
Process 78: 31.574310, 31.641987, 31.637764, 31.444873, 31.501363, 31.465415, 31.533005, 31.468089, 31.497425, 31.536447, 31.583554, 31.578927, 31.495824, 31.468553, 31.454948, 31.475882, 31.486877, 31.490391, 31.558463, 31.550704, 31.529657, 31.518802, 31.494052, 31.519224, 31.476199, 31.587378, 31.460922, 31.538887, 31.508592, 31.497187
Process 79: 31.578532, 31.645507, 31.641384, 31.448453, 31.504817, 31.467233, 31.538226, 31.469898, 31.501065, 31.539854, 31.587093, 31.582412, 31.497749, 31.473632, 31.456830, 31.479469, 31.490272, 31.492740, 31.563671, 31.552989, 31.533242, 31.522786, 31.497635, 31.522799, 31.478029, 31.592712, 31.462742, 31.542466, 31.511906, 31.499179
Process 80: 31.580832, 31.646912, 31.643302, 31.449601, 31.506871, 31.468386, 31.540458, 31.471113, 31.502413, 31.541376, 31.588418, 31.583907, 31.499023, 31.475288, 31.458101, 31.480619, 31.491835, 31.494553, 31.565126, 31.554780, 31.534401, 31.524735, 31.498783, 31.524725, 31.479178, 31.594473, 31.464165, 31.543860, 31.513775, 31.500515
Process 81: 31.583818, 31.648978, 31.645513, 31.451448, 31.509091, 31.470224, 31.542595, 31.472947, 31.504476, 31.543235, 31.590408, 31.585766, 31.500968, 31.477143, 31.460054, 31.482467, 31.493777, 31.496900, 31.566983, 31.557118, 31.536250, 31.527025, 31.500637, 31.526945, 31.481076, 31.596934, 31.466060, 31.545910, 31.515706, 31.502539
Process 82: 31.585232, 31.650419, 31.647050, 31.452599, 31.510531, 31.471373, 31.544152, 31.474113, 31.505858, 31.544399, 31.591719, 31.586930, 31.502241, 31.478506, 31.461271, 31.483774, 31.494955, 31.498691, 31.568346, 31.558850, 31.537564, 31.528546, 31.501789, 31.528440, 31.482226, 31.598540, 31.467221, 31.547302, 31.516863, 31.503884
Process 83: 31.587774, 31.652483, 31.649206, 31.454412, 31.512691, 31.473240, 31.546285, 31.475929, 31.507883, 31.546231, 31.593746, 31.588772, 31.504206, 31.480408, 31.463163, 31.485691, 31.496824, 31.501056, 31.570255, 31.561141, 31.539473, 31.530734, 31.503679, 31.530622, 31.484065, 31.600675, 31.469048, 31.549346, 31.518685, 31.505932
Process 84: 31.589630, 31.653886, 31.650721, 31.455563, 31.514125, 31.474522, 31.547844, 31.477275, 31.509234, 31.547429, 31.595161, 31.589927, 31.505592, 31.481567, 31.464387, 31.486834, 31.497990, 31.502880, 31.571400, 31.562873, 31.540623, 31.532303, 31.504828, 31.532117, 31.485210, 31.602261, 31.470238, 31.550821, 31.519843, 31.507339
Process 85: 31.592459, 31.655939, 31.652893, 31.457406, 31.516246, 31.476409, 31.550015, 31.479182, 31.511305, 31.549291, 31.597206, 31.591796, 31.507588, 31.483395, 31.466270, 31.488711, 31.499834, 31.505223, 31.573214, 31.565180, 31.542486, 31.534493, 31.506648, 31.534253, 31.487024, 31.604412, 31.472040, 31.552930, 31.521659, 31.509408
Process 86: 31.594072, 31.657346, 31.654403, 31.458558, 31.517688, 31.477549, 31.551576, 31.480341, 31.512680, 31.550439, 31.598522, 31.592947, 31.508855, 31.484541, 31.467491, 31.489852, 31.501004, 31.507009, 31.574359, 31.566979, 31.543635, 31.536017, 31.507788, 31.535755, 31.488163, 31.606000, 31.473195, 31.554328, 31.522812, 31.510757
Process 87: 31.599251, 31.660905, 31.657941, 31.462108, 31.521246, 31.479358, 31.556827, 31.482138, 31.516224, 31.553697, 31.602096, 31.596233, 31.510746, 31.489712, 31.469395, 31.493407, 31.504297, 31.509344, 31.579513, 31.569277, 31.547197, 31.539437, 31.511342, 31.539246, 31.490018, 31.610980, 31.475004, 31.557879, 31.526013, 31.512724
Process 88: 31.601270, 31.662329, 31.659970, 31.463260, 31.523228, 31.480519, 31.558944, 31.483351, 31.517584, 31.555342, 31.603452, 31.597867, 31.512017, 31.491254, 31.470664, 31.494557, 31.505988, 31.511129, 31.581083, 31.571056, 31.548346, 31.541566, 31.512503, 31.541282, 31.491163, 31.612998, 31.476439, 31.559285, 31.527955, 31.514076
Process 89: 31.603519, 31.664401, 31.662173, 31.465092, 31.525435, 31.482397, 31.561075, 31.485184, 31.519631, 31.557218, 31.605466, 31.599704, 31.514000, 31.493103, 31.472578, 31.496403, 31.507856, 31.513531, 31.582935, 31.573370, 31.550201, 31.543842, 31.514392, 31.543508, 31.493009, 31.615145, 31.478330, 31.561394, 31.529877, 31.516137
Process 90: 31.605417, 31.665799, 31.663688, 31.466282, 31.526884, 31.483551, 31.562636, 31.486346, 31.521039, 31.558366, 31.606793, 31.600900, 31.515281, 31.494428, 31.473801, 31.497733, 31.509055, 31.515326, 31.584267, 31.575105, 31.551582, 31.545373, 31.515540, 31.545013, 31.494166, 31.616782, 31.479534, 31.562781, 31.531035, 31.517489
Process 91: 31.608137, 31.667858, 31.665936, 31.468106, 31.529014, 31.485374, 31.564770, 31.488220, 31.523074, 31.560215, 31.608766, 31.602755, 31.517219, 31.496331, 31.475711, 31.499664, 31.510911, 31.517660, 31.586155, 31.577439, 31.553477, 31.547573, 31.517385, 31.547142, 31.496017, 31.618931, 31.481360, 31.564817, 31.532890, 31.519478
Process 92: 31.609753, 31.669311, 31.667477, 31.469249, 31.530488, 31.486678, 31.566370, 31.489517, 31.524459, 31.561362, 31.610192, 31.603907, 31.518624, 31.497490, 31.476966, 31.500814, 31.512101, 31.518960, 31.587323, 31.579201, 31.554631, 31.549129, 31.518531, 31.548727, 31.497172, 31.620555, 31.482508, 31.566295, 31.534041, 31.520932
Process 93: 31.611746, 31.671402, 31.669665, 31.471075, 31.532669, 31.488566, 31.568555, 31.491422, 31.526515, 31.563193, 31.612262, 31.605736, 31.520641, 31.499357, 31.478881, 31.502642, 31.514042, 31.521224, 31.589188, 31.581522, 31.556447, 31.551339, 31.520359, 31.550875, 31.498999, 31.622723, 31.484330, 31.568416, 31.535903, 31.523011
Process 94: 31.614359, 31.672812, 31.671166, 31.472225, 31.534116, 31.489716, 31.570120, 31.492565, 31.527880, 31.564333, 31.613627, 31.606894, 31.521909, 31.500506, 31.480140, 31.503796, 31.515214, 31.522901, 31.590321, 31.583250, 31.557583, 31.552877, 31.521517, 31.552372, 31.500168, 31.624306, 31.485480, 31.569823, 31.537047, 31.524359
Process 95: 31.618514, 31.676621, 31.674968, 31.475763, 31.537512, 31.491521, 31.575022, 31.494372, 31.531494, 31.567777, 31.617193, 31.610291, 31.523867, 31.505517, 31.482016, 31.507369, 31.518610, 31.525167, 31.595568, 31.585530, 31.561200, 31.556440, 31.525153, 31.555946, 31.501978, 31.629709, 31.487281, 31.573716, 31.540736, 31.526386
Process 96: 31.621389, 31.678428, 31.677066, 31.476993, 31.539611, 31.492759, 31.577116, 31.495622, 31.532913, 31.569332, 31.618562, 31.611866, 31.525186, 31.507212, 31.483341, 31.508592, 31.520221, 31.526883, 31.597062, 31.587428, 31.562377, 31.558457, 31.526349, 31.557922, 31.503173, 31.631514, 31.488719, 31.575498, 31.542605, 31.527779
Process 97: 31.624054, 31.680824, 31.679366, 31.479021, 31.541628, 31.494771, 31.579155, 31.497601, 31.534819, 31.571246, 31.620941, 31.613773, 31.527482, 31.509156, 31.485600, 31.510487, 31.522434, 31.528743, 31.599284, 31.589410, 31.564476, 31.560424, 31.528428, 31.559911, 31.505184, 31.633774, 31.490803, 31.577484, 31.544699, 31.530149
Process 98: 31.625624, 31.682421, 31.681076, 31.480228, 31.543134, 31.495951, 31.580783, 31.498797, 31.536208, 31.572428, 31.622312, 31.614972, 31.528808, 31.510478, 31.486883, 31.511819, 31.523689, 31.530485, 31.600608, 31.591203, 31.565797, 31.562021, 31.529620, 31.561439, 31.506390, 31.635425, 31.491994, 31.579094, 31.546119, 31.531538
Process 99: 31.628579, 31.684750, 31.683050, 31.482262, 31.545005, 31.497938, 31.582758, 31.500731, 31.538112, 31.574340, 31.624672, 31.616861, 31.531074, 31.512460, 31.489095, 31.513777, 31.525871, 31.532360, 31.602816, 31.593358, 31.568182, 31.563915, 31.531638, 31.563321, 31.508376, 31.637453, 31.493929, 31.581099, 31.548125, 31.533900
Process 100: 31.629685, 31.686360, 31.684759, 31.483446, 31.546511, 31.499259, 31.584397, 31.502278, 31.539483, 31.575529, 31.626101, 31.618055, 31.532515, 31.513657, 31.490408, 31.514978, 31.527105, 31.534085, 31.604015, 31.595000, 31.569562, 31.565493, 31.532846, 31.564875, 31.509898, 31.639094, 31.495122, 31.582691, 31.549496, 31.535387
Process 101: 31.632793, 31.688697, 31.686736, 31.485461, 31.548384, 31.501304, 31.586525, 31.504327, 31.541917, 31.577715, 31.628507, 31.619943, 31.534831, 31.515538, 31.492637, 31.516860, 31.529262, 31.535955, 31.606136, 31.596907, 31.571780, 31.567373, 31.535205, 31.566739, 31.511902, 31.641079, 31.497046, 31.584745, 31.551619, 31.537887
Process 102: 31.634370, 31.690356, 31.688453, 31.486669, 31.549881, 31.502781, 31.587984, 31.505691, 31.543274, 31.579082, 31.629880, 31.621469, 31.536153, 31.516728, 31.494248, 31.518356, 31.530482, 31.537643, 31.607337, 31.598545, 31.573155, 31.568958, 31.536581, 31.568278, 31.513265, 31.642911, 31.498591, 31.586339, 31.552810, 31.539264
Process 103: 31.639295, 31.693983, 31.691756, 31.490278, 31.553264, 31.504773, 31.593111, 31.507672, 31.547122, 31.582378, 31.633705, 31.624765, 31.538416, 31.522077, 31.496481, 31.521890, 31.534017, 31.539513, 31.612484, 31.600399, 31.576710, 31.572227, 31.540158, 31.571557, 31.515432, 31.647869, 31.500588, 31.590104, 31.556059, 31.541628
Process 104: 31.641688, 31.695583, 31.693920, 31.491460, 31.555257, 31.506125, 31.594951, 31.509186, 31.548497, 31.584211, 31.635063, 31.626568, 31.540011, 31.523974, 31.497959, 31.523260, 31.535748, 31.541497, 31.614117, 31.602082, 31.578075, 31.574337, 31.541527, 31.573636, 31.516943, 31.649938, 31.502041, 31.591536, 31.558007, 31.543331
Process 105: 31.643993, 31.697935, 31.696015, 31.493494, 31.557204, 31.508330, 31.596817, 31.511133, 31.550915, 31.586207, 31.637392, 31.628473, 31.542358, 31.526201, 31.500241, 31.525176, 31.537938, 31.543416, 31.616262, 31.603955, 31.580262, 31.576314, 31.543710, 31.575603, 31.519142, 31.651863, 31.504105, 31.593432, 31.559999, 31.545753
Process 106: 31.646532, 31.699590, 31.697733, 31.495047, 31.558712, 31.509784, 31.598341, 31.512458, 31.552290, 31.587615, 31.638753, 31.629846, 31.543838, 31.527647, 31.501691, 31.526559, 31.539179, 31.545259, 31.617590, 31.605900, 31.581683, 31.577886, 31.545281, 31.577136, 31.520539, 31.653505, 31.505525, 31.594866, 31.561176, 31.547304
Process 107: 31.648907, 31.701937, 31.699695, 31.497129, 31.560588, 31.511974, 31.600199, 31.514299, 31.554660, 31.589613, 31.641083, 31.631800, 31.546134, 31.529697, 31.503947, 31.528598, 31.541344, 31.547168, 31.619841, 31.607841, 31.583943, 31.579781, 31.547332, 31.579054, 31.522427, 31.655414, 31.507454, 31.596767, 31.563067, 31.549696
Process 108: 31.650381, 31.703542, 31.701588, 31.498484, 31.562453, 31.513421, 31.601661, 31.515603, 31.556030, 31.591074, 31.642526, 31.633288, 31.547613, 31.531072, 31.505427, 31.530005, 31.542833, 31.549011, 31.621040, 31.609632, 31.585397, 31.581344, 31.548765, 31.580931, 31.523610, 31.657105, 31.508903, 31.598480, 31.564590, 31.551210
Process 109: 31.654449, 31.705896, 31.703693, 31.500537, 31.564360, 31.515381, 31.603516, 31.517560, 31.558135, 31.592867, 31.644996, 31.635175, 31.550004, 31.533059, 31.507664, 31.531877, 31.545082, 31.550920, 31.623179, 31.611546, 31.587379, 31.583283, 31.550789, 31.582823, 31.525505, 31.659210, 31.511105, 31.600539, 31.566545, 31.553728
Process 110: 31.656631, 31.707664, 31.705230, 31.501954, 31.566023, 31.516557, 31.605246, 31.518735, 31.559761, 31.594045, 31.646703, 31.636350, 31.551543, 31.534531, 31.508917, 31.533306, 31.546473, 31.552919, 31.624698, 31.613399, 31.588570, 31.585184, 31.552263, 31.584526, 31.526693, 31.660689, 31.512489, 31.602141, 31.567923, 31.555386
Process 111: 31.662109, 31.711259, 31.708649, 31.505503, 31.569184, 31.518438, 31.610219, 31.520564, 31.563372, 31.597442, 31.650404, 31.639784, 31.553868, 31.539526, 31.511351, 31.536834, 31.550048, 31.554778, 31.629851, 31.615248, 31.592119, 31.588500, 31.556024, 31.587828, 31.528584, 31.665869, 31.514315, 31.605668, 31.571452, 31.557758
Process 112: 31.663778, 31.712846, 31.710593, 31.506724, 31.571374, 31.519615, 31.612317, 31.521809, 31.564929, 31.598997, 31.651936, 31.641356, 31.555191, 31.541233, 31.512838, 31.538228, 31.551831, 31.556484, 31.631528, 31.616986, 31.593315, 31.590637, 31.557227, 31.589950, 31.529777, 31.667712, 31.515745, 31.607269, 31.573286, 31.559144
Process 113: 31.666780, 31.715122, 31.712508, 31.508746, 31.573380, 31.521493, 31.614208, 31.523650, 31.566853, 31.600797, 31.654289, 31.643241, 31.557453, 31.543032, 31.515289, 31.540129, 31.554073, 31.558339, 31.633687, 31.618916, 31.595292, 31.592634, 31.559264, 31.591910, 31.531711, 31.669576, 31.517678, 31.609157, 31.575273, 31.561492
Process 114: 31.668091, 31.716733, 31.714072, 31.510193, 31.575026, 31.522713, 31.615830, 31.524840, 31.568407, 31.601986, 31.655824, 31.644450, 31.559066, 31.544351, 31.516567, 31.541671, 31.555469, 31.560035, 31.635051, 31.620881, 31.596624, 31.594349, 31.560468, 31.593618, 31.532918, 31.671070, 31.518880, 31.610803, 31.576476, 31.563195
Process 115: 31.670561, 31.719014, 31.715966, 31.512226, 31.576943, 31.524574, 31.617732, 31.526695, 31.570346, 31.603777, 31.658181, 31.646328, 31.561377, 31.546212, 31.518788, 31.543621, 31.557674, 31.561884, 31.637311, 31.622769, 31.598688, 31.596267, 31.562472, 31.595498, 31.534796, 31.672932, 31.520769, 31.612887, 31.578358, 31.565617
Process 116: 31.672390, 31.720763, 31.717525, 31.513671, 31.578582, 31.525902, 31.619400, 31.527995, 31.572016, 31.604965, 31.659708, 31.647885, 31.562877, 31.547405, 31.520434, 31.544819, 31.559171, 31.563967, 31.638707, 31.624562, 31.599879, 31.597985, 31.564058, 31.597192, 31.535993, 31.674426, 31.521965, 31.614359, 31.579770, 31.567160
Process 117: 31.675445, 31.723000, 31.719392, 31.515677, 31.580687, 31.527850, 31.621298, 31.529900, 31.574430, 31.606732, 31.662166, 31.649783, 31.565462, 31.549194, 31.522675, 31.546671, 31.561335, 31.565862, 31.640880, 31.626479, 31.601869, 31.599901, 31.566108, 31.599297, 31.537877, 31.676286, 31.523799, 31.616307, 31.581673, 31.569616
Process 118: 31.676981, 31.724451, 31.721233, 31.517286, 31.582192, 31.529030, 31.622953, 31.531088, 31.575802, 31.607962, 31.663781, 31.651186, 31.566766, 31.550381, 31.524168, 31.548191, 31.562526, 31.567722, 31.642356, 31.628350, 31.603052, 31.601774, 31.567548, 31.600818, 31.539060, 31.677791, 31.524978, 31.617746, 31.583047, 31.571246
Process 119: 31.682206, 31.728075, 31.724473, 31.520817, 31.585504, 31.530888, 31.628079, 31.532900, 31.579588, 31.611172, 31.667530, 31.654663, 31.569029, 31.555466, 31.526373, 31.551699, 31.566093, 31.569611, 31.647400, 31.630197, 31.606595, 31.603637, 31.571107, 31.604012, 31.540972, 31.682851, 31.526815, 31.621317, 31.586706, 31.573583
Process 120: 31.684208, 31.729544, 31.726711, 31.522165, 31.587516, 31.532119, 31.629982, 31.534142, 31.580992, 31.612866, 31.668891, 31.656310, 31.570354, 31.557064, 31.527970, 31.552886, 31.567836, 31.571577, 31.649065, 31.632212, 31.607780, 31.605249, 31.572295, 31.606094, 31.542158, 31.684800, 31.528238, 31.622761, 31.588433, 31.574997
Process 121: 31.686646, 31.731813, 31.728678, 31.524198, 31.589479, 31.533985, 31.631862, 31.535976, 31.583416, 31.614652, 31.671218, 31.658195, 31.572682, 31.558901, 31.530255, 31.554678, 31.570030, 31.573487, 31.651216, 31.634091, 31.609785, 31.607212, 31.574391, 31.608036, 31.544088, 31.686718, 31.530191, 31.624626, 31.590427, 31.577340
Process 122: 31.688737, 31.733266, 31.730372, 31.525657, 31.590965, 31.535182, 31.633323, 31.537234, 31.584796, 31.615857, 31.672584, 31.659397, 31.574323, 31.560234, 31.531696, 31.556036, 31.571248, 31.575174, 31.652538, 31.635968, 31.611163, 31.608779, 31.575803, 31.609600, 31.545269, 31.688210, 31.531380, 31.626082, 31.591613, 31.579044
Process 123: 31.690991, 31.735514, 31.732277, 31.527703, 31.592900, 31.537059, 31.635198, 31.539044, 31.586712, 31.617683, 31.674948, 31.661313, 31.576636, 31.562102, 31.533979, 31.557889, 31.573438, 31.577022, 31.654753, 31.637892, 31.613246, 31.610648, 31.577883, 31.611475, 31.547194, 31.690083, 31.533238, 31.628150, 31.593514, 31.581411
Process 124: 31.693373, 31.736977, 31.733994, 31.528895, 31.594389, 31.538356, 31.636661, 31.540356, 31.588090, 31.618879, 31.676380, 31.662864, 31.578115, 31.563305, 31.535445, 31.559135, 31.574968, 31.579072, 31.655942, 31.639556, 31.614427, 31.612564, 31.579238, 31.613042, 31.548371, 31.691600, 31.534422, 31.629758, 31.594956, 31.582965
Process 125: 31.696195, 31.739294, 31.736141, 31.530918, 31.596277, 31.540346, 31.638570, 31.542292, 31.590188, 31.620671, 31.678822, 31.664770, 31.580547, 31.565071, 31.537702, 31.560899, 31.577194, 31.580966, 31.658087, 31.641409, 31.616433, 31.614483, 31.581324, 31.614895, 31.550311, 31.693450, 31.536296, 31.631752, 31.596896, 31.585509
Process 126: 31.697605, 31.741038, 31.737650, 31.532380, 31.597963, 31.541529, 31.640206, 31.543475, 31.591688, 31.621864, 31.680348, 31.666133, 31.582040, 31.566760, 31.539037, 31.562548, 31.578536, 31.582785, 31.659617, 31.643261, 31.617615, 31.616162, 31.582733, 31.616611, 31.551484, 31.695099, 31.537477, 31.633257, 31.598357, 31.586957
Process 127: 31.699924, 31.743317, 31.739495, 31.534439, 31.599874, 31.543453, 31.642084, 31.545298, 31.593590, 31.623639, 31.682736, 31.668218, 31.584356, 31.568575, 31.541203, 31.564326, 31.580748, 31.584689, 31.661773, 31.645181, 31.619587, 31.618058, 31.584786, 31.618582, 31.553377, 31.697049, 31.539314, 31.635164, 31.600242, 31.589544
