mpi_trmm_opt3
Process 0: 10.750424, 10.943806, 10.866030, 10.718532, 10.884339, 10.834238, 10.557039, 10.713314, 10.628770, 10.443165, 10.587818, 10.556246, 10.607837, 10.517428, 10.671149, 10.670988, 10.634269, 10.524324, 10.670778, 10.672044, 10.658375, 10.819271, 10.665563, 10.602922, 10.591475, 10.652108, 10.644463, 10.732940, 10.697184, 10.577652
Process 1: 10.607253, 10.788493, 10.722854, 10.559107, 10.596945, 10.720036, 10.444936, 10.549224, 10.500034, 10.326506, 10.474152, 10.440264, 10.482536, 10.348515, 10.511711, 10.558854, 10.475898, 10.407017, 10.519503, 10.542029, 10.488701, 10.659734, 10.505551, 10.445683, 10.416343, 10.492068, 10.517312, 10.562859, 10.585161, 10.418772
Process 2: 10.612500, 10.795293, 10.730092, 10.562836, 10.604507, 10.723750, 10.448490, 10.554619, 10.505695, 10.330154, 10.477855, 10.443873, 10.487905, 10.354444, 10.515466, 10.562540, 10.479592, 10.410728, 10.525057, 10.547458, 10.494291, 10.663476, 10.509285, 10.449632, 10.420815, 10.495982, 10.522916, 10.568664, 10.588841, 10.422478
Process 3: 10.627354, 10.810816, 10.742830, 10.592771, 10.639143, 10.736708, 10.460710, 10.584970, 10.518299, 10.343035, 10.490618, 10.456862, 10.500298, 10.384288, 10.545498, 10.575432, 10.508888, 10.423658, 10.541094, 10.560203, 10.524591, 10.693709, 10.539775, 10.478628, 10.452245, 10.526246, 10.535657, 10.598800, 10.600961, 10.452396
Process 4: 10.632477, 10.817807, 10.750124, 10.596576, 10.646524, 10.740549, 10.464341, 10.590646, 10.524016, 10.346624, 10.494368, 10.460593, 10.505461, 10.390216, 10.549326, 10.579259, 10.512423, 10.427322, 10.546505, 10.565736, 10.530210, 10.697603, 10.543549, 10.482317, 10.456616, 10.530045, 10.541177, 10.604591, 10.604496, 10.456120
Process 5: 10.646681, 10.832459, 10.762504, 10.626020, 10.679960, 10.753358, 10.476403, 10.618418, 10.536436, 10.359333, 10.506976, 10.473193, 10.517597, 10.418976, 10.578509, 10.591201, 10.540709, 10.440071, 10.561700, 10.578342, 10.559219, 10.727883, 10.573229, 10.509883, 10.487993, 10.559737, 10.553437, 10.633989, 10.616495, 10.485063
Process 6: 10.651863, 10.839086, 10.769892, 10.629788, 10.687465, 10.757116, 10.479883, 10.623680, 10.542027, 10.363051, 10.510564, 10.476898, 10.522767, 10.424666, 10.582042, 10.594518, 10.544222, 10.443755, 10.567152, 10.583788, 10.564930, 10.731743, 10.576767, 10.513536, 10.492571, 10.563385, 10.558528, 10.639663, 10.619960, 10.488644
Process 7: 10.666432, 10.853888, 10.782794, 10.655161, 10.721372, 10.769900, 10.492246, 10.645120, 10.554868, 10.376084, 10.522916, 10.489901, 10.535107, 10.445845, 10.609018, 10.607023, 10.572660, 10.456608, 10.582591, 10.596604, 10.586255, 10.757186, 10.603088, 10.541226, 10.518975, 10.588491, 10.570848, 10.662124, 10.632299, 10.515602
Process 8: 10.671623, 10.860490, 10.790220, 10.658825, 10.728968, 10.773528, 10.495572, 10.650359, 10.560161, 10.379763, 10.526425, 10.493692, 10.540066, 10.451283, 10.612742, 10.610579, 10.576146, 10.460349, 10.587953, 10.602121, 10.591787, 10.761116, 10.606691, 10.544705, 10.523459, 10.592154, 10.575943, 10.667568, 10.635839, 10.519121
Process 9: 10.686219, 10.875621, 10.802900, 10.671792, 10.762894, 10.786111, 10.507820, 10.662686, 10.572726, 10.392589, 10.538676, 10.506154, 10.552480, 10.464124, 10.625035, 10.622958, 10.588479, 10.473261, 10.603302, 10.614986, 10.604707, 10.773414, 10.618964, 10.557026, 10.537769, 10.604858, 10.588240, 10.680338, 10.647943, 10.531580
Process 10: 10.691518, 10.882079, 10.810289, 10.675436, 10.770421, 10.789604, 10.511403, 10.667753, 10.578300, 10.396181, 10.542293, 10.509579, 10.557656, 10.469558, 10.628612, 10.626344, 10.592051, 10.476873, 10.608750, 10.620398, 10.610220, 10.776842, 10.622661, 10.560650, 10.542232, 10.608451, 10.593621, 10.686090, 10.651424, 10.534999
Process 11: 10.711962, 10.901929, 10.826988, 10.688138, 10.803873, 10.801960, 10.523631, 10.680063, 10.591339, 10.409158, 10.554616, 10.521987, 10.570113, 10.482301, 10.640961, 10.638687, 10.604373, 10.490332, 10.631312, 10.633443, 10.623092, 10.788992, 10.635121, 10.573004, 10.556299, 10.621485, 10.605984, 10.698923, 10.663643, 10.547439
Process 12: 10.717109, 10.908637, 10.834396, 10.691988, 10.811250, 10.805395, 10.527091, 10.685001, 10.596637, 10.412802, 10.557956, 10.525373, 10.575128, 10.487740, 10.644419, 10.642065, 10.607605, 10.493742, 10.636612, 10.638995, 10.628604, 10.792512, 10.638590, 10.576284, 10.560670, 10.625053, 10.611343, 10.704238, 10.667224, 10.550723
Process 13: 10.731335, 10.923314, 10.846767, 10.703779, 10.844131, 10.819402, 10.542443, 10.696870, 10.612133, 10.428314, 10.572945, 10.541398, 10.591501, 10.500309, 10.656244, 10.656211, 10.619609, 10.509568, 10.651352, 10.654931, 10.641047, 10.804500, 10.650831, 10.588063, 10.574397, 10.637281, 10.627882, 10.716232, 10.682328, 10.562892
Process 14: 10.736650, 10.929928, 10.854111, 10.707185, 10.851571, 10.822748, 10.545776, 10.702021, 10.617429, 10.431819, 10.576357, 10.544875, 10.596462, 10.505682, 10.659722, 10.659627, 10.622876, 10.513004, 10.656541, 10.660247, 10.646580, 10.807923, 10.654205, 10.591534, 10.578850, 10.640772, 10.633027, 10.721504, 10.685765, 10.566244
Process 15: 10.751478, 10.944813, 10.867114, 10.719626, 10.885305, 10.835321, 10.558064, 10.714323, 10.629895, 10.444183, 10.588820, 10.557383, 10.608952, 10.518447, 10.672161, 10.671999, 10.635257, 10.525325, 10.671899, 10.673163, 10.659406, 10.820337, 10.666670, 10.604015, 10.592618, 10.653107, 10.645551, 10.734061, 10.698276, 10.578674
