MPI_insiderank_openmp_handopt_ssa
Process 0: 2.482300, 2.222472, 2.300709, 2.168795, 3.940673, 2.273578, 2.281020, 2.305947, 2.310481, 2.243072, 2.289496, 2.297191, 2.320431, 2.276302, 2.282309, 2.299748, 2.313386, 2.260072, 2.320845, 2.267223, 2.303561, 2.213085, 2.269012, 2.295788, 2.279043, 2.257521, 2.302670, 2.281067, 2.291101, 2.301184
Process 1: 1.877437, 1.683685, 1.699977, 1.581609, 3.337781, 1.723369, 1.679476, 1.709870, 1.719186, 1.664323, 1.694805, 1.709091, 1.712045, 1.708518, 1.697415, 1.694013, 1.709989, 1.658856, 1.698448, 1.675033, 1.694594, 1.654188, 1.728074, 1.694515, 1.679434, 1.692957, 1.714077, 1.690652, 1.696679, 1.708746
Process 2: 1.928355, 1.736549, 1.753762, 1.635685, 3.394274, 1.781090, 1.734306, 1.763418, 1.770202, 1.721261, 1.750886, 1.762181, 1.769623, 1.762548, 1.752061, 1.749653, 1.764626, 1.709509, 1.747652, 1.730465, 1.750331, 1.710268, 1.783141, 1.744158, 1.733820, 1.747860, 1.772804, 1.741877, 1.751059, 1.762683
Process 3: 1.981608, 1.764504, 1.814393, 1.683973, 3.445089, 1.820793, 1.784820, 1.812348, 1.820629, 1.773884, 1.798972, 1.810258, 1.826419, 1.807595, 1.800824, 1.799697, 1.813908, 1.754992, 1.799174, 1.781683, 1.802510, 1.757244, 1.827987, 1.793076, 1.781144, 1.797580, 1.820345, 1.790653, 1.803710, 1.817159
Process 4: 2.029245, 1.813764, 1.863692, 1.729838, 3.489227, 1.862133, 1.826900, 1.859934, 1.865289, 1.819589, 1.845215, 1.856911, 1.863736, 1.850030, 1.845567, 1.853265, 1.858983, 1.802683, 1.846411, 1.825722, 1.850154, 1.803405, 1.868948, 1.837992, 1.826737, 1.841659, 1.861367, 1.836024, 1.849020, 1.870216
Process 5: 2.082577, 1.859022, 1.909102, 1.774012, 3.532607, 1.905922, 1.872975, 1.904647, 1.914368, 1.863765, 1.893377, 1.901295, 1.912759, 1.891101, 1.892146, 1.898735, 1.903321, 1.854397, 1.894273, 1.873208, 1.897844, 1.848780, 1.916347, 1.883162, 1.871973, 1.885831, 1.904888, 1.881674, 1.894495, 1.912265
Process 6: 2.125648, 1.916517, 1.945103, 1.822316, 3.571812, 1.947680, 1.922249, 1.948847, 1.963340, 1.900507, 1.931176, 1.944423, 1.958531, 1.939317, 1.935648, 1.942341, 1.944078, 1.899227, 1.941348, 1.922173, 1.941072, 1.886529, 1.956501, 1.924738, 1.917639, 1.927888, 1.945444, 1.921217, 1.936320, 1.955002
Process 7: 2.178579, 1.971151, 1.988512, 1.881361, 3.619847, 1.986173, 1.978539, 1.983036, 2.020318, 1.948596, 1.974117, 1.992266, 2.008401, 1.990800, 1.975699, 1.980095, 1.997908, 1.950570, 1.993256, 1.974571, 1.989966, 1.937269, 2.002152, 1.974661, 1.970260, 1.967462, 1.989766, 1.968595, 1.980299, 1.992714
Process 8: 2.221339, 2.016935, 2.031099, 1.927132, 3.663840, 2.028136, 2.021668, 2.030069, 2.069370, 1.992618, 2.019003, 2.039354, 2.051466, 2.033454, 2.022180, 2.021617, 2.046426, 1.997274, 2.044622, 2.020476, 2.035456, 1.981667, 2.048130, 2.017771, 2.014835, 2.013189, 2.030431, 2.010293, 2.020120, 2.036406
Process 9: 2.268729, 2.063916, 2.078852, 1.972436, 3.712145, 2.073964, 2.066661, 2.081309, 2.116174, 2.039119, 2.068318, 2.090381, 2.097933, 2.080029, 2.073361, 2.075893, 2.091875, 2.042966, 2.092933, 2.067533, 2.078850, 2.029268, 2.098209, 2.065878, 2.062706, 2.057247, 2.079102, 2.056145, 2.065299, 2.076874
Process 10: 2.317078, 2.096775, 2.117269, 2.008445, 3.750685, 2.121941, 2.113399, 2.119726, 2.151047, 2.079588, 2.103837, 2.122455, 2.135201, 2.125094, 2.107012, 2.115411, 2.129354, 2.080010, 2.131166, 2.106074, 2.117668, 2.062758, 2.130286, 2.106725, 2.113118, 2.096720, 2.118001, 2.096435, 2.104173, 2.116353
Process 11: 2.391348, 2.127804, 2.159891, 2.077788, 3.793219, 2.179884, 2.186427, 2.164119, 2.218566, 2.116061, 2.147669, 2.164319, 2.177771, 2.185684, 2.149726, 2.157463, 2.171765, 2.121979, 2.174862, 2.144785, 2.165316, 2.091776, 2.171759, 2.150953, 2.186952, 2.134625, 2.158635, 2.137975, 2.147321, 2.157218
Process 12: 2.416339, 2.152042, 2.187244, 2.103893, 3.817445, 2.207980, 2.214569, 2.189532, 2.246046, 2.145189, 2.172641, 2.189717, 2.203153, 2.213668, 2.175667, 2.182975, 2.196380, 2.146882, 2.199110, 2.166355, 2.190227, 2.116620, 2.196949, 2.175002, 2.214189, 2.154957, 2.183329, 2.163242, 2.175732, 2.182767
Process 13: 2.444578, 2.179982, 2.260353, 2.131357, 3.888963, 2.235582, 2.242202, 2.263113, 2.272437, 2.203672, 2.243270, 2.246493, 2.276915, 2.239025, 2.238626, 2.256735, 2.267279, 2.216219, 2.274104, 2.220606, 2.263773, 2.159497, 2.222963, 2.249337, 2.241388, 2.212635, 2.255643, 2.237020, 2.249074, 2.257015
Process 14: 2.462822, 2.202636, 2.280906, 2.149430, 3.916023, 2.253632, 2.260968, 2.284085, 2.290470, 2.228217, 2.267539, 2.272001, 2.301039, 2.257017, 2.263636, 2.277510, 2.291095, 2.239916, 2.298498, 2.244327, 2.288045, 2.190634, 2.243165, 2.273280, 2.259202, 2.237514, 2.280508, 2.261013, 2.271618, 2.281153
Process 15: 2.484728, 2.224073, 2.302109, 2.170182, 3.942104, 2.274928, 2.282443, 2.307369, 2.311916, 2.244468, 2.291001, 2.298571, 2.321888, 2.277895, 2.283709, 2.301180, 2.314843, 2.261547, 2.322339, 2.268914, 2.304986, 2.214568, 2.270499, 2.297265, 2.280526, 2.259075, 2.304290, 2.282631, 2.292716, 2.302784
