MPI_insiderank_openmp_handopt_ssa
Process 0: 2.197375, 2.131526, 2.188590, 2.142463, 2.200940, 2.089792, 2.118388, 2.148760, 2.148252, 2.162457, 2.146326, 2.161705, 2.137806, 2.118174, 2.116506, 2.128065, 2.138211, 2.145158, 2.137846, 2.140120, 2.134648, 2.135385, 2.138486, 2.125480, 2.132855, 2.145680, 2.124490, 2.125252, 2.136328, 2.144849
Process 1: 2.109901, 2.045668, 2.107482, 2.052675, 2.062655, 2.006065, 2.036340, 2.064879, 2.063576, 2.077540, 2.060283, 2.071036, 2.054834, 2.036373, 2.022746, 2.043328, 2.051129, 2.060716, 2.046602, 2.053043, 2.048899, 2.049988, 2.051892, 2.040400, 2.046196, 2.068420, 2.044583, 2.038787, 2.051911, 2.056968
Process 2: 2.130340, 2.066068, 2.128892, 2.071686, 2.085961, 2.023683, 2.051060, 2.084200, 2.083778, 2.095857, 2.079907, 2.092373, 2.074508, 2.052463, 2.042005, 2.060723, 2.069361, 2.079325, 2.068436, 2.074541, 2.068271, 2.069285, 2.070508, 2.058553, 2.065203, 2.085857, 2.060666, 2.057202, 2.069187, 2.078440
Process 3: 2.151572, 2.086207, 2.150509, 2.093363, 2.123950, 2.043506, 2.071447, 2.104762, 2.105195, 2.117942, 2.100691, 2.113503, 2.093620, 2.073183, 2.063793, 2.081024, 2.090990, 2.100769, 2.089395, 2.095783, 2.088717, 2.090703, 2.092405, 2.079743, 2.086631, 2.106757, 2.080964, 2.079155, 2.090715, 2.098267
Process 4: 2.164133, 2.098157, 2.160514, 2.105670, 2.147265, 2.056759, 2.082786, 2.116578, 2.117033, 2.129117, 2.113602, 2.124956, 2.104598, 2.084431, 2.075003, 2.093085, 2.104136, 2.112418, 2.101887, 2.107067, 2.100522, 2.102142, 2.105435, 2.092142, 2.099226, 2.118297, 2.091835, 2.092033, 2.103671, 2.111887
Process 5: 2.179064, 2.112939, 2.174227, 2.120783, 2.174441, 2.071639, 2.097168, 2.130540, 2.131172, 2.143678, 2.128252, 2.140707, 2.119637, 2.098782, 2.097152, 2.108592, 2.119478, 2.126719, 2.116859, 2.121968, 2.116009, 2.117030, 2.120412, 2.107432, 2.114617, 2.127636, 2.106469, 2.107045, 2.118240, 2.126557
Process 6: 2.187076, 2.121278, 2.182253, 2.130250, 2.191704, 2.079494, 2.105216, 2.138278, 2.141004, 2.151955, 2.136026, 2.148559, 2.127810, 2.105644, 2.107272, 2.115505, 2.127865, 2.134623, 2.124832, 2.129577, 2.124512, 2.124881, 2.128159, 2.114969, 2.122561, 2.135143, 2.114106, 2.114895, 2.125944, 2.134366
Process 7: 2.198897, 2.132811, 2.190117, 2.143746, 2.202465, 2.091082, 2.119924, 2.150041, 2.149767, 2.163754, 2.147861, 2.162998, 2.139318, 2.119508, 2.118085, 2.129404, 2.139727, 2.146442, 2.139373, 2.141408, 2.136172, 2.136672, 2.140011, 2.126773, 2.134384, 2.146964, 2.126008, 2.126529, 2.137847, 2.146135
