MPI_insiderank_openmp_handopt_ssa
Process 0: 6.101376, 5.996609, 5.972654, 5.979702, 5.970839, 5.973174, 5.947398, 5.969866, 5.964285, 5.960879, 5.960481, 5.944728, 5.976187, 5.951154, 5.961257, 5.946671, 5.955286, 5.948358, 5.946029, 5.941776, 5.977045, 5.952879, 5.958763, 5.967625, 5.947754, 5.952907, 5.947752, 5.941646, 5.948790, 5.949446
Process 1: 6.023087, 5.917485, 5.896929, 5.899768, 5.895034, 5.892992, 5.870035, 5.893649, 5.887916, 5.880951, 5.882706, 5.868041, 5.900030, 5.874091, 5.883929, 5.867460, 5.877827, 5.871326, 5.868700, 5.865320, 5.900589, 5.875226, 5.881803, 5.890521, 5.870852, 5.872916, 5.870523, 5.864605, 5.871588, 5.872396
Process 2: 6.064017, 5.959031, 5.937998, 5.939040, 5.936134, 5.932273, 5.909521, 5.935104, 5.926647, 5.920360, 5.922477, 5.906890, 5.941127, 5.913148, 5.923266, 5.906296, 5.917663, 5.910374, 5.908225, 5.904078, 5.942127, 5.914624, 5.920511, 5.929685, 5.910211, 5.912507, 5.910303, 5.903586, 5.911052, 5.911324
Process 3: 6.103545, 5.998744, 5.974736, 5.981906, 5.972899, 5.975255, 5.949534, 5.971904, 5.966312, 5.962980, 5.962512, 5.946873, 5.978388, 5.953242, 5.963295, 5.948722, 5.957438, 5.950439, 5.948203, 5.943919, 5.979192, 5.955068, 5.961062, 5.969784, 5.949894, 5.954960, 5.949853, 5.943710, 5.950990, 5.951577
