MPI_insiderank_openmp_handopt_ssa
Process 0: 8.472790, 8.389478, 8.384691, 8.365627, 8.322373, 8.327493, 8.360512, 8.304788, 8.297937, 8.348651, 8.316953, 8.320965, 8.296300, 8.362806, 8.300632, 8.302618, 8.326467, 8.347863, 8.321602, 8.301185, 8.405985, 8.309076, 8.314881, 8.333448, 8.361818, 8.328923, 8.318477, 8.350426, 8.353820, 8.318565
Process 1: 8.290251, 8.206197, 8.201615, 8.201073, 8.121024, 8.163875, 8.157753, 8.119857, 8.113264, 8.186272, 8.131793, 8.118343, 8.112672, 8.198263, 8.116128, 8.119326, 8.122941, 8.162929, 8.160042, 8.115495, 8.203223, 8.126895, 8.131059, 8.173010, 8.178618, 8.128418, 8.135542, 8.168062, 8.191218, 8.134590
Process 2: 8.365204, 8.281684, 8.276364, 8.262684, 8.210318, 8.225508, 8.232444, 8.193852, 8.187195, 8.248147, 8.206016, 8.208262, 8.186728, 8.259378, 8.190498, 8.193239, 8.213470, 8.237412, 8.221599, 8.190043, 8.292859, 8.200521, 8.204470, 8.234271, 8.251835, 8.217272, 8.209319, 8.241808, 8.252684, 8.208640
Process 3: 8.475977, 8.392659, 8.387897, 8.368831, 8.325564, 8.330623, 8.363800, 8.307899, 8.301194, 8.351908, 8.320296, 8.324253, 8.299597, 8.365900, 8.303935, 8.305876, 8.329737, 8.351155, 8.324898, 8.304470, 8.409010, 8.312080, 8.318228, 8.336745, 8.365131, 8.332110, 8.321715, 8.353645, 8.357023, 8.321791
