MPI_insiderank_optimisedserial
Process 0: 1.210188, 1.221635, 1.226360, 1.225233, 1.206834, 1.208317, 1.214757, 1.206895, 1.206317, 1.212506, 1.206967, 1.207749, 1.206473, 1.211519, 1.205913, 1.208019, 1.209171, 1.206159, 1.219509, 1.211806, 1.204739, 1.213681, 1.209227, 1.208314, 1.208532, 1.206954, 1.244841, 1.247745, 1.211219, 1.207523
Process 1: 1.087278, 1.098872, 1.098281, 1.103823, 1.084949, 1.086694, 1.092923, 1.085166, 1.084538, 1.090752, 1.085240, 1.086102, 1.084689, 1.089705, 1.084255, 1.086336, 1.087362, 1.084457, 1.097529, 1.089796, 1.082916, 1.092144, 1.087492, 1.086556, 1.085466, 1.085051, 1.116990, 1.125990, 1.089182, 1.083815
Process 2: 1.109579, 1.121033, 1.119443, 1.124819, 1.106041, 1.107793, 1.114004, 1.106245, 1.105601, 1.111720, 1.106336, 1.107207, 1.105838, 1.110869, 1.105307, 1.107397, 1.108465, 1.105566, 1.118593, 1.110932, 1.104115, 1.113119, 1.108521, 1.107543, 1.106502, 1.106114, 1.140839, 1.147039, 1.110237, 1.104874
Process 3: 1.130401, 1.141801, 1.142893, 1.145578, 1.126942, 1.128618, 1.134924, 1.127075, 1.126442, 1.132599, 1.127221, 1.128048, 1.126649, 1.131710, 1.126084, 1.128244, 1.129403, 1.126419, 1.139524, 1.131869, 1.125022, 1.133993, 1.129401, 1.128480, 1.128651, 1.127032, 1.164876, 1.167840, 1.131082, 1.125652
Process 4: 1.150993, 1.162353, 1.167270, 1.166082, 1.147560, 1.149236, 1.155511, 1.147667, 1.147040, 1.153420, 1.147800, 1.148603, 1.147177, 1.152288, 1.146727, 1.148785, 1.150041, 1.147029, 1.160113, 1.152582, 1.145556, 1.154562, 1.150027, 1.149116, 1.149347, 1.147651, 1.185574, 1.188423, 1.152061, 1.148266
Process 5: 1.171287, 1.182677, 1.187521, 1.186346, 1.167895, 1.169594, 1.175860, 1.167942, 1.167403, 1.173773, 1.168069, 1.168865, 1.167536, 1.172602, 1.166993, 1.169166, 1.170349, 1.167382, 1.180506, 1.172845, 1.165931, 1.174860, 1.170327, 1.169408, 1.169704, 1.168022, 1.205884, 1.208818, 1.172403, 1.168535
Process 6: 1.191501, 1.202811, 1.207655, 1.206499, 1.188098, 1.189609, 1.195958, 1.188123, 1.187600, 1.193754, 1.188272, 1.188998, 1.187726, 1.192844, 1.187151, 1.189273, 1.190427, 1.187430, 1.200705, 1.192991, 1.185953, 1.194892, 1.190513, 1.189567, 1.189735, 1.188187, 1.226066, 1.229023, 1.192392, 1.188721
Process 7: 1.211608, 1.223008, 1.227740, 1.226604, 1.208248, 1.209707, 1.216137, 1.208265, 1.207685, 1.213891, 1.208345, 1.209136, 1.207842, 1.212895, 1.207310, 1.209411, 1.210559, 1.207532, 1.220920, 1.213193, 1.206132, 1.215055, 1.210613, 1.209683, 1.209929, 1.208346, 1.246204, 1.249126, 1.212608, 1.208884
