MPI_insiderank_optimisedserial
Process 0: 1.191137, 1.202765, 1.185300, 1.189319, 1.184524, 1.189550, 1.187876, 1.186584, 1.186953, 1.184317, 1.184863, 1.185368, 1.186475, 1.193722, 1.185687, 1.188085, 1.183868, 1.188363, 1.175980, 1.176754, 1.177436, 1.177285, 1.174758, 1.176197, 1.176453, 1.177239, 1.177257, 1.177338, 1.174641, 1.177982
Process 1: 1.027277, 1.043724, 1.026700, 1.027054, 1.028091, 1.030247, 1.026347, 1.025665, 1.027421, 1.025274, 1.026122, 1.025802, 1.027562, 1.025376, 1.026420, 1.029339, 1.025339, 1.028721, 1.013230, 1.013238, 1.013687, 1.013104, 1.011932, 1.013423, 1.012474, 1.014373, 1.012243, 1.012986, 1.011697, 1.015133
Process 2: 1.047409, 1.062924, 1.045860, 1.046146, 1.047068, 1.049385, 1.045433, 1.044885, 1.046481, 1.044529, 1.045239, 1.045054, 1.046690, 1.044574, 1.045180, 1.048445, 1.044349, 1.047843, 1.032312, 1.032105, 1.032744, 1.032247, 1.031006, 1.032448, 1.032021, 1.033441, 1.031215, 1.032047, 1.030785, 1.034070
Process 3: 1.062996, 1.078649, 1.064706, 1.065029, 1.062677, 1.065010, 1.061064, 1.060563, 1.062164, 1.060434, 1.064670, 1.060628, 1.062338, 1.060061, 1.060598, 1.064033, 1.060321, 1.063432, 1.048160, 1.051459, 1.052132, 1.048942, 1.050406, 1.051906, 1.048191, 1.050900, 1.047491, 1.047657, 1.050257, 1.049845
Process 4: 1.078273, 1.093677, 1.079702, 1.084336, 1.077737, 1.080073, 1.078456, 1.076404, 1.077293, 1.079757, 1.079634, 1.075840, 1.078079, 1.075479, 1.075504, 1.079015, 1.079524, 1.078759, 1.063386, 1.066358, 1.067202, 1.068147, 1.065551, 1.066802, 1.062778, 1.070144, 1.064352, 1.062936, 1.065291, 1.065104
Process 5: 1.093117, 1.108341, 1.094282, 1.098525, 1.092178, 1.094726, 1.097326, 1.095466, 1.092066, 1.094111, 1.094140, 1.090582, 1.092391, 1.090823, 1.090434, 1.094305, 1.094486, 1.095665, 1.078677, 1.081505, 1.081708, 1.082467, 1.080159, 1.081122, 1.077710, 1.084298, 1.081690, 1.078373, 1.080413, 1.083456
Process 6: 1.107835, 1.123301, 1.109168, 1.113287, 1.107164, 1.109666, 1.111940, 1.109963, 1.108120, 1.108923, 1.108983, 1.106431, 1.107512, 1.104958, 1.105118, 1.109445, 1.108603, 1.114301, 1.096047, 1.095831, 1.096095, 1.096826, 1.094418, 1.095470, 1.092278, 1.098556, 1.095993, 1.092514, 1.094627, 1.097677
Process 7: 1.123180, 1.137290, 1.123206, 1.127324, 1.120945, 1.125485, 1.126030, 1.123975, 1.126869, 1.123034, 1.123074, 1.125149, 1.121472, 1.122410, 1.118753, 1.128217, 1.122656, 1.128192, 1.114678, 1.109831, 1.110867, 1.111628, 1.109210, 1.110517, 1.106044, 1.112753, 1.110023, 1.109226, 1.108741, 1.116527
Process 8: 1.141372, 1.153271, 1.136885, 1.141082, 1.134466, 1.144091, 1.139813, 1.137801, 1.140218, 1.136785, 1.136716, 1.138505, 1.135124, 1.140596, 1.133113, 1.141619, 1.136347, 1.141961, 1.128110, 1.123963, 1.124610, 1.125404, 1.122907, 1.123959, 1.124038, 1.126503, 1.124457, 1.127370, 1.122409, 1.131538
Process 9: 1.159644, 1.170023, 1.150127, 1.154331, 1.149857, 1.157024, 1.153016, 1.155917, 1.153413, 1.150152, 1.150069, 1.151920, 1.151252, 1.158348, 1.151009, 1.154905, 1.149580, 1.155225, 1.141374, 1.141571, 1.142279, 1.141949, 1.139480, 1.140899, 1.141848, 1.141914, 1.142057, 1.145602, 1.139566, 1.144814
Process 10: 1.173963, 1.185589, 1.168128, 1.172143, 1.167931, 1.172227, 1.170600, 1.169258, 1.169689, 1.167161, 1.167680, 1.168209, 1.169341, 1.177030, 1.169108, 1.170999, 1.166657, 1.171172, 1.158778, 1.159603, 1.160335, 1.160051, 1.157512, 1.158995, 1.159720, 1.160026, 1.160059, 1.160015, 1.157423, 1.160780
Process 11: 1.192305, 1.203915, 1.186420, 1.190429, 1.185733, 1.190678, 1.188991, 1.187700, 1.188074, 1.185446, 1.185984, 1.186516, 1.187607, 1.194848, 1.186910, 1.189208, 1.184996, 1.189503, 1.177102, 1.177886, 1.178582, 1.178405, 1.175885, 1.177309, 1.177639, 1.178360, 1.178374, 1.178458, 1.175772, 1.179107
