MPI_insiderank_openmp_handopt
Process 0: 62.034391, 61.730686, 62.119799, 61.494880, 61.770862, 62.209495, 62.031004, 62.313597, 62.453253, 62.432396, 62.601422, 61.902531, 62.032001, 61.764045, 62.133892, 61.922940, 62.207258, 62.029197, 61.668704, 61.993097, 62.256442, 62.730811, 62.857102, 62.804662, 62.616679, 62.583092, 63.038659, 63.391002, 62.680514, 63.130295
Process 1: 62.039065, 61.737038, 62.126317, 61.500335, 61.777651, 62.216579, 62.038152, 62.320950, 62.460391, 62.439228, 62.607949, 61.909544, 62.039220, 61.770370, 62.141084, 61.929168, 62.213478, 62.035290, 61.676052, 61.999531, 62.263739, 62.738175, 62.863326, 62.810862, 62.624064, 62.589322, 63.045928, 63.398530, 62.686639, 63.136704
