MPI_insiderank_openmp
Process 0: 62.995516, 62.753931, 62.712114, 62.714129, 62.710376, 62.744752, 62.699493, 62.737266, 62.720346, 62.846452, 62.764446, 62.705036, 62.681350, 62.646379, 62.630763, 62.654794, 62.697401, 62.655033, 62.740411, 62.703693, 62.601433, 62.718323, 62.657801, 62.638206, 62.619927, 62.577911, 62.655800, 62.698925, 62.695116, 62.713360
Process 1: 55.200917, 54.979012, 54.951751, 54.928301, 54.949777, 54.965380, 54.959063, 54.956469, 54.957162, 55.059557, 54.978716, 54.926664, 54.905460, 54.890300, 54.860480, 54.889930, 54.941716, 54.880483, 55.001160, 54.905119, 54.843023, 54.913791, 54.885041, 54.873680, 54.848347, 54.812597, 54.888136, 54.953736, 54.912927, 54.938133
Process 2: 56.485579, 56.263703, 56.232893, 56.212940, 56.244326, 56.254124, 56.235864, 56.248160, 56.247649, 56.347855, 56.268877, 56.217767, 56.196991, 56.183137, 56.151979, 56.177532, 56.224576, 56.165962, 56.283448, 56.215965, 56.137801, 56.204344, 56.176924, 56.158982, 56.136296, 56.100983, 56.183082, 56.234111, 56.203328, 56.225489
Process 3: 57.797716, 57.562699, 57.521223, 57.529853, 57.549148, 57.548558, 57.522293, 57.554091, 57.541985, 57.649693, 57.568801, 57.515287, 57.493841, 57.470741, 57.461414, 57.471676, 57.524275, 57.462957, 57.579584, 57.509202, 57.422659, 57.511034, 57.472780, 57.453566, 57.434085, 57.395262, 57.492577, 57.523838, 57.506269, 57.516449
Process 4: 59.096274, 58.859315, 58.826974, 58.824081, 58.842783, 58.844249, 58.818122, 58.849302, 58.837269, 58.943458, 58.874658, 58.809580, 58.786140, 58.769910, 58.752881, 58.767394, 58.818270, 58.756777, 58.871757, 58.803272, 58.719606, 58.831512, 58.768943, 58.748018, 58.727971, 58.692798, 58.783789, 58.817697, 58.800443, 58.824572
Process 5: 60.399853, 60.158474, 60.125431, 60.123624, 60.130617, 60.147861, 60.113752, 60.148734, 60.138386, 60.245116, 60.174211, 60.113469, 60.089052, 60.066316, 60.052329, 60.062737, 60.107697, 60.061605, 60.159971, 60.106430, 60.016988, 60.133259, 60.067033, 60.049048, 60.025183, 59.992412, 60.078492, 60.119528, 60.102218, 60.125609
Process 6: 61.684782, 61.452083, 61.414070, 61.414420, 61.407616, 61.442873, 61.401788, 61.433812, 61.421677, 61.537017, 61.461554, 61.406537, 61.380901, 61.347758, 61.332209, 61.353118, 61.393977, 61.354680, 61.442970, 61.403728, 61.302224, 61.421313, 61.357414, 61.335629, 61.311918, 61.274679, 61.356003, 61.405533, 61.388207, 61.412540
Process 7: 62.998509, 62.756743, 62.714996, 62.716889, 62.713240, 62.747673, 62.702243, 62.740083, 62.723094, 62.849090, 62.767241, 62.707924, 62.684146, 62.649202, 62.633566, 62.657641, 62.700268, 62.657940, 62.742841, 62.706243, 62.604014, 62.720814, 62.660516, 62.640935, 62.622780, 62.580759, 62.658545, 62.701639, 62.697956, 62.716197
