MPI_insiderank_openmp
Process 0: 17.311600, 17.141380, 16.942854, 16.993690, 16.929723, 16.922735, 17.129097, 16.927801, 16.999327, 16.945608, 16.919900, 16.915782, 16.922351, 16.915776, 16.924857, 16.933909, 16.921005, 16.948907, 16.912902, 16.934184, 16.913946, 16.910800, 16.917710, 16.913773, 16.913862, 16.918019, 16.907627, 16.925293, 16.922602, 16.915650
Process 1: 11.822078, 11.603927, 11.500959, 11.471299, 11.483241, 11.486754, 11.647212, 11.497264, 11.498957, 11.514807, 11.491173, 11.487754, 11.491407, 11.482431, 11.489200, 11.498874, 11.487968, 11.518834, 11.484317, 11.503899, 11.484208, 11.478313, 11.474144, 11.475003, 11.485954, 11.482373, 11.467494, 11.480861, 11.477340, 11.478471
Process 2: 11.998314, 11.782337, 11.680331, 11.649301, 11.660860, 11.665755, 11.826231, 11.675210, 11.677259, 11.692691, 11.668286, 11.667040, 11.669602, 11.659273, 11.666741, 11.678345, 11.666106, 11.696860, 11.662068, 11.683452, 11.662370, 11.661729, 11.652963, 11.652320, 11.664387, 11.660435, 11.646094, 11.659296, 11.654885, 11.657770
Process 3: 12.180188, 11.966435, 11.864737, 11.832588, 11.845182, 11.849340, 12.010970, 11.859784, 11.863336, 11.876168, 11.851536, 11.851153, 11.853724, 11.843756, 11.850615, 11.862007, 11.850519, 11.881629, 11.846511, 11.866987, 11.847489, 11.846648, 11.837234, 11.837144, 11.848914, 11.844237, 11.830131, 11.843797, 11.839949, 11.841568
Process 4: 12.358064, 12.152285, 12.043470, 12.010820, 12.023345, 12.027095, 12.187523, 12.037615, 12.046467, 12.053958, 12.030126, 12.028647, 12.030712, 12.021803, 12.029542, 12.040088, 12.028136, 12.059151, 12.024248, 12.045536, 12.024199, 12.023513, 12.014388, 12.014489, 12.027411, 12.022553, 12.007551, 12.021414, 12.018097, 12.021641
Process 5: 12.539340, 12.340441, 12.225246, 12.198886, 12.205918, 12.210054, 12.370749, 12.220308, 12.233811, 12.236487, 12.213776, 12.211677, 12.213780, 12.204983, 12.211783, 12.220223, 12.210517, 12.241732, 12.206303, 12.227385, 12.207570, 12.206013, 12.197109, 12.197164, 12.208967, 12.205918, 12.190200, 12.204696, 12.200481, 12.204216
Process 6: 12.715791, 12.531075, 12.406299, 12.382036, 12.383045, 12.388814, 12.548539, 12.398393, 12.416017, 12.415696, 12.391703, 12.388356, 12.391563, 12.382106, 12.390554, 12.399850, 12.388404, 12.420315, 12.384740, 12.406313, 12.385425, 12.383764, 12.377971, 12.377200, 12.387511, 12.382456, 12.368091, 12.382683, 12.379414, 12.383385
Process 7: 12.897235, 12.720195, 12.588516, 12.568499, 12.566339, 12.571705, 12.730156, 12.580300, 12.604786, 12.599351, 12.573757, 12.570674, 12.572382, 12.564411, 12.574771, 12.582241, 12.571876, 12.602762, 12.566426, 12.586191, 12.568224, 12.564728, 12.563383, 12.557302, 12.569698, 12.563020, 12.549004, 12.564774, 12.561972, 12.566556
Process 8: 13.080764, 12.905184, 12.767001, 12.751865, 12.743506, 12.749302, 12.908587, 12.757309, 12.786442, 12.775967, 12.751250, 12.747960, 12.749642, 12.744163, 12.751667, 12.759340, 12.749183, 12.780561, 12.743576, 12.763383, 12.745346, 12.741988, 12.743155, 12.735645, 12.747570, 12.740474, 12.726023, 12.745014, 12.739236, 12.745491
Process 9: 13.268041, 13.093008, 12.949516, 12.936704, 12.927636, 12.932878, 13.091959, 12.941477, 12.971721, 12.959006, 12.934233, 12.931374, 12.933121, 12.931319, 12.934375, 12.944486, 12.932211, 12.963983, 12.927408, 12.946066, 12.928341, 12.926455, 12.927181, 12.920867, 12.930987, 12.923719, 12.910196, 12.928371, 12.923507, 12.928318
Process 10: 13.451921, 13.277771, 13.128832, 13.122670, 13.106297, 13.111804, 13.274596, 13.120812, 13.154106, 13.137859, 13.113372, 13.110252, 13.111603, 13.112515, 13.112598, 13.127577, 13.110773, 13.142482, 13.105827, 13.124827, 13.106500, 13.105238, 13.105589, 13.099397, 13.109816, 13.102475, 13.089497, 13.107492, 13.107182, 13.108021
Process 11: 13.638892, 13.465967, 13.309047, 13.308558, 13.286416, 13.291757, 13.460192, 13.300842, 13.340308, 13.317935, 13.293360, 13.291299, 13.294481, 13.294644, 13.292417, 13.308706, 13.290587, 13.322434, 13.285211, 13.305706, 13.287193, 13.285423, 13.285617, 13.280817, 13.289657, 13.282897, 13.270089, 13.292627, 13.292239, 13.288660
Process 12: 13.823758, 13.651676, 13.491747, 13.492256, 13.469181, 13.474200, 13.646631, 13.483510, 13.524138, 13.500341, 13.476462, 13.473618, 13.476935, 13.477415, 13.474662, 13.491336, 13.472614, 13.504509, 13.467476, 13.488811, 13.469775, 13.467753, 13.467741, 13.463689, 13.472556, 13.465957, 13.451413, 13.475100, 13.473914, 13.471738
Process 13: 14.011041, 13.838014, 13.671445, 13.680780, 13.649373, 13.654835, 13.834019, 13.663004, 13.706730, 13.680413, 13.655345, 13.654196, 13.657228, 13.657595, 13.654837, 13.670855, 13.652612, 13.684214, 13.647638, 13.668372, 13.649975, 13.647524, 13.648004, 13.644489, 13.651081, 13.645707, 13.631959, 13.655471, 13.654056, 13.651254
Process 14: 14.195811, 14.024228, 13.849705, 13.866290, 13.827432, 13.832354, 14.020262, 13.840981, 13.886627, 13.858425, 13.833647, 13.832326, 13.835501, 13.834910, 13.835854, 13.848791, 13.830737, 13.862101, 13.825478, 13.846143, 13.827871, 13.825615, 13.825431, 13.822219, 13.828792, 13.823503, 13.809627, 13.833140, 13.831769, 13.829267
Process 15: 14.382498, 14.211199, 14.030964, 14.053035, 14.012952, 14.013861, 14.205966, 14.023077, 14.072628, 14.041987, 14.018518, 14.015629, 14.019871, 14.019121, 14.017443, 14.030853, 14.013882, 14.045611, 14.009678, 14.030072, 14.008936, 14.008938, 14.008174, 14.005471, 14.013142, 14.007217, 13.994723, 14.017424, 14.013803, 14.008182
Process 16: 14.567087, 14.395111, 14.210096, 14.235892, 14.191436, 14.194201, 14.388371, 14.203356, 14.250173, 14.222404, 14.195829, 14.194622, 14.200289, 14.197563, 14.197776, 14.208370, 14.192366, 14.225531, 14.188417, 14.207848, 14.187581, 14.187440, 14.188398, 14.184069, 14.190941, 14.186191, 14.175101, 14.195975, 14.192400, 14.185684
Process 17: 14.755152, 14.581728, 14.389893, 14.423965, 14.372498, 14.375042, 14.574288, 14.384226, 14.432380, 14.403157, 14.376115, 14.375261, 14.381879, 14.378536, 14.377285, 14.388480, 14.373373, 14.406520, 14.369428, 14.387888, 14.368418, 14.368260, 14.368820, 14.365260, 14.370858, 14.367039, 14.355481, 14.377835, 14.373867, 14.365396
Process 18: 14.938391, 14.766647, 14.570959, 14.614029, 14.554447, 14.555793, 14.759119, 14.565521, 14.614487, 14.584354, 14.556706, 14.555950, 14.562182, 14.559229, 14.558147, 14.570430, 14.554614, 14.587375, 14.550964, 14.568059, 14.550065, 14.550022, 14.551151, 14.545461, 14.551123, 14.549479, 14.537534, 14.558092, 14.554225, 14.546543
Process 19: 15.125156, 14.954479, 14.757414, 14.802630, 14.740483, 14.741374, 14.945390, 14.749808, 14.803673, 14.770276, 14.742801, 14.740114, 14.748166, 14.743383, 14.743938, 14.756267, 14.740777, 14.771511, 14.736723, 14.753258, 14.736084, 14.735993, 14.738061, 14.731665, 14.735835, 14.735625, 14.723725, 14.742259, 14.739560, 14.732686
Process 20: 15.308780, 15.137953, 14.942163, 14.987222, 14.923776, 14.925301, 15.129234, 14.933742, 14.986830, 14.953840, 14.926254, 14.923803, 14.931662, 14.926641, 14.926978, 14.939565, 14.924033, 14.955096, 14.919821, 14.936712, 14.919327, 14.919498, 14.922162, 14.915419, 14.919504, 14.918908, 14.907166, 14.925722, 14.922883, 14.916029
Process 21: 15.495767, 15.323789, 15.126594, 15.172207, 15.109273, 15.109612, 15.314793, 15.118132, 15.173752, 15.138342, 15.111470, 15.108879, 15.115958, 15.111796, 15.112154, 15.124777, 15.109178, 15.139698, 15.104979, 15.121787, 15.104602, 15.104989, 15.106924, 15.101114, 15.104773, 15.104037, 15.091492, 15.111323, 15.108530, 15.101189
Process 22: 15.677586, 15.506790, 15.306061, 15.353802, 15.287405, 15.288834, 15.497774, 15.296371, 15.354762, 15.316757, 15.289558, 15.287000, 15.294993, 15.289824, 15.291330, 15.302480, 15.288105, 15.318519, 15.283679, 15.300906, 15.282194, 15.283844, 15.285500, 15.278565, 15.283017, 15.282518, 15.272046, 15.289559, 15.288234, 15.281189
Process 23: 15.863470, 15.693302, 15.488558, 15.539639, 15.469368, 15.474505, 15.684264, 15.482742, 15.543561, 15.499410, 15.473739, 15.469056, 15.477047, 15.471636, 15.478654, 15.488209, 15.473981, 15.501216, 15.469193, 15.487052, 15.468116, 15.465695, 15.470538, 15.463762, 15.469538, 15.466179, 15.458262, 15.471442, 15.476064, 15.467472
Process 24: 16.043584, 15.874159, 15.669397, 15.720238, 15.648842, 15.655456, 15.864108, 15.662768, 15.725670, 15.680296, 15.653886, 15.649040, 15.657686, 15.651753, 15.658387, 15.668397, 15.653885, 15.681421, 15.649465, 15.667092, 15.648315, 15.645965, 15.650886, 15.643906, 15.649385, 15.646127, 15.639018, 15.650405, 15.656383, 15.647287
Process 25: 16.229710, 16.058996, 15.853978, 15.904241, 15.833972, 15.839691, 16.049174, 15.846980, 15.912611, 15.864810, 15.838787, 15.833770, 15.841598, 15.836733, 15.843444, 15.853524, 15.838712, 15.865861, 15.834512, 15.852704, 15.833934, 15.830942, 15.835562, 15.829037, 15.834085, 15.830624, 15.823645, 15.835989, 15.841585, 15.832112
Process 26: 16.408302, 16.239310, 16.033280, 16.084485, 16.012778, 16.019655, 16.228251, 16.026492, 16.093049, 16.043787, 16.018233, 16.013744, 16.020573, 16.016823, 16.022668, 16.032168, 16.018296, 16.045966, 16.013656, 16.031912, 16.013174, 16.010300, 16.016136, 16.009028, 16.012996, 16.009802, 16.003569, 16.016044, 16.020576, 16.011653
Process 27: 16.590645, 16.422144, 16.218092, 16.270834, 16.195368, 16.202315, 16.410807, 16.209111, 16.279026, 16.226584, 16.201104, 16.196741, 16.203020, 16.199603, 16.205720, 16.215305, 16.203507, 16.228759, 16.195927, 16.215017, 16.196174, 16.192713, 16.198858, 16.191270, 16.195387, 16.192595, 16.186269, 16.198770, 16.203454, 16.193932
Process 28: 16.771158, 16.602530, 16.402312, 16.455338, 16.378379, 16.382617, 16.591122, 16.389051, 16.460346, 16.407109, 16.381325, 16.377090, 16.383678, 16.380202, 16.386098, 16.395720, 16.383829, 16.409585, 16.376077, 16.395396, 16.376328, 16.372753, 16.379023, 16.371762, 16.375663, 16.373371, 16.366705, 16.379476, 16.383970, 16.376135
Process 29: 16.953536, 16.782600, 16.585834, 16.637634, 16.564784, 16.563670, 16.772438, 16.570186, 16.641700, 16.588375, 16.562470, 16.557362, 16.564915, 16.560022, 16.566812, 16.576795, 16.564481, 16.591050, 16.556454, 16.576750, 16.557571, 16.553366, 16.560428, 16.552392, 16.556368, 16.553836, 16.549306, 16.560108, 16.564587, 16.557784
Process 30: 17.130239, 16.960843, 16.763582, 16.815413, 16.744338, 16.743628, 16.950060, 16.747698, 16.819254, 16.766279, 16.739843, 16.735826, 16.742478, 16.737495, 16.744640, 16.754322, 16.741858, 16.768843, 16.734228, 16.754368, 16.734932, 16.731292, 16.738134, 16.730099, 16.733851, 16.735418, 16.726969, 16.741270, 16.742116, 16.735326
Process 31: 17.312678, 17.141379, 16.942852, 16.993686, 16.929730, 16.922735, 17.129098, 16.927805, 16.999329, 16.945609, 16.919887, 16.915782, 16.922358, 16.915775, 16.924859, 16.933902, 16.920993, 16.948917, 16.912900, 16.934174, 16.913945, 16.910817, 16.917707, 16.913773, 16.913853, 16.918018, 16.907620, 16.925309, 16.922600, 16.915644
