MPI_insiderank_serial
Process 0: 4.859725, 4.578097, 4.590106, 4.612637, 4.544857, 4.517388, 4.564028, 4.509870, 4.538747, 4.498426, 4.552799, 4.552770, 4.497638, 4.587068, 4.549533, 4.596226, 4.507048, 4.558400, 4.520203, 4.598757, 4.531383, 4.537498, 4.593309, 4.516880, 4.533491, 4.547265, 4.513769, 4.547787, 4.584251, 4.549281
Process 1: 4.514185, 4.224519, 4.267219, 4.226848, 4.199894, 4.189386, 4.168559, 4.154672, 4.195314, 4.173482, 4.178286, 4.182380, 4.153053, 4.248638, 4.202780, 4.259543, 4.159406, 4.172571, 4.170665, 4.247028, 4.184217, 4.183054, 4.259344, 4.171598, 4.178614, 4.192137, 4.164490, 4.200873, 4.236351, 4.168436
Process 2: 4.673218, 4.391513, 4.411565, 4.400722, 4.351876, 4.349987, 4.347023, 4.316801, 4.345785, 4.331811, 4.359176, 4.367012, 4.318149, 4.405266, 4.371669, 4.419906, 4.325141, 4.353420, 4.339807, 4.426728, 4.351462, 4.358850, 4.416253, 4.342703, 4.350852, 4.380690, 4.339380, 4.376055, 4.411182, 4.350375
Process 3: 4.866330, 4.584782, 4.596139, 4.619593, 4.550903, 4.522115, 4.570987, 4.516704, 4.545146, 4.503807, 4.557472, 4.557745, 4.502610, 4.591845, 4.556184, 4.601503, 4.512094, 4.563536, 4.525475, 4.603587, 4.536816, 4.542461, 4.598393, 4.521665, 4.538828, 4.552461, 4.518774, 4.552751, 4.589235, 4.554561
