MPI_insiderank_serial
Process 0: 3.415898, 1.314053, 2.156688, 1.171699, 1.243127, 1.176840, 2.316147, 1.166732, 1.166277, 1.166847, 2.380128, 1.171785, 1.170669, 1.185826, 1.571803, 1.175501, 1.180452, 1.171980, 1.172749, 1.172640, 1.169172, 1.174350, 2.203491, 1.173602, 1.175959, 1.176084, 1.178151, 1.178934, 1.203150, 2.334099
Process 1: 2.546703, 0.460487, 1.305398, 0.310148, 0.373789, 0.311577, 1.462637, 0.311715, 0.311905, 0.311751, 1.522705, 0.311712, 0.311908, 0.324007, 0.641380, 0.315088, 0.317323, 0.312652, 0.312148, 0.311715, 0.312125, 0.312977, 1.343728, 0.312817, 0.313227, 0.312880, 0.313171, 0.314887, 0.312898, 1.467776
Process 2: 2.551977, 0.466831, 1.311576, 0.316366, 0.380951, 0.317939, 1.468771, 0.318026, 0.318239, 0.317998, 1.529051, 0.317969, 0.318097, 0.330147, 0.647858, 0.321203, 0.323606, 0.318923, 0.318283, 0.318005, 0.318449, 0.319445, 1.349897, 0.318977, 0.319597, 0.318994, 0.319562, 0.321351, 0.319209, 1.474177
Process 3: 2.560911, 0.474529, 1.318704, 0.323541, 0.388578, 0.325100, 1.476285, 0.325667, 0.326007, 0.325166, 1.536208, 0.325804, 0.325328, 0.337367, 0.655130, 0.328401, 0.331784, 0.326407, 0.325516, 0.325214, 0.325620, 0.326594, 1.357149, 0.326234, 0.326791, 0.326183, 0.326816, 0.329206, 0.326365, 1.481389
Process 4: 2.566652, 0.480821, 1.325215, 0.330064, 0.395047, 0.331593, 1.482845, 0.331785, 0.332301, 0.331746, 1.542800, 0.332163, 0.331954, 0.343994, 0.661704, 0.334985, 0.337881, 0.333064, 0.332066, 0.331827, 0.332397, 0.333618, 1.363729, 0.332856, 0.333419, 0.332834, 0.333379, 0.335865, 0.333034, 1.488435
Process 5: 2.574841, 0.487833, 1.332435, 0.337273, 0.402183, 0.338791, 1.489999, 0.338936, 0.339499, 0.339010, 1.550008, 0.339382, 0.339148, 0.351325, 0.669456, 0.342231, 0.345031, 0.340229, 0.339282, 0.339049, 0.339638, 0.341354, 1.370998, 0.340085, 0.340682, 0.339977, 0.340557, 0.343309, 0.340275, 1.496183
Process 6: 2.581940, 0.494388, 1.338862, 0.343729, 0.408609, 0.345262, 1.496471, 0.345446, 0.346022, 0.345500, 1.556533, 0.345872, 0.345671, 0.357780, 0.675938, 0.348761, 0.351558, 0.346820, 0.345794, 0.345552, 0.346140, 0.347613, 1.377481, 0.346651, 0.347216, 0.346492, 0.347066, 0.349511, 0.346760, 1.502364
Process 7: 2.589587, 0.501645, 1.346229, 0.351161, 0.415940, 0.352830, 1.503827, 0.352780, 0.353292, 0.352892, 1.563976, 0.353341, 0.353047, 0.365426, 0.684279, 0.356179, 0.359018, 0.354086, 0.353150, 0.352947, 0.353521, 0.354765, 1.384959, 0.354090, 0.354626, 0.353937, 0.354254, 0.357378, 0.354274, 1.510272
Process 8: 2.596770, 0.508535, 1.352872, 0.357806, 0.422705, 0.359588, 1.510583, 0.359545, 0.360060, 0.359627, 1.570622, 0.359982, 0.359811, 0.372069, 0.690935, 0.363042, 0.365757, 0.360880, 0.359923, 0.359656, 0.360322, 0.361712, 1.391669, 0.360822, 0.361365, 0.360682, 0.361037, 0.363855, 0.361028, 1.516838
Process 9: 2.604486, 0.515436, 1.359861, 0.364730, 0.429588, 0.366529, 1.517476, 0.366460, 0.367025, 0.366571, 1.577642, 0.367002, 0.366741, 0.379129, 0.698760, 0.369958, 0.372685, 0.367853, 0.366906, 0.366629, 0.367249, 0.368666, 1.398714, 0.367744, 0.368366, 0.367629, 0.368019, 0.371206, 0.367972, 1.524321
Process 10: 2.610300, 0.522188, 1.366595, 0.371534, 0.436520, 0.373263, 1.524330, 0.373288, 0.373844, 0.373368, 1.584466, 0.373820, 0.373568, 0.385973, 0.705542, 0.376788, 0.379442, 0.374704, 0.373708, 0.373491, 0.374110, 0.375469, 1.405500, 0.374585, 0.375153, 0.374462, 0.374875, 0.377881, 0.374819, 1.531282
Process 11: 2.618322, 0.529491, 1.374262, 0.379026, 0.443456, 0.380927, 1.531171, 0.380879, 0.380764, 0.380962, 1.592075, 0.381292, 0.381125, 0.393395, 0.713491, 0.384569, 0.386917, 0.381603, 0.381486, 0.381070, 0.381014, 0.382631, 1.413090, 0.382194, 0.382722, 0.382058, 0.382408, 0.384960, 0.382344, 1.538493
Process 12: 2.624299, 0.536256, 1.380774, 0.385521, 0.450321, 0.387691, 1.537979, 0.387397, 0.387633, 0.387755, 1.598655, 0.388028, 0.387881, 0.401345, 0.720799, 0.390997, 0.393659, 0.388557, 0.388021, 0.387581, 0.387894, 0.389652, 1.419709, 0.388785, 0.389479, 0.388742, 0.389393, 0.391878, 0.389398, 1.545111
Process 13: 2.631733, 0.543596, 1.388193, 0.392216, 0.457122, 0.394856, 1.544806, 0.394178, 0.394398, 0.394542, 1.605446, 0.395525, 0.394628, 0.409147, 0.728402, 0.397781, 0.401090, 0.395435, 0.394798, 0.394441, 0.394766, 0.397026, 1.426580, 0.395601, 0.396311, 0.396166, 0.396670, 0.398736, 0.396586, 1.551988
Process 14: 2.638585, 0.550057, 1.394287, 0.398931, 0.463830, 0.403460, 1.553634, 0.400878, 0.401145, 0.401289, 1.612177, 0.401811, 0.401359, 0.416006, 0.735159, 0.404568, 0.407462, 0.402160, 0.401528, 0.401182, 0.401538, 0.403570, 1.433266, 0.402335, 0.403112, 0.402807, 0.403155, 0.405455, 0.403151, 1.558822
Process 15: 2.645758, 0.557383, 1.401133, 0.405744, 0.470632, 0.410913, 1.558358, 0.407662, 0.407921, 0.408018, 1.619037, 0.408540, 0.408144, 0.422791, 0.741926, 0.411395, 0.414823, 0.409065, 0.408366, 0.407985, 0.408384, 0.410475, 1.440392, 0.409248, 0.409979, 0.409584, 0.410041, 0.412313, 0.410690, 1.565668
Process 16: 2.652257, 0.564062, 1.407662, 0.412424, 0.477305, 0.417203, 1.564950, 0.414436, 0.414563, 0.414737, 1.625739, 0.415274, 0.414862, 0.429738, 0.748604, 0.418093, 0.421474, 0.415775, 0.415143, 0.414753, 0.415059, 0.417099, 1.447058, 0.415966, 0.416675, 0.416279, 0.416799, 0.419050, 0.417117, 1.572398
Process 17: 2.660718, 0.570879, 1.414541, 0.419229, 0.484238, 0.423968, 1.571892, 0.421299, 0.421516, 0.421643, 1.632666, 0.422179, 0.421748, 0.436379, 0.755831, 0.425000, 0.428864, 0.422672, 0.422068, 0.421676, 0.421970, 0.423992, 1.454094, 0.422943, 0.423609, 0.423236, 0.423654, 0.425958, 0.423957, 1.579339
Process 18: 2.666041, 0.577690, 1.421181, 0.425913, 0.491197, 0.430614, 1.578924, 0.427971, 0.428584, 0.428336, 1.639333, 0.428879, 0.428450, 0.443063, 0.763518, 0.431743, 0.435262, 0.429746, 0.428775, 0.428347, 0.429086, 0.430745, 1.460742, 0.429645, 0.430437, 0.429942, 0.430425, 0.432685, 0.430705, 1.586095
Process 19: 2.674716, 0.584474, 1.428010, 0.432708, 0.498411, 0.437495, 1.586072, 0.434793, 0.435638, 0.435138, 1.646143, 0.435714, 0.435247, 0.450005, 0.771518, 0.438554, 0.442762, 0.436995, 0.435663, 0.435211, 0.436118, 0.437580, 1.467688, 0.436525, 0.437312, 0.436838, 0.437283, 0.439620, 0.437586, 1.592929
Process 20: 2.680060, 0.591147, 1.434610, 0.439381, 0.504563, 0.444173, 1.592190, 0.441544, 0.441981, 0.441911, 1.652861, 0.442452, 0.441985, 0.456778, 0.779225, 0.445312, 0.449028, 0.443019, 0.442388, 0.441975, 0.442354, 0.444345, 1.474362, 0.443297, 0.444044, 0.443595, 0.444007, 0.446390, 0.444306, 1.599757
Process 21: 2.687804, 0.597916, 1.441404, 0.446144, 0.511161, 0.451049, 1.598817, 0.448326, 0.448686, 0.448731, 1.659697, 0.449305, 0.448815, 0.463743, 0.786276, 0.452209, 0.455734, 0.449644, 0.449245, 0.448859, 0.448985, 0.451244, 1.481294, 0.450161, 0.450956, 0.450484, 0.450909, 0.453272, 0.451257, 1.606667
Process 22: 2.694139, 0.604534, 1.447960, 0.452768, 0.517717, 0.457640, 1.605320, 0.454953, 0.455290, 0.455343, 1.666329, 0.455944, 0.455453, 0.470403, 0.793849, 0.458816, 0.462279, 0.456260, 0.455913, 0.455485, 0.455592, 0.457899, 1.487884, 0.456817, 0.457618, 0.457160, 0.457595, 0.459898, 0.457935, 1.613340
Process 23: 2.701141, 0.611340, 1.454907, 0.459645, 0.524371, 0.464592, 1.612020, 0.461889, 0.462016, 0.462213, 1.673314, 0.463360, 0.462374, 0.477382, 0.801809, 0.465722, 0.469083, 0.463010, 0.462818, 0.462470, 0.462348, 0.464877, 1.494901, 0.463785, 0.464538, 0.464123, 0.464518, 0.466941, 0.464856, 1.620286
Process 24: 2.707754, 0.618081, 1.461365, 0.466173, 0.530913, 0.471142, 1.618475, 0.468449, 0.468572, 0.468816, 1.679859, 0.469539, 0.468929, 0.483965, 0.808602, 0.472339, 0.475569, 0.469477, 0.469402, 0.469021, 0.468829, 0.471506, 1.501385, 0.470348, 0.471158, 0.470679, 0.471144, 0.473531, 0.471458, 1.626931
Process 25: 2.715643, 0.624910, 1.468325, 0.473129, 0.537708, 0.478091, 1.625194, 0.475314, 0.475350, 0.475735, 1.686817, 0.476476, 0.475871, 0.490967, 0.816499, 0.479269, 0.482986, 0.476989, 0.476361, 0.476024, 0.476293, 0.478462, 1.508404, 0.477472, 0.478128, 0.477712, 0.478130, 0.480548, 0.478655, 1.633900
Process 26: 2.721486, 0.631463, 1.474727, 0.479685, 0.544226, 0.484653, 1.631875, 0.481906, 0.481979, 0.482296, 1.693372, 0.483048, 0.482473, 0.497555, 0.824163, 0.485857, 0.489399, 0.483239, 0.482947, 0.482639, 0.482596, 0.485032, 1.514958, 0.484077, 0.484729, 0.484332, 0.484778, 0.487463, 0.485162, 1.640862
Process 27: 2.730013, 0.638323, 1.481785, 0.487475, 0.551406, 0.491559, 1.639724, 0.489704, 0.489293, 0.490031, 1.701411, 0.490022, 0.490296, 0.504637, 0.833139, 0.493858, 0.496787, 0.490701, 0.490981, 0.490516, 0.490096, 0.492017, 1.522869, 0.491882, 0.492785, 0.491339, 0.491734, 0.494998, 0.492127, 1.648458
Process 28: 2.735268, 0.644855, 1.488170, 0.493520, 0.557539, 0.498134, 1.646172, 0.495902, 0.495478, 0.496240, 1.707366, 0.496566, 0.496490, 0.511338, 0.840382, 0.499895, 0.502961, 0.497237, 0.497015, 0.496618, 0.496242, 0.498587, 1.528981, 0.498088, 0.498980, 0.497931, 0.498322, 0.501120, 0.498734, 1.654513
Process 29: 2.742216, 0.651714, 1.496119, 0.500851, 0.564598, 0.505242, 1.653190, 0.502697, 0.502471, 0.503126, 1.714837, 0.504460, 0.503871, 0.519449, 0.849210, 0.506819, 0.509970, 0.504235, 0.504401, 0.503976, 0.503275, 0.506467, 1.536573, 0.504996, 0.506248, 0.505677, 0.506220, 0.508176, 0.505742, 1.661524
Process 30: 2.749198, 0.658262, 1.501984, 0.506774, 0.571204, 0.511786, 1.659873, 0.509209, 0.509071, 0.509656, 1.720937, 0.510534, 0.509893, 0.525594, 0.855457, 0.513401, 0.516554, 0.510910, 0.510425, 0.510029, 0.509912, 0.512599, 1.542291, 0.511632, 0.512524, 0.511786, 0.512259, 0.514791, 0.512349, 1.668190
Process 31: 2.756625, 0.666141, 1.509071, 0.513803, 0.579097, 0.519931, 1.667028, 0.516204, 0.516140, 0.516595, 1.727998, 0.517585, 0.516928, 0.532672, 0.863558, 0.520355, 0.523599, 0.517977, 0.517502, 0.517075, 0.516987, 0.519689, 1.549451, 0.518622, 0.519581, 0.518853, 0.519335, 0.521942, 0.520619, 1.675297
Process 32: 2.762520, 0.672118, 1.515578, 0.520334, 0.585617, 0.526167, 1.673652, 0.522783, 0.522634, 0.523159, 1.734793, 0.524155, 0.523489, 0.539297, 0.871085, 0.526956, 0.530192, 0.524519, 0.524053, 0.524208, 0.523530, 0.526177, 1.556010, 0.525228, 0.526117, 0.525418, 0.525942, 0.528557, 0.526727, 1.681888
Process 33: 2.770552, 0.678968, 1.522563, 0.527323, 0.592724, 0.533111, 1.680685, 0.529790, 0.529732, 0.530193, 1.741831, 0.531213, 0.530559, 0.546323, 0.878286, 0.534069, 0.537309, 0.531645, 0.531152, 0.531368, 0.530650, 0.533298, 1.563049, 0.532367, 0.533269, 0.532599, 0.533023, 0.535707, 0.533772, 1.689052
Process 34: 2.776423, 0.685533, 1.529135, 0.533857, 0.599226, 0.539611, 1.687171, 0.536281, 0.536216, 0.536672, 1.748340, 0.537774, 0.537044, 0.552840, 0.885884, 0.540583, 0.543751, 0.538166, 0.537661, 0.537887, 0.537147, 0.539877, 1.569661, 0.538870, 0.539810, 0.539087, 0.539590, 0.542276, 0.540305, 1.695602
Process 35: 2.784461, 0.692480, 1.535943, 0.540835, 0.606280, 0.546598, 1.694678, 0.543272, 0.543201, 0.543769, 1.755361, 0.544856, 0.544094, 0.559867, 0.894118, 0.547582, 0.550802, 0.545177, 0.544697, 0.545032, 0.544207, 0.546870, 1.576600, 0.545927, 0.546881, 0.546190, 0.546682, 0.549352, 0.547344, 1.702644
Process 36: 2.790369, 0.698933, 1.542393, 0.547287, 0.612808, 0.553072, 1.701459, 0.549745, 0.549760, 0.550264, 1.761920, 0.551371, 0.550591, 0.566359, 0.901809, 0.554102, 0.557320, 0.551672, 0.551195, 0.551599, 0.550725, 0.553410, 1.583091, 0.552488, 0.553380, 0.552727, 0.553173, 0.555886, 0.553907, 1.709220
Process 37: 2.797910, 0.706030, 1.549401, 0.554301, 0.620026, 0.560155, 1.708428, 0.556787, 0.556847, 0.557266, 1.768911, 0.558397, 0.557665, 0.573531, 0.909999, 0.561168, 0.564362, 0.558725, 0.558264, 0.558713, 0.557859, 0.560536, 1.590274, 0.559599, 0.560492, 0.559770, 0.560265, 0.563019, 0.561002, 1.716452
Process 38: 2.804527, 0.712492, 1.555837, 0.560747, 0.626604, 0.566669, 1.714906, 0.563266, 0.563296, 0.563773, 1.775430, 0.564925, 0.564203, 0.580060, 0.916570, 0.567633, 0.570874, 0.565240, 0.564801, 0.565243, 0.564353, 0.567030, 1.596805, 0.566134, 0.567044, 0.566315, 0.566888, 0.569645, 0.567615, 1.722973
Process 39: 2.811970, 0.719465, 1.562936, 0.567842, 0.633800, 0.573755, 1.721917, 0.570379, 0.570463, 0.570933, 1.782485, 0.572107, 0.571320, 0.587213, 0.924741, 0.574781, 0.578042, 0.572365, 0.571904, 0.572451, 0.571497, 0.574187, 1.603997, 0.573298, 0.574167, 0.573505, 0.574030, 0.576827, 0.574758, 1.730156
Process 40: 2.817871, 0.726199, 1.569424, 0.574317, 0.641277, 0.580289, 1.728316, 0.576873, 0.576939, 0.577397, 1.788978, 0.578586, 0.577750, 0.593707, 0.932254, 0.581286, 0.584502, 0.578883, 0.578431, 0.578905, 0.578020, 0.580708, 1.610485, 0.579789, 0.580706, 0.579994, 0.580557, 0.583348, 0.581303, 1.736716
Process 41: 2.825402, 0.733207, 1.576471, 0.581415, 0.648409, 0.587352, 1.735395, 0.583945, 0.583981, 0.584452, 1.796194, 0.585667, 0.584871, 0.600845, 0.940476, 0.588394, 0.591626, 0.585997, 0.585636, 0.586046, 0.585094, 0.587809, 1.617607, 0.587025, 0.587860, 0.587111, 0.587698, 0.590467, 0.588491, 1.743823
Process 42: 2.832282, 0.739699, 1.582875, 0.587845, 0.655305, 0.593786, 1.742230, 0.590377, 0.590451, 0.590925, 1.803213, 0.592122, 0.591335, 0.607273, 0.948115, 0.595256, 0.598467, 0.592443, 0.592060, 0.592583, 0.591930, 0.594305, 1.624117, 0.593774, 0.594354, 0.593638, 0.594156, 0.597356, 0.595189, 1.750384
Process 43: 2.840581, 0.746666, 1.589924, 0.594863, 0.662863, 0.600865, 1.749658, 0.598390, 0.598305, 0.598812, 1.810303, 0.599191, 0.598409, 0.614399, 0.957292, 0.602712, 0.606006, 0.600363, 0.599155, 0.599747, 0.599566, 0.601410, 1.631174, 0.601580, 0.601438, 0.600758, 0.601271, 0.604952, 0.603324, 1.758298
Process 44: 2.846297, 0.753103, 1.596364, 0.601475, 0.668754, 0.607362, 1.755404, 0.604325, 0.604703, 0.604677, 1.816976, 0.605836, 0.605159, 0.621011, 0.964382, 0.608675, 0.611889, 0.606262, 0.606260, 0.606618, 0.605341, 0.608112, 1.637832, 0.607271, 0.607947, 0.607427, 0.608044, 0.610928, 0.609936, 1.764612
Process 45: 2.852591, 0.760179, 1.604321, 0.608950, 0.675781, 0.614556, 1.762097, 0.611344, 0.611839, 0.611689, 1.824734, 0.613596, 0.613048, 0.629029, 0.972468, 0.615763, 0.618966, 0.613350, 0.613816, 0.614524, 0.612418, 0.616197, 1.645509, 0.614395, 0.615962, 0.615250, 0.616282, 0.617984, 0.617991, 1.771645
Process 46: 2.859459, 0.766811, 1.610102, 0.614913, 0.682120, 0.621190, 1.768629, 0.617720, 0.618328, 0.618001, 1.830529, 0.619440, 0.618907, 0.634916, 0.979692, 0.622194, 0.625290, 0.619708, 0.619790, 0.620353, 0.618866, 0.622302, 1.651484, 0.620835, 0.621821, 0.621534, 0.622327, 0.624442, 0.625168, 1.778288
Process 47: 2.866310, 0.774356, 1.617341, 0.622170, 0.689164, 0.629143, 1.775634, 0.624796, 0.625336, 0.625088, 1.837802, 0.626729, 0.626192, 0.642199, 0.987696, 0.629290, 0.632397, 0.626821, 0.627066, 0.627605, 0.625926, 0.629485, 1.658767, 0.627875, 0.629111, 0.628715, 0.629601, 0.631666, 0.633767, 1.785459
Process 48: 2.872540, 0.780592, 1.623738, 0.628559, 0.695737, 0.635285, 1.782133, 0.631138, 0.631876, 0.631473, 1.844189, 0.633180, 0.632623, 0.648546, 0.994974, 0.635661, 0.638815, 0.633175, 0.633493, 0.634022, 0.632261, 0.635984, 1.665207, 0.634254, 0.635548, 0.635246, 0.636092, 0.638247, 0.640568, 1.792030
Process 49: 2.880465, 0.787523, 1.630824, 0.635559, 0.702727, 0.642307, 1.788797, 0.638113, 0.638895, 0.638411, 1.851165, 0.640270, 0.639641, 0.655729, 1.002877, 0.642654, 0.645752, 0.640164, 0.640555, 0.641115, 0.639282, 0.643152, 1.672268, 0.641216, 0.642628, 0.642402, 0.643211, 0.645287, 0.648342, 1.799071
Process 50: 2.887027, 0.794093, 1.637250, 0.641980, 0.709113, 0.648850, 1.795493, 0.644508, 0.645407, 0.644794, 1.857662, 0.646740, 0.646112, 0.662194, 1.009367, 0.649030, 0.652182, 0.646582, 0.647031, 0.647551, 0.645648, 0.649711, 1.678776, 0.647616, 0.649148, 0.648914, 0.649726, 0.651910, 0.654862, 1.805703
Process 51: 2.894748, 0.801069, 1.644161, 0.648888, 0.715987, 0.655817, 1.802154, 0.651289, 0.652262, 0.651618, 1.864603, 0.653735, 0.653109, 0.669250, 1.017291, 0.655859, 0.659000, 0.653427, 0.654002, 0.654603, 0.652604, 0.656708, 1.685740, 0.654535, 0.656169, 0.655940, 0.656714, 0.658924, 0.663742, 1.812668
Process 52: 2.900460, 0.807573, 1.650633, 0.655371, 0.722456, 0.662324, 1.808836, 0.657728, 0.658819, 0.657978, 1.871057, 0.660170, 0.659660, 0.675765, 1.024710, 0.662365, 0.665387, 0.659855, 0.660478, 0.661161, 0.659109, 0.663246, 1.692238, 0.661004, 0.662690, 0.662536, 0.663180, 0.665548, 0.670341, 1.819248
Process 53: 2.907342, 0.814536, 1.657614, 0.662295, 0.729336, 0.669299, 1.815282, 0.664527, 0.665683, 0.664792, 1.877967, 0.667095, 0.666580, 0.682763, 1.032511, 0.669137, 0.672309, 0.666697, 0.667436, 0.668225, 0.665948, 0.670256, 1.699212, 0.667959, 0.669701, 0.669583, 0.670151, 0.672473, 0.677463, 1.826191
Process 54: 2.914260, 0.821078, 1.663945, 0.668704, 0.735679, 0.675818, 1.821079, 0.670875, 0.672114, 0.671178, 1.884375, 0.673568, 0.673026, 0.689254, 1.039813, 0.675572, 0.678716, 0.673084, 0.673871, 0.674692, 0.672299, 0.676766, 1.705679, 0.674397, 0.676150, 0.676162, 0.676619, 0.678978, 0.684818, 1.832728
Process 55: 2.920935, 0.828063, 1.671038, 0.675824, 0.742615, 0.682876, 1.828078, 0.677814, 0.679062, 0.678061, 1.891402, 0.680611, 0.680167, 0.696403, 1.047821, 0.682552, 0.685601, 0.680044, 0.680944, 0.681884, 0.679325, 0.683918, 1.712859, 0.681354, 0.683316, 0.683301, 0.683693, 0.685968, 0.692309, 1.839810
Process 56: 2.927042, 0.834750, 1.677415, 0.682203, 0.748917, 0.689341, 1.834335, 0.684132, 0.685474, 0.684339, 1.897807, 0.686974, 0.686532, 0.702767, 1.055140, 0.688813, 0.691942, 0.686400, 0.687372, 0.688230, 0.685679, 0.690360, 1.719263, 0.687694, 0.689749, 0.689772, 0.690164, 0.692508, 0.699453, 1.846315
Process 57: 2.935004, 0.841692, 1.684337, 0.689137, 0.756087, 0.696426, 1.841292, 0.691025, 0.692425, 0.691287, 1.904798, 0.694003, 0.693526, 0.709799, 1.063986, 0.696033, 0.699436, 0.693330, 0.694391, 0.695298, 0.692681, 0.697448, 1.726308, 0.694681, 0.696723, 0.696900, 0.697185, 0.700210, 0.707785, 1.853948
Process 58: 2.941252, 0.848146, 1.690659, 0.695476, 0.762376, 0.702827, 1.847849, 0.697580, 0.698887, 0.697639, 1.911138, 0.700350, 0.699940, 0.716182, 1.070760, 0.702407, 0.705978, 0.699890, 0.700769, 0.701655, 0.699245, 0.703914, 1.732669, 0.701372, 0.703145, 0.703407, 0.703562, 0.706515, 0.714965, 1.860225
Process 59: 2.949485, 0.855128, 1.698172, 0.702709, 0.770070, 0.709845, 1.855229, 0.705394, 0.706279, 0.705211, 1.918815, 0.707928, 0.707504, 0.723946, 1.079664, 0.709801, 0.713636, 0.707313, 0.708389, 0.709211, 0.707039, 0.711014, 1.740301, 0.708439, 0.710739, 0.710578, 0.711183, 0.713720, 0.722253, 1.867978
Process 60: 2.955289, 0.861543, 1.704405, 0.709315, 0.776398, 0.716362, 1.861781, 0.711553, 0.712492, 0.711804, 1.924936, 0.714463, 0.713775, 0.730250, 1.087019, 0.716563, 0.720000, 0.714070, 0.714888, 0.715578, 0.713260, 0.717775, 1.746689, 0.715598, 0.717049, 0.717367, 0.717840, 0.720330, 0.729536, 1.874354
Process 61: 2.961865, 0.868670, 1.711882, 0.716873, 0.783544, 0.723801, 1.868934, 0.718631, 0.719571, 0.718872, 1.932072, 0.721864, 0.721697, 0.737936, 1.095380, 0.724366, 0.727150, 0.721740, 0.722595, 0.722730, 0.720410, 0.725809, 1.753742, 0.723203, 0.725078, 0.725395, 0.725359, 0.727552, 0.737273, 1.882173
Process 62: 2.968665, 0.875396, 1.718233, 0.723240, 0.790018, 0.729977, 1.875351, 0.725088, 0.726075, 0.725266, 1.938402, 0.728166, 0.728016, 0.744343, 1.103090, 0.730668, 0.733620, 0.728230, 0.728981, 0.729202, 0.726900, 0.731697, 1.760264, 0.729545, 0.731280, 0.731386, 0.731820, 0.734068, 0.743284, 1.888295
Process 63: 2.975469, 0.883419, 1.725283, 0.730275, 0.797189, 0.738146, 1.882536, 0.732274, 0.733237, 0.732481, 1.945576, 0.735351, 0.735134, 0.751468, 1.111933, 0.737788, 0.740819, 0.735360, 0.736118, 0.736373, 0.734094, 0.738872, 1.767491, 0.737559, 0.738470, 0.738558, 0.739020, 0.741306, 0.750520, 1.895515
Process 64: 2.982363, 0.889773, 1.731872, 0.737827, 0.803792, 0.744113, 1.889204, 0.738857, 0.739873, 0.739111, 1.952234, 0.741979, 0.741738, 0.758017, 1.118478, 0.744446, 0.747437, 0.741966, 0.742720, 0.743098, 0.740815, 0.745478, 1.774128, 0.743847, 0.745061, 0.745195, 0.745651, 0.747981, 0.757177, 1.902161
Process 65: 2.990058, 0.896385, 1.738780, 0.745315, 0.810760, 0.751024, 1.896029, 0.745814, 0.746822, 0.746025, 1.959149, 0.748893, 0.748678, 0.765004, 1.126257, 0.751375, 0.754359, 0.748945, 0.749708, 0.750041, 0.747807, 0.752455, 1.781106, 0.751559, 0.752075, 0.752268, 0.752633, 0.754957, 0.765881, 1.909109
Process 66: 2.995921, 0.903292, 1.745356, 0.751967, 0.817334, 0.757641, 1.902718, 0.752387, 0.753416, 0.752650, 1.965787, 0.755519, 0.755305, 0.771641, 1.132943, 0.758024, 0.761010, 0.755563, 0.756322, 0.756691, 0.754405, 0.759095, 1.787750, 0.757671, 0.758707, 0.758891, 0.759303, 0.761641, 0.773686, 1.915847
Process 67: 3.003786, 0.909880, 1.752223, 0.758883, 0.824246, 0.764533, 1.909554, 0.759289, 0.760332, 0.759541, 1.972676, 0.762437, 0.762243, 0.778574, 1.141027, 0.764950, 0.767947, 0.762484, 0.763241, 0.763642, 0.761349, 0.765994, 1.794713, 0.765180, 0.765641, 0.765881, 0.766287, 0.768620, 0.781435, 1.922742
Process 68: 3.010396, 0.916613, 1.758824, 0.767255, 0.830835, 0.771099, 1.916219, 0.765884, 0.766964, 0.766120, 1.979250, 0.769016, 0.768834, 0.785163, 1.148796, 0.771606, 0.774553, 0.769107, 0.769890, 0.770241, 0.767991, 0.772646, 1.801322, 0.771572, 0.772296, 0.772609, 0.772916, 0.775260, 0.788049, 1.929509
Process 69: 3.016813, 0.923207, 1.765702, 0.774198, 0.837798, 0.778091, 1.923030, 0.772789, 0.773806, 0.773151, 1.986131, 0.776002, 0.775715, 0.792132, 1.156799, 0.778521, 0.781574, 0.776066, 0.776877, 0.777219, 0.774885, 0.782868, 1.808292, 0.778363, 0.779279, 0.779576, 0.779907, 0.782294, 0.794954, 1.936420
Process 70: 3.023615, 0.929975, 1.772286, 0.780730, 0.844386, 0.784678, 1.929609, 0.779324, 0.780394, 0.779740, 1.992729, 0.782602, 0.782315, 0.798718, 1.163505, 0.785179, 0.788167, 0.782647, 0.783506, 0.783830, 0.781615, 0.786213, 1.814845, 0.785092, 0.785882, 0.786231, 0.786565, 0.788986, 0.801579, 1.942999
Process 71: 3.031284, 0.936728, 1.779312, 0.787655, 0.851430, 0.791697, 1.936600, 0.786381, 0.787429, 0.786740, 1.999714, 0.789583, 0.789310, 0.805801, 1.170544, 0.792194, 0.795175, 0.789678, 0.790502, 0.790868, 0.788608, 0.793258, 1.821913, 0.792007, 0.792981, 0.793337, 0.793598, 0.796024, 0.808551, 1.950096
Process 72: 3.037910, 0.943696, 1.785826, 0.795813, 0.858010, 0.798262, 1.943211, 0.792950, 0.793981, 0.793312, 2.006334, 0.796179, 0.795901, 0.812397, 1.177176, 0.798765, 0.801747, 0.796258, 0.797133, 0.797405, 0.795190, 0.799846, 1.828521, 0.798648, 0.799603, 0.799896, 0.800251, 0.802653, 0.815157, 1.956778
Process 73: 3.045815, 0.950375, 1.792737, 0.803090, 0.864913, 0.805184, 1.950159, 0.799859, 0.800909, 0.800290, 2.013270, 0.803144, 0.802867, 0.819374, 1.185099, 0.805734, 0.808729, 0.803202, 0.804114, 0.804396, 0.802216, 0.806801, 1.835534, 0.805577, 0.806579, 0.807001, 0.807271, 0.809667, 0.822178, 1.963764
Process 74: 3.052072, 0.957069, 1.799280, 0.809671, 0.871465, 0.811716, 1.956909, 0.806742, 0.807460, 0.806819, 2.019795, 0.809671, 0.809404, 0.825891, 1.192720, 0.812326, 0.815234, 0.809760, 0.810654, 0.810958, 0.808782, 0.813391, 1.842392, 0.812156, 0.813177, 0.813590, 0.813846, 0.816629, 0.828801, 1.970324
Process 75: 3.059939, 0.963738, 1.806132, 0.816537, 0.879160, 0.818643, 1.964388, 0.814072, 0.815157, 0.814656, 2.027462, 0.816594, 0.816366, 0.832924, 1.200946, 0.819256, 0.823018, 0.816743, 0.817608, 0.818767, 0.816642, 0.820670, 1.849963, 0.819012, 0.820129, 0.820575, 0.820847, 0.824115, 0.835756, 1.977387
Process 76: 3.065866, 0.970456, 1.812656, 0.826691, 0.885281, 0.825183, 1.970583, 0.820079, 0.821101, 0.820689, 2.033814, 0.823179, 0.822927, 0.839471, 1.208686, 0.826675, 0.829245, 0.823336, 0.824437, 0.824766, 0.822595, 0.827543, 1.855846, 0.825572, 0.826711, 0.827504, 0.827428, 0.830224, 0.842644, 1.983959
Process 77: 3.072729, 0.977211, 1.820563, 0.832550, 0.892185, 0.832197, 1.977474, 0.827006, 0.828060, 0.827596, 2.040670, 0.831031, 0.830829, 0.847282, 1.216933, 0.834999, 0.836129, 0.831331, 0.832078, 0.831733, 0.829561, 0.834931, 1.862761, 0.832529, 0.834913, 0.835272, 0.835299, 0.837212, 0.849960, 1.991880
Process 78: 3.079881, 0.984279, 1.826537, 0.838093, 0.898844, 0.839036, 1.983991, 0.833426, 0.834461, 0.834043, 2.047862, 0.837314, 0.836802, 0.853361, 1.223834, 0.840991, 0.842723, 0.837372, 0.838355, 0.838129, 0.836009, 0.841010, 1.869277, 0.839129, 0.840836, 0.841370, 0.841393, 0.843773, 0.855691, 1.998110
Process 79: 3.086113, 0.991675, 1.833432, 0.844872, 0.905753, 0.846877, 1.990888, 0.840319, 0.841400, 0.841015, 2.054705, 0.844206, 0.843766, 0.860432, 1.231557, 0.847916, 0.849677, 0.844280, 0.845242, 0.845059, 0.842994, 0.847940, 1.876268, 0.846106, 0.847766, 0.848251, 0.848363, 0.850754, 0.862516, 2.005316
Process 80: 3.093046, 0.997820, 1.839860, 0.851277, 0.912166, 0.853032, 1.997404, 0.846744, 0.847820, 0.847440, 2.061565, 0.850736, 0.850218, 0.866760, 1.238039, 0.854370, 0.856271, 0.850725, 0.851898, 0.851509, 0.849434, 0.854371, 1.882664, 0.852715, 0.854156, 0.854885, 0.854831, 0.857195, 0.869077, 2.011866
Process 81: 3.100164, 1.004461, 1.846703, 0.858072, 0.919037, 0.859917, 2.004322, 0.853601, 0.854708, 0.854313, 2.068379, 0.857691, 0.857068, 0.873683, 1.245736, 0.861265, 0.863182, 0.857659, 0.858854, 0.858371, 0.856380, 0.861305, 1.889562, 0.859678, 0.861158, 0.861891, 0.861728, 0.864129, 0.875985, 2.018891
Process 82: 3.106698, 1.010967, 1.853074, 0.864485, 0.926036, 0.866414, 2.010851, 0.859971, 0.861081, 0.860768, 2.075061, 0.864252, 0.863551, 0.880111, 1.252232, 0.867707, 0.869757, 0.864059, 0.865389, 0.864854, 0.862853, 0.867806, 1.896048, 0.866491, 0.867607, 0.868574, 0.868238, 0.870675, 0.882508, 2.025577
Process 83: 3.114132, 1.017565, 1.859837, 0.871238, 0.933016, 0.873268, 2.017699, 0.866759, 0.867869, 0.867514, 2.081764, 0.871103, 0.870363, 0.886937, 1.260038, 0.874621, 0.876629, 0.870956, 0.872262, 0.871680, 0.869679, 0.874659, 1.902839, 0.873882, 0.874417, 0.875440, 0.875104, 0.877489, 0.889428, 2.032514
Process 84: 3.120256, 1.024028, 1.866302, 0.877628, 0.940298, 0.879780, 2.024116, 0.873160, 0.874183, 0.873878, 2.088520, 0.877621, 0.876757, 0.893309, 1.266559, 0.880993, 0.883174, 0.877365, 0.878817, 0.878067, 0.876038, 0.881057, 1.909259, 0.879815, 0.880880, 0.882015, 0.881486, 0.883949, 0.898410, 2.039076
Process 85: 3.127394, 1.030677, 1.872972, 0.884335, 0.947222, 0.886679, 2.030949, 0.879915, 0.880963, 0.880651, 2.095129, 0.884502, 0.883638, 0.900173, 1.274251, 0.887879, 0.890065, 0.884215, 0.885719, 0.884958, 0.882918, 0.887838, 1.916081, 0.886586, 0.887730, 0.888896, 0.888395, 0.890837, 0.903715, 2.046032
Process 86: 3.134205, 1.037120, 1.879391, 0.890772, 0.954407, 0.893107, 2.037337, 0.886335, 0.887321, 0.887019, 2.101746, 0.890880, 0.890060, 0.906554, 1.280672, 0.894317, 0.896554, 0.890638, 0.892156, 0.891362, 0.889329, 0.894295, 1.922483, 0.893033, 0.894115, 0.895412, 0.894841, 0.897275, 0.910203, 2.052529
Process 87: 3.140214, 1.043902, 1.886306, 0.897523, 0.961390, 0.899973, 2.044207, 0.893274, 0.894191, 0.893924, 2.108531, 0.897819, 0.896965, 0.913554, 1.288542, 0.901249, 0.903462, 0.897615, 0.899079, 0.898263, 0.896250, 0.901233, 1.929447, 0.899983, 0.901057, 0.902376, 0.901764, 0.904303, 0.918082, 2.059529
Process 88: 3.146990, 1.050558, 1.892621, 0.903893, 0.968591, 0.906437, 2.050713, 0.899581, 0.900520, 0.900293, 2.114937, 0.904311, 0.903321, 0.919845, 1.294954, 0.907562, 0.909998, 0.903921, 0.905545, 0.904633, 0.902637, 0.907589, 1.935860, 0.906375, 0.907716, 0.908883, 0.908243, 0.910749, 0.924563, 2.066086
Process 89: 3.155354, 1.057617, 1.899952, 0.911183, 0.975761, 0.913299, 2.057527, 0.907168, 0.907405, 0.907061, 2.122100, 0.911165, 0.910175, 0.926697, 1.302726, 0.914473, 0.916936, 0.910754, 0.913240, 0.912035, 0.909968, 0.914749, 1.943309, 0.913463, 0.915044, 0.915872, 0.915777, 0.917614, 0.932498, 2.073017
Process 90: 3.161019, 1.064020, 1.906233, 0.917308, 0.982886, 0.919828, 2.064163, 0.913339, 0.913838, 0.913823, 2.128472, 0.917729, 0.916818, 0.933236, 1.309257, 0.921288, 0.923589, 0.917513, 0.919323, 0.918096, 0.916094, 0.921121, 1.949602, 0.919889, 0.921668, 0.922452, 0.922254, 0.924420, 0.939226, 2.079779
Process 91: 3.168789, 1.071415, 1.914131, 0.924891, 0.990529, 0.927571, 2.071752, 0.920829, 0.921777, 0.921553, 2.136215, 0.925331, 0.924828, 0.941081, 1.318001, 0.928708, 0.931013, 0.925112, 0.926661, 0.926190, 0.924002, 0.928124, 1.957181, 0.927805, 0.929179, 0.930173, 0.929516, 0.932056, 0.947630, 2.087220
Process 92: 3.175628, 1.077853, 1.920220, 0.931188, 0.997490, 0.933577, 2.078227, 0.927441, 0.927980, 0.927704, 2.142354, 0.931601, 0.931002, 0.947530, 1.324313, 0.935398, 0.937500, 0.931546, 0.933483, 0.932337, 0.930362, 0.934976, 1.963741, 0.934147, 0.935664, 0.936383, 0.936470, 0.938466, 0.954486, 2.093483
Process 93: 3.183588, 1.084706, 1.927258, 0.938081, 1.005220, 0.941498, 2.085968, 0.935487, 0.935736, 0.935573, 2.150199, 0.939513, 0.939008, 0.955114, 1.332021, 0.943317, 0.944485, 0.939659, 0.941290, 0.940479, 0.937331, 0.942905, 1.971718, 0.941217, 0.943911, 0.944180, 0.944353, 0.946420, 0.962070, 2.101444
Process 94: 3.189368, 1.091391, 1.933759, 0.944541, 1.012310, 0.947805, 2.092455, 0.941588, 0.942008, 0.941726, 2.156799, 0.945987, 0.945589, 0.961356, 1.338634, 0.949752, 0.951038, 0.946497, 0.947824, 0.946716, 0.943904, 0.949088, 1.978131, 0.947774, 0.950171, 0.950170, 0.950800, 0.952724, 0.969241, 2.108024
Process 95: 3.196917, 1.098296, 1.940838, 0.951498, 1.020228, 0.954847, 2.099634, 0.949445, 0.949033, 0.949744, 2.163541, 0.953965, 0.953043, 0.968366, 1.346688, 0.957789, 0.958185, 0.954275, 0.954970, 0.954661, 0.951046, 0.957404, 1.986330, 0.954931, 0.957234, 0.957285, 0.958873, 0.960211, 0.978166, 2.115140
Process 96: 3.203853, 1.105125, 1.947439, 0.958076, 1.026863, 0.961385, 2.106293, 0.955522, 0.955643, 0.955747, 2.169452, 0.960196, 0.959559, 0.974983, 1.353336, 0.964223, 0.964761, 0.960362, 0.961609, 0.961189, 0.957644, 0.963757, 1.992780, 0.961613, 0.963822, 0.963922, 0.965174, 0.966835, 0.984364, 2.121743
Process 97: 3.210998, 1.112129, 1.954415, 0.965113, 1.033910, 0.968428, 2.113304, 0.962620, 0.962646, 0.962797, 2.176482, 0.967232, 0.966478, 0.982051, 1.361344, 0.971901, 0.971873, 0.967548, 0.968685, 0.968089, 0.964690, 0.971186, 2.000434, 0.968705, 0.970920, 0.971075, 0.972191, 0.973902, 0.992387, 2.128849
Process 98: 3.217219, 1.118549, 1.960875, 0.972577, 1.041335, 0.974937, 2.119833, 0.969119, 0.969229, 0.969301, 2.183041, 0.973739, 0.972987, 0.988513, 1.367956, 0.978320, 0.979424, 0.974013, 0.975184, 0.974610, 0.971219, 0.977421, 2.006612, 0.975279, 0.977472, 0.977576, 0.978741, 0.980390, 0.999418, 2.135469
Process 99: 3.224457, 1.125540, 1.967811, 0.979771, 1.048402, 0.981975, 2.126752, 0.976098, 0.976270, 0.976248, 2.189974, 0.980695, 0.980006, 0.995537, 1.376040, 0.985306, 0.986526, 0.981068, 0.982152, 0.982180, 0.978277, 0.984939, 2.013464, 0.982314, 0.984495, 0.984623, 0.985871, 0.987420, 1.007457, 2.142521
Process 100: 3.230338, 1.131792, 1.974180, 0.986189, 1.054918, 0.988357, 2.133129, 0.982583, 0.982681, 0.982676, 2.196451, 0.987163, 0.986466, 1.001990, 1.382601, 0.991675, 0.993049, 0.987516, 0.988577, 0.988404, 0.984725, 0.990962, 2.019799, 0.988762, 0.991003, 0.991152, 0.992328, 0.993897, 1.013958, 2.149022
Process 101: 3.238067, 1.138767, 1.981203, 0.993256, 1.062014, 0.995431, 2.140185, 0.989607, 0.989679, 0.989755, 2.203546, 0.994207, 0.993487, 1.009072, 1.390637, 0.998828, 1.000186, 0.994519, 0.995600, 0.995385, 0.991793, 0.997822, 2.026723, 0.995906, 0.998121, 0.998295, 0.999561, 1.001037, 1.022017, 2.156100
Process 102: 3.244032, 1.145098, 1.987617, 0.999685, 1.069236, 1.001832, 2.146679, 0.996115, 0.996170, 0.996159, 2.210098, 1.000768, 0.999938, 1.015505, 1.397228, 1.005245, 1.007554, 1.001005, 1.002092, 1.001985, 0.998292, 1.004212, 2.033169, 1.002478, 1.004636, 1.004841, 1.006043, 1.007589, 1.028536, 2.162591
Process 103: 3.251634, 1.152174, 1.994657, 1.006729, 1.076435, 1.008969, 2.153709, 1.003254, 1.003277, 1.003290, 2.217233, 1.007892, 1.007079, 1.022645, 1.405375, 1.012459, 1.014747, 1.008108, 1.009188, 1.008927, 1.005396, 1.011209, 2.040221, 1.009587, 1.011840, 1.012064, 1.013206, 1.014732, 1.036587, 2.169787
Process 104: 3.257349, 1.158733, 2.001073, 1.013208, 1.083748, 1.015383, 2.160137, 1.009682, 1.009734, 1.009757, 2.223810, 1.014350, 1.013562, 1.029064, 1.411846, 1.018815, 1.022194, 1.014539, 1.015660, 1.015504, 1.011888, 1.017551, 2.046706, 1.016085, 1.018338, 1.018475, 1.019755, 1.021221, 1.043057, 2.176272
Process 105: 3.264829, 1.165740, 2.008069, 1.020751, 1.090890, 1.022370, 2.167165, 1.016702, 1.016770, 1.016746, 2.230779, 1.021405, 1.020623, 1.036120, 1.419890, 1.025910, 1.029386, 1.021611, 1.022685, 1.023199, 1.018931, 1.025055, 2.053695, 1.023146, 1.025374, 1.025604, 1.026881, 1.028316, 1.051111, 2.183324
Process 106: 3.271299, 1.172064, 2.014703, 1.027460, 1.098354, 1.028786, 2.173613, 1.023143, 1.023170, 1.023182, 2.237202, 1.027816, 1.027045, 1.042509, 1.427145, 1.032310, 1.037263, 1.028066, 1.029147, 1.029526, 1.025395, 1.031063, 2.060116, 1.029592, 1.031922, 1.032118, 1.033305, 1.034781, 1.057639, 2.189820
Process 107: 3.278379, 1.179925, 2.022462, 1.035091, 1.105494, 1.035792, 2.180733, 1.030149, 1.030190, 1.030227, 2.244247, 1.034846, 1.034049, 1.049586, 1.435621, 1.039989, 1.045226, 1.035114, 1.036198, 1.037020, 1.033369, 1.038870, 2.067814, 1.037684, 1.038976, 1.039144, 1.040349, 1.041889, 1.065669, 2.196899
Process 108: 3.284839, 1.185914, 2.028492, 1.041273, 1.112864, 1.042206, 2.187461, 1.036626, 1.036684, 1.036677, 2.250704, 1.041420, 1.040555, 1.056087, 1.442097, 1.046303, 1.051269, 1.041526, 1.042624, 1.043355, 1.039648, 1.044955, 2.074011, 1.043660, 1.045741, 1.046116, 1.046936, 1.048479, 1.072573, 2.203361
Process 109: 3.291904, 1.192975, 2.035579, 1.048319, 1.120691, 1.050133, 2.194912, 1.043773, 1.044939, 1.043842, 2.258761, 1.048562, 1.047697, 1.064238, 1.449259, 1.053400, 1.058369, 1.048615, 1.050501, 1.050473, 1.046724, 1.052180, 2.081126, 1.050748, 1.053895, 1.054161, 1.054227, 1.056440, 1.080492, 2.211249
Process 110: 3.298643, 1.199373, 2.042057, 1.054859, 1.127037, 1.056421, 2.200855, 1.050272, 1.050915, 1.050728, 2.265076, 1.055118, 1.054246, 1.070315, 1.455804, 1.059880, 1.064835, 1.055075, 1.056844, 1.057019, 1.053360, 1.058720, 2.087681, 1.057266, 1.059903, 1.060056, 1.060781, 1.062777, 1.086567, 2.217926
Process 111: 3.307417, 1.206484, 2.049169, 1.061946, 1.134803, 1.063425, 2.207963, 1.058117, 1.058000, 1.058494, 2.272204, 1.063444, 1.062247, 1.077381, 1.462952, 1.067028, 1.071997, 1.062986, 1.063935, 1.064173, 1.060493, 1.065827, 2.094848, 1.064444, 1.066982, 1.067191, 1.068963, 1.069876, 1.093701, 2.225014
Process 112: 3.312875, 1.213110, 2.055667, 1.068463, 1.140595, 1.069955, 2.214476, 1.064435, 1.064741, 1.064344, 2.278629, 1.069248, 1.068233, 1.083959, 1.469487, 1.073575, 1.078559, 1.069423, 1.070440, 1.070791, 1.067016, 1.072404, 2.101393, 1.071047, 1.073545, 1.073746, 1.075130, 1.076406, 1.100268, 2.231576
Process 113: 3.319727, 1.220103, 2.062668, 1.075451, 1.147699, 1.077016, 2.221522, 1.071462, 1.071554, 1.071403, 2.285640, 1.076282, 1.075274, 1.091071, 1.476526, 1.080623, 1.085642, 1.076480, 1.077655, 1.077830, 1.074055, 1.079491, 2.108491, 1.078107, 1.080645, 1.080866, 1.082172, 1.083550, 1.107329, 2.238667
Process 114: 3.326813, 1.226582, 2.069195, 1.082009, 1.154146, 1.083577, 2.228059, 1.077960, 1.078079, 1.077890, 2.292228, 1.082821, 1.081815, 1.097543, 1.483044, 1.087192, 1.092135, 1.082936, 1.084167, 1.084384, 1.080639, 1.086015, 2.115067, 1.084661, 1.087273, 1.087440, 1.088730, 1.090168, 1.114071, 2.245269
Process 115: 3.333255, 1.233542, 2.076117, 1.091831, 1.161192, 1.090545, 2.234981, 1.084965, 1.085025, 1.084858, 2.299132, 1.089839, 1.088766, 1.104593, 1.490086, 1.094197, 1.099193, 1.090014, 1.091203, 1.091421, 1.087697, 1.093029, 2.122053, 1.091651, 1.094271, 1.094471, 1.095782, 1.097206, 1.121175, 2.252299
Process 116: 3.339955, 1.239932, 2.082632, 1.097361, 1.167731, 1.097031, 2.241516, 1.091486, 1.091526, 1.091386, 2.305642, 1.096372, 1.095261, 1.111122, 1.496691, 1.100705, 1.105753, 1.096537, 1.097742, 1.097906, 1.094237, 1.099588, 2.128617, 1.098185, 1.100863, 1.101088, 1.102319, 1.103749, 1.127808, 2.258869
Process 117: 3.347010, 1.247038, 2.089684, 1.104451, 1.174842, 1.104097, 2.248635, 1.098487, 1.098622, 1.098445, 2.312720, 1.103456, 1.102356, 1.118229, 1.503852, 1.107802, 1.112921, 1.103625, 1.104893, 1.105026, 1.101449, 1.106681, 2.135711, 1.105322, 1.108004, 1.108219, 1.109425, 1.110897, 1.134954, 2.266011
Process 118: 3.353548, 1.253430, 2.096078, 1.110932, 1.181278, 1.110550, 2.255060, 1.104970, 1.105105, 1.104861, 2.319194, 1.109867, 1.108770, 1.124733, 1.510349, 1.114336, 1.119410, 1.110109, 1.111354, 1.111516, 1.107943, 1.113195, 2.142274, 1.111828, 1.114506, 1.114739, 1.115921, 1.117395, 1.141592, 2.272508
Process 119: 3.361008, 1.262107, 2.103175, 1.118645, 1.188368, 1.117687, 2.262216, 1.112090, 1.112253, 1.111997, 2.326331, 1.116937, 1.115898, 1.131920, 1.517567, 1.121501, 1.126578, 1.117225, 1.118557, 1.118624, 1.115094, 1.120340, 2.149465, 1.118965, 1.121703, 1.121921, 1.123045, 1.124570, 1.148810, 2.279688
Process 120: 3.367168, 1.267133, 2.109670, 1.124540, 1.194997, 1.124166, 2.268749, 1.118623, 1.118799, 1.118533, 2.332911, 1.123480, 1.122493, 1.138401, 1.524172, 1.128013, 1.133103, 1.123718, 1.125127, 1.125177, 1.121661, 1.126863, 2.156050, 1.125502, 1.128256, 1.128432, 1.129629, 1.131139, 1.155359, 2.286311
Process 121: 3.374825, 1.274072, 2.116630, 1.131495, 1.202048, 1.131111, 2.275685, 1.125638, 1.125821, 1.125519, 2.339852, 1.130459, 1.129494, 1.145454, 1.531242, 1.135052, 1.140156, 1.130750, 1.132164, 1.132232, 1.128715, 1.133915, 2.163063, 1.132625, 1.135337, 1.135533, 1.136692, 1.138223, 1.162432, 2.293344
Process 122: 3.381002, 1.280605, 2.123455, 1.138044, 1.208550, 1.137653, 2.282230, 1.132212, 1.132349, 1.132101, 2.346376, 1.137043, 1.136081, 1.152016, 1.537814, 1.141628, 1.147052, 1.137350, 1.138741, 1.139074, 1.135255, 1.140820, 2.169961, 1.139171, 1.141965, 1.142132, 1.143252, 1.144793, 1.169022, 2.299938
Process 123: 3.387785, 1.288314, 2.130832, 1.145829, 1.215639, 1.144716, 2.289318, 1.139227, 1.139386, 1.139183, 2.353462, 1.144097, 1.143162, 1.159086, 1.545618, 1.149405, 1.154592, 1.144399, 1.145833, 1.146556, 1.143074, 1.148184, 2.177382, 1.147063, 1.149075, 1.149238, 1.150375, 1.151929, 1.176112, 2.307068
Process 124: 3.394467, 1.294295, 2.136765, 1.151784, 1.222132, 1.154734, 2.296121, 1.145764, 1.145929, 1.145638, 2.359962, 1.150600, 1.149709, 1.165915, 1.551686, 1.155411, 1.160397, 1.150927, 1.152628, 1.152649, 1.149135, 1.154176, 2.183309, 1.153073, 1.155868, 1.156081, 1.157019, 1.158693, 1.182975, 2.313622
Process 125: 3.401099, 1.301063, 2.143607, 1.158577, 1.229207, 1.162089, 2.303573, 1.152778, 1.153717, 1.152724, 2.367655, 1.157666, 1.156712, 1.173330, 1.558641, 1.162310, 1.167331, 1.157977, 1.160188, 1.159479, 1.155968, 1.161099, 2.190227, 1.160037, 1.163391, 1.163584, 1.164071, 1.166295, 1.190531, 2.321482
Process 126: 3.408149, 1.307461, 2.150029, 1.165047, 1.236057, 1.170185, 2.309571, 1.159551, 1.159604, 1.159616, 2.373522, 1.164562, 1.163430, 1.179188, 1.565055, 1.168817, 1.173747, 1.164828, 1.166074, 1.165938, 1.162464, 1.167619, 2.196817, 1.166533, 1.169288, 1.169397, 1.170841, 1.172204, 1.196415, 2.327417
Process 127: 3.415880, 1.314045, 2.156689, 1.171696, 1.243135, 1.176841, 2.316155, 1.166725, 1.166276, 1.166848, 2.380127, 1.171785, 1.170669, 1.185847, 1.571802, 1.175499, 1.180455, 1.171975, 1.172750, 1.172632, 1.169173, 1.174345, 2.203491, 1.173605, 1.175961, 1.176085, 1.178152, 1.178934, 1.203132, 2.334096
