MPI_insiderank_serial
Process 0: 1.057924, 0.569176, 0.511660, 0.509088, 0.509421, 0.510965, 0.509203, 0.509861, 0.509919, 0.511217, 1.861650, 0.509869, 0.509984, 0.515466, 0.535898, 0.516455, 0.512018, 0.512857, 0.510885, 0.513106, 0.510260, 0.511059, 0.510267, 0.511535, 0.510730, 0.509864, 0.511429, 0.510223, 0.510682, 0.509804
Process 1: 0.755262, 0.272824, 0.214655, 0.211656, 0.212319, 0.212265, 0.211838, 0.211488, 0.212408, 0.213693, 1.564620, 0.212596, 0.212578, 0.212424, 0.230598, 0.217300, 0.213143, 0.213814, 0.212694, 0.214222, 0.212324, 0.212964, 0.212419, 0.214054, 0.213363, 0.212591, 0.213402, 0.212688, 0.213104, 0.212785
Process 2: 0.757060, 0.274994, 0.216894, 0.213902, 0.214434, 0.214469, 0.213964, 0.213632, 0.214517, 0.215911, 1.566778, 0.214788, 0.214708, 0.214523, 0.232847, 0.219402, 0.215317, 0.215938, 0.214889, 0.216408, 0.214452, 0.215127, 0.214612, 0.216200, 0.215597, 0.214714, 0.215560, 0.214799, 0.215222, 0.214930
Process 3: 0.760030, 0.277345, 0.219414, 0.216437, 0.216985, 0.217119, 0.216507, 0.216154, 0.217188, 0.218543, 1.569261, 0.217395, 0.217234, 0.217021, 0.235454, 0.221956, 0.217844, 0.218561, 0.217409, 0.218980, 0.217021, 0.217627, 0.217240, 0.218737, 0.218160, 0.217220, 0.218067, 0.217390, 0.217751, 0.217459
Process 4: 0.761990, 0.279560, 0.221699, 0.218522, 0.219223, 0.219423, 0.218750, 0.218390, 0.219443, 0.220649, 1.571572, 0.219666, 0.219452, 0.219307, 0.237649, 0.224165, 0.220105, 0.220859, 0.219747, 0.221281, 0.219229, 0.219896, 0.219447, 0.221012, 0.220415, 0.219436, 0.220321, 0.219613, 0.220001, 0.219789
Process 5: 0.764613, 0.281961, 0.224175, 0.221161, 0.221798, 0.221914, 0.221242, 0.220890, 0.221918, 0.223162, 1.574009, 0.222217, 0.221939, 0.221791, 0.240217, 0.226648, 0.222607, 0.223413, 0.222262, 0.223763, 0.221747, 0.222403, 0.221941, 0.223526, 0.222915, 0.221952, 0.222928, 0.222146, 0.222476, 0.222284
Process 6: 0.767228, 0.284323, 0.226309, 0.223261, 0.223884, 0.223985, 0.223312, 0.223011, 0.224006, 0.225439, 1.576148, 0.224325, 0.224068, 0.223923, 0.242656, 0.228763, 0.224907, 0.225527, 0.224371, 0.225845, 0.223961, 0.224671, 0.224088, 0.225709, 0.225054, 0.224094, 0.225006, 0.224267, 0.224572, 0.224384
Process 7: 0.769906, 0.286817, 0.228812, 0.225826, 0.226418, 0.226526, 0.225859, 0.225564, 0.226547, 0.227963, 1.578656, 0.226843, 0.226591, 0.226456, 0.245260, 0.231328, 0.227517, 0.228033, 0.226885, 0.228356, 0.226519, 0.227215, 0.226611, 0.228228, 0.227728, 0.226606, 0.227512, 0.226771, 0.227104, 0.226897
Process 8: 0.772621, 0.289258, 0.231103, 0.228121, 0.228697, 0.228793, 0.228150, 0.227865, 0.228835, 0.230235, 1.580873, 0.229139, 0.228876, 0.228731, 0.247595, 0.233617, 0.229920, 0.231103, 0.229174, 0.230808, 0.228820, 0.229625, 0.228944, 0.230701, 0.229960, 0.228900, 0.229900, 0.229070, 0.229386, 0.229213
Process 9: 0.775159, 0.291562, 0.233420, 0.230441, 0.231023, 0.231115, 0.230457, 0.230183, 0.231162, 0.232548, 1.583158, 0.231477, 0.231183, 0.231051, 0.249939, 0.235965, 0.232219, 0.233543, 0.231525, 0.233196, 0.231136, 0.231920, 0.231292, 0.233083, 0.232543, 0.231223, 0.232298, 0.231430, 0.231752, 0.231545
Process 10: 0.777179, 0.293798, 0.235717, 0.232748, 0.233299, 0.233413, 0.232758, 0.232470, 0.233453, 0.234849, 1.585559, 0.233816, 0.233578, 0.233397, 0.252254, 0.238264, 0.234549, 0.235995, 0.233835, 0.235463, 0.233450, 0.234216, 0.233594, 0.235540, 0.234841, 0.233552, 0.234789, 0.233731, 0.234063, 0.233843
Process 11: 0.779877, 0.296116, 0.238044, 0.235117, 0.235656, 0.235795, 0.235128, 0.234810, 0.235832, 0.237231, 1.587932, 0.236146, 0.235968, 0.235748, 0.254621, 0.240661, 0.236898, 0.238412, 0.236166, 0.237820, 0.235813, 0.236579, 0.235963, 0.237892, 0.237181, 0.235905, 0.237132, 0.236079, 0.236404, 0.236179
Process 12: 0.782058, 0.298495, 0.240385, 0.237455, 0.237985, 0.238144, 0.237463, 0.237184, 0.238173, 0.239553, 1.589945, 0.238486, 0.238334, 0.238281, 0.257703, 0.243039, 0.239225, 0.241009, 0.238522, 0.240227, 0.238154, 0.238914, 0.238291, 0.240230, 0.239498, 0.238235, 0.239479, 0.238399, 0.238725, 0.238494
Process 13: 0.784591, 0.300722, 0.242665, 0.239758, 0.240287, 0.240434, 0.239755, 0.239473, 0.240450, 0.241852, 1.592315, 0.240774, 0.240735, 0.240649, 0.260094, 0.245342, 0.241522, 0.243466, 0.240852, 0.242526, 0.240458, 0.241278, 0.240588, 0.242513, 0.241790, 0.240539, 0.241877, 0.240733, 0.241055, 0.240809
Process 14: 0.786578, 0.303113, 0.244980, 0.242071, 0.242602, 0.242762, 0.242074, 0.241789, 0.242759, 0.244153, 1.594578, 0.243145, 0.243251, 0.243044, 0.262399, 0.247662, 0.243832, 0.245780, 0.243178, 0.244840, 0.242771, 0.243601, 0.242898, 0.244894, 0.244147, 0.242889, 0.244194, 0.243064, 0.243358, 0.243125
Process 15: 0.789271, 0.305420, 0.247347, 0.244459, 0.244980, 0.245127, 0.244461, 0.244128, 0.245137, 0.246510, 1.596937, 0.245461, 0.245581, 0.245405, 0.264732, 0.250017, 0.246205, 0.248106, 0.245537, 0.247174, 0.245112, 0.245976, 0.245287, 0.247223, 0.246485, 0.245231, 0.246529, 0.245393, 0.245708, 0.245462
Process 16: 0.791359, 0.307822, 0.249597, 0.246739, 0.247337, 0.247403, 0.246823, 0.246428, 0.247410, 0.248765, 1.599163, 0.247736, 0.247836, 0.247676, 0.267172, 0.252315, 0.248455, 0.250367, 0.247814, 0.249482, 0.247415, 0.248239, 0.247552, 0.249637, 0.248738, 0.247491, 0.248783, 0.247706, 0.247962, 0.247871
Process 17: 0.793791, 0.310142, 0.251982, 0.249117, 0.249800, 0.249778, 0.249260, 0.249006, 0.249794, 0.251142, 1.601569, 0.250324, 0.250203, 0.250069, 0.269618, 0.254681, 0.250848, 0.252780, 0.250460, 0.251856, 0.249780, 0.250618, 0.250160, 0.252059, 0.251095, 0.249862, 0.251155, 0.250316, 0.250394, 0.250314
Process 18: 0.796373, 0.312364, 0.254216, 0.251490, 0.252306, 0.252175, 0.251792, 0.251298, 0.252056, 0.253378, 1.603774, 0.252581, 0.252499, 0.252384, 0.271895, 0.256941, 0.253222, 0.255135, 0.252732, 0.254121, 0.252188, 0.252963, 0.252377, 0.254427, 0.253400, 0.252296, 0.253437, 0.252532, 0.252806, 0.252575
Process 19: 0.798884, 0.314729, 0.256631, 0.253984, 0.254770, 0.254667, 0.254180, 0.253683, 0.254417, 0.255777, 1.606209, 0.255075, 0.254854, 0.254767, 0.274206, 0.259308, 0.255684, 0.257527, 0.255154, 0.256689, 0.254633, 0.255396, 0.254829, 0.256837, 0.255752, 0.254747, 0.256009, 0.255091, 0.255236, 0.254936
Process 20: 0.800762, 0.317120, 0.259032, 0.256444, 0.257021, 0.256942, 0.256431, 0.256606, 0.256848, 0.258058, 1.608459, 0.257543, 0.257239, 0.257184, 0.276448, 0.261776, 0.258176, 0.259967, 0.257588, 0.258950, 0.257100, 0.257872, 0.257080, 0.259072, 0.258051, 0.257175, 0.258188, 0.257367, 0.257693, 0.257333
Process 21: 0.803720, 0.319538, 0.261512, 0.258884, 0.259465, 0.259412, 0.258853, 0.259044, 0.259324, 0.260671, 1.611014, 0.259927, 0.259702, 0.259657, 0.278924, 0.264328, 0.260678, 0.262437, 0.260029, 0.261626, 0.259618, 0.260314, 0.259764, 0.261502, 0.260541, 0.259614, 0.260669, 0.259827, 0.260197, 0.259820
Process 22: 0.805749, 0.321882, 0.263933, 0.261145, 0.261902, 0.261907, 0.261298, 0.261294, 0.261768, 0.262918, 1.613389, 0.262242, 0.262111, 0.262098, 0.281408, 0.266799, 0.263048, 0.264677, 0.262493, 0.263890, 0.262012, 0.262732, 0.262048, 0.263913, 0.263026, 0.262098, 0.263086, 0.262131, 0.262483, 0.262118
Process 23: 0.808608, 0.324286, 0.266341, 0.263739, 0.264278, 0.264322, 0.263668, 0.263823, 0.264157, 0.265399, 1.615832, 0.264574, 0.264500, 0.264516, 0.283850, 0.269163, 0.265637, 0.267002, 0.264903, 0.266230, 0.264431, 0.265179, 0.264425, 0.266297, 0.265411, 0.264532, 0.265471, 0.264473, 0.265097, 0.264686
Process 24: 0.811018, 0.326842, 0.268785, 0.266269, 0.266599, 0.266623, 0.266121, 0.266377, 0.266657, 0.267798, 1.618237, 0.267169, 0.267104, 0.267116, 0.286100, 0.271648, 0.268177, 0.269481, 0.267381, 0.268602, 0.266939, 0.267672, 0.266822, 0.268703, 0.267976, 0.266954, 0.267769, 0.266844, 0.267569, 0.267034
Process 25: 0.813575, 0.329133, 0.271149, 0.268654, 0.269187, 0.269447, 0.268719, 0.268755, 0.269215, 0.270177, 1.620620, 0.269551, 0.269505, 0.269539, 0.288470, 0.274391, 0.270577, 0.271805, 0.269991, 0.271044, 0.269334, 0.270053, 0.269425, 0.271056, 0.270365, 0.269347, 0.270371, 0.269493, 0.270160, 0.269477
Process 26: 0.815928, 0.331427, 0.273598, 0.271125, 0.271626, 0.271764, 0.271047, 0.271220, 0.271513, 0.272618, 1.623057, 0.271830, 0.271777, 0.271819, 0.290811, 0.276596, 0.272843, 0.274094, 0.272417, 0.273715, 0.272017, 0.272562, 0.271826, 0.273572, 0.272684, 0.271742, 0.272882, 0.271818, 0.272405, 0.271778
Process 27: 0.818456, 0.333860, 0.276185, 0.273730, 0.274210, 0.274232, 0.273425, 0.273808, 0.273897, 0.275347, 1.625667, 0.274273, 0.274175, 0.274258, 0.293435, 0.279338, 0.275280, 0.276480, 0.274854, 0.276267, 0.274575, 0.275192, 0.274156, 0.275975, 0.275070, 0.274153, 0.275399, 0.274342, 0.274824, 0.274192
Process 28: 0.820461, 0.336337, 0.278839, 0.275985, 0.276491, 0.276587, 0.275741, 0.276224, 0.276201, 0.277764, 1.627889, 0.276558, 0.276501, 0.276535, 0.295739, 0.281694, 0.277557, 0.279059, 0.277134, 0.278703, 0.277156, 0.277616, 0.276456, 0.278284, 0.277360, 0.276450, 0.277824, 0.276602, 0.277084, 0.276473
Process 29: 0.823487, 0.338701, 0.281127, 0.278379, 0.278895, 0.279097, 0.278161, 0.278877, 0.278615, 0.280303, 1.630494, 0.279069, 0.278952, 0.278963, 0.298364, 0.284109, 0.279999, 0.281810, 0.279676, 0.281259, 0.279546, 0.280175, 0.278872, 0.280711, 0.279781, 0.278880, 0.280422, 0.279017, 0.279500, 0.278925
Process 30: 0.825586, 0.341028, 0.283395, 0.280660, 0.281247, 0.281348, 0.280467, 0.281434, 0.280886, 0.282576, 1.632915, 0.281341, 0.281247, 0.281249, 0.300609, 0.286380, 0.282242, 0.284033, 0.282029, 0.283494, 0.281804, 0.282402, 0.281254, 0.282985, 0.282061, 0.281171, 0.282791, 0.281323, 0.281809, 0.281261
Process 31: 0.828409, 0.343398, 0.285861, 0.283092, 0.283659, 0.283880, 0.282975, 0.283823, 0.283341, 0.285145, 1.635445, 0.283841, 0.283733, 0.283745, 0.303407, 0.288872, 0.284686, 0.286470, 0.284468, 0.285930, 0.284238, 0.284816, 0.283708, 0.285474, 0.284543, 0.283671, 0.285255, 0.283766, 0.284326, 0.283699
Process 32: 0.830744, 0.345794, 0.288098, 0.285347, 0.286020, 0.286132, 0.285252, 0.286083, 0.285601, 0.287450, 1.637634, 0.286143, 0.285970, 0.285982, 0.305993, 0.291130, 0.286933, 0.288698, 0.286697, 0.288160, 0.286589, 0.287173, 0.286003, 0.287773, 0.286764, 0.285893, 0.287488, 0.286053, 0.286540, 0.285932
Process 33: 0.833719, 0.348250, 0.290567, 0.287839, 0.288523, 0.288601, 0.287710, 0.288513, 0.288085, 0.289891, 1.640112, 0.288705, 0.288448, 0.288495, 0.308855, 0.293640, 0.289399, 0.291195, 0.289184, 0.290681, 0.289055, 0.289621, 0.288483, 0.290306, 0.289244, 0.288393, 0.289973, 0.288520, 0.289029, 0.288450
Process 34: 0.835458, 0.350330, 0.292732, 0.290089, 0.290674, 0.290773, 0.289892, 0.290762, 0.290264, 0.292077, 1.642269, 0.290851, 0.290643, 0.290690, 0.311152, 0.295818, 0.291635, 0.293406, 0.291480, 0.292915, 0.291246, 0.291782, 0.290679, 0.292471, 0.291501, 0.290667, 0.292173, 0.290741, 0.291247, 0.290660
Process 35: 0.838023, 0.352851, 0.295235, 0.292587, 0.293182, 0.293299, 0.292384, 0.293247, 0.292784, 0.294569, 1.644848, 0.293383, 0.293218, 0.293234, 0.313714, 0.298336, 0.294168, 0.295911, 0.294008, 0.295407, 0.293767, 0.294289, 0.293249, 0.295019, 0.294105, 0.293281, 0.294707, 0.293321, 0.293815, 0.293191
Process 36: 0.840531, 0.355036, 0.297491, 0.294810, 0.295462, 0.295535, 0.294706, 0.295462, 0.295111, 0.296818, 1.647159, 0.295565, 0.295437, 0.295979, 0.316002, 0.300589, 0.296580, 0.298135, 0.296215, 0.297638, 0.295996, 0.296576, 0.295493, 0.297206, 0.296320, 0.295505, 0.296927, 0.295532, 0.296081, 0.295384
Process 37: 0.843302, 0.357547, 0.300018, 0.297351, 0.297905, 0.298037, 0.297157, 0.297919, 0.297538, 0.299278, 1.649641, 0.298020, 0.297892, 0.298469, 0.318497, 0.303110, 0.298891, 0.300606, 0.298680, 0.300077, 0.298465, 0.299040, 0.297954, 0.299664, 0.298771, 0.297967, 0.299378, 0.297969, 0.298544, 0.297835
Process 38: 0.845327, 0.359715, 0.302197, 0.299528, 0.300164, 0.300241, 0.299376, 0.300111, 0.299721, 0.301474, 1.651816, 0.300238, 0.300091, 0.300766, 0.320789, 0.305308, 0.301143, 0.302871, 0.300946, 0.302258, 0.300743, 0.301301, 0.300144, 0.301861, 0.301037, 0.300177, 0.301706, 0.300269, 0.300767, 0.300130
Process 39: 0.848000, 0.362216, 0.304706, 0.302085, 0.302664, 0.302755, 0.301884, 0.302615, 0.302246, 0.303984, 1.654343, 0.302854, 0.302711, 0.303316, 0.323391, 0.307882, 0.303643, 0.305382, 0.303475, 0.304766, 0.303245, 0.303796, 0.302649, 0.304447, 0.303636, 0.302758, 0.304241, 0.302801, 0.303298, 0.302651
Process 40: 0.850319, 0.364479, 0.306987, 0.304306, 0.304872, 0.304989, 0.304056, 0.304896, 0.304414, 0.306181, 1.656637, 0.305015, 0.304916, 0.305496, 0.325600, 0.310112, 0.305897, 0.307564, 0.305609, 0.306958, 0.305519, 0.306004, 0.304846, 0.306627, 0.305794, 0.304928, 0.306390, 0.304963, 0.305520, 0.304826
Process 41: 0.853035, 0.367065, 0.309451, 0.306738, 0.307315, 0.307423, 0.306543, 0.307358, 0.306882, 0.308653, 1.659079, 0.307480, 0.307353, 0.307961, 0.328099, 0.312577, 0.308323, 0.310023, 0.308086, 0.309485, 0.307971, 0.308478, 0.307340, 0.309067, 0.308266, 0.307375, 0.308850, 0.307424, 0.307967, 0.307314
Process 42: 0.854990, 0.369174, 0.311673, 0.308932, 0.309534, 0.309611, 0.308741, 0.309565, 0.309136, 0.310908, 1.661259, 0.309699, 0.309569, 0.310188, 0.330260, 0.314884, 0.310612, 0.312249, 0.310372, 0.311672, 0.310138, 0.310660, 0.309531, 0.311246, 0.310458, 0.309560, 0.311034, 0.309684, 0.310182, 0.309554
Process 43: 0.857603, 0.371641, 0.314109, 0.311404, 0.311969, 0.312069, 0.311214, 0.312104, 0.311593, 0.313379, 1.663693, 0.312218, 0.312072, 0.312706, 0.332788, 0.317327, 0.313066, 0.314719, 0.312830, 0.314148, 0.312623, 0.313125, 0.312004, 0.313721, 0.312942, 0.312049, 0.313539, 0.312161, 0.312643, 0.312005
Process 44: 0.859472, 0.373840, 0.316336, 0.313660, 0.314151, 0.314266, 0.313398, 0.314254, 0.313840, 0.315600, 1.665939, 0.314404, 0.314298, 0.316329, 0.334984, 0.319595, 0.315339, 0.316972, 0.315022, 0.316314, 0.314775, 0.315342, 0.314240, 0.315910, 0.315136, 0.314282, 0.315724, 0.314353, 0.314834, 0.314200
Process 45: 0.862507, 0.376350, 0.318842, 0.316145, 0.316641, 0.316738, 0.315918, 0.316774, 0.316368, 0.318115, 1.668422, 0.316864, 0.316771, 0.318382, 0.337496, 0.322134, 0.317795, 0.319466, 0.317492, 0.318884, 0.317251, 0.317808, 0.316849, 0.318445, 0.317679, 0.316733, 0.318219, 0.316810, 0.317382, 0.316666
Process 46: 0.864610, 0.378525, 0.321041, 0.318386, 0.318863, 0.318961, 0.318132, 0.318958, 0.318578, 0.320333, 1.670612, 0.319070, 0.318954, 0.320572, 0.339724, 0.324333, 0.320090, 0.321663, 0.319726, 0.321079, 0.319506, 0.320000, 0.319062, 0.320631, 0.319893, 0.318926, 0.320451, 0.319102, 0.319569, 0.318928
Process 47: 0.867052, 0.381011, 0.323535, 0.320891, 0.321335, 0.321413, 0.320600, 0.321433, 0.321190, 0.322818, 1.673074, 0.321550, 0.321530, 0.323054, 0.342213, 0.326804, 0.323131, 0.324163, 0.322231, 0.323575, 0.321955, 0.322478, 0.321568, 0.323116, 0.322397, 0.321458, 0.323001, 0.321583, 0.322087, 0.321456
Process 48: 0.869596, 0.383275, 0.325755, 0.323092, 0.323526, 0.323611, 0.322792, 0.323614, 0.323379, 0.324996, 1.675324, 0.323840, 0.323745, 0.325218, 0.344416, 0.329094, 0.325401, 0.326367, 0.324438, 0.325755, 0.324157, 0.324679, 0.323800, 0.325404, 0.324665, 0.323631, 0.325190, 0.323706, 0.324255, 0.323647
Process 49: 0.871876, 0.385774, 0.328175, 0.325593, 0.326007, 0.326086, 0.325298, 0.326096, 0.325854, 0.327483, 1.677833, 0.326297, 0.326190, 0.327662, 0.347194, 0.331581, 0.327874, 0.328815, 0.326894, 0.328203, 0.326651, 0.327165, 0.326373, 0.327862, 0.327127, 0.326173, 0.327670, 0.326223, 0.326804, 0.326094
Process 50: 0.874257, 0.387881, 0.330381, 0.327801, 0.328186, 0.328271, 0.327472, 0.328280, 0.328062, 0.329652, 1.680032, 0.328479, 0.328394, 0.329849, 0.349611, 0.333769, 0.330084, 0.331012, 0.329190, 0.330502, 0.328824, 0.329391, 0.328541, 0.330040, 0.329301, 0.328353, 0.329851, 0.328467, 0.328972, 0.328272
Process 51: 0.876989, 0.390328, 0.332830, 0.330280, 0.330666, 0.330729, 0.329935, 0.330743, 0.330541, 0.332120, 1.682509, 0.330942, 0.330859, 0.332343, 0.352160, 0.336276, 0.332572, 0.333486, 0.331684, 0.332990, 0.331273, 0.331917, 0.331021, 0.332510, 0.331760, 0.330827, 0.332355, 0.330977, 0.331495, 0.330762
Process 52: 0.878958, 0.392518, 0.335038, 0.332481, 0.332858, 0.332933, 0.332128, 0.332942, 0.332720, 0.334318, 1.684802, 0.333163, 0.333084, 0.334554, 0.354389, 0.338477, 0.334819, 0.335705, 0.333894, 0.335198, 0.333539, 0.334120, 0.333219, 0.334767, 0.333988, 0.333053, 0.334554, 0.333182, 0.333690, 0.332967
Process 53: 0.881655, 0.394971, 0.337520, 0.334968, 0.335349, 0.335414, 0.334615, 0.335431, 0.335237, 0.336792, 1.687276, 0.335642, 0.335568, 0.337001, 0.356933, 0.340950, 0.337333, 0.338163, 0.336373, 0.337678, 0.336043, 0.336601, 0.335714, 0.337236, 0.336467, 0.335527, 0.337036, 0.335634, 0.336172, 0.335447
Process 54: 0.883725, 0.397204, 0.339734, 0.337186, 0.337553, 0.337647, 0.336835, 0.337636, 0.337444, 0.339013, 1.689470, 0.337849, 0.337789, 0.339224, 0.359141, 0.343185, 0.339552, 0.340375, 0.338578, 0.339910, 0.338249, 0.338800, 0.337970, 0.339446, 0.338687, 0.337743, 0.339249, 0.337864, 0.338378, 0.337669
Process 55: 0.886447, 0.399674, 0.342188, 0.339652, 0.340004, 0.340086, 0.339285, 0.340104, 0.339912, 0.341478, 1.691968, 0.340339, 0.340234, 0.341657, 0.361617, 0.345635, 0.342015, 0.342836, 0.341078, 0.342370, 0.340693, 0.341269, 0.340444, 0.341901, 0.341137, 0.340187, 0.341737, 0.340356, 0.340888, 0.340157
Process 56: 0.888749, 0.401942, 0.344372, 0.341802, 0.342176, 0.342255, 0.341456, 0.342278, 0.342105, 0.343649, 1.694130, 0.342565, 0.342459, 0.343886, 0.363796, 0.347812, 0.344215, 0.345020, 0.343274, 0.344543, 0.342887, 0.343454, 0.342629, 0.344122, 0.343369, 0.342408, 0.343928, 0.342575, 0.343059, 0.342337
Process 57: 0.891102, 0.404376, 0.346843, 0.344282, 0.344663, 0.344711, 0.343900, 0.344729, 0.344560, 0.346143, 1.696545, 0.345028, 0.344906, 0.346352, 0.367091, 0.350287, 0.346700, 0.347479, 0.345738, 0.347015, 0.345369, 0.345951, 0.345124, 0.346575, 0.345817, 0.344857, 0.346394, 0.345039, 0.345531, 0.344788
Process 58: 0.893361, 0.406535, 0.349045, 0.346484, 0.346860, 0.346939, 0.346162, 0.346952, 0.346773, 0.348335, 1.698799, 0.347237, 0.347115, 0.348563, 0.369357, 0.352520, 0.348923, 0.349691, 0.347957, 0.349268, 0.347566, 0.348134, 0.347318, 0.348796, 0.348039, 0.347067, 0.348621, 0.347252, 0.347732, 0.347004
Process 59: 0.896095, 0.408995, 0.351483, 0.348932, 0.349301, 0.349388, 0.348630, 0.349403, 0.349229, 0.350771, 1.701286, 0.349677, 0.349557, 0.350998, 0.371864, 0.354972, 0.351400, 0.352122, 0.350449, 0.351728, 0.350008, 0.350589, 0.349778, 0.351242, 0.350515, 0.349531, 0.351077, 0.349687, 0.350221, 0.349488
Process 60: 0.898060, 0.411161, 0.353677, 0.351131, 0.351497, 0.351581, 0.350834, 0.351585, 0.351440, 0.352983, 1.703430, 0.351879, 0.351751, 0.353841, 0.374080, 0.357172, 0.353594, 0.354366, 0.352640, 0.353926, 0.352214, 0.352796, 0.351999, 0.353448, 0.352743, 0.351769, 0.353302, 0.351938, 0.352423, 0.351684
Process 61: 0.900841, 0.413636, 0.356158, 0.353579, 0.353974, 0.354038, 0.353320, 0.354068, 0.353922, 0.355489, 1.705919, 0.354414, 0.354264, 0.356434, 0.376555, 0.359634, 0.356100, 0.356822, 0.355110, 0.356430, 0.354695, 0.355295, 0.354505, 0.355937, 0.355221, 0.354263, 0.355774, 0.354411, 0.354931, 0.354152
Process 62: 0.902769, 0.415855, 0.358354, 0.355818, 0.356208, 0.356253, 0.355548, 0.356273, 0.356137, 0.357661, 1.708086, 0.356608, 0.356433, 0.358679, 0.378808, 0.361877, 0.358298, 0.359014, 0.357294, 0.358646, 0.356898, 0.357491, 0.356680, 0.358133, 0.357409, 0.356428, 0.357959, 0.356602, 0.357093, 0.356344
Process 63: 0.905088, 0.418359, 0.360833, 0.358327, 0.358722, 0.358762, 0.358058, 0.358773, 0.358639, 0.360146, 1.710649, 0.359111, 0.358938, 0.361207, 0.381292, 0.364365, 0.360808, 0.361507, 0.359843, 0.361145, 0.359416, 0.359992, 0.359175, 0.360630, 0.359943, 0.358928, 0.360480, 0.359126, 0.359629, 0.358862
Process 64: 0.907774, 0.420652, 0.363035, 0.360523, 0.360913, 0.360963, 0.360271, 0.360976, 0.360839, 0.362327, 1.712815, 0.361343, 0.361180, 0.374276, 0.383523, 0.366601, 0.363003, 0.363767, 0.362046, 0.363358, 0.361636, 0.362203, 0.361386, 0.362832, 0.362186, 0.361134, 0.362740, 0.361387, 0.361891, 0.361115
Process 65: 0.910472, 0.423224, 0.365543, 0.363019, 0.363405, 0.363468, 0.362755, 0.363529, 0.363334, 0.364827, 1.715344, 0.363854, 0.363739, 0.374903, 0.386050, 0.369071, 0.365532, 0.366235, 0.364540, 0.365854, 0.364163, 0.364691, 0.363879, 0.365359, 0.364678, 0.363657, 0.365219, 0.363866, 0.364370, 0.363603
Process 66: 0.912300, 0.425206, 0.367687, 0.365193, 0.365595, 0.365626, 0.364925, 0.365687, 0.365502, 0.367013, 1.717478, 0.365988, 0.365866, 0.375344, 0.388219, 0.371259, 0.367907, 0.368377, 0.366680, 0.367992, 0.366352, 0.366849, 0.366055, 0.367515, 0.366813, 0.365789, 0.367360, 0.366021, 0.366494, 0.365965
Process 67: 0.915042, 0.427725, 0.370147, 0.367672, 0.368062, 0.368113, 0.367406, 0.368160, 0.368082, 0.369484, 1.719974, 0.368597, 0.368459, 0.375956, 0.390740, 0.373725, 0.370380, 0.370855, 0.369174, 0.370526, 0.368843, 0.369334, 0.368538, 0.369997, 0.369427, 0.368285, 0.369861, 0.368513, 0.369013, 0.368514
Process 68: 0.916795, 0.429846, 0.372343, 0.369843, 0.370251, 0.370298, 0.369840, 0.370337, 0.370289, 0.371676, 1.722181, 0.370798, 0.370678, 0.376440, 0.392931, 0.375936, 0.372554, 0.373097, 0.371516, 0.372718, 0.371041, 0.371534, 0.370743, 0.372207, 0.371622, 0.370583, 0.372077, 0.370759, 0.371307, 0.370897
Process 69: 0.919790, 0.432378, 0.374784, 0.372493, 0.372742, 0.372770, 0.372344, 0.372796, 0.372837, 0.374158, 1.724648, 0.373283, 0.373247, 0.377041, 0.395415, 0.378422, 0.375033, 0.375576, 0.374084, 0.375207, 0.373524, 0.374013, 0.373439, 0.374794, 0.374107, 0.373125, 0.374539, 0.373373, 0.373795, 0.373319
Process 70: 0.921691, 0.434773, 0.376992, 0.374698, 0.375016, 0.375021, 0.374704, 0.375014, 0.375199, 0.376399, 1.726842, 0.375541, 0.375488, 0.378672, 0.397650, 0.380737, 0.377494, 0.377733, 0.376248, 0.377381, 0.375713, 0.376465, 0.375665, 0.376945, 0.376375, 0.375252, 0.376722, 0.375537, 0.375920, 0.375459
Process 71: 0.924385, 0.437340, 0.379592, 0.377159, 0.377540, 0.377647, 0.377155, 0.377512, 0.377643, 0.378898, 1.729355, 0.378008, 0.377925, 0.381132, 0.400164, 0.383283, 0.379954, 0.380192, 0.378760, 0.379915, 0.378336, 0.378883, 0.378137, 0.379425, 0.378847, 0.377735, 0.379392, 0.378142, 0.378424, 0.377908
Process 72: 0.926667, 0.439548, 0.381789, 0.379451, 0.379718, 0.379809, 0.379317, 0.379716, 0.379811, 0.381231, 1.731737, 0.380202, 0.380116, 0.383376, 0.402358, 0.385501, 0.382118, 0.382633, 0.381147, 0.382249, 0.380523, 0.381056, 0.380373, 0.381778, 0.381036, 0.379982, 0.381609, 0.380370, 0.380817, 0.380133
Process 73: 0.929362, 0.442087, 0.384265, 0.381847, 0.382145, 0.382300, 0.381720, 0.382277, 0.382292, 0.383699, 1.734312, 0.382658, 0.382564, 0.385800, 0.404821, 0.387916, 0.384549, 0.385067, 0.383539, 0.384700, 0.382957, 0.383493, 0.382853, 0.384187, 0.383475, 0.382441, 0.384024, 0.382757, 0.383214, 0.382532
Process 74: 0.931184, 0.444118, 0.386485, 0.384085, 0.384356, 0.385290, 0.383911, 0.384485, 0.384484, 0.386007, 1.736481, 0.384851, 0.384765, 0.387995, 0.407146, 0.390119, 0.386772, 0.387281, 0.385735, 0.386873, 0.385120, 0.385702, 0.385087, 0.386365, 0.385672, 0.384630, 0.386175, 0.384954, 0.385404, 0.384716
Process 75: 0.933774, 0.446758, 0.388916, 0.386527, 0.386857, 0.387853, 0.386406, 0.387035, 0.386993, 0.388459, 1.739061, 0.387351, 0.387235, 0.390529, 0.410808, 0.392637, 0.389217, 0.389732, 0.388191, 0.389386, 0.387675, 0.388189, 0.387551, 0.388834, 0.388143, 0.387105, 0.388637, 0.387425, 0.387889, 0.387179
Process 76: 0.935951, 0.448855, 0.391155, 0.388731, 0.389038, 0.390021, 0.388582, 0.389324, 0.389180, 0.390638, 1.741241, 0.389547, 0.389436, 0.392782, 0.413046, 0.394843, 0.391411, 0.391982, 0.390436, 0.391565, 0.389878, 0.390566, 0.389735, 0.391023, 0.390347, 0.389297, 0.390822, 0.389620, 0.390107, 0.389397
Process 77: 0.938923, 0.451349, 0.393612, 0.391180, 0.391520, 0.392538, 0.391032, 0.391799, 0.391651, 0.393178, 1.743756, 0.392004, 0.391904, 0.395277, 0.415591, 0.397287, 0.393892, 0.394506, 0.392904, 0.394052, 0.392362, 0.392858, 0.392202, 0.393498, 0.392823, 0.391827, 0.393343, 0.392125, 0.392557, 0.391841
Process 78: 0.940847, 0.453438, 0.395815, 0.393342, 0.393693, 0.394834, 0.393192, 0.393963, 0.393802, 0.395342, 1.745966, 0.394212, 0.394101, 0.397477, 0.417767, 0.399466, 0.396096, 0.396667, 0.395057, 0.396182, 0.394516, 0.395085, 0.394410, 0.395685, 0.395008, 0.393991, 0.395492, 0.394281, 0.394712, 0.393999
Process 79: 0.943334, 0.456044, 0.398302, 0.395840, 0.396199, 0.397354, 0.395670, 0.396484, 0.396407, 0.397823, 1.748413, 0.396671, 0.396580, 0.399944, 0.420226, 0.402008, 0.398583, 0.399148, 0.397530, 0.398691, 0.397033, 0.397561, 0.396872, 0.398154, 0.397489, 0.396484, 0.397956, 0.396758, 0.397209, 0.396470
Process 80: 0.945925, 0.458267, 0.400526, 0.398093, 0.398379, 0.399597, 0.397830, 0.398652, 0.398570, 0.400075, 1.750556, 0.398848, 0.398764, 0.408492, 0.422386, 0.404182, 0.400753, 0.401325, 0.399752, 0.400868, 0.399204, 0.399721, 0.399064, 0.400320, 0.399662, 0.398661, 0.400128, 0.398881, 0.399369, 0.398651
Process 81: 0.948633, 0.460759, 0.403002, 0.400542, 0.400850, 0.402064, 0.400292, 0.401133, 0.401044, 0.402530, 1.753059, 0.401320, 0.401231, 0.409057, 0.424865, 0.406648, 0.403222, 0.403829, 0.402195, 0.403342, 0.401673, 0.402188, 0.401525, 0.402789, 0.402174, 0.401188, 0.402628, 0.401465, 0.401896, 0.401132
Process 82: 0.950587, 0.462830, 0.405355, 0.402817, 0.403118, 0.404345, 0.402576, 0.403418, 0.403330, 0.404857, 1.755389, 0.403617, 0.403550, 0.409527, 0.427270, 0.408931, 0.405542, 0.406119, 0.404481, 0.405608, 0.403956, 0.404467, 0.403801, 0.405108, 0.404440, 0.403512, 0.404901, 0.403739, 0.404169, 0.403417
Process 83: 0.952956, 0.465278, 0.407729, 0.405239, 0.405546, 0.406771, 0.404994, 0.405862, 0.405781, 0.407339, 1.757751, 0.406005, 0.405930, 0.410068, 0.429641, 0.411361, 0.407931, 0.408494, 0.406859, 0.407982, 0.406379, 0.406894, 0.406230, 0.407487, 0.406819, 0.405891, 0.407283, 0.406136, 0.406556, 0.405794
Process 84: 0.955335, 0.467407, 0.409910, 0.407442, 0.407751, 0.409004, 0.407207, 0.408070, 0.408033, 0.409566, 1.759956, 0.408229, 0.408154, 0.412371, 0.431819, 0.413575, 0.410137, 0.410720, 0.409069, 0.410180, 0.408584, 0.409119, 0.408439, 0.409715, 0.409044, 0.408104, 0.409503, 0.408351, 0.408752, 0.408008
Process 85: 0.957949, 0.469934, 0.412417, 0.409919, 0.410243, 0.411499, 0.409641, 0.410551, 0.410508, 0.412022, 1.762452, 0.410705, 0.410628, 0.414846, 0.434299, 0.416042, 0.412617, 0.413229, 0.411571, 0.412648, 0.411068, 0.411593, 0.410917, 0.412184, 0.411519, 0.410602, 0.411988, 0.410876, 0.411269, 0.410516
Process 86: 0.960059, 0.472121, 0.414683, 0.412203, 0.412505, 0.413800, 0.411937, 0.412840, 0.412789, 0.414274, 1.764733, 0.413007, 0.412952, 0.417130, 0.436615, 0.418331, 0.414935, 0.415499, 0.413854, 0.414940, 0.413351, 0.413880, 0.413208, 0.414505, 0.413846, 0.412919, 0.414299, 0.413169, 0.413550, 0.412800
Process 87: 0.962823, 0.474631, 0.417087, 0.414633, 0.414934, 0.416228, 0.414355, 0.415249, 0.415316, 0.416686, 1.767168, 0.415401, 0.415329, 0.419566, 0.439107, 0.420707, 0.417333, 0.417870, 0.416237, 0.417322, 0.415769, 0.416295, 0.415628, 0.416886, 0.416223, 0.415307, 0.416682, 0.415553, 0.415988, 0.415186
Process 88: 0.965072, 0.476957, 0.419319, 0.416813, 0.417140, 0.418455, 0.416547, 0.417455, 0.417496, 0.418865, 1.769257, 0.417614, 0.417529, 0.421797, 0.441347, 0.422946, 0.419531, 0.420095, 0.418423, 0.419534, 0.417968, 0.418503, 0.417819, 0.419095, 0.418416, 0.417494, 0.418893, 0.417758, 0.418169, 0.417366
Process 89: 0.967495, 0.479413, 0.421740, 0.419282, 0.419610, 0.420929, 0.419018, 0.419923, 0.419934, 0.421309, 1.771724, 0.420043, 0.419981, 0.424328, 0.443913, 0.425408, 0.421976, 0.422605, 0.420938, 0.421978, 0.420426, 0.420972, 0.420277, 0.421551, 0.420882, 0.419975, 0.421352, 0.420245, 0.420671, 0.419868
Process 90: 0.969691, 0.481531, 0.423974, 0.421531, 0.421847, 0.423325, 0.421263, 0.422176, 0.422201, 0.423553, 1.774038, 0.422353, 0.422296, 0.426584, 0.446229, 0.427656, 0.424249, 0.424868, 0.423186, 0.424238, 0.422679, 0.423256, 0.422525, 0.423924, 0.423157, 0.422264, 0.423654, 0.422510, 0.422948, 0.422132
Process 91: 0.972381, 0.483964, 0.426416, 0.424004, 0.424287, 0.425776, 0.423677, 0.424639, 0.424615, 0.426022, 1.776502, 0.424807, 0.424751, 0.429050, 0.448809, 0.430098, 0.426728, 0.427289, 0.425612, 0.426692, 0.425118, 0.425710, 0.424999, 0.426345, 0.425587, 0.424683, 0.426094, 0.424940, 0.425375, 0.424550
Process 92: 0.974375, 0.486158, 0.428665, 0.426208, 0.426567, 0.428033, 0.425943, 0.426907, 0.426970, 0.428281, 1.778685, 0.427048, 0.427014, 0.431319, 0.451115, 0.432374, 0.428974, 0.429546, 0.427861, 0.429021, 0.427398, 0.427972, 0.427240, 0.428614, 0.427840, 0.426943, 0.428359, 0.427189, 0.427606, 0.426795
Process 93: 0.977164, 0.488690, 0.431171, 0.428718, 0.429064, 0.430529, 0.428459, 0.429438, 0.429523, 0.430759, 1.781158, 0.429533, 0.429540, 0.433885, 0.453644, 0.434883, 0.431492, 0.432055, 0.431320, 0.431610, 0.429876, 0.430487, 0.429778, 0.431128, 0.430353, 0.429469, 0.430886, 0.429695, 0.430192, 0.429377
Process 94: 0.978990, 0.490823, 0.433383, 0.430923, 0.431289, 0.432768, 0.430674, 0.431644, 0.431748, 0.432974, 1.783353, 0.431763, 0.431758, 0.436128, 0.455867, 0.437114, 0.433684, 0.434302, 0.432586, 0.433806, 0.432110, 0.432707, 0.431975, 0.433335, 0.432628, 0.431722, 0.433146, 0.431948, 0.432382, 0.431567
Process 95: 0.981837, 0.493321, 0.435905, 0.433422, 0.433800, 0.435324, 0.433161, 0.434143, 0.434219, 0.435543, 1.785943, 0.434306, 0.434272, 0.438645, 0.458482, 0.439659, 0.436209, 0.436799, 0.435059, 0.436342, 0.434620, 0.435255, 0.434496, 0.435867, 0.435134, 0.434225, 0.435646, 0.434456, 0.434900, 0.434049
Process 96: 0.983943, 0.495781, 0.438159, 0.435746, 0.436101, 0.437590, 0.435484, 0.436461, 0.436568, 0.437803, 1.788211, 0.436580, 0.436569, 0.441697, 0.461480, 0.441974, 0.438519, 0.439087, 0.437351, 0.438682, 0.436944, 0.437544, 0.436803, 0.438139, 0.437401, 0.436502, 0.437910, 0.436787, 0.437172, 0.436324
Process 97: 0.986796, 0.498193, 0.440669, 0.438183, 0.438560, 0.440085, 0.437919, 0.438919, 0.439013, 0.440262, 1.790616, 0.439027, 0.439026, 0.444429, 0.464000, 0.444415, 0.440958, 0.441534, 0.439812, 0.441141, 0.439411, 0.439987, 0.439254, 0.440575, 0.439841, 0.438956, 0.440350, 0.439240, 0.439623, 0.438757
Process 98: 0.988771, 0.500518, 0.442903, 0.440426, 0.440786, 0.442314, 0.440172, 0.441156, 0.441260, 0.442601, 1.792937, 0.441273, 0.441266, 0.446673, 0.466234, 0.446648, 0.443240, 0.443834, 0.442039, 0.444203, 0.441649, 0.442240, 0.441492, 0.442809, 0.442067, 0.441243, 0.442634, 0.441528, 0.441913, 0.441016
Process 99: 0.990981, 0.502899, 0.445409, 0.442888, 0.443242, 0.444793, 0.442633, 0.443642, 0.443710, 0.445105, 1.795443, 0.443749, 0.443766, 0.449149, 0.468792, 0.449942, 0.445796, 0.446311, 0.444532, 0.446737, 0.444123, 0.444699, 0.444012, 0.445334, 0.444622, 0.443759, 0.445130, 0.443992, 0.444412, 0.443510
Process 100: 0.993542, 0.505189, 0.447696, 0.445183, 0.445548, 0.447081, 0.444893, 0.445940, 0.446025, 0.447347, 1.797710, 0.446027, 0.446041, 0.451415, 0.471236, 0.452434, 0.448033, 0.448589, 0.446934, 0.449039, 0.446429, 0.447014, 0.446293, 0.447602, 0.446880, 0.446025, 0.447389, 0.446275, 0.446691, 0.445779
Process 101: 0.996185, 0.507647, 0.450168, 0.447691, 0.448045, 0.449593, 0.447457, 0.448422, 0.448515, 0.449823, 1.800180, 0.448538, 0.448541, 0.453950, 0.473745, 0.454953, 0.450554, 0.451088, 0.449574, 0.451555, 0.448916, 0.449517, 0.448783, 0.450117, 0.449395, 0.448551, 0.449914, 0.448787, 0.449186, 0.448286
Process 102: 0.998135, 0.509920, 0.452421, 0.449943, 0.450282, 0.451813, 0.449703, 0.450672, 0.450762, 0.452061, 1.802432, 0.450788, 0.450805, 0.456191, 0.475988, 0.457206, 0.452802, 0.453364, 0.451879, 0.453823, 0.451174, 0.451779, 0.451055, 0.452366, 0.451647, 0.450792, 0.452195, 0.451070, 0.451465, 0.450579
Process 103: 1.000833, 0.512367, 0.454926, 0.452447, 0.452797, 0.454320, 0.452283, 0.453183, 0.453270, 0.454556, 1.804987, 0.453356, 0.453346, 0.458700, 0.478511, 0.459715, 0.455374, 0.455860, 0.454547, 0.456322, 0.453682, 0.454379, 0.453551, 0.454928, 0.454189, 0.453348, 0.454708, 0.453560, 0.453977, 0.453091
Process 104: 1.003286, 0.514825, 0.457262, 0.454778, 0.455123, 0.456642, 0.454796, 0.455501, 0.455606, 0.456870, 1.807266, 0.455636, 0.455637, 0.460964, 0.480804, 0.462052, 0.457642, 0.458132, 0.456736, 0.458633, 0.456012, 0.456714, 0.455870, 0.457198, 0.456463, 0.455627, 0.456975, 0.455858, 0.456249, 0.455362
Process 105: 1.005514, 0.517268, 0.459709, 0.457230, 0.457566, 0.459119, 0.457283, 0.457964, 0.458062, 0.459315, 1.809735, 0.458088, 0.458113, 0.463459, 0.483257, 0.464488, 0.460088, 0.460585, 0.459135, 0.461104, 0.458468, 0.459175, 0.458315, 0.459647, 0.458906, 0.458078, 0.459433, 0.458326, 0.458715, 0.457812
Process 106: 1.007678, 0.519496, 0.462013, 0.459519, 0.459848, 0.461400, 0.459576, 0.460234, 0.460344, 0.461597, 1.812025, 0.460393, 0.460398, 0.465748, 0.485531, 0.466803, 0.462385, 0.462921, 0.461429, 0.463388, 0.460757, 0.461463, 0.460602, 0.461930, 0.461192, 0.460374, 0.461741, 0.460634, 0.461029, 0.460148
Process 107: 1.010128, 0.521967, 0.464513, 0.461989, 0.462334, 0.463934, 0.462053, 0.462715, 0.462825, 0.464079, 1.814562, 0.462919, 0.462921, 0.468254, 0.488091, 0.469274, 0.464917, 0.465420, 0.463957, 0.465881, 0.463232, 0.463964, 0.463095, 0.464448, 0.463714, 0.462903, 0.464248, 0.463141, 0.463530, 0.462649
Process 108: 1.012445, 0.524263, 0.466857, 0.464342, 0.464658, 0.466251, 0.464406, 0.465049, 0.465139, 0.466419, 1.816866, 0.465235, 0.465220, 0.470562, 0.490393, 0.471634, 0.467204, 0.467712, 0.466243, 0.468195, 0.465588, 0.466305, 0.465445, 0.466780, 0.466026, 0.465200, 0.466560, 0.465425, 0.465842, 0.464973
Process 109: 1.015264, 0.526775, 0.469334, 0.466795, 0.467137, 0.468721, 0.466880, 0.467571, 0.467602, 0.468901, 1.819332, 0.467709, 0.467692, 0.473061, 0.492874, 0.474104, 0.469689, 0.470215, 0.468777, 0.470700, 0.468049, 0.468776, 0.467923, 0.469314, 0.468522, 0.467688, 0.469030, 0.467930, 0.468321, 0.467440
Process 110: 1.017300, 0.529017, 0.471542, 0.469006, 0.469339, 0.470913, 0.469077, 0.469764, 0.469816, 0.471115, 1.821545, 0.469912, 0.469896, 0.475260, 0.495098, 0.476301, 0.471894, 0.472464, 0.470939, 0.472916, 0.470242, 0.470982, 0.470123, 0.471506, 0.470714, 0.469881, 0.471248, 0.470164, 0.470552, 0.469823
Process 111: 1.019514, 0.531452, 0.473972, 0.471446, 0.471793, 0.473368, 0.471551, 0.472216, 0.472260, 0.473561, 1.824054, 0.472405, 0.472401, 0.477905, 0.497570, 0.478760, 0.474386, 0.474892, 0.473408, 0.475357, 0.472685, 0.473448, 0.472582, 0.474027, 0.473174, 0.472387, 0.473734, 0.472622, 0.473029, 0.472288
Process 112: 1.022174, 0.533792, 0.476249, 0.473725, 0.473999, 0.475610, 0.473752, 0.474458, 0.474710, 0.475858, 1.826260, 0.474797, 0.474778, 0.480133, 0.499827, 0.480996, 0.476793, 0.477105, 0.475637, 0.477600, 0.474914, 0.475727, 0.474835, 0.476247, 0.475562, 0.474600, 0.475941, 0.474788, 0.475228, 0.474508
Process 113: 1.024551, 0.536225, 0.478681, 0.476153, 0.476470, 0.478042, 0.476233, 0.476919, 0.477446, 0.478278, 1.828709, 0.477417, 0.477177, 0.482908, 0.502235, 0.483443, 0.479149, 0.479552, 0.478036, 0.480061, 0.477403, 0.478166, 0.477271, 0.478694, 0.477906, 0.477044, 0.478377, 0.477280, 0.477664, 0.476923
Process 114: 1.026877, 0.538440, 0.480954, 0.478436, 0.478751, 0.480340, 0.478511, 0.479176, 0.479558, 0.480550, 1.830981, 0.479388, 0.479443, 0.484923, 0.504514, 0.485732, 0.481411, 0.481826, 0.480423, 0.482333, 0.479670, 0.480435, 0.479754, 0.481176, 0.480195, 0.479334, 0.480670, 0.479759, 0.480164, 0.479202
Process 115: 1.029447, 0.540844, 0.483370, 0.481113, 0.481167, 0.482746, 0.480934, 0.481611, 0.481948, 0.482968, 1.833439, 0.481790, 0.482207, 0.487384, 0.506987, 0.488129, 0.484178, 0.484267, 0.483180, 0.484761, 0.482103, 0.482857, 0.482400, 0.483925, 0.482983, 0.482003, 0.483126, 0.482224, 0.482569, 0.481986
Process 116: 1.031555, 0.543138, 0.485692, 0.483204, 0.483446, 0.485045, 0.483220, 0.483895, 0.484218, 0.485287, 1.835732, 0.484088, 0.484312, 0.489702, 0.509271, 0.490668, 0.486248, 0.486565, 0.485093, 0.487050, 0.484406, 0.485189, 0.484519, 0.485831, 0.484869, 0.484067, 0.485642, 0.484316, 0.484823, 0.484032
Process 117: 1.033840, 0.545594, 0.488108, 0.485664, 0.485905, 0.487512, 0.485684, 0.486359, 0.486634, 0.487694, 1.838174, 0.486517, 0.486708, 0.492131, 0.511679, 0.493342, 0.488643, 0.489004, 0.487518, 0.489522, 0.487098, 0.487609, 0.486933, 0.488228, 0.487346, 0.486502, 0.488139, 0.486749, 0.487263, 0.486429
Process 118: 1.036146, 0.547887, 0.490369, 0.487903, 0.488284, 0.489748, 0.487920, 0.488639, 0.488842, 0.489941, 1.840403, 0.488745, 0.488923, 0.494396, 0.514458, 0.495348, 0.490864, 0.491588, 0.489852, 0.491762, 0.489104, 0.489836, 0.489139, 0.490446, 0.489539, 0.488707, 0.490322, 0.488972, 0.489465, 0.488656
Process 119: 1.038561, 0.550290, 0.492808, 0.490372, 0.490969, 0.492202, 0.490389, 0.491351, 0.491275, 0.492390, 1.842867, 0.491190, 0.491356, 0.496823, 0.517040, 0.497767, 0.493312, 0.494276, 0.492290, 0.494231, 0.491582, 0.492567, 0.491566, 0.492865, 0.492009, 0.491174, 0.492801, 0.491520, 0.491999, 0.491153
Process 120: 1.040938, 0.552677, 0.495054, 0.492577, 0.493008, 0.494708, 0.492608, 0.493427, 0.493488, 0.494625, 1.845150, 0.493433, 0.493610, 0.499026, 0.519298, 0.499997, 0.495631, 0.496353, 0.494447, 0.496459, 0.493804, 0.494532, 0.493819, 0.495137, 0.494278, 0.493428, 0.494988, 0.493735, 0.494178, 0.493342
Process 121: 1.043836, 0.555132, 0.497555, 0.495066, 0.495500, 0.497331, 0.495115, 0.495903, 0.495945, 0.497133, 1.847619, 0.495906, 0.496037, 0.501463, 0.521766, 0.502473, 0.498044, 0.498831, 0.496848, 0.498975, 0.496258, 0.497042, 0.496274, 0.497571, 0.496729, 0.495885, 0.497458, 0.496191, 0.496637, 0.495770
Process 122: 1.045754, 0.557342, 0.499813, 0.497320, 0.497719, 0.499325, 0.497355, 0.498118, 0.498196, 0.499394, 1.849865, 0.498139, 0.498275, 0.503708, 0.524035, 0.504709, 0.500282, 0.501047, 0.499128, 0.501234, 0.498499, 0.499254, 0.498517, 0.499806, 0.498968, 0.498102, 0.499703, 0.498433, 0.498873, 0.498015
Process 123: 1.048411, 0.559793, 0.502288, 0.499766, 0.500165, 0.501748, 0.499831, 0.500555, 0.500622, 0.501863, 1.852329, 0.500563, 0.500697, 0.506153, 0.526494, 0.507137, 0.502725, 0.503561, 0.501567, 0.503723, 0.500942, 0.501732, 0.500951, 0.502241, 0.501420, 0.500564, 0.502182, 0.500902, 0.501378, 0.500523
Process 124: 1.050475, 0.562087, 0.504578, 0.502014, 0.502400, 0.503975, 0.502095, 0.502798, 0.502875, 0.504118, 1.854598, 0.502871, 0.502986, 0.508396, 0.528813, 0.509391, 0.504991, 0.505807, 0.503791, 0.505984, 0.503206, 0.503976, 0.503194, 0.504532, 0.503715, 0.502837, 0.504410, 0.503163, 0.503613, 0.502765
Process 125: 1.052793, 0.564578, 0.507059, 0.504514, 0.504862, 0.506435, 0.504563, 0.505248, 0.505351, 0.506607, 1.857073, 0.505307, 0.505424, 0.510832, 0.531255, 0.511891, 0.507438, 0.508259, 0.506184, 0.508489, 0.505681, 0.506468, 0.505668, 0.506947, 0.506156, 0.505286, 0.506856, 0.505602, 0.506070, 0.505203
Process 126: 1.055248, 0.566863, 0.509330, 0.506758, 0.507120, 0.508650, 0.506871, 0.507563, 0.507610, 0.508874, 1.859336, 0.507566, 0.507677, 0.513125, 0.533549, 0.514153, 0.509692, 0.510524, 0.508535, 0.510769, 0.507948, 0.508739, 0.507934, 0.509210, 0.508422, 0.507562, 0.509143, 0.507860, 0.508326, 0.507468
Process 127: 1.057991, 0.569177, 0.511661, 0.509085, 0.509422, 0.510965, 0.509201, 0.509861, 0.509920, 0.511218, 1.861650, 0.509869, 0.509983, 0.515467, 0.535897, 0.516459, 0.512018, 0.512853, 0.510883, 0.513105, 0.510260, 0.511059, 0.510267, 0.511535, 0.510730, 0.509864, 0.511429, 0.510223, 0.510674, 0.509804
