MPI_insiderank_serial
Process 0: 4.746585, 4.409289, 4.393115, 4.369994, 4.398610, 4.346305, 4.370165, 4.389050, 4.347945, 4.346335, 4.368082, 4.452346, 4.360639, 4.340437, 4.356655, 4.348600, 4.372457, 4.334087, 4.338188, 4.362207, 4.349551, 4.345626, 4.341083, 4.340422, 4.339276, 4.341519, 4.342807, 4.361534, 4.334484, 4.337634
Process 1: 4.621377, 4.281622, 4.261108, 4.253116, 4.265961, 4.219758, 4.249488, 4.255521, 4.219324, 4.217598, 4.245708, 4.436441, 4.227369, 4.212520, 4.232834, 4.220174, 4.252498, 4.205771, 4.210616, 4.235265, 4.221339, 4.212913, 4.212772, 4.213769, 4.210918, 4.212973, 4.215267, 4.245335, 4.207220, 4.209267
Process 2: 4.676966, 4.334601, 4.317927, 4.303220, 4.323843, 4.277183, 4.303175, 4.312715, 4.276870, 4.275352, 4.299732, 4.440987, 4.284879, 4.269314, 4.285813, 4.278408, 4.305220, 4.265413, 4.269778, 4.293395, 4.280330, 4.271891, 4.271561, 4.271727, 4.270026, 4.272338, 4.274107, 4.296219, 4.265866, 4.269365
Process 3: 4.748693, 4.412915, 4.396537, 4.373668, 4.402290, 4.350216, 4.374015, 4.393345, 4.352619, 4.350997, 4.372705, 4.456997, 4.364901, 4.345027, 4.361315, 4.353208, 4.376794, 4.338601, 4.342787, 4.366816, 4.353872, 4.350162, 4.345497, 4.345027, 4.343900, 4.346204, 4.347410, 4.365993, 4.339108, 4.342101
