MPI_insiderank_serial
Process 0: 2.737528, 2.383600, 2.367434, 2.362472, 2.381155, 2.364734, 2.366075, 2.364360, 2.367404, 2.354228, 2.362505, 2.371019, 2.352458, 2.369858, 2.351619, 2.360509, 2.354498, 2.354910, 2.362279, 2.363026, 2.360923, 2.355865, 2.364232, 2.368595, 2.356638, 2.356004, 2.354195, 2.358791, 2.360539, 2.357819
Process 1: 2.538740, 2.188539, 2.170056, 2.172661, 2.174368, 2.168751, 2.172106, 2.168395, 2.172456, 2.158902, 2.161026, 2.175411, 2.157676, 2.164562, 2.158263, 2.156795, 2.160459, 2.159708, 2.170393, 2.167237, 2.165045, 2.160253, 2.169137, 2.161575, 2.160281, 2.159410, 2.158610, 2.161674, 2.164449, 2.160496
Process 2: 2.570239, 2.217216, 2.199987, 2.198040, 2.208647, 2.195430, 2.200570, 2.195240, 2.199096, 2.185069, 2.190868, 2.200750, 2.183361, 2.195298, 2.183433, 2.183088, 2.185970, 2.185733, 2.195892, 2.192174, 2.190637, 2.185007, 2.194041, 2.186906, 2.186434, 2.185095, 2.183403, 2.186982, 2.189469, 2.186360
Process 3: 2.605105, 2.256529, 2.237501, 2.238851, 2.245864, 2.235586, 2.237481, 2.235061, 2.236855, 2.225443, 2.231799, 2.241950, 2.222562, 2.235259, 2.222782, 2.228709, 2.224344, 2.226970, 2.237245, 2.234258, 2.231497, 2.226751, 2.235195, 2.229170, 2.228199, 2.227061, 2.225202, 2.229073, 2.231474, 2.228038
Process 4: 2.636132, 2.287572, 2.266619, 2.263697, 2.275419, 2.262155, 2.266164, 2.261903, 2.265512, 2.251633, 2.257491, 2.267215, 2.249565, 2.263349, 2.249820, 2.256831, 2.252320, 2.252251, 2.261321, 2.258783, 2.257052, 2.251537, 2.260361, 2.256106, 2.252730, 2.252455, 2.249974, 2.253498, 2.256035, 2.252889
Process 5: 2.672031, 2.324798, 2.303303, 2.303480, 2.312763, 2.300748, 2.304319, 2.301389, 2.302426, 2.291123, 2.295407, 2.306906, 2.287765, 2.302865, 2.287854, 2.295061, 2.290070, 2.290966, 2.300564, 2.298448, 2.296163, 2.293358, 2.299721, 2.301985, 2.292784, 2.294207, 2.289203, 2.295991, 2.298522, 2.294515
Process 6: 2.702509, 2.352703, 2.333142, 2.330519, 2.341851, 2.328623, 2.332628, 2.328407, 2.332012, 2.318133, 2.329188, 2.333743, 2.315999, 2.330116, 2.316070, 2.323273, 2.318763, 2.318707, 2.327700, 2.325178, 2.323408, 2.318404, 2.326781, 2.326970, 2.319130, 2.317902, 2.316406, 2.319997, 2.322862, 2.319312
Process 7: 2.738693, 2.384651, 2.368594, 2.363626, 2.382366, 2.366311, 2.367123, 2.365883, 2.368489, 2.355791, 2.363682, 2.372565, 2.353698, 2.371238, 2.352898, 2.362026, 2.355652, 2.356391, 2.363808, 2.364710, 2.362372, 2.357342, 2.365750, 2.370145, 2.358272, 2.357526, 2.355774, 2.360560, 2.362105, 2.359602
