MPI_insiderank_serial
Process 0: 1.762108, 0.910562, 0.825965, 0.848934, 0.817603, 0.815580, 0.815057, 0.847739, 0.866739, 0.820648, 0.816584, 0.817001, 0.815516, 0.817024, 0.817534, 0.821990, 0.818811, 0.818383, 0.817404, 0.821547, 0.818862, 0.817106, 0.818225, 0.818355, 0.818536, 0.821401, 0.863330, 0.820581, 0.820750, 0.822798
Process 1: 1.227773, 0.381360, 0.286429, 0.318990, 0.286770, 0.285940, 0.285838, 0.311156, 0.324952, 0.290988, 0.287335, 0.285871, 0.286478, 0.286938, 0.286698, 0.286475, 0.287050, 0.286461, 0.286654, 0.290219, 0.286612, 0.286476, 0.286918, 0.286650, 0.286613, 0.286725, 0.322484, 0.288822, 0.287393, 0.288327
Process 2: 1.230826, 0.385332, 0.290307, 0.322894, 0.290663, 0.289877, 0.289774, 0.315050, 0.328937, 0.294908, 0.291228, 0.289726, 0.290413, 0.290820, 0.290597, 0.290429, 0.290955, 0.290428, 0.290596, 0.294157, 0.290591, 0.290339, 0.290718, 0.290586, 0.290542, 0.290710, 0.326390, 0.292724, 0.291294, 0.292297
Process 3: 1.236136, 0.389639, 0.294838, 0.327435, 0.295129, 0.294361, 0.294289, 0.339797, 0.333520, 0.299398, 0.295793, 0.294225, 0.294882, 0.295350, 0.295224, 0.294911, 0.295462, 0.294921, 0.295091, 0.298555, 0.295080, 0.294894, 0.295341, 0.295138, 0.295047, 0.295200, 0.330966, 0.297226, 0.295883, 0.296785
Process 4: 1.239168, 0.393726, 0.305233, 0.331406, 0.299093, 0.298345, 0.298203, 0.340518, 0.337454, 0.303397, 0.299697, 0.298228, 0.298861, 0.299287, 0.299114, 0.298887, 0.299491, 0.298912, 0.299049, 0.302615, 0.298998, 0.298809, 0.299288, 0.299073, 0.299024, 0.299195, 0.334934, 0.301154, 0.299767, 0.300751
Process 5: 1.243783, 0.398098, 0.309665, 0.335966, 0.303643, 0.302734, 0.302702, 0.341433, 0.341995, 0.307845, 0.304222, 0.302715, 0.303239, 0.303721, 0.303653, 0.303384, 0.303883, 0.303379, 0.303474, 0.306879, 0.303463, 0.303271, 0.303740, 0.303497, 0.303479, 0.303681, 0.339483, 0.305689, 0.304248, 0.305300
Process 6: 1.248177, 0.402222, 0.313716, 0.339955, 0.307723, 0.306710, 0.306688, 0.342129, 0.345915, 0.311831, 0.308194, 0.306703, 0.307217, 0.307713, 0.307619, 0.307337, 0.307888, 0.307396, 0.307458, 0.311015, 0.307420, 0.307210, 0.307710, 0.307500, 0.307520, 0.307693, 0.344659, 0.309667, 0.308273, 0.309273
Process 7: 1.252663, 0.406902, 0.318357, 0.344453, 0.312241, 0.311234, 0.311147, 0.343085, 0.368315, 0.316350, 0.312730, 0.311188, 0.311705, 0.312164, 0.312088, 0.311872, 0.312301, 0.311867, 0.311949, 0.315566, 0.311944, 0.311753, 0.312204, 0.311983, 0.312046, 0.312238, 0.349243, 0.314223, 0.312800, 0.313829
Process 8: 1.256867, 0.411292, 0.322729, 0.348682, 0.316464, 0.315401, 0.315387, 0.343942, 0.369102, 0.320543, 0.316907, 0.315370, 0.315900, 0.316359, 0.316330, 0.316050, 0.316501, 0.316034, 0.316122, 0.319596, 0.316133, 0.315926, 0.316425, 0.316222, 0.316230, 0.316410, 0.353409, 0.318461, 0.316993, 0.318013
Process 9: 1.260961, 0.415432, 0.326979, 0.352932, 0.320744, 0.319694, 0.319646, 0.345349, 0.369979, 0.324862, 0.321136, 0.319645, 0.320172, 0.320607, 0.320607, 0.320341, 0.320758, 0.320330, 0.320429, 0.324049, 0.320470, 0.320172, 0.320674, 0.320486, 0.320526, 0.320719, 0.357714, 0.322731, 0.321216, 0.322338
Process 10: 1.265445, 0.419588, 0.331195, 0.357097, 0.324915, 0.323900, 0.323860, 0.349655, 0.370873, 0.329029, 0.325353, 0.323788, 0.324290, 0.324787, 0.324900, 0.324469, 0.324929, 0.324478, 0.324563, 0.328099, 0.324640, 0.324336, 0.324868, 0.324630, 0.324689, 0.324886, 0.361845, 0.326904, 0.325408, 0.326470
Process 11: 1.269412, 0.423782, 0.335477, 0.361341, 0.329224, 0.328144, 0.328076, 0.353931, 0.371828, 0.333269, 0.329547, 0.328015, 0.328567, 0.329014, 0.329216, 0.328762, 0.329208, 0.328758, 0.328842, 0.332390, 0.328845, 0.328583, 0.329091, 0.328908, 0.328988, 0.329165, 0.366088, 0.331113, 0.329725, 0.330660
Process 12: 1.273914, 0.428060, 0.339724, 0.365608, 0.333515, 0.332360, 0.332370, 0.358267, 0.373301, 0.337502, 0.333815, 0.332228, 0.332792, 0.333317, 0.333447, 0.333011, 0.333466, 0.332979, 0.333080, 0.336607, 0.333123, 0.332844, 0.333365, 0.333160, 0.333212, 0.333472, 0.370346, 0.335368, 0.334004, 0.334925
Process 13: 1.278894, 0.432210, 0.344036, 0.369867, 0.337812, 0.336589, 0.336618, 0.362670, 0.377530, 0.341752, 0.338061, 0.336523, 0.337037, 0.337527, 0.337695, 0.337338, 0.337738, 0.337245, 0.337345, 0.340788, 0.337379, 0.337092, 0.337587, 0.337444, 0.337510, 0.337683, 0.375320, 0.339597, 0.338259, 0.339161
Process 14: 1.283482, 0.436580, 0.348337, 0.374178, 0.342039, 0.340963, 0.340849, 0.366910, 0.381825, 0.346018, 0.342283, 0.340702, 0.341267, 0.341732, 0.341926, 0.341589, 0.341972, 0.341436, 0.341605, 0.345151, 0.341629, 0.341351, 0.341805, 0.341647, 0.341719, 0.341970, 0.380818, 0.343838, 0.342485, 0.343395
Process 15: 1.287250, 0.440642, 0.352569, 0.378417, 0.346315, 0.345149, 0.345009, 0.371267, 0.386069, 0.350181, 0.346457, 0.344890, 0.345452, 0.345987, 0.346154, 0.345728, 0.346158, 0.345633, 0.345742, 0.349187, 0.345792, 0.345527, 0.346008, 0.345878, 0.345878, 0.346133, 0.385041, 0.347981, 0.346686, 0.347555
Process 16: 1.291848, 0.445029, 0.356720, 0.382521, 0.350490, 0.349380, 0.349103, 0.375451, 0.390351, 0.354325, 0.350554, 0.349013, 0.349621, 0.350124, 0.350235, 0.349902, 0.350273, 0.349826, 0.349890, 0.353275, 0.349898, 0.349605, 0.350127, 0.350065, 0.350020, 0.350286, 0.389184, 0.352095, 0.350794, 0.351652
Process 17: 1.296042, 0.449243, 0.361022, 0.386838, 0.354771, 0.353800, 0.353391, 0.379846, 0.394687, 0.358553, 0.354843, 0.353257, 0.353854, 0.354426, 0.354482, 0.354184, 0.354516, 0.354042, 0.354125, 0.357686, 0.354251, 0.353903, 0.354486, 0.354392, 0.354271, 0.354531, 0.393497, 0.356390, 0.355074, 0.355964
Process 18: 1.300983, 0.453364, 0.365134, 0.390903, 0.358920, 0.358039, 0.357513, 0.384049, 0.398949, 0.362705, 0.358946, 0.357402, 0.357973, 0.358483, 0.358629, 0.362988, 0.358640, 0.358170, 0.358274, 0.361693, 0.358347, 0.358048, 0.358593, 0.358561, 0.358432, 0.358672, 0.397665, 0.360490, 0.359157, 0.360062
Process 19: 1.304667, 0.457681, 0.369492, 0.395237, 0.363242, 0.362339, 0.361822, 0.388552, 0.403396, 0.366966, 0.363255, 0.361710, 0.362242, 0.362805, 0.362915, 0.367767, 0.362946, 0.362463, 0.362710, 0.366201, 0.362720, 0.362382, 0.362951, 0.362903, 0.362721, 0.362964, 0.402290, 0.364817, 0.363507, 0.364397
Process 20: 1.309049, 0.461816, 0.373655, 0.399276, 0.367438, 0.366396, 0.365935, 0.392758, 0.407639, 0.371046, 0.367321, 0.365821, 0.366323, 0.366926, 0.367058, 0.371856, 0.367106, 0.366549, 0.366803, 0.370186, 0.366792, 0.366432, 0.367117, 0.367089, 0.366851, 0.367046, 0.406356, 0.368921, 0.367570, 0.368507
Process 21: 1.313437, 0.466156, 0.378789, 0.403599, 0.371793, 0.370810, 0.370222, 0.397226, 0.412054, 0.375353, 0.371671, 0.370132, 0.370618, 0.371241, 0.371347, 0.376163, 0.371372, 0.370834, 0.371161, 0.374436, 0.371105, 0.370774, 0.371440, 0.371419, 0.371185, 0.371368, 0.410718, 0.373175, 0.371854, 0.372878
Process 22: 1.318029, 0.470336, 0.383324, 0.407765, 0.376028, 0.374963, 0.374404, 0.401455, 0.416372, 0.379527, 0.375776, 0.374291, 0.374770, 0.375610, 0.375535, 0.380375, 0.375507, 0.375278, 0.375349, 0.378617, 0.375273, 0.374902, 0.375672, 0.375641, 0.375396, 0.375527, 0.414867, 0.377373, 0.376055, 0.377061
Process 23: 1.322442, 0.474566, 0.387586, 0.412038, 0.380265, 0.379297, 0.378631, 0.405816, 0.420759, 0.383810, 0.380049, 0.378595, 0.379063, 0.379871, 0.379789, 0.384660, 0.379802, 0.379592, 0.379670, 0.382949, 0.379547, 0.379166, 0.379973, 0.379918, 0.379721, 0.379872, 0.420212, 0.381682, 0.380293, 0.381331
Process 24: 1.326751, 0.478917, 0.391794, 0.416209, 0.384449, 0.383435, 0.382817, 0.410095, 0.425408, 0.387987, 0.384227, 0.382718, 0.383214, 0.384020, 0.383919, 0.388822, 0.383958, 0.383717, 0.383839, 0.387002, 0.383677, 0.383340, 0.384155, 0.384079, 0.384035, 0.384023, 0.424367, 0.385917, 0.384517, 0.385531
Process 25: 1.330736, 0.483217, 0.396100, 0.420547, 0.388785, 0.387915, 0.387104, 0.414477, 0.430165, 0.392359, 0.388541, 0.387103, 0.387504, 0.388289, 0.388272, 0.393106, 0.388300, 0.388095, 0.388161, 0.391406, 0.388028, 0.387695, 0.388439, 0.388463, 0.388352, 0.388427, 0.428774, 0.390242, 0.388817, 0.389832
Process 26: 1.335277, 0.487260, 0.400177, 0.424620, 0.392905, 0.391971, 0.391189, 0.418689, 0.434775, 0.396423, 0.392664, 0.391180, 0.391595, 0.392396, 0.392348, 0.397247, 0.392417, 0.392162, 0.392272, 0.395392, 0.392197, 0.391817, 0.392564, 0.392552, 0.392423, 0.392479, 0.432825, 0.394370, 0.392969, 0.393986
Process 27: 1.339328, 0.491824, 0.404601, 0.429042, 0.397363, 0.396319, 0.395588, 0.423128, 0.439194, 0.400765, 0.396991, 0.395564, 0.395931, 0.396766, 0.396745, 0.401667, 0.396813, 0.396500, 0.396617, 0.399870, 0.396556, 0.396177, 0.396960, 0.396933, 0.396775, 0.396838, 0.437691, 0.398736, 0.397369, 0.398296
Process 28: 1.343783, 0.495970, 0.408719, 0.433149, 0.401485, 0.400478, 0.399727, 0.427365, 0.443458, 0.404946, 0.401137, 0.399677, 0.400025, 0.400903, 0.400866, 0.405858, 0.401025, 0.400724, 0.400812, 0.404056, 0.400772, 0.400315, 0.401075, 0.401027, 0.400890, 0.401016, 0.442254, 0.402851, 0.401482, 0.402478
Process 29: 1.348995, 0.500260, 0.413087, 0.437586, 0.405843, 0.404824, 0.404131, 0.431860, 0.447861, 0.409282, 0.405575, 0.404018, 0.404336, 0.405279, 0.405277, 0.410326, 0.405361, 0.405087, 0.405162, 0.408377, 0.405122, 0.404733, 0.405489, 0.405396, 0.405233, 0.405380, 0.446707, 0.407229, 0.405870, 0.406871
Process 30: 1.352632, 0.504533, 0.417233, 0.441768, 0.409977, 0.409028, 0.408352, 0.436125, 0.452216, 0.413509, 0.409746, 0.408219, 0.408559, 0.409459, 0.409463, 0.414543, 0.409582, 0.409304, 0.409415, 0.412732, 0.409275, 0.408875, 0.409698, 0.409600, 0.409472, 0.409617, 0.450867, 0.411398, 0.410031, 0.411032
Process 31: 1.356633, 0.508727, 0.421559, 0.446072, 0.414294, 0.413311, 0.412674, 0.440565, 0.456598, 0.417807, 0.414030, 0.412499, 0.412878, 0.413795, 0.413722, 0.418880, 0.413827, 0.413561, 0.413687, 0.416985, 0.413662, 0.413201, 0.414004, 0.413869, 0.413770, 0.413902, 0.455158, 0.415735, 0.414341, 0.415331
Process 32: 1.361263, 0.513200, 0.425953, 0.450207, 0.418443, 0.417394, 0.416817, 0.445045, 0.460859, 0.421903, 0.418166, 0.416726, 0.416985, 0.417871, 0.417893, 0.422980, 0.418009, 0.417772, 0.417838, 0.421210, 0.417734, 0.417336, 0.418112, 0.418072, 0.417952, 0.418034, 0.459364, 0.419852, 0.418466, 0.419452
Process 33: 1.365548, 0.517513, 0.430311, 0.454613, 0.422782, 0.421822, 0.421182, 0.450060, 0.465312, 0.426328, 0.422604, 0.421056, 0.421413, 0.422295, 0.422253, 0.427328, 0.422385, 0.422142, 0.422183, 0.425642, 0.422214, 0.421757, 0.422495, 0.422419, 0.422336, 0.422478, 0.463768, 0.424303, 0.422865, 0.423893
Process 34: 1.369357, 0.521373, 0.434290, 0.458604, 0.426714, 0.425851, 0.425329, 0.453827, 0.469454, 0.430370, 0.426659, 0.424953, 0.425291, 0.426376, 0.426428, 0.431257, 0.426284, 0.426287, 0.426087, 0.429473, 0.426085, 0.425803, 0.426651, 0.426534, 0.426208, 0.426507, 0.467682, 0.428353, 0.426932, 0.428010
Process 35: 1.374072, 0.525837, 0.438667, 0.462984, 0.431112, 0.430295, 0.429690, 0.458264, 0.474206, 0.434831, 0.431053, 0.429367, 0.429793, 0.430795, 0.430810, 0.435725, 0.430747, 0.430697, 0.430543, 0.433987, 0.430604, 0.430190, 0.431024, 0.430917, 0.430660, 0.430973, 0.472164, 0.432812, 0.431332, 0.432429
Process 36: 1.377488, 0.529670, 0.442763, 0.467038, 0.435170, 0.434255, 0.433678, 0.462239, 0.478281, 0.438841, 0.435079, 0.433473, 0.433847, 0.434824, 0.434818, 0.439870, 0.434956, 0.434660, 0.434625, 0.438193, 0.434683, 0.434213, 0.435074, 0.434936, 0.434902, 0.435008, 0.476247, 0.436912, 0.435428, 0.436449
Process 37: 1.382220, 0.534206, 0.447149, 0.471459, 0.439582, 0.438715, 0.438106, 0.466634, 0.482831, 0.443320, 0.439548, 0.437891, 0.438301, 0.439321, 0.439308, 0.444267, 0.439373, 0.439177, 0.439061, 0.442439, 0.439090, 0.438696, 0.439529, 0.439398, 0.439320, 0.439489, 0.480739, 0.441381, 0.439868, 0.440891
Process 38: 1.386788, 0.538290, 0.451261, 0.475537, 0.443681, 0.442753, 0.442143, 0.470797, 0.486822, 0.447336, 0.443601, 0.441978, 0.442370, 0.443483, 0.443352, 0.448289, 0.443454, 0.443234, 0.443121, 0.446632, 0.443193, 0.442785, 0.443657, 0.443474, 0.443340, 0.443583, 0.484811, 0.445483, 0.443987, 0.445003
Process 39: 1.391020, 0.542686, 0.455582, 0.479884, 0.448052, 0.447138, 0.446532, 0.475172, 0.491397, 0.451717, 0.447988, 0.446381, 0.446765, 0.447823, 0.447770, 0.452697, 0.447895, 0.447671, 0.447524, 0.451014, 0.447584, 0.447151, 0.448020, 0.447897, 0.447765, 0.447966, 0.489225, 0.449856, 0.448379, 0.449383
Process 40: 1.395921, 0.546868, 0.459618, 0.483928, 0.452116, 0.451253, 0.450590, 0.479430, 0.495793, 0.455801, 0.452049, 0.450444, 0.450881, 0.451873, 0.451838, 0.456738, 0.451939, 0.451699, 0.451625, 0.455000, 0.451666, 0.451254, 0.452093, 0.451951, 0.451807, 0.452139, 0.493386, 0.453977, 0.452469, 0.453523
Process 41: 1.400041, 0.551240, 0.463994, 0.488297, 0.456571, 0.455569, 0.454999, 0.483778, 0.500247, 0.460135, 0.456382, 0.454844, 0.455237, 0.456269, 0.456262, 0.461144, 0.456328, 0.456081, 0.455970, 0.459398, 0.456034, 0.455647, 0.456481, 0.456386, 0.456188, 0.456498, 0.497810, 0.458381, 0.456884, 0.457905
Process 42: 1.404156, 0.555194, 0.468031, 0.492363, 0.460641, 0.459645, 0.459041, 0.487793, 0.504382, 0.464203, 0.460399, 0.458907, 0.459322, 0.460324, 0.460300, 0.465173, 0.460390, 0.460249, 0.460093, 0.463419, 0.460163, 0.459707, 0.460567, 0.460433, 0.460379, 0.460601, 0.501891, 0.462432, 0.460924, 0.462038
Process 43: 1.407814, 0.559565, 0.472472, 0.496797, 0.465038, 0.464037, 0.463480, 0.492192, 0.508807, 0.468616, 0.464837, 0.463306, 0.463745, 0.464753, 0.464706, 0.469617, 0.464833, 0.464649, 0.464511, 0.467849, 0.464572, 0.464160, 0.465021, 0.464849, 0.464792, 0.465013, 0.506382, 0.466910, 0.465408, 0.466434
Process 44: 1.412230, 0.563633, 0.476492, 0.500837, 0.469100, 0.468118, 0.467507, 0.496253, 0.512938, 0.472674, 0.468899, 0.467390, 0.467807, 0.468831, 0.468764, 0.473614, 0.468933, 0.468723, 0.468615, 0.471910, 0.468659, 0.468220, 0.469099, 0.468959, 0.468846, 0.469115, 0.510607, 0.470952, 0.469439, 0.470536
Process 45: 1.416795, 0.568049, 0.480900, 0.505251, 0.473515, 0.472522, 0.471911, 0.500677, 0.517443, 0.477086, 0.473344, 0.471794, 0.472201, 0.473285, 0.473195, 0.478073, 0.473357, 0.473138, 0.473011, 0.476232, 0.473111, 0.472698, 0.473566, 0.473417, 0.473287, 0.473540, 0.515084, 0.475424, 0.473913, 0.475052
Process 46: 1.420408, 0.572144, 0.484991, 0.509362, 0.477699, 0.476597, 0.476007, 0.504738, 0.521701, 0.481191, 0.477414, 0.475979, 0.476319, 0.477343, 0.477331, 0.482126, 0.477501, 0.477236, 0.477091, 0.480421, 0.477164, 0.476764, 0.477770, 0.477549, 0.477382, 0.477610, 0.519663, 0.479540, 0.478031, 0.479187
Process 47: 1.425356, 0.576511, 0.489357, 0.513756, 0.482148, 0.481021, 0.480418, 0.509128, 0.526108, 0.485665, 0.481819, 0.480363, 0.480717, 0.481712, 0.481728, 0.486504, 0.481866, 0.481634, 0.481503, 0.484723, 0.481597, 0.481191, 0.482207, 0.481980, 0.481757, 0.482044, 0.524484, 0.483973, 0.482479, 0.483610
Process 48: 1.429130, 0.580680, 0.493425, 0.517900, 0.486312, 0.485070, 0.484621, 0.513175, 0.530308, 0.489824, 0.485952, 0.484558, 0.484789, 0.485811, 0.485967, 0.490586, 0.485964, 0.485701, 0.485571, 0.488766, 0.485651, 0.485336, 0.486410, 0.486208, 0.485936, 0.486121, 0.529154, 0.488023, 0.486657, 0.487743
Process 49: 1.433327, 0.585061, 0.497784, 0.522364, 0.490686, 0.489552, 0.489023, 0.517589, 0.534721, 0.494314, 0.490380, 0.489035, 0.489186, 0.490282, 0.490411, 0.494960, 0.490399, 0.490140, 0.490071, 0.493256, 0.490109, 0.489799, 0.490883, 0.490629, 0.490431, 0.490614, 0.533620, 0.492438, 0.491109, 0.492239
Process 50: 1.437510, 0.589038, 0.501824, 0.526493, 0.494805, 0.493682, 0.493217, 0.521710, 0.538866, 0.498468, 0.494536, 0.493184, 0.493263, 0.494476, 0.494543, 0.499001, 0.494563, 0.494149, 0.494198, 0.497183, 0.494269, 0.493970, 0.495092, 0.494773, 0.494597, 0.494715, 0.537835, 0.496543, 0.495285, 0.496430
Process 51: 1.441535, 0.593523, 0.506216, 0.530985, 0.499339, 0.498226, 0.497716, 0.526191, 0.543437, 0.502938, 0.499025, 0.497683, 0.497798, 0.498948, 0.499057, 0.503404, 0.499080, 0.498701, 0.498749, 0.501736, 0.498789, 0.498507, 0.499560, 0.499315, 0.499149, 0.499281, 0.542338, 0.501009, 0.499817, 0.500958
Process 52: 1.445988, 0.597646, 0.510408, 0.535142, 0.503454, 0.502363, 0.501826, 0.530388, 0.547625, 0.507131, 0.503195, 0.501830, 0.501971, 0.503146, 0.503248, 0.507467, 0.503267, 0.502858, 0.502889, 0.505965, 0.503004, 0.502691, 0.503774, 0.503486, 0.503288, 0.503435, 0.546483, 0.505237, 0.504052, 0.505171
Process 53: 1.449989, 0.602116, 0.514840, 0.539599, 0.507940, 0.506822, 0.506330, 0.534848, 0.552117, 0.511602, 0.507693, 0.506345, 0.506410, 0.507619, 0.507765, 0.511914, 0.507786, 0.507307, 0.507379, 0.510266, 0.507448, 0.507183, 0.508228, 0.507969, 0.507848, 0.507883, 0.551031, 0.509734, 0.508532, 0.509623
Process 54: 1.454795, 0.606266, 0.518994, 0.543752, 0.512106, 0.510986, 0.510480, 0.539050, 0.556311, 0.515813, 0.511903, 0.510506, 0.510609, 0.511787, 0.511908, 0.515997, 0.511946, 0.511527, 0.511592, 0.514684, 0.511684, 0.511383, 0.512436, 0.512205, 0.511990, 0.512115, 0.555477, 0.513964, 0.512722, 0.513891
Process 55: 1.458701, 0.610639, 0.523417, 0.548146, 0.516511, 0.515354, 0.514859, 0.543437, 0.560735, 0.520192, 0.516283, 0.514963, 0.514972, 0.516181, 0.516343, 0.520395, 0.516367, 0.515934, 0.515987, 0.519006, 0.516057, 0.515786, 0.516858, 0.516637, 0.516401, 0.516517, 0.559913, 0.518361, 0.517142, 0.518266
Process 56: 1.463196, 0.614945, 0.527593, 0.552307, 0.520629, 0.519514, 0.519023, 0.547619, 0.564867, 0.524424, 0.520471, 0.519124, 0.519182, 0.520357, 0.520570, 0.524592, 0.520535, 0.520156, 0.520193, 0.523281, 0.520341, 0.519975, 0.521047, 0.520818, 0.520651, 0.520780, 0.564378, 0.522559, 0.521320, 0.522523
Process 57: 1.467211, 0.619380, 0.532042, 0.556985, 0.525029, 0.524308, 0.523712, 0.552058, 0.569332, 0.529114, 0.525198, 0.523523, 0.523599, 0.525080, 0.525265, 0.529076, 0.525004, 0.524837, 0.524610, 0.527497, 0.524737, 0.524701, 0.525776, 0.525544, 0.525108, 0.525423, 0.568915, 0.527288, 0.526066, 0.527165
Process 58: 1.471312, 0.623461, 0.536164, 0.561134, 0.529200, 0.528372, 0.527802, 0.556198, 0.573472, 0.533214, 0.529229, 0.527683, 0.527767, 0.529118, 0.529314, 0.533253, 0.529157, 0.528869, 0.528745, 0.531341, 0.528877, 0.528712, 0.529814, 0.529581, 0.529307, 0.529520, 0.573269, 0.531364, 0.530130, 0.531204
Process 59: 1.475541, 0.627910, 0.540904, 0.565566, 0.533864, 0.532726, 0.532213, 0.560653, 0.577885, 0.537613, 0.533658, 0.532329, 0.532442, 0.533546, 0.533713, 0.537936, 0.533841, 0.533288, 0.533378, 0.536031, 0.533552, 0.533176, 0.534239, 0.533982, 0.533980, 0.533914, 0.577796, 0.535776, 0.534574, 0.535718
Process 60: 1.479885, 0.631979, 0.544987, 0.569618, 0.537945, 0.536751, 0.536335, 0.564804, 0.582073, 0.541628, 0.537684, 0.536410, 0.536542, 0.537567, 0.537760, 0.542077, 0.537950, 0.537314, 0.537425, 0.540097, 0.537635, 0.537189, 0.538254, 0.538030, 0.538092, 0.537992, 0.581821, 0.539806, 0.538607, 0.539747
Process 61: 1.484006, 0.636686, 0.549393, 0.573996, 0.542279, 0.541149, 0.540708, 0.569316, 0.586548, 0.546067, 0.542102, 0.540866, 0.540957, 0.541955, 0.542164, 0.546460, 0.542335, 0.541709, 0.541850, 0.544563, 0.542034, 0.541593, 0.542689, 0.542440, 0.542514, 0.542408, 0.586236, 0.544217, 0.543070, 0.544143
Process 62: 1.488332, 0.640413, 0.555125, 0.577974, 0.546283, 0.545093, 0.544683, 0.573247, 0.590599, 0.550012, 0.546044, 0.544861, 0.544908, 0.545948, 0.546083, 0.550455, 0.546328, 0.545658, 0.545797, 0.548515, 0.545992, 0.545551, 0.546702, 0.546426, 0.546492, 0.546370, 0.590190, 0.548230, 0.547069, 0.548115
Process 63: 1.492310, 0.644722, 0.559506, 0.582192, 0.550525, 0.549352, 0.548900, 0.577499, 0.594883, 0.554269, 0.550255, 0.549033, 0.549164, 0.550175, 0.550335, 0.554688, 0.550570, 0.549913, 0.550059, 0.552783, 0.550268, 0.549817, 0.550952, 0.550651, 0.550768, 0.550622, 0.594451, 0.552559, 0.551306, 0.552464
Process 64: 1.496691, 0.649021, 0.563716, 0.586216, 0.554567, 0.553312, 0.552942, 0.581450, 0.598891, 0.558267, 0.554293, 0.553044, 0.553160, 0.554258, 0.554360, 0.558716, 0.554549, 0.553973, 0.554074, 0.556834, 0.554279, 0.553822, 0.554970, 0.554651, 0.554751, 0.554614, 0.598503, 0.556626, 0.555376, 0.556466
Process 65: 1.501716, 0.653240, 0.568574, 0.590447, 0.558850, 0.557554, 0.557156, 0.585719, 0.603465, 0.562544, 0.558530, 0.557307, 0.557389, 0.558482, 0.558630, 0.563066, 0.558871, 0.558261, 0.558303, 0.561104, 0.558504, 0.558084, 0.559278, 0.558959, 0.559072, 0.558921, 0.602724, 0.560915, 0.559689, 0.560748
Process 66: 1.505053, 0.657083, 0.572228, 0.594406, 0.562977, 0.561489, 0.561082, 0.589659, 0.607405, 0.566453, 0.562550, 0.561227, 0.561342, 0.562433, 0.562584, 0.566992, 0.562809, 0.562167, 0.562279, 0.565040, 0.562495, 0.562059, 0.563200, 0.562963, 0.562977, 0.562876, 0.606692, 0.564911, 0.563690, 0.564735
Process 67: 1.509263, 0.661600, 0.576445, 0.598901, 0.567133, 0.565676, 0.565306, 0.594257, 0.611663, 0.571084, 0.566751, 0.565427, 0.565590, 0.566649, 0.567182, 0.571615, 0.567393, 0.566711, 0.566462, 0.569678, 0.566985, 0.566890, 0.567521, 0.567738, 0.567217, 0.567129, 0.610910, 0.569096, 0.568483, 0.568925
Process 68: 1.513266, 0.665576, 0.580292, 0.602779, 0.571079, 0.569659, 0.569221, 0.598101, 0.615569, 0.574870, 0.570653, 0.569397, 0.569612, 0.570561, 0.571185, 0.575433, 0.571450, 0.570491, 0.570493, 0.573591, 0.570862, 0.570352, 0.571448, 0.571370, 0.571151, 0.571152, 0.614874, 0.573012, 0.571977, 0.572872
Process 69: 1.517470, 0.669777, 0.584592, 0.607074, 0.575595, 0.573894, 0.573845, 0.602332, 0.619846, 0.579098, 0.574904, 0.573693, 0.574056, 0.574874, 0.575418, 0.579724, 0.575741, 0.574754, 0.575209, 0.577779, 0.575094, 0.574686, 0.575740, 0.575605, 0.575778, 0.575730, 0.619173, 0.577305, 0.576266, 0.577151
Process 70: 1.522067, 0.673834, 0.588537, 0.611201, 0.579269, 0.577886, 0.577497, 0.606292, 0.623789, 0.583101, 0.578843, 0.577686, 0.577971, 0.578845, 0.579348, 0.583663, 0.579853, 0.578842, 0.579084, 0.581754, 0.579088, 0.578648, 0.579735, 0.579571, 0.579735, 0.579839, 0.623156, 0.581294, 0.580220, 0.581178
Process 71: 1.526008, 0.678013, 0.592801, 0.615471, 0.583609, 0.582100, 0.581727, 0.610560, 0.628047, 0.587295, 0.583111, 0.582012, 0.582216, 0.583097, 0.583573, 0.587970, 0.584142, 0.583114, 0.583274, 0.585996, 0.583406, 0.582914, 0.584018, 0.583806, 0.583957, 0.584061, 0.627509, 0.585563, 0.584517, 0.585462
Process 72: 1.530325, 0.682183, 0.596688, 0.619314, 0.587535, 0.585981, 0.585651, 0.614449, 0.632027, 0.591166, 0.587009, 0.585990, 0.586105, 0.587012, 0.587559, 0.591950, 0.588109, 0.587090, 0.587240, 0.589897, 0.587380, 0.586811, 0.587919, 0.587752, 0.587891, 0.587975, 0.631427, 0.589448, 0.588428, 0.589354
Process 73: 1.534360, 0.686385, 0.600978, 0.623532, 0.591865, 0.590235, 0.589858, 0.618888, 0.636228, 0.595434, 0.591207, 0.590282, 0.590352, 0.591254, 0.591827, 0.596182, 0.592383, 0.591348, 0.591556, 0.594162, 0.591685, 0.591075, 0.592141, 0.591984, 0.592130, 0.592274, 0.635678, 0.593742, 0.592715, 0.594270
Process 74: 1.538241, 0.690320, 0.604887, 0.627518, 0.595838, 0.594187, 0.593867, 0.623138, 0.640198, 0.599438, 0.595251, 0.594293, 0.594320, 0.595246, 0.595821, 0.600203, 0.596462, 0.595373, 0.595502, 0.598130, 0.595680, 0.595047, 0.596168, 0.595990, 0.596102, 0.596312, 0.639767, 0.597723, 0.596676, 0.598120
Process 75: 1.543689, 0.694486, 0.609122, 0.631725, 0.600123, 0.598437, 0.598102, 0.628377, 0.644420, 0.603652, 0.599431, 0.598595, 0.598586, 0.599454, 0.600003, 0.604391, 0.600709, 0.599645, 0.599756, 0.602360, 0.599955, 0.599276, 0.600373, 0.600213, 0.600337, 0.600635, 0.644100, 0.601934, 0.600945, 0.602382
Process 76: 1.547025, 0.698391, 0.613036, 0.635708, 0.603999, 0.602352, 0.601979, 0.632526, 0.648333, 0.607533, 0.603336, 0.602547, 0.602453, 0.603394, 0.603939, 0.608350, 0.604645, 0.603614, 0.603644, 0.606281, 0.603976, 0.603292, 0.604269, 0.604123, 0.604218, 0.604576, 0.648089, 0.605849, 0.604924, 0.606308
Process 77: 1.550963, 0.702611, 0.617323, 0.639998, 0.608312, 0.606586, 0.606289, 0.636771, 0.652629, 0.611769, 0.607606, 0.606899, 0.606702, 0.607647, 0.608219, 0.612583, 0.608992, 0.607954, 0.607864, 0.610493, 0.608258, 0.607576, 0.608550, 0.608444, 0.608517, 0.608913, 0.652390, 0.610117, 0.609164, 0.610612
Process 78: 1.555665, 0.706620, 0.621328, 0.643937, 0.612267, 0.610575, 0.610275, 0.640776, 0.656789, 0.615735, 0.611721, 0.610899, 0.610718, 0.611644, 0.612184, 0.616524, 0.612995, 0.611974, 0.611848, 0.614465, 0.612285, 0.611546, 0.612511, 0.612406, 0.612534, 0.612902, 0.656371, 0.614125, 0.613164, 0.614693
Process 79: 1.559358, 0.710786, 0.625549, 0.648186, 0.616544, 0.614771, 0.614508, 0.645015, 0.661157, 0.619961, 0.615916, 0.615197, 0.614914, 0.615889, 0.616446, 0.620785, 0.617291, 0.616226, 0.616078, 0.618657, 0.616552, 0.615752, 0.616799, 0.616705, 0.616772, 0.617176, 0.660717, 0.618297, 0.617356, 0.618965
Process 80: 1.564524, 0.714860, 0.629463, 0.652166, 0.620445, 0.618730, 0.618399, 0.649035, 0.665579, 0.623875, 0.619806, 0.619131, 0.618880, 0.619798, 0.620424, 0.624679, 0.621223, 0.620272, 0.620034, 0.622605, 0.620515, 0.619642, 0.620690, 0.620592, 0.620666, 0.621200, 0.664628, 0.622173, 0.621264, 0.623001
Process 81: 1.567908, 0.719188, 0.633716, 0.656420, 0.624782, 0.622924, 0.622679, 0.653277, 0.669915, 0.628108, 0.624056, 0.623386, 0.623075, 0.624032, 0.624658, 0.628919, 0.625482, 0.624543, 0.624251, 0.626806, 0.624782, 0.623911, 0.625011, 0.624829, 0.624882, 0.625488, 0.668962, 0.626475, 0.625530, 0.627299
Process 82: 1.572313, 0.723131, 0.637623, 0.660318, 0.628812, 0.626883, 0.626650, 0.657287, 0.674377, 0.632039, 0.628026, 0.627425, 0.627049, 0.628019, 0.628668, 0.632920, 0.629518, 0.628600, 0.628230, 0.630807, 0.628765, 0.627878, 0.628997, 0.628853, 0.628896, 0.629590, 0.672983, 0.630504, 0.629551, 0.631310
Process 83: 1.576299, 0.727254, 0.641865, 0.664553, 0.633017, 0.631076, 0.630836, 0.661439, 0.678697, 0.636281, 0.632252, 0.631645, 0.631267, 0.632255, 0.632841, 0.637084, 0.633746, 0.632880, 0.632489, 0.635269, 0.633058, 0.632107, 0.633181, 0.633052, 0.633062, 0.633815, 0.677305, 0.634786, 0.633792, 0.635593
Process 84: 1.580217, 0.731215, 0.645766, 0.668480, 0.636993, 0.634980, 0.634803, 0.665357, 0.683700, 0.640207, 0.636191, 0.635632, 0.635159, 0.636108, 0.636861, 0.641025, 0.637774, 0.636819, 0.636383, 0.639774, 0.636991, 0.636014, 0.637144, 0.637032, 0.637006, 0.637797, 0.681307, 0.638716, 0.637681, 0.639568
Process 85: 1.584587, 0.735371, 0.650090, 0.672761, 0.641291, 0.639354, 0.639048, 0.669679, 0.688338, 0.644475, 0.640441, 0.639943, 0.639416, 0.640371, 0.641085, 0.645263, 0.642066, 0.641137, 0.640660, 0.643265, 0.641307, 0.640255, 0.641373, 0.641271, 0.641265, 0.642145, 0.685601, 0.643012, 0.641942, 0.643893
Process 86: 1.589076, 0.739402, 0.654147, 0.676772, 0.645317, 0.643404, 0.643064, 0.673661, 0.692399, 0.648452, 0.644454, 0.643975, 0.643400, 0.644462, 0.645044, 0.649292, 0.646105, 0.645147, 0.644630, 0.647259, 0.645294, 0.644277, 0.645416, 0.645296, 0.645250, 0.646210, 0.689662, 0.647147, 0.645929, 0.647932
Process 87: 1.592955, 0.743587, 0.658346, 0.680984, 0.649549, 0.647611, 0.647219, 0.677909, 0.696642, 0.652649, 0.648628, 0.648233, 0.647571, 0.648633, 0.649285, 0.653468, 0.650329, 0.649417, 0.648836, 0.651496, 0.649598, 0.648466, 0.649607, 0.649456, 0.649509, 0.650562, 0.693908, 0.651393, 0.650164, 0.652204
Process 88: 1.597427, 0.747853, 0.662293, 0.684931, 0.653455, 0.651567, 0.651113, 0.681834, 0.700580, 0.656617, 0.652585, 0.652182, 0.651520, 0.652631, 0.653216, 0.657392, 0.654272, 0.653384, 0.652749, 0.655493, 0.653543, 0.652409, 0.653504, 0.653354, 0.653402, 0.654586, 0.697857, 0.655412, 0.654143, 0.656143
Process 89: 1.601331, 0.752003, 0.666530, 0.689164, 0.657735, 0.655805, 0.655368, 0.686084, 0.704921, 0.660817, 0.656808, 0.656497, 0.655746, 0.656863, 0.657480, 0.661683, 0.658581, 0.657699, 0.656994, 0.659796, 0.657845, 0.656662, 0.657839, 0.657685, 0.657708, 0.658930, 0.702172, 0.659644, 0.658361, 0.660459
Process 90: 1.605169, 0.755965, 0.670535, 0.693128, 0.661694, 0.659792, 0.659318, 0.690111, 0.708935, 0.664795, 0.660764, 0.660529, 0.659762, 0.660810, 0.661433, 0.665707, 0.662549, 0.661692, 0.661027, 0.663953, 0.661894, 0.660619, 0.661810, 0.661672, 0.661740, 0.663004, 0.706333, 0.663632, 0.662341, 0.664515
Process 91: 1.609514, 0.760632, 0.674707, 0.697327, 0.665898, 0.663960, 0.663561, 0.694344, 0.713253, 0.668960, 0.664983, 0.664742, 0.663942, 0.665101, 0.665674, 0.669900, 0.666842, 0.665923, 0.665201, 0.668237, 0.666131, 0.664873, 0.666050, 0.665947, 0.665935, 0.667263, 0.710652, 0.667959, 0.666664, 0.668747
Process 92: 1.613980, 0.764142, 0.678614, 0.701248, 0.669844, 0.667901, 0.667486, 0.698319, 0.717219, 0.672944, 0.668927, 0.668848, 0.667940, 0.669086, 0.669605, 0.673841, 0.670896, 0.670168, 0.669286, 0.672343, 0.670410, 0.668820, 0.670001, 0.669879, 0.669896, 0.671346, 0.714687, 0.671899, 0.670614, 0.672852
Process 93: 1.617954, 0.768309, 0.682907, 0.705615, 0.674061, 0.672154, 0.671717, 0.702554, 0.721588, 0.677189, 0.673226, 0.673106, 0.672164, 0.673399, 0.673867, 0.678139, 0.675191, 0.674447, 0.673522, 0.676720, 0.674789, 0.673089, 0.674331, 0.674155, 0.674162, 0.675685, 0.719072, 0.676282, 0.674965, 0.677159
Process 94: 1.622599, 0.772408, 0.686918, 0.709609, 0.678079, 0.676164, 0.675739, 0.706572, 0.725596, 0.681196, 0.677233, 0.677174, 0.676187, 0.677448, 0.677908, 0.682144, 0.679211, 0.678529, 0.677564, 0.680841, 0.678792, 0.677071, 0.678398, 0.678190, 0.678310, 0.680062, 0.723159, 0.680345, 0.678998, 0.681223
Process 95: 1.626255, 0.776527, 0.691185, 0.713858, 0.682269, 0.680369, 0.679938, 0.710854, 0.729910, 0.685479, 0.681481, 0.681426, 0.680385, 0.681628, 0.682076, 0.686335, 0.683434, 0.682739, 0.681772, 0.685186, 0.683006, 0.681297, 0.682612, 0.682420, 0.682506, 0.684310, 0.727469, 0.684663, 0.683293, 0.685515
Process 96: 1.631204, 0.780873, 0.695249, 0.717962, 0.686381, 0.684432, 0.684071, 0.714956, 0.733960, 0.689549, 0.685576, 0.685526, 0.684463, 0.685770, 0.686213, 0.690450, 0.687566, 0.686892, 0.685858, 0.689317, 0.687088, 0.685440, 0.686729, 0.686559, 0.686605, 0.688456, 0.731659, 0.688746, 0.687399, 0.689628
Process 97: 1.635138, 0.785277, 0.699652, 0.722294, 0.690696, 0.688792, 0.688371, 0.719347, 0.738325, 0.693951, 0.689904, 0.689896, 0.688839, 0.690100, 0.690520, 0.694773, 0.691892, 0.691256, 0.690240, 0.693758, 0.691470, 0.689781, 0.691050, 0.690872, 0.690968, 0.692856, 0.736007, 0.693089, 0.691779, 0.694098
Process 98: 1.639465, 0.789014, 0.703602, 0.726504, 0.694886, 0.692844, 0.692498, 0.723454, 0.742401, 0.698013, 0.693938, 0.693944, 0.692879, 0.694291, 0.694581, 0.698859, 0.695995, 0.695365, 0.694407, 0.697835, 0.695589, 0.693941, 0.695310, 0.694934, 0.695185, 0.696764, 0.740072, 0.697274, 0.695916, 0.698283
Process 99: 1.643314, 0.793427, 0.707893, 0.730728, 0.699182, 0.697125, 0.696746, 0.727745, 0.747715, 0.702311, 0.698228, 0.698273, 0.697147, 0.698538, 0.698893, 0.703149, 0.700295, 0.699697, 0.698688, 0.702202, 0.699893, 0.698307, 0.699599, 0.699259, 0.699532, 0.701147, 0.744378, 0.701549, 0.700246, 0.702795
Process 100: 1.647524, 0.797254, 0.711823, 0.734785, 0.703152, 0.701137, 0.700701, 0.731811, 0.751925, 0.706275, 0.702209, 0.702275, 0.701183, 0.702492, 0.702841, 0.707129, 0.704243, 0.703641, 0.702597, 0.706244, 0.703881, 0.702431, 0.703594, 0.703250, 0.703527, 0.705135, 0.748402, 0.705567, 0.704252, 0.706651
Process 101: 1.651717, 0.801624, 0.716156, 0.739121, 0.707534, 0.705512, 0.705108, 0.737290, 0.756310, 0.710663, 0.706648, 0.706669, 0.705557, 0.706869, 0.707240, 0.711523, 0.708674, 0.708043, 0.706968, 0.710648, 0.708270, 0.706814, 0.707973, 0.707647, 0.707954, 0.709526, 0.752766, 0.709954, 0.708666, 0.711036
Process 102: 1.655950, 0.805560, 0.720156, 0.743192, 0.711607, 0.709588, 0.709159, 0.741572, 0.760437, 0.714722, 0.710656, 0.710735, 0.709604, 0.710911, 0.711311, 0.715651, 0.712737, 0.712127, 0.711103, 0.714740, 0.712375, 0.710866, 0.712016, 0.711717, 0.712021, 0.713604, 0.756913, 0.714089, 0.712793, 0.715025
Process 103: 1.659907, 0.809965, 0.724510, 0.747554, 0.715987, 0.713942, 0.713540, 0.745881, 0.764786, 0.719102, 0.715039, 0.715096, 0.713970, 0.715307, 0.715668, 0.720032, 0.717158, 0.716476, 0.715470, 0.719124, 0.716765, 0.715279, 0.716432, 0.716145, 0.716402, 0.717961, 0.761284, 0.718459, 0.717207, 0.719357
Process 104: 1.664190, 0.814013, 0.728379, 0.751511, 0.719990, 0.717945, 0.717531, 0.749864, 0.768787, 0.723112, 0.719005, 0.719121, 0.717981, 0.719259, 0.719661, 0.724050, 0.721140, 0.720501, 0.719500, 0.723112, 0.720812, 0.719262, 0.720396, 0.720231, 0.720432, 0.722030, 0.765400, 0.722458, 0.721183, 0.723321
Process 105: 1.668723, 0.818385, 0.732752, 0.755910, 0.724361, 0.722338, 0.721881, 0.754244, 0.773181, 0.727483, 0.723432, 0.723522, 0.722366, 0.723698, 0.724050, 0.728472, 0.725602, 0.724913, 0.723912, 0.727523, 0.725190, 0.723721, 0.724852, 0.724611, 0.724853, 0.726447, 0.769840, 0.726918, 0.725656, 0.727893
Process 106: 1.672964, 0.822154, 0.736690, 0.759971, 0.728512, 0.726355, 0.725913, 0.758540, 0.777258, 0.731489, 0.727463, 0.727663, 0.726389, 0.727705, 0.728149, 0.732508, 0.729602, 0.728993, 0.727965, 0.731587, 0.729244, 0.727710, 0.728871, 0.728738, 0.728963, 0.730532, 0.773924, 0.730970, 0.729728, 0.732148
Process 107: 1.678078, 0.826526, 0.741590, 0.764293, 0.732846, 0.730734, 0.730270, 0.762839, 0.781695, 0.735913, 0.731827, 0.732004, 0.730771, 0.732048, 0.732497, 0.736873, 0.733957, 0.733340, 0.732375, 0.735983, 0.733644, 0.732121, 0.733224, 0.733122, 0.733392, 0.734894, 0.778271, 0.735397, 0.734158, 0.736485
Process 108: 1.681189, 0.830359, 0.745335, 0.768269, 0.736867, 0.734715, 0.734285, 0.766913, 0.785703, 0.739891, 0.735829, 0.736031, 0.734759, 0.736084, 0.736532, 0.740965, 0.737983, 0.737398, 0.736365, 0.740021, 0.737622, 0.736130, 0.737245, 0.737159, 0.737422, 0.739629, 0.782319, 0.739413, 0.738243, 0.740504
Process 109: 1.685386, 0.834795, 0.749688, 0.772672, 0.741235, 0.739147, 0.738678, 0.771305, 0.790165, 0.744347, 0.740233, 0.740442, 0.739199, 0.740517, 0.740969, 0.745358, 0.742409, 0.741783, 0.740804, 0.744464, 0.742085, 0.740620, 0.741654, 0.741571, 0.741807, 0.744444, 0.786788, 0.743850, 0.742730, 0.745034
Process 110: 1.689831, 0.838710, 0.753811, 0.776777, 0.745304, 0.743201, 0.742755, 0.775438, 0.794236, 0.748399, 0.744323, 0.744523, 0.743272, 0.744677, 0.745093, 0.749510, 0.746507, 0.745861, 0.744906, 0.748835, 0.746205, 0.744645, 0.745783, 0.745728, 0.745896, 0.748627, 0.790921, 0.747990, 0.746862, 0.749184
Process 111: 1.693836, 0.843151, 0.758166, 0.781117, 0.749704, 0.747561, 0.747091, 0.779807, 0.798591, 0.752794, 0.748690, 0.748914, 0.747613, 0.749039, 0.749490, 0.753892, 0.750885, 0.750258, 0.749311, 0.753736, 0.750659, 0.749037, 0.750165, 0.750079, 0.750300, 0.753032, 0.795286, 0.752383, 0.751272, 0.753663
Process 112: 1.698144, 0.847163, 0.762221, 0.785175, 0.753727, 0.751618, 0.751091, 0.783844, 0.802702, 0.756823, 0.752745, 0.752910, 0.751664, 0.753130, 0.753522, 0.757945, 0.754863, 0.754283, 0.753391, 0.757444, 0.754677, 0.753096, 0.754246, 0.754082, 0.754343, 0.757080, 0.799425, 0.756451, 0.755369, 0.757888
Process 113: 1.702234, 0.851629, 0.766647, 0.789560, 0.758124, 0.756008, 0.755519, 0.788285, 0.807086, 0.761209, 0.757140, 0.757392, 0.756076, 0.757540, 0.757988, 0.762317, 0.759304, 0.758743, 0.757806, 0.761806, 0.759104, 0.757521, 0.758662, 0.758535, 0.758818, 0.761523, 0.804427, 0.760872, 0.759812, 0.762372
Process 114: 1.707088, 0.855469, 0.770681, 0.793595, 0.762194, 0.760164, 0.759591, 0.792416, 0.811183, 0.765332, 0.761193, 0.761488, 0.760170, 0.761595, 0.762036, 0.766440, 0.763368, 0.762809, 0.761921, 0.765907, 0.763291, 0.761640, 0.762745, 0.762640, 0.762879, 0.765656, 0.808286, 0.765022, 0.763937, 0.766490
Process 115: 1.710626, 0.859874, 0.775056, 0.797981, 0.766578, 0.764501, 0.763990, 0.796729, 0.815570, 0.769696, 0.765617, 0.765896, 0.764542, 0.765995, 0.766478, 0.770835, 0.767749, 0.767226, 0.766302, 0.770306, 0.767694, 0.766025, 0.767135, 0.767077, 0.767300, 0.770053, 0.812680, 0.769411, 0.768329, 0.770944
Process 116: 1.715081, 0.864173, 0.779068, 0.802041, 0.770582, 0.768599, 0.768036, 0.800828, 0.819625, 0.773748, 0.769637, 0.769928, 0.768582, 0.770027, 0.770496, 0.774884, 0.771755, 0.771285, 0.770355, 0.774378, 0.771743, 0.770031, 0.771173, 0.771084, 0.771347, 0.774113, 0.816728, 0.773472, 0.772361, 0.775057
Process 117: 1.719202, 0.868512, 0.783498, 0.806500, 0.774986, 0.772994, 0.772492, 0.805234, 0.824079, 0.778226, 0.774125, 0.774351, 0.772996, 0.774495, 0.774925, 0.779362, 0.776232, 0.775713, 0.774788, 0.778800, 0.776174, 0.774536, 0.775663, 0.775564, 0.775786, 0.778600, 0.821140, 0.777936, 0.776847, 0.779564
Process 118: 1.723717, 0.872468, 0.787602, 0.810620, 0.779107, 0.777092, 0.776621, 0.809400, 0.828199, 0.782349, 0.778217, 0.778487, 0.777095, 0.778583, 0.779070, 0.783440, 0.780317, 0.779899, 0.778995, 0.782996, 0.780303, 0.778634, 0.779743, 0.779718, 0.780017, 0.782690, 0.825218, 0.782002, 0.781002, 0.783736
Process 119: 1.728730, 0.876994, 0.792043, 0.815011, 0.783510, 0.781520, 0.781001, 0.813760, 0.832653, 0.786735, 0.782683, 0.782911, 0.781526, 0.782994, 0.783491, 0.787900, 0.784711, 0.784300, 0.783394, 0.787389, 0.784714, 0.783098, 0.784212, 0.784137, 0.784441, 0.787135, 0.829647, 0.786470, 0.786685, 0.788222
Process 120: 1.731898, 0.881085, 0.796078, 0.819066, 0.787589, 0.785543, 0.785065, 0.817907, 0.836661, 0.790745, 0.786741, 0.786962, 0.785538, 0.787018, 0.787531, 0.791943, 0.788770, 0.788399, 0.787430, 0.791470, 0.788755, 0.787109, 0.788240, 0.788206, 0.788518, 0.791252, 0.833632, 0.790522, 0.790654, 0.792380
Process 121: 1.736345, 0.885548, 0.800564, 0.823482, 0.792008, 0.790233, 0.789751, 0.822836, 0.841706, 0.795219, 0.791767, 0.791798, 0.790265, 0.791464, 0.792379, 0.796649, 0.793499, 0.793338, 0.791915, 0.795910, 0.793728, 0.792129, 0.793234, 0.792991, 0.793452, 0.795685, 0.838044, 0.795568, 0.795730, 0.796906
Process 122: 1.740799, 0.889416, 0.804691, 0.827828, 0.796622, 0.794373, 0.793930, 0.826674, 0.845611, 0.799474, 0.795540, 0.795819, 0.794378, 0.795911, 0.796456, 0.800851, 0.797659, 0.797302, 0.796250, 0.800048, 0.797608, 0.795957, 0.797057, 0.797151, 0.797369, 0.799903, 0.842132, 0.799387, 0.799600, 0.801071
Process 123: 1.744727, 0.893904, 0.809057, 0.832517, 0.800941, 0.798794, 0.798297, 0.831031, 0.849986, 0.804150, 0.799880, 0.800206, 0.798780, 0.800263, 0.800782, 0.805199, 0.802005, 0.801638, 0.800637, 0.804502, 0.802012, 0.800280, 0.801437, 0.801588, 0.801712, 0.804846, 0.846503, 0.803772, 0.804003, 0.805569
Process 124: 1.748848, 0.897769, 0.813099, 0.836203, 0.804925, 0.802748, 0.802334, 0.834999, 0.853985, 0.807888, 0.803895, 0.804220, 0.802761, 0.804273, 0.804745, 0.809237, 0.806023, 0.805617, 0.804611, 0.808558, 0.806050, 0.804312, 0.805498, 0.805605, 0.805715, 0.808686, 0.850548, 0.807802, 0.807985, 0.809679
Process 125: 1.753147, 0.902257, 0.817578, 0.840618, 0.809327, 0.807174, 0.806737, 0.839436, 0.858469, 0.812344, 0.808285, 0.808644, 0.807208, 0.808693, 0.809187, 0.813642, 0.810478, 0.810048, 0.809068, 0.813076, 0.810493, 0.808738, 0.809891, 0.810010, 0.810158, 0.813076, 0.854999, 0.812207, 0.812403, 0.814270
Process 126: 1.757511, 0.906280, 0.821694, 0.844731, 0.813402, 0.811376, 0.810777, 0.843521, 0.862495, 0.816408, 0.812379, 0.812714, 0.811292, 0.812798, 0.813258, 0.817740, 0.814546, 0.814132, 0.813182, 0.817185, 0.814627, 0.812910, 0.814009, 0.814097, 0.814296, 0.817166, 0.859084, 0.816337, 0.816509, 0.818443
Process 127: 1.762015, 0.910561, 0.825966, 0.848939, 0.817603, 0.815584, 0.815056, 0.847733, 0.866739, 0.820645, 0.816589, 0.817001, 0.815516, 0.817025, 0.817536, 0.821991, 0.818808, 0.818382, 0.817397, 0.821546, 0.818861, 0.817111, 0.818226, 0.818355, 0.818535, 0.821402, 0.863331, 0.820580, 0.820760, 0.822805
