MPI_insiderank_serial
Process 0: 1.724695, 1.367773, 1.240428, 1.264829, 1.277574, 2.954863, 1.260478, 1.302696, 1.276289, 1.249649, 1.254527, 1.257222, 1.262394, 1.290231, 1.253330, 1.254870, 1.256059, 1.248920, 1.254355, 1.249287, 1.262600, 1.279925, 1.258630, 1.248139, 1.251878, 1.259434, 1.253350, 1.253922, 1.258830, 1.252346
Process 1: 1.243042, 0.876726, 0.756568, 0.780213, 0.789580, 2.459690, 0.769137, 0.810746, 0.784241, 0.758753, 0.760744, 0.760269, 0.773289, 0.804481, 0.768091, 0.764368, 0.766656, 0.760003, 0.763908, 0.759287, 0.767072, 0.792217, 0.771686, 0.759083, 0.763286, 0.773040, 0.761905, 0.764191, 0.765335, 0.761015
Process 2: 1.261263, 0.905638, 0.774651, 0.797465, 0.807276, 2.476281, 0.786262, 0.829783, 0.801465, 0.776857, 0.777706, 0.777149, 0.790969, 0.821751, 0.785293, 0.782127, 0.783532, 0.777422, 0.781418, 0.777286, 0.790326, 0.808680, 0.788809, 0.776502, 0.779850, 0.791042, 0.779783, 0.781846, 0.783431, 0.777605
Process 3: 1.274873, 0.920384, 0.788830, 0.812516, 0.821578, 2.492195, 0.801323, 0.844753, 0.817266, 0.791903, 0.793024, 0.793197, 0.805737, 0.837407, 0.800991, 0.796851, 0.798996, 0.792364, 0.796566, 0.793132, 0.809248, 0.824008, 0.804541, 0.791604, 0.795501, 0.806446, 0.794560, 0.796838, 0.798027, 0.793137
Process 4: 1.293312, 0.938283, 0.804982, 0.827863, 0.837914, 2.507891, 0.816936, 0.860825, 0.833289, 0.807322, 0.809163, 0.809655, 0.821994, 0.853382, 0.815891, 0.812574, 0.815178, 0.808511, 0.812613, 0.808916, 0.825675, 0.840168, 0.820542, 0.807858, 0.811581, 0.822493, 0.810746, 0.813341, 0.814489, 0.808626
Process 5: 1.306758, 0.951779, 0.821466, 0.844118, 0.854119, 2.524407, 0.833723, 0.877104, 0.849191, 0.824112, 0.825271, 0.825686, 0.837980, 0.869003, 0.832221, 0.829297, 0.831351, 0.824788, 0.828894, 0.825961, 0.841660, 0.856553, 0.837016, 0.824285, 0.828050, 0.838501, 0.826641, 0.829413, 0.831301, 0.825426
Process 6: 1.325769, 0.971343, 0.840178, 0.860984, 0.871190, 2.542332, 0.851131, 0.894560, 0.866841, 0.840871, 0.841993, 0.843238, 0.855923, 0.885938, 0.850432, 0.846855, 0.848240, 0.842255, 0.845520, 0.843362, 0.858566, 0.873112, 0.854191, 0.841452, 0.845583, 0.856533, 0.844254, 0.846484, 0.848881, 0.842901
Process 7: 1.338372, 0.983526, 0.854769, 0.876704, 0.886244, 2.557310, 0.866243, 0.909625, 0.881663, 0.856146, 0.858109, 0.858731, 0.870416, 0.901134, 0.865166, 0.862358, 0.864948, 0.857956, 0.861670, 0.859203, 0.875079, 0.888242, 0.870207, 0.857211, 0.861134, 0.871847, 0.859454, 0.862088, 0.864141, 0.858042
Process 8: 1.355444, 1.001712, 0.870609, 0.893170, 0.902530, 2.573960, 0.882310, 0.926250, 0.898088, 0.872619, 0.874601, 0.874165, 0.887195, 0.917710, 0.881230, 0.879262, 0.881377, 0.874476, 0.877775, 0.875854, 0.891194, 0.904728, 0.886718, 0.874731, 0.877623, 0.888275, 0.876217, 0.878729, 0.880881, 0.874195
Process 9: 1.370567, 1.014938, 0.886311, 0.908817, 0.918532, 2.589465, 0.898051, 0.941325, 0.913802, 0.888290, 0.890201, 0.890406, 0.902555, 0.933309, 0.896857, 0.894778, 0.897130, 0.889886, 0.893561, 0.891157, 0.906706, 0.919884, 0.902037, 0.889612, 0.892930, 0.903267, 0.891454, 0.894298, 0.896349, 0.889822
Process 10: 1.386055, 1.030845, 0.902060, 0.924562, 0.934506, 2.605745, 0.914429, 0.957601, 0.930122, 0.904457, 0.906307, 0.906376, 0.918425, 0.949031, 0.912494, 0.910925, 0.913245, 0.906118, 0.909517, 0.907125, 0.922548, 0.936034, 0.917985, 0.905607, 0.908987, 0.919268, 0.907516, 0.910418, 0.912581, 0.905841
Process 11: 1.402065, 1.046632, 0.918018, 0.941434, 0.950809, 2.621899, 0.930782, 0.973522, 0.946368, 0.920689, 0.922412, 0.924930, 0.934585, 0.965154, 0.929250, 0.926916, 0.929346, 0.922054, 0.925571, 0.923446, 0.938754, 0.952062, 0.934164, 0.921730, 0.925247, 0.935857, 0.923974, 0.926621, 0.928515, 0.922162
Process 12: 1.418037, 1.062198, 0.933839, 0.956473, 0.966517, 2.637964, 0.946721, 0.989505, 0.962462, 0.936623, 0.938499, 0.944002, 0.950308, 0.980870, 0.944575, 0.942847, 0.945233, 0.938051, 0.941640, 0.939214, 0.954524, 0.968202, 0.949713, 0.937754, 0.941280, 0.951336, 0.939801, 0.942492, 0.944850, 0.937774
Process 13: 1.433781, 1.077992, 0.949351, 0.972374, 0.982550, 2.654104, 0.963033, 1.005746, 0.978713, 0.952806, 0.954463, 0.960559, 0.966123, 0.996724, 0.960687, 0.958996, 0.961459, 0.954065, 0.957467, 0.955498, 0.970348, 0.983820, 0.965901, 0.953493, 0.957585, 0.967439, 0.956369, 0.958357, 0.961382, 0.954006
Process 14: 1.449672, 1.093690, 0.964639, 0.985840, 0.998753, 2.670351, 0.979197, 1.025265, 0.995081, 0.968826, 0.970603, 0.976888, 0.982367, 1.012843, 0.976704, 0.975090, 0.977282, 0.970029, 0.973849, 0.971408, 0.986432, 1.000134, 0.981702, 0.969677, 0.973590, 0.983577, 0.972838, 0.974617, 0.977727, 0.970569
Process 15: 1.465434, 1.109714, 0.979958, 1.001810, 1.014640, 2.686936, 0.995355, 1.042120, 1.011000, 0.985051, 0.986755, 0.993414, 0.998108, 1.028775, 0.993482, 0.991262, 0.993419, 0.986034, 0.989707, 0.987404, 1.002474, 1.015945, 0.997603, 0.985760, 0.989506, 1.000280, 0.988970, 0.990780, 0.994118, 0.987091
Process 16: 1.481071, 1.125280, 0.995759, 1.018074, 1.030543, 2.703391, 1.011808, 1.056024, 1.027225, 1.001056, 1.004718, 1.010175, 1.014345, 1.044568, 1.007072, 1.007263, 1.009287, 1.002347, 1.007580, 1.003669, 1.018169, 1.032070, 1.013895, 1.001695, 1.005686, 1.014048, 1.005435, 1.006774, 1.010766, 1.003627
Process 17: 1.497541, 1.141765, 1.011711, 1.034557, 1.047241, 2.720196, 1.028380, 1.071258, 1.043689, 1.017587, 1.022535, 1.026225, 1.030590, 1.060926, 1.022512, 1.023484, 1.025607, 1.018485, 1.025173, 1.019721, 1.034543, 1.048653, 1.029887, 1.018229, 1.021766, 1.029157, 1.021703, 1.023220, 1.027262, 1.020256
Process 18: 1.513494, 1.158114, 1.027841, 1.051117, 1.063560, 2.736925, 1.044714, 1.087714, 1.060249, 1.034223, 1.038997, 1.042565, 1.047212, 1.077085, 1.038778, 1.040116, 1.042434, 1.034869, 1.041357, 1.035967, 1.050560, 1.065013, 1.046138, 1.034490, 1.038245, 1.045736, 1.038057, 1.039618, 1.043589, 1.036705
Process 19: 1.529826, 1.174153, 1.044200, 1.067236, 1.079948, 2.754001, 1.061367, 1.104248, 1.076754, 1.050677, 1.056180, 1.059083, 1.064038, 1.093485, 1.055127, 1.056570, 1.058626, 1.051521, 1.058132, 1.052458, 1.066846, 1.081630, 1.062648, 1.050873, 1.054458, 1.061938, 1.054703, 1.056202, 1.060248, 1.053364
Process 20: 1.545884, 1.189914, 1.060069, 1.083534, 1.096184, 2.770219, 1.077648, 1.120520, 1.093298, 1.067012, 1.071816, 1.075176, 1.080221, 1.109908, 1.071602, 1.073021, 1.075063, 1.067654, 1.073936, 1.068908, 1.082900, 1.098059, 1.078704, 1.067381, 1.070757, 1.078108, 1.071042, 1.072354, 1.076488, 1.070160
Process 21: 1.561944, 1.206408, 1.076302, 1.100355, 1.112749, 2.787379, 1.094465, 1.137227, 1.109870, 1.083721, 1.088763, 1.092254, 1.096753, 1.126070, 1.087930, 1.089574, 1.091559, 1.084197, 1.090217, 1.085145, 1.099257, 1.114707, 1.095194, 1.083859, 1.087489, 1.094856, 1.087628, 1.089120, 1.093055, 1.086765
Process 22: 1.577905, 1.222096, 1.092634, 1.116694, 1.129109, 2.803472, 1.110629, 1.153675, 1.126288, 1.100187, 1.105104, 1.108057, 1.113527, 1.142374, 1.104229, 1.105764, 1.107606, 1.100451, 1.106395, 1.101407, 1.115609, 1.130968, 1.111087, 1.100279, 1.103477, 1.110793, 1.104118, 1.105383, 1.109427, 1.103418
Process 23: 1.594246, 1.238193, 1.109234, 1.133713, 1.145816, 2.820527, 1.127280, 1.170094, 1.143022, 1.117104, 1.122200, 1.124874, 1.129748, 1.158668, 1.120990, 1.122259, 1.124068, 1.116675, 1.123342, 1.118113, 1.132053, 1.147611, 1.127464, 1.116992, 1.119888, 1.127441, 1.120620, 1.121721, 1.125969, 1.120329
Process 24: 1.610252, 1.254073, 1.125306, 1.149682, 1.162021, 2.837012, 1.143977, 1.186668, 1.159724, 1.133506, 1.138040, 1.141134, 1.146210, 1.175119, 1.137214, 1.138753, 1.140561, 1.133027, 1.138892, 1.134074, 1.147944, 1.164314, 1.143721, 1.133017, 1.136334, 1.143600, 1.137225, 1.138233, 1.142738, 1.136499
Process 25: 1.626813, 1.270560, 1.141743, 1.166271, 1.178676, 2.853161, 1.160541, 1.203532, 1.176434, 1.150222, 1.155032, 1.157767, 1.163000, 1.191543, 1.153655, 1.155377, 1.156883, 1.149585, 1.155744, 1.150515, 1.164308, 1.180809, 1.159985, 1.149431, 1.152773, 1.160023, 1.153903, 1.154745, 1.159401, 1.153147
Process 26: 1.643187, 1.286208, 1.158260, 1.182898, 1.195179, 2.869473, 1.177325, 1.219747, 1.193106, 1.166754, 1.171463, 1.174340, 1.179537, 1.208014, 1.170354, 1.171869, 1.173493, 1.166099, 1.172192, 1.167280, 1.180903, 1.197396, 1.176542, 1.166008, 1.169492, 1.176838, 1.170605, 1.171301, 1.176275, 1.169623
Process 27: 1.659545, 1.302544, 1.174910, 1.199433, 1.211756, 2.886795, 1.194118, 1.236578, 1.209870, 1.183555, 1.188759, 1.191024, 1.196295, 1.224550, 1.186978, 1.188640, 1.190256, 1.182744, 1.189113, 1.183679, 1.197298, 1.214149, 1.193205, 1.182595, 1.186258, 1.193512, 1.187408, 1.188187, 1.193285, 1.186431
Process 28: 1.675958, 1.318632, 1.191279, 1.215768, 1.230934, 2.902356, 1.210805, 1.253081, 1.226479, 1.200019, 1.204865, 1.207703, 1.213152, 1.241037, 1.203723, 1.205265, 1.206487, 1.199241, 1.205260, 1.200083, 1.213589, 1.230565, 1.209368, 1.198905, 1.202625, 1.209966, 1.203595, 1.204491, 1.209558, 1.202633
Process 29: 1.692756, 1.334877, 1.207752, 1.232287, 1.247610, 2.918783, 1.227334, 1.269529, 1.242963, 1.216613, 1.221597, 1.224401, 1.229375, 1.257342, 1.220121, 1.221821, 1.222954, 1.215661, 1.221622, 1.216612, 1.230126, 1.247080, 1.226105, 1.215382, 1.218985, 1.226556, 1.220396, 1.221074, 1.226157, 1.219263
Process 30: 1.708694, 1.351166, 1.224229, 1.248695, 1.262933, 2.936391, 1.243842, 1.286005, 1.259537, 1.233439, 1.237987, 1.240763, 1.245868, 1.273784, 1.236747, 1.238241, 1.239460, 1.232423, 1.237815, 1.232862, 1.246304, 1.263814, 1.242149, 1.231859, 1.235292, 1.242914, 1.236555, 1.237588, 1.242644, 1.236077
Process 31: 1.725258, 1.367777, 1.240442, 1.264830, 1.277578, 2.954863, 1.260479, 1.302690, 1.276283, 1.249646, 1.254527, 1.257222, 1.262395, 1.290245, 1.253334, 1.254869, 1.256060, 1.248920, 1.254352, 1.249289, 1.262600, 1.279925, 1.258630, 1.248140, 1.251879, 1.259427, 1.253356, 1.253920, 1.258831, 1.252349
