MPI_insiderank_serial
Process 0: 4.406979, 3.011364, 3.381544, 3.482201, 4.493885, 3.481785, 3.066782, 2.941554, 3.300672, 3.503334, 3.251477, 3.105190, 3.107173, 3.128600, 3.738073, 3.411684, 3.130963, 3.493669, 3.381877, 4.304479, 2.975562, 3.267701, 4.805692, 3.364554, 3.809007, 3.274813, 3.826842, 2.950806, 3.660375, 3.642908
Process 1: 2.613273, 2.383182, 2.617292, 2.986205, 3.866723, 2.602397, 2.442054, 2.490412, 2.535606, 2.495851, 2.713524, 2.561352, 2.459420, 2.606406, 3.053651, 2.396341, 2.581317, 2.467657, 2.465152, 3.719730, 2.433566, 2.363619, 4.192519, 2.473135, 3.277031, 2.460939, 3.273618, 2.415682, 2.538946, 2.660842
Process 2: 2.771149, 2.600382, 2.788239, 3.170216, 4.084933, 2.766963, 2.607403, 2.520105, 3.030132, 2.663436, 2.809209, 2.743744, 2.517037, 2.769010, 3.214667, 2.571150, 2.753562, 2.636044, 2.670789, 3.890546, 2.489344, 2.520441, 4.286225, 2.518053, 3.375266, 2.535849, 3.357283, 2.504090, 2.713706, 2.827425
Process 3: 2.886010, 2.640073, 2.853159, 3.215272, 4.125060, 2.893234, 2.883747, 2.598347, 3.109962, 2.812534, 2.890768, 2.886022, 2.662760, 2.896141, 3.332532, 2.724742, 2.897180, 2.785527, 2.785876, 3.929176, 2.594587, 2.662175, 4.367168, 2.657556, 3.449868, 2.657997, 3.449787, 2.596209, 2.854642, 2.968857
Process 4: 3.022043, 2.778651, 2.995122, 3.232950, 4.263652, 3.039985, 2.911476, 2.726215, 3.137503, 2.964235, 2.984545, 2.952856, 2.815641, 3.036070, 3.478603, 2.868858, 2.958459, 2.941364, 2.930507, 4.071848, 2.653125, 2.816039, 4.461601, 2.815678, 3.575713, 2.802774, 3.541736, 2.685339, 3.234245, 3.107272
Process 5: 3.168950, 2.821844, 3.103996, 3.294796, 4.306682, 3.183650, 2.994756, 2.770840, 3.219821, 3.151416, 3.072938, 3.006941, 2.864567, 3.103814, 3.551926, 3.053411, 3.039831, 3.132245, 3.077207, 4.114452, 2.760018, 2.964001, 4.550451, 3.007952, 3.631879, 2.955944, 3.643084, 2.855361, 3.414703, 3.288338
Process 6: 3.312898, 2.969398, 3.246233, 3.385860, 4.453845, 3.327914, 3.025320, 2.845190, 3.245987, 3.300207, 3.160748, 3.037908, 2.919381, 3.118168, 3.698962, 3.211178, 3.069279, 3.286280, 3.225522, 4.265309, 2.932483, 3.109519, 4.762650, 3.162898, 3.743744, 3.118361, 3.743950, 2.890508, 3.459904, 3.442872
Process 7: 4.409078, 3.013891, 3.383674, 3.485194, 4.496711, 3.485161, 3.069597, 2.944514, 3.303613, 3.505835, 3.254133, 3.108118, 3.109793, 3.131504, 3.740206, 3.414099, 3.133938, 3.496353, 3.385241, 4.307460, 2.978028, 3.270749, 4.807991, 3.366856, 3.811306, 3.277048, 3.828701, 2.952527, 3.662283, 3.644802
