MPI_insiderank_serial
Process 0: 1.854636, 1.248581, 1.109629, 1.176207, 1.095189, 1.084655, 1.083678, 1.087816, 2.661681, 1.177917, 1.099532, 1.358228, 1.080426, 1.129287, 1.082586, 1.086282, 1.395693, 1.090074, 1.098185, 1.086450, 1.080064, 1.133119, 1.091853, 1.082869, 2.493397, 1.080187, 1.084139, 1.083828, 1.084735, 1.081086
Process 1: 1.126825, 0.513737, 0.360257, 0.436357, 0.359421, 0.352308, 0.348380, 0.353768, 1.928248, 0.398287, 0.361840, 0.622821, 0.347524, 0.386037, 0.349970, 0.350770, 0.650314, 0.353729, 0.364242, 0.352899, 0.347549, 0.355779, 0.352572, 0.349729, 1.757540, 0.346440, 0.351145, 0.350920, 0.351643, 0.347765
Process 2: 1.136239, 0.524985, 0.371842, 0.447752, 0.370891, 0.363759, 0.359901, 0.365309, 1.939550, 0.405421, 0.373410, 0.634415, 0.359005, 0.393393, 0.361435, 0.362339, 0.661610, 0.365165, 0.375659, 0.364659, 0.359012, 0.367598, 0.364097, 0.361190, 1.768852, 0.358241, 0.362740, 0.362467, 0.363196, 0.359084
Process 3: 1.148671, 0.537128, 0.383912, 0.459382, 0.382508, 0.375429, 0.371990, 0.376949, 1.951425, 0.417533, 0.385511, 0.646045, 0.370629, 0.405483, 0.373056, 0.374453, 0.673717, 0.377257, 0.387326, 0.376760, 0.370633, 0.379702, 0.376200, 0.372808, 1.780756, 0.370349, 0.374856, 0.374550, 0.375281, 0.370721
Process 4: 1.159841, 0.548636, 0.395108, 0.471044, 0.394181, 0.387009, 0.383151, 0.388610, 1.962795, 0.429626, 0.396762, 0.657676, 0.382296, 0.416699, 0.384692, 0.385768, 0.685034, 0.388521, 0.398916, 0.387973, 0.382270, 0.390884, 0.387368, 0.384454, 1.792138, 0.381606, 0.386017, 0.385787, 0.386430, 0.382324
Process 5: 1.172176, 0.561265, 0.407655, 0.483074, 0.406259, 0.399120, 0.395761, 0.400660, 1.975248, 0.444252, 0.409285, 0.669770, 0.394347, 0.429234, 0.396755, 0.398204, 0.697519, 0.401016, 0.411070, 0.400515, 0.394381, 0.403411, 0.399933, 0.396500, 1.804561, 0.394079, 0.398541, 0.398291, 0.399025, 0.394445
Process 6: 1.183095, 0.572189, 0.418671, 0.494605, 0.417759, 0.410560, 0.406727, 0.412166, 1.986357, 0.457259, 0.420234, 0.681273, 0.405780, 0.440158, 0.408235, 0.409242, 0.708515, 0.412013, 0.422594, 0.411579, 0.405942, 0.414388, 0.410935, 0.408053, 1.815746, 0.405061, 0.409545, 0.409274, 0.410005, 0.405859
Process 7: 1.195497, 0.584582, 0.430960, 0.506443, 0.429584, 0.422452, 0.419101, 0.424012, 1.998425, 0.471768, 0.432579, 0.693207, 0.417694, 0.452552, 0.420120, 0.421529, 0.720959, 0.424488, 0.434573, 0.423828, 0.417843, 0.426742, 0.423273, 0.419855, 1.827839, 0.417405, 0.421866, 0.421605, 0.422346, 0.417785
Process 8: 1.206726, 0.595781, 0.442353, 0.518142, 0.441364, 0.434188, 0.430348, 0.435713, 2.009914, 0.483022, 0.443856, 0.704994, 0.429484, 0.463775, 0.431872, 0.432878, 0.732287, 0.435842, 0.446375, 0.435117, 0.429658, 0.438040, 0.434604, 0.431587, 1.840445, 0.428668, 0.433262, 0.432922, 0.433650, 0.429494
Process 9: 1.219030, 0.607916, 0.454508, 0.529821, 0.453032, 0.445958, 0.442518, 0.447462, 2.021954, 0.496775, 0.456157, 0.716726, 0.441202, 0.475992, 0.443633, 0.445018, 0.744525, 0.447991, 0.458165, 0.447247, 0.441416, 0.450344, 0.446811, 0.443455, 1.852536, 0.440879, 0.445362, 0.445097, 0.445865, 0.441266
Process 10: 1.231511, 0.619263, 0.467343, 0.543024, 0.466153, 0.459089, 0.454841, 0.460700, 2.034839, 0.511855, 0.468486, 0.730009, 0.454434, 0.487812, 0.456814, 0.457507, 0.756879, 0.460061, 0.471123, 0.460019, 0.454547, 0.465007, 0.459220, 0.456461, 1.866436, 0.453523, 0.457713, 0.457627, 0.458600, 0.454393
Process 11: 1.242842, 0.631588, 0.480489, 0.555434, 0.478578, 0.471131, 0.467009, 0.472745, 2.047337, 0.523979, 0.480561, 0.741592, 0.466495, 0.501330, 0.468905, 0.469397, 0.768994, 0.472316, 0.482875, 0.474312, 0.466428, 0.477329, 0.471340, 0.467840, 1.878511, 0.465393, 0.469861, 0.469606, 0.471395, 0.465732
Process 12: 1.254325, 0.645096, 0.491272, 0.566991, 0.489978, 0.482750, 0.478688, 0.484234, 2.058674, 0.535688, 0.492188, 0.753750, 0.478287, 0.512099, 0.480737, 0.481056, 0.780662, 0.484024, 0.495035, 0.484244, 0.478522, 0.488994, 0.482919, 0.479872, 1.890261, 0.477073, 0.481583, 0.481313, 0.482678, 0.477809
Process 13: 1.266643, 0.655875, 0.502818, 0.578693, 0.501543, 0.494564, 0.490455, 0.496052, 2.070525, 0.547490, 0.504018, 0.765382, 0.489915, 0.537282, 0.492210, 0.492851, 0.792493, 0.495808, 0.506811, 0.495814, 0.490161, 0.501532, 0.494815, 0.491697, 1.902184, 0.488868, 0.493306, 0.493082, 0.494500, 0.489630
Process 14: 1.277610, 0.667116, 0.514435, 0.590141, 0.513126, 0.506003, 0.501893, 0.507433, 2.081785, 0.558848, 0.515446, 0.776917, 0.501500, 0.548859, 0.503781, 0.504267, 0.803864, 0.507244, 0.518175, 0.507433, 0.501727, 0.512980, 0.506144, 0.503140, 1.913435, 0.500231, 0.504758, 0.504492, 0.505894, 0.501048
Process 15: 1.289899, 0.679165, 0.526148, 0.602065, 0.524873, 0.517921, 0.513822, 0.519373, 2.093786, 0.570833, 0.527402, 0.788704, 0.513241, 0.560638, 0.515536, 0.516268, 0.815859, 0.519175, 0.530177, 0.519128, 0.513481, 0.524958, 0.518124, 0.515115, 1.925429, 0.512218, 0.516686, 0.516446, 0.517880, 0.512977
Process 16: 1.300765, 0.690561, 0.537828, 0.613389, 0.536468, 0.529309, 0.525171, 0.530746, 2.105086, 0.582159, 0.538845, 0.800278, 0.524826, 0.572243, 0.527146, 0.527661, 0.827302, 0.530551, 0.541595, 0.530746, 0.525081, 0.536397, 0.529483, 0.526447, 1.936784, 0.523599, 0.528088, 0.527895, 0.529250, 0.524355
Process 17: 1.313240, 0.702650, 0.549539, 0.625447, 0.548273, 0.541301, 0.537173, 0.542724, 2.117179, 0.595857, 0.550778, 0.812115, 0.536631, 0.584031, 0.538921, 0.539658, 0.839322, 0.542531, 0.553522, 0.542528, 0.536885, 0.550099, 0.541528, 0.538439, 1.948815, 0.535581, 0.540069, 0.539824, 0.541251, 0.536373
Process 18: 1.324243, 0.713839, 0.561022, 0.636737, 0.559776, 0.552628, 0.548497, 0.554051, 2.128396, 0.609063, 0.562070, 0.823567, 0.548114, 0.595541, 0.550456, 0.550935, 0.850574, 0.553840, 0.564843, 0.553992, 0.548333, 0.563236, 0.552799, 0.552413, 1.960052, 0.546881, 0.551372, 0.551129, 0.552558, 0.547673
Process 19: 1.336524, 0.726083, 0.572901, 0.648908, 0.571687, 0.564767, 0.561241, 0.566193, 2.140521, 0.623028, 0.574218, 0.835460, 0.560035, 0.610858, 0.562335, 0.563075, 0.863276, 0.566005, 0.577010, 0.565864, 0.560248, 0.577250, 0.564953, 0.563818, 1.971918, 0.559046, 0.563535, 0.563266, 0.564720, 0.559829
Process 20: 1.348741, 0.737297, 0.585615, 0.661033, 0.584346, 0.576974, 0.575298, 0.578266, 2.152976, 0.636902, 0.586862, 0.849398, 0.572751, 0.620460, 0.575027, 0.575331, 0.876490, 0.578245, 0.589091, 0.578609, 0.573010, 0.591355, 0.577416, 0.576544, 1.985321, 0.571205, 0.575799, 0.575741, 0.576794, 0.571963
Process 21: 1.361439, 0.749325, 0.600660, 0.672970, 0.595872, 0.588586, 0.586706, 0.590011, 2.164693, 0.649793, 0.598459, 0.861119, 0.584070, 0.632183, 0.586207, 0.586860, 0.889489, 0.590162, 0.601260, 0.591118, 0.584212, 0.603668, 0.588821, 0.586325, 1.997080, 0.582867, 0.587324, 0.587315, 0.588655, 0.583794
Process 22: 1.371698, 0.760409, 0.611746, 0.684316, 0.607193, 0.599937, 0.598095, 0.601372, 2.175860, 0.663090, 0.609801, 0.873034, 0.595611, 0.643603, 0.597768, 0.598216, 0.902164, 0.601524, 0.612528, 0.601479, 0.595789, 0.616939, 0.600148, 0.597684, 2.008866, 0.594382, 0.598691, 0.598671, 0.600137, 0.595149
Process 23: 1.383765, 0.772744, 0.624123, 0.696614, 0.619449, 0.612173, 0.610309, 0.613602, 2.188113, 0.675465, 0.622027, 0.887142, 0.607853, 0.655453, 0.610043, 0.610459, 0.915299, 0.613768, 0.624804, 0.613760, 0.608027, 0.630810, 0.612396, 0.609901, 2.020726, 0.606635, 0.610927, 0.610914, 0.612391, 0.607427
Process 24: 1.395117, 0.785091, 0.636821, 0.707695, 0.630588, 0.623312, 0.621409, 0.624684, 2.199256, 0.686661, 0.633114, 0.897790, 0.618937, 0.666883, 0.621102, 0.621524, 0.926655, 0.625712, 0.635906, 0.624798, 0.619111, 0.643232, 0.623517, 0.621000, 2.032203, 0.617713, 0.621998, 0.621989, 0.623506, 0.618530
Process 25: 1.407139, 0.796835, 0.649722, 0.721811, 0.642829, 0.635567, 0.633670, 0.637865, 2.211470, 0.699009, 0.645391, 0.910605, 0.631218, 0.678740, 0.633377, 0.633798, 0.939440, 0.639531, 0.648141, 0.637133, 0.631421, 0.655590, 0.635765, 0.633258, 2.044035, 0.629997, 0.634289, 0.634287, 0.635758, 0.630784
Process 26: 1.418372, 0.808025, 0.661808, 0.733010, 0.654032, 0.646694, 0.644828, 0.647994, 2.222669, 0.711825, 0.656567, 0.921293, 0.642351, 0.690359, 0.644527, 0.644975, 0.952567, 0.650670, 0.659285, 0.648286, 0.642610, 0.666782, 0.646975, 0.644432, 2.055619, 0.641147, 0.645421, 0.645436, 0.646892, 0.641961
Process 27: 1.430505, 0.821951, 0.674424, 0.745367, 0.666206, 0.658921, 0.657054, 0.660369, 2.234834, 0.724107, 0.668787, 0.934032, 0.654591, 0.702170, 0.656767, 0.657185, 0.965440, 0.663034, 0.671579, 0.660500, 0.654849, 0.679058, 0.659288, 0.656701, 2.067532, 0.653390, 0.657669, 0.657711, 0.659203, 0.654182
Process 28: 1.442176, 0.835224, 0.685767, 0.756735, 0.677565, 0.670262, 0.668425, 0.671687, 2.246183, 0.735514, 0.680131, 0.945098, 0.665960, 0.715734, 0.668127, 0.668552, 0.977125, 0.674409, 0.682921, 0.671808, 0.666188, 0.690463, 0.670659, 0.668036, 2.079244, 0.664734, 0.669019, 0.669052, 0.670549, 0.665562
Process 29: 1.454055, 0.847774, 0.698740, 0.769653, 0.690442, 0.683134, 0.681293, 0.684579, 2.259041, 0.750076, 0.692990, 0.958373, 0.678804, 0.727009, 0.681014, 0.681393, 0.990040, 0.687266, 0.695807, 0.684743, 0.679084, 0.703892, 0.683571, 0.680920, 2.091084, 0.677596, 0.681895, 0.681935, 0.683397, 0.678439
Process 30: 1.467859, 0.858513, 0.709457, 0.782006, 0.701357, 0.694604, 0.692853, 0.695837, 2.270218, 0.763955, 0.705017, 0.968825, 0.689904, 0.738617, 0.692314, 0.692517, 1.000876, 0.698082, 0.707184, 0.696311, 0.690040, 0.717798, 0.695312, 0.692270, 2.103661, 0.689047, 0.693024, 0.693022, 0.694795, 0.689526
Process 31: 1.478323, 0.871115, 0.723994, 0.796519, 0.716247, 0.707620, 0.706028, 0.709203, 2.283871, 0.782394, 0.718473, 0.982522, 0.703077, 0.751617, 0.705460, 0.705697, 1.018380, 0.711012, 0.720681, 0.709175, 0.703233, 0.736299, 0.708679, 0.705446, 2.115885, 0.702591, 0.706511, 0.706290, 0.708130, 0.702676
Process 32: 1.490092, 0.881874, 0.735408, 0.808061, 0.727950, 0.717965, 0.716399, 0.719518, 2.293950, 0.793190, 0.728813, 0.992345, 0.713448, 0.761984, 0.715829, 0.716075, 1.027534, 0.721768, 0.730931, 0.719440, 0.713735, 0.747132, 0.719091, 0.715841, 2.127371, 0.712777, 0.716763, 0.716805, 0.718363, 0.713063
Process 33: 1.502947, 0.894611, 0.747349, 0.821038, 0.740992, 0.730953, 0.729396, 0.731454, 2.305882, 0.808049, 0.740782, 1.005859, 0.726464, 0.774947, 0.728820, 0.729076, 1.040621, 0.734760, 0.742868, 0.732504, 0.725689, 0.761987, 0.731066, 0.728852, 2.139334, 0.724724, 0.728709, 0.728734, 0.730328, 0.726071
Process 34: 1.513509, 0.906748, 0.758907, 0.831578, 0.751468, 0.741459, 0.739961, 0.742993, 2.317442, 0.820614, 0.752298, 1.015856, 0.737012, 0.785460, 0.739348, 0.739595, 1.051130, 0.745293, 0.754427, 0.742929, 0.737215, 0.774565, 0.742755, 0.739351, 2.150884, 0.736254, 0.740242, 0.740274, 0.741864, 0.736592
Process 35: 1.526292, 0.919322, 0.772578, 0.844531, 0.764488, 0.754440, 0.752887, 0.755003, 2.329437, 0.835549, 0.764288, 1.029748, 0.749929, 0.798415, 0.752285, 0.752555, 1.064110, 0.758271, 0.766418, 0.755982, 0.749213, 0.789473, 0.756216, 0.752321, 2.162885, 0.748247, 0.752240, 0.752264, 0.753857, 0.749566
Process 36: 1.536708, 0.930208, 0.784839, 0.855071, 0.774928, 0.764928, 0.763409, 0.766471, 2.340861, 0.848223, 0.775741, 1.039573, 0.760453, 0.808927, 0.762801, 0.763070, 1.074590, 0.768792, 0.777875, 0.766417, 0.760674, 0.802197, 0.767747, 0.762828, 2.174341, 0.759685, 0.763679, 0.763702, 0.765315, 0.760074
Process 37: 1.549889, 0.942921, 0.796635, 0.867990, 0.787918, 0.777858, 0.776331, 0.778248, 2.352644, 0.861228, 0.787558, 1.052545, 0.773377, 0.821857, 0.775717, 0.775997, 1.087550, 0.781750, 0.789662, 0.779419, 0.772474, 0.817119, 0.781277, 0.775769, 2.186130, 0.771468, 0.775462, 0.775515, 0.777094, 0.773006
Process 38: 1.559915, 0.953489, 0.808135, 0.878426, 0.798263, 0.788241, 0.786736, 0.789755, 2.364155, 0.871686, 0.799624, 1.062725, 0.783782, 0.833084, 0.786126, 0.786394, 1.097942, 0.792123, 0.801155, 0.789727, 0.783994, 0.827585, 0.794011, 0.786146, 2.197640, 0.782974, 0.786965, 0.787030, 0.788600, 0.783395
Process 39: 1.573240, 0.966296, 0.819908, 0.891510, 0.811364, 0.801282, 0.799816, 0.801561, 2.375959, 0.888124, 0.811550, 1.075854, 0.796818, 0.846309, 0.799170, 0.799440, 1.111066, 0.805208, 0.812953, 0.802863, 0.795820, 0.846282, 0.805903, 0.799222, 2.209462, 0.794788, 0.798780, 0.798839, 0.800409, 0.796475
Process 40: 1.584055, 0.976620, 0.835154, 0.902142, 0.823467, 0.812333, 0.810995, 0.814977, 2.389628, 0.899858, 0.825381, 1.087882, 0.807862, 0.856395, 0.810180, 0.810826, 1.122249, 0.817393, 0.825769, 0.814105, 0.809101, 0.857188, 0.819128, 0.810435, 2.222299, 0.808118, 0.812371, 0.812212, 0.813763, 0.807579
Process 41: 1.597915, 0.989618, 0.847146, 0.915833, 0.836109, 0.826075, 0.824463, 0.827563, 2.402541, 0.913304, 0.837477, 1.101150, 0.821310, 0.868423, 0.823614, 0.824235, 1.135653, 0.829866, 0.837783, 0.827096, 0.820736, 0.870565, 0.831068, 0.823905, 2.234090, 0.819635, 0.823671, 0.823314, 0.824940, 0.821232
Process 42: 1.607843, 0.999906, 0.858510, 0.926106, 0.846102, 0.836106, 0.834765, 0.838131, 2.413048, 0.924676, 0.849043, 1.109601, 0.831600, 0.879704, 0.833710, 0.834275, 1.145717, 0.840104, 0.849048, 0.837277, 0.832076, 0.881923, 0.842420, 0.834191, 2.245427, 0.831089, 0.835193, 0.834697, 0.836390, 0.831477
Process 43: 1.619649, 1.012931, 0.873357, 0.938155, 0.859427, 0.848155, 0.846822, 0.850176, 2.425100, 0.938125, 0.862369, 1.122652, 0.843649, 0.891756, 0.847041, 0.846338, 1.157717, 0.852166, 0.861113, 0.850599, 0.845409, 0.895372, 0.855743, 0.846246, 2.258761, 0.844419, 0.848542, 0.848034, 0.849718, 0.843538
Process 44: 1.631315, 1.025188, 0.883681, 0.949670, 0.869721, 0.859685, 0.858371, 0.861721, 2.436632, 0.949690, 0.873588, 1.133042, 0.855182, 0.903275, 0.857301, 0.857892, 1.169412, 0.863718, 0.872641, 0.860865, 0.855696, 0.906927, 0.865995, 0.857794, 2.269011, 0.854685, 0.858812, 0.858303, 0.860011, 0.855063
Process 45: 1.643064, 1.037570, 0.896608, 0.961548, 0.882583, 0.871560, 0.870228, 0.873565, 2.448493, 0.961576, 0.886464, 1.145699, 0.867044, 0.915119, 0.870205, 0.869762, 1.181204, 0.875599, 0.884521, 0.873758, 0.868581, 0.918824, 0.878879, 0.869658, 2.281898, 0.867558, 0.871730, 0.871195, 0.872891, 0.866947
Process 46: 1.654658, 1.048174, 0.907001, 0.972947, 0.892945, 0.882979, 0.881641, 0.884989, 2.459908, 0.972981, 0.896887, 1.156232, 0.878439, 0.926524, 0.880579, 0.881158, 1.192757, 0.887052, 0.895942, 0.884125, 0.878948, 0.930243, 0.889262, 0.881062, 2.292307, 0.877967, 0.882111, 0.881574, 0.883283, 0.878371
Process 47: 1.666467, 1.060844, 0.920002, 0.984870, 0.905932, 0.894880, 0.893521, 0.896882, 2.471818, 0.984905, 0.909951, 1.169294, 0.890364, 0.938410, 0.893569, 0.895036, 1.204431, 0.898935, 0.907848, 0.897133, 0.891943, 0.942165, 0.902257, 0.892961, 2.305280, 0.890976, 0.895130, 0.894614, 0.896277, 0.890271
Process 48: 1.677821, 1.071420, 0.930422, 0.996315, 0.916284, 0.906304, 0.904946, 0.908335, 2.483243, 0.999682, 0.920320, 1.179623, 0.901800, 0.951730, 0.903915, 0.906252, 1.215851, 0.910373, 0.919255, 0.907482, 0.902304, 0.956282, 0.912590, 0.904369, 2.315646, 0.901346, 0.905480, 0.904944, 0.906632, 0.901708
Process 49: 1.689877, 1.084206, 0.943545, 1.008389, 0.929345, 0.918370, 0.917017, 0.920387, 2.495299, 1.012373, 0.933428, 1.195393, 0.913854, 0.964626, 0.916989, 0.918530, 1.227908, 0.922451, 0.931317, 0.920557, 0.915396, 0.967851, 0.925675, 0.916434, 2.328768, 0.914422, 0.918586, 0.918054, 0.919709, 0.913777
Process 50: 1.703038, 1.094864, 0.956348, 1.021782, 0.941313, 0.931365, 0.930038, 0.933360, 2.508297, 1.023290, 0.945902, 1.204669, 0.926839, 0.975307, 0.928433, 0.931746, 1.240599, 0.935252, 0.944293, 0.932659, 0.926791, 0.979574, 0.937831, 0.929456, 2.339893, 0.925933, 0.930020, 0.929635, 0.931247, 0.926745
Process 51: 1.717450, 1.107565, 0.969180, 1.035232, 0.955914, 0.943783, 0.943789, 0.946584, 2.520680, 1.035262, 0.959151, 1.216626, 0.940772, 0.988357, 0.941340, 0.946048, 1.254149, 0.948736, 0.958644, 0.947579, 0.940352, 0.991531, 0.952903, 0.942167, 2.352928, 0.938826, 0.943082, 0.942537, 0.944824, 0.939778
Process 52: 1.725426, 1.118239, 0.979697, 1.045464, 0.965330, 0.954818, 0.953860, 0.956983, 2.531713, 1.046700, 0.969463, 1.228082, 0.950651, 0.998747, 0.951877, 0.955119, 1.264088, 0.958978, 0.968342, 0.956666, 0.950438, 1.002959, 0.961927, 0.953010, 2.363469, 0.949203, 0.953420, 0.952900, 0.954860, 0.950330
Process 53: 1.738537, 1.131028, 0.991462, 1.058528, 0.977133, 0.966621, 0.965661, 0.970013, 2.543510, 1.058510, 0.981257, 1.239820, 0.962446, 1.011802, 0.964914, 0.968263, 1.277182, 0.972031, 0.980146, 0.968465, 0.962239, 1.014769, 0.973729, 0.964827, 2.376518, 0.962220, 0.966453, 0.965960, 0.966669, 0.963381
Process 54: 1.748826, 1.143262, 1.002889, 1.068689, 0.988552, 0.978011, 0.977077, 0.980197, 2.554910, 1.069900, 0.992660, 1.251290, 0.973861, 1.021968, 0.975091, 0.978161, 1.287346, 0.982208, 0.991553, 0.979853, 0.973634, 1.026149, 0.985124, 0.976218, 2.386695, 0.972386, 0.976638, 0.976132, 0.978064, 0.973589
Process 55: 1.762148, 1.157455, 1.014800, 1.081940, 1.000436, 0.989913, 0.989011, 0.993413, 2.566827, 1.081808, 1.004553, 1.263183, 0.985762, 1.035214, 0.988331, 0.991640, 1.300629, 0.995509, 1.003451, 0.991758, 0.985521, 1.038053, 0.997053, 0.988129, 2.399932, 0.985631, 0.989885, 0.989382, 0.989954, 0.986809
Process 56: 1.772049, 1.165824, 1.026170, 1.091980, 1.011813, 1.001276, 1.000347, 1.003483, 2.578189, 1.093151, 1.015922, 1.274637, 0.997112, 1.045269, 0.998369, 1.001368, 1.310687, 1.005555, 1.014829, 1.003115, 0.996878, 1.049414, 1.008421, 0.999487, 2.409965, 0.995662, 0.999932, 0.999413, 1.001342, 0.996878
Process 57: 1.785328, 1.177594, 1.038109, 1.105311, 1.023781, 1.013249, 1.012319, 1.016799, 2.590155, 1.105130, 1.027930, 1.286525, 1.009092, 1.058586, 1.011651, 1.014990, 1.323984, 1.018875, 1.026810, 1.015090, 1.008852, 1.061363, 1.020422, 1.011450, 2.423288, 1.009009, 1.013247, 1.012713, 1.013323, 1.010179
Process 58: 1.795583, 1.189168, 1.049477, 1.115341, 1.035171, 1.024609, 1.023678, 1.026860, 2.601521, 1.118105, 1.039269, 1.300063, 1.020454, 1.070225, 1.021710, 1.024853, 1.334060, 1.028923, 1.038180, 1.026467, 1.020235, 1.074437, 1.031756, 1.022824, 2.433340, 1.019036, 1.023270, 1.022756, 1.024680, 1.020248
Process 59: 1.808659, 1.200994, 1.061510, 1.128657, 1.047216, 1.036650, 1.035728, 1.040183, 2.613542, 1.132205, 1.051294, 1.313914, 1.032496, 1.085951, 1.035012, 1.038724, 1.347369, 1.042231, 1.050227, 1.038502, 1.032253, 1.089830, 1.043776, 1.034879, 2.446631, 1.032386, 1.036586, 1.036095, 1.036707, 1.033570
Process 60: 1.819532, 1.212781, 1.074698, 1.140498, 1.060381, 1.049812, 1.048902, 1.052063, 2.626719, 1.141196, 1.064481, 1.322795, 1.045643, 1.093706, 1.046891, 1.051068, 1.359172, 1.053932, 1.063333, 1.051608, 1.045398, 1.097721, 1.056841, 1.048018, 2.458554, 1.043955, 1.048478, 1.047988, 1.049817, 1.045427
Process 61: 1.837609, 1.225391, 1.090931, 1.156901, 1.075698, 1.065478, 1.063968, 1.067985, 2.642318, 1.154765, 1.080047, 1.335032, 1.060969, 1.106001, 1.062981, 1.065877, 1.375086, 1.070159, 1.078338, 1.067141, 1.060781, 1.110027, 1.072556, 1.062925, 2.474921, 1.059442, 1.064119, 1.063968, 1.065239, 1.061645
Process 62: 1.842663, 1.236199, 1.097566, 1.163310, 1.082966, 1.072438, 1.071436, 1.074559, 2.649408, 1.164369, 1.087330, 1.345944, 1.068223, 1.116881, 1.069357, 1.072689, 1.382203, 1.076771, 1.085962, 1.074245, 1.067861, 1.120897, 1.079616, 1.070664, 2.481147, 1.066819, 1.070898, 1.070556, 1.072502, 1.067822
Process 63: 1.855386, 1.248582, 1.109618, 1.176208, 1.095190, 1.084659, 1.083678, 1.087803, 2.661681, 1.177917, 1.099532, 1.358232, 1.080426, 1.129288, 1.082588, 1.086282, 1.395695, 1.090073, 1.098187, 1.086450, 1.080066, 1.133120, 1.091852, 1.082863, 2.493399, 1.080188, 1.084141, 1.083833, 1.084736, 1.081088
