MPI_insiderank_serial
Process 0: 5.363618, 4.922462, 4.885723, 4.890970, 4.894189, 4.924447, 4.899305, 4.873719, 4.894917, 4.895569, 4.884185, 4.880097, 4.874832, 4.867582, 4.891138, 4.869659, 4.871078, 4.879601, 4.877329, 4.872471, 4.867538, 4.872254, 4.869163, 4.890176, 4.870730, 4.876411, 4.871207, 4.874275, 4.885625, 4.874645
Process 1: 5.365255, 4.924038, 4.887453, 4.892675, 4.895959, 4.926024, 4.900840, 4.875288, 4.896500, 4.897404, 4.885987, 4.881896, 4.876349, 4.869285, 4.892843, 4.871386, 4.872855, 4.881372, 4.879123, 4.874172, 4.869240, 4.873961, 4.870954, 4.891902, 4.872530, 4.878221, 4.872952, 4.875830, 4.887185, 4.876354
