MPI_insiderank_serial
Process 0: 3.026422, 2.631349, 2.651968, 2.628420, 2.612240, 2.602427, 2.623422, 2.601615, 2.597026, 2.574867, 2.592880, 2.549669, 2.628521, 2.638603, 2.629606, 2.579339, 2.554178, 2.599604, 2.598020, 2.586232, 2.604234, 2.605588, 2.603766, 2.593639, 2.585825, 2.601315, 2.594985, 2.626682, 2.614286, 2.589055
Process 1: 2.964747, 2.568526, 2.589045, 2.564972, 2.549597, 2.539084, 2.561092, 2.540209, 2.534564, 2.513661, 2.530732, 2.485836, 2.565890, 2.574251, 2.567018, 2.517238, 2.491108, 2.537236, 2.535596, 2.523926, 2.541142, 2.542292, 2.540344, 2.531257, 2.524510, 2.539402, 2.531561, 2.563821, 2.551912, 2.527124
Process 2: 2.994605, 2.600198, 2.620170, 2.596550, 2.581193, 2.571140, 2.592064, 2.571120, 2.566116, 2.544563, 2.561546, 2.518212, 2.596870, 2.606803, 2.599254, 2.548486, 2.523191, 2.568310, 2.567909, 2.555284, 2.572993, 2.574333, 2.572564, 2.562695, 2.556089, 2.570705, 2.563633, 2.596402, 2.583036, 2.558512
Process 3: 3.027069, 2.631347, 2.651968, 2.628420, 2.612239, 2.602427, 2.623420, 2.601615, 2.597025, 2.574866, 2.592878, 2.549667, 2.628521, 2.638602, 2.629604, 2.579335, 2.554176, 2.599602, 2.598019, 2.586231, 2.604234, 2.605587, 2.603764, 2.593638, 2.585824, 2.601313, 2.594984, 2.626680, 2.614284, 2.589054
