MPI_insiderank_serial
Process 0: 2.784302, 2.364535, 2.396050, 2.365473, 2.382639, 2.360825, 2.354525, 2.387131, 2.356941, 2.364899, 2.354542, 2.369319, 2.362752, 2.390455, 2.353237, 2.374320, 2.364849, 2.368850, 2.368574, 2.379283, 2.371014, 2.371051, 2.380781, 2.370529, 2.374538, 2.390184, 2.362559, 2.358223, 2.385862, 2.369685
Process 1: 2.584277, 2.169305, 2.195698, 2.170211, 2.179813, 2.165057, 2.156610, 2.184880, 2.159045, 2.169552, 2.154297, 2.174163, 2.164048, 2.193892, 2.156155, 2.183958, 2.167115, 2.169738, 2.176703, 2.179781, 2.175034, 2.173919, 2.181343, 2.175703, 2.176155, 2.198386, 2.165126, 2.161531, 2.186607, 2.170203
Process 2: 2.619306, 2.198976, 2.225714, 2.206023, 2.213518, 2.198752, 2.192108, 2.219086, 2.191579, 2.205094, 2.189161, 2.202350, 2.198889, 2.225467, 2.191858, 2.217079, 2.201166, 2.200826, 2.204721, 2.215605, 2.207036, 2.210828, 2.215780, 2.209615, 2.214048, 2.234461, 2.198574, 2.194562, 2.221455, 2.201222
Process 3: 2.651754, 2.232006, 2.259242, 2.238330, 2.246531, 2.230725, 2.222710, 2.250158, 2.227008, 2.235530, 2.219465, 2.233891, 2.234570, 2.259830, 2.220871, 2.252141, 2.233966, 2.236043, 2.236592, 2.244765, 2.239236, 2.240863, 2.253503, 2.239441, 2.243098, 2.262149, 2.234049, 2.226267, 2.254019, 2.238562
Process 4: 2.683557, 2.263979, 2.293308, 2.270405, 2.279658, 2.263579, 2.256862, 2.288592, 2.258492, 2.268165, 2.254035, 2.266136, 2.261920, 2.289884, 2.254168, 2.279006, 2.266602, 2.267157, 2.272920, 2.277718, 2.274023, 2.274457, 2.281750, 2.273778, 2.279476, 2.295710, 2.263679, 2.263011, 2.286589, 2.267457
Process 5: 2.717794, 2.301190, 2.329980, 2.303194, 2.312111, 2.296883, 2.288980, 2.316444, 2.290360, 2.300523, 2.285895, 2.299022, 2.296084, 2.324953, 2.290074, 2.314861, 2.300552, 2.301295, 2.305556, 2.309737, 2.306760, 2.306015, 2.314412, 2.306345, 2.308208, 2.329449, 2.296825, 2.293476, 2.322508, 2.306642
Process 6: 2.750656, 2.330864, 2.358849, 2.336530, 2.345455, 2.329735, 2.323122, 2.350990, 2.324011, 2.333733, 2.319813, 2.333547, 2.328418, 2.355629, 2.321613, 2.344351, 2.333162, 2.334156, 2.336057, 2.342198, 2.339226, 2.341233, 2.347108, 2.340513, 2.345251, 2.362827, 2.329838, 2.327926, 2.352671, 2.332942
Process 7: 2.785275, 2.365492, 2.397084, 2.366560, 2.383372, 2.362362, 2.355548, 2.388373, 2.357808, 2.366260, 2.355589, 2.370545, 2.364395, 2.391563, 2.354352, 2.375266, 2.366031, 2.371250, 2.369488, 2.380425, 2.372011, 2.372118, 2.382389, 2.371423, 2.375900, 2.391010, 2.363596, 2.359156, 2.387213, 2.371690
