MPI_insiderank_serial
Process 0: 4.799310, 4.375454, 4.349343, 4.356045, 4.354620, 4.341249, 4.338459, 4.343578, 4.348878, 4.344023, 4.416223, 4.336171, 4.375570, 4.432230, 4.353518, 4.335870, 4.334034, 4.335579, 4.334399, 4.372043, 4.338973, 4.337171, 4.368929, 4.355862, 4.333905, 4.327292, 4.328132, 4.342047, 4.338859, 4.337876
Process 1: 4.673299, 4.243541, 4.213741, 4.225503, 4.217519, 4.220595, 4.202089, 4.214922, 4.222369, 4.200646, 4.198709, 4.203567, 4.230062, 4.227595, 4.224986, 4.204460, 4.196199, 4.200038, 4.201645, 4.221782, 4.206957, 4.206460, 4.242247, 4.225158, 4.202407, 4.199972, 4.195829, 4.200101, 4.201170, 4.206422
Process 2: 4.730308, 4.299601, 4.277599, 4.280228, 4.281617, 4.276550, 4.260622, 4.275791, 4.274755, 4.264214, 4.257504, 4.260007, 4.288210, 4.283559, 4.279709, 4.263895, 4.261132, 4.258540, 4.260724, 4.278433, 4.266472, 4.262426, 4.297834, 4.281125, 4.260206, 4.256753, 4.254627, 4.264462, 4.259908, 4.261984
Process 3: 4.801265, 4.377712, 4.351477, 4.358233, 4.356861, 4.343246, 4.340694, 4.345735, 4.351090, 4.346242, 4.419912, 4.338142, 4.377752, 4.435520, 4.355543, 4.337918, 4.336064, 4.337635, 4.336419, 4.374149, 4.341059, 4.339380, 4.371101, 4.358073, 4.336112, 4.329394, 4.330284, 4.344132, 4.340934, 4.339945
