MPI_insiderank_serial
Process 0: 1.195362, 0.799399, 0.629558, 0.613217, 0.652762, 2.812088, 0.597546, 0.612669, 0.596026, 0.653819, 0.611958, 0.597445, 0.649041, 0.594980, 0.594942, 2.208135, 0.609824, 0.605268, 0.625515, 0.648742, 0.600201, 0.600469, 0.607656, 0.697399, 1.544994, 0.605716, 0.652867, 0.701902, 0.642974, 0.685987
Process 1: 0.824867, 0.519864, 0.357224, 0.324345, 0.379535, 2.538172, 0.324614, 0.338997, 0.320645, 0.366954, 0.338791, 0.323844, 0.360614, 0.322063, 0.322184, 1.923801, 0.335207, 0.331339, 0.345060, 0.346413, 0.329060, 0.326718, 0.322539, 0.352718, 1.271376, 0.322827, 0.351913, 0.364786, 0.356098, 0.357477
Process 2: 0.833878, 0.524802, 0.360888, 0.328003, 0.383177, 2.542857, 0.328246, 0.341005, 0.324322, 0.370681, 0.342478, 0.327502, 0.366320, 0.325585, 0.325755, 1.927566, 0.336883, 0.335082, 0.348689, 0.350841, 0.332587, 0.330234, 0.326120, 0.356377, 1.275043, 0.326489, 0.354389, 0.369041, 0.359847, 0.360090
Process 3: 0.847757, 0.530661, 0.365870, 0.332954, 0.388211, 2.548155, 0.333324, 0.345996, 0.329896, 0.375978, 0.347509, 0.332463, 0.381058, 0.330566, 0.330735, 1.932419, 0.341892, 0.340927, 0.353688, 0.364278, 0.337637, 0.335188, 0.331139, 0.361344, 1.279942, 0.331539, 0.359340, 0.382325, 0.364842, 0.374580
Process 4: 0.848346, 0.535742, 0.369597, 0.336658, 0.391948, 2.558356, 0.337034, 0.349719, 0.333682, 0.380165, 0.351221, 0.336238, 0.382427, 0.334313, 0.334450, 1.936295, 0.345487, 0.344654, 0.357356, 0.365132, 0.341232, 0.338813, 0.334779, 0.365095, 1.283716, 0.335235, 0.363165, 0.384528, 0.368732, 0.375618
Process 5: 0.852191, 0.541868, 0.374558, 0.341624, 0.396952, 2.566346, 0.342024, 0.354708, 0.338793, 0.385195, 0.356381, 0.341194, 0.385799, 0.339333, 0.339449, 1.941114, 0.350434, 0.350681, 0.362396, 0.379783, 0.346216, 0.343749, 0.339827, 0.370063, 1.288586, 0.340244, 0.368009, 0.398174, 0.373749, 0.386425
Process 6: 0.852745, 0.546774, 0.378180, 0.345235, 0.400616, 2.573578, 0.345664, 0.358395, 0.342680, 0.389022, 0.360031, 0.344882, 0.389456, 0.342890, 0.343050, 1.944968, 0.354018, 0.354448, 0.365965, 0.382326, 0.349730, 0.347326, 0.343358, 0.373737, 1.292336, 0.343875, 0.371730, 0.399212, 0.377499, 0.388188
Process 7: 0.855551, 0.552097, 0.383295, 0.350302, 0.405782, 2.581820, 0.350765, 0.363434, 0.348714, 0.394148, 0.365256, 0.350008, 0.394492, 0.347949, 0.348119, 1.949781, 0.359007, 0.359675, 0.371079, 0.396459, 0.354855, 0.352390, 0.348553, 0.378963, 1.297288, 0.349000, 0.376705, 0.412545, 0.382678, 0.402078
Process 8: 0.862313, 0.556956, 0.386908, 0.354002, 0.409432, 2.589066, 0.354374, 0.367108, 0.352385, 0.398004, 0.368966, 0.353730, 0.398166, 0.351536, 0.351765, 1.953598, 0.362615, 0.363222, 0.374661, 0.397965, 0.358366, 0.355952, 0.352071, 0.382620, 1.301048, 0.352643, 0.380471, 0.415576, 0.386428, 0.403286
Process 9: 0.869896, 0.564185, 0.392111, 0.359174, 0.414571, 2.597192, 0.359435, 0.372113, 0.357693, 0.403145, 0.374206, 0.358977, 0.403224, 0.356706, 0.356882, 1.958520, 0.367747, 0.368454, 0.379840, 0.411628, 0.363502, 0.361113, 0.357334, 0.387759, 1.306036, 0.357768, 0.385465, 0.428532, 0.391606, 0.419888
Process 10: 0.876895, 0.568057, 0.395957, 0.363064, 0.418530, 2.604675, 0.363319, 0.375968, 0.361565, 0.407146, 0.378040, 0.362861, 0.407049, 0.360485, 0.360695, 1.962554, 0.371538, 0.372186, 0.383605, 0.413459, 0.367217, 0.364866, 0.360980, 0.397188, 1.310025, 0.361613, 0.389328, 0.430330, 0.395522, 0.422001
Process 11: 0.884227, 0.573764, 0.400870, 0.367926, 0.423560, 2.612801, 0.368231, 0.380881, 0.366609, 0.412127, 0.382910, 0.367788, 0.411924, 0.365490, 0.365619, 1.967224, 0.376518, 0.377484, 0.388598, 0.426171, 0.372203, 0.369830, 0.365931, 0.411596, 1.314784, 0.366533, 0.394164, 0.443059, 0.400530, 0.434021
Process 12: 0.891428, 0.577675, 0.404725, 0.371807, 0.427496, 2.620295, 0.372065, 0.384763, 0.370480, 0.416082, 0.386749, 0.371650, 0.415800, 0.369295, 0.369454, 1.971263, 0.380365, 0.381257, 0.392418, 0.427477, 0.375868, 0.373611, 0.369626, 0.413553, 1.318773, 0.370414, 0.398065, 0.444657, 0.404391, 0.435167
Process 13: 0.898843, 0.582233, 0.409646, 0.376760, 0.432414, 2.628542, 0.376980, 0.389751, 0.375359, 0.421099, 0.391758, 0.376513, 0.420709, 0.374245, 0.374399, 1.976128, 0.385325, 0.386206, 0.397351, 0.430855, 0.380804, 0.378632, 0.374646, 0.426437, 1.323545, 0.375284, 0.402867, 0.455435, 0.409445, 0.445180
Process 14: 0.905504, 0.586393, 0.413560, 0.380733, 0.436318, 2.636055, 0.380879, 0.393659, 0.379251, 0.425070, 0.395686, 0.380415, 0.424653, 0.378144, 0.378279, 1.980229, 0.389245, 0.390064, 0.401175, 0.434823, 0.384581, 0.382457, 0.378437, 0.427867, 1.327538, 0.379236, 0.406813, 0.458578, 0.413324, 0.446404
Process 15: 0.912972, 0.590932, 0.418525, 0.385607, 0.441274, 2.637359, 0.385822, 0.398745, 0.384117, 0.430109, 0.400721, 0.385441, 0.429733, 0.383082, 0.383112, 1.985140, 0.394261, 0.395094, 0.406095, 0.439584, 0.389575, 0.387404, 0.397925, 0.440525, 1.332500, 0.384316, 0.411850, 0.470340, 0.418403, 0.455433
Process 16: 0.919885, 0.595139, 0.422473, 0.389515, 0.445250, 2.638199, 0.389742, 0.402641, 0.388027, 0.434189, 0.404624, 0.389290, 0.433671, 0.387047, 0.387026, 1.989244, 0.398312, 0.398937, 0.409878, 0.443624, 0.393336, 0.391257, 0.401678, 0.442354, 1.336466, 0.388252, 0.415765, 0.472525, 0.422363, 0.458163
Process 17: 0.927444, 0.599784, 0.427430, 0.394355, 0.450172, 2.639323, 0.397244, 0.407686, 0.395952, 0.439126, 0.409448, 0.394124, 0.438705, 0.391987, 0.394535, 1.994031, 0.403317, 0.403840, 0.414725, 0.448157, 0.398373, 0.396207, 0.406740, 0.454467, 1.341407, 0.393256, 0.420686, 0.484979, 0.427267, 0.469508
Process 18: 0.932467, 0.603857, 0.431438, 0.398344, 0.454151, 2.640016, 0.398989, 0.411607, 0.397280, 0.443224, 0.413417, 0.398014, 0.442648, 0.395973, 0.396199, 1.998048, 0.407341, 0.407803, 0.418579, 0.452407, 0.402136, 0.400076, 0.410547, 0.455836, 1.345325, 0.397246, 0.424656, 0.486816, 0.431309, 0.471732
Process 19: 0.939060, 0.608471, 0.436178, 0.403318, 0.459073, 2.641143, 0.403941, 0.416600, 0.401686, 0.448215, 0.418273, 0.405139, 0.447445, 0.400902, 0.401144, 2.002676, 0.412154, 0.412660, 0.423526, 0.457004, 0.407040, 0.405013, 0.415521, 0.467143, 1.350278, 0.402242, 0.429634, 0.497609, 0.436252, 0.483350
Process 20: 0.945594, 0.612371, 0.440016, 0.407161, 0.462910, 2.641799, 0.407710, 0.420405, 0.406130, 0.452092, 0.422056, 0.407188, 0.451292, 0.404732, 0.404952, 2.006703, 0.416031, 0.416471, 0.427257, 0.461123, 0.410733, 0.408766, 0.419254, 0.468749, 1.354226, 0.406142, 0.433466, 0.499113, 0.440083, 0.484579
Process 21: 0.952262, 0.617228, 0.448231, 0.412236, 0.469155, 2.643019, 0.412879, 0.425493, 0.410733, 0.457270, 0.427115, 0.412311, 0.456276, 0.409840, 0.410152, 2.011612, 0.421158, 0.421585, 0.432221, 0.465736, 0.415684, 0.413711, 0.424436, 0.480098, 1.362766, 0.419670, 0.438551, 0.508692, 0.453516, 0.494827
Process 22: 0.957329, 0.621034, 0.449356, 0.416063, 0.472321, 2.643693, 0.416660, 0.429283, 0.415157, 0.461109, 0.430915, 0.416092, 0.460103, 0.413640, 0.413962, 2.015720, 0.425002, 0.425336, 0.435974, 0.469781, 0.419433, 0.417486, 0.428163, 0.481321, 1.363695, 0.421040, 0.442393, 0.510770, 0.454955, 0.496556
Process 23: 0.963910, 0.625965, 0.454423, 0.421085, 0.477243, 2.644920, 0.421617, 0.434308, 0.419806, 0.475042, 0.435988, 0.421118, 0.465073, 0.418677, 0.419118, 2.020697, 0.430243, 0.430455, 0.440997, 0.474494, 0.424435, 0.422510, 0.433158, 0.490241, 1.368250, 0.432253, 0.447465, 0.522635, 0.466939, 0.507859
Process 24: 0.969142, 0.629760, 0.458238, 0.424914, 0.481096, 2.645809, 0.425402, 0.438317, 0.424212, 0.476296, 0.439788, 0.424949, 0.468875, 0.422466, 0.422914, 2.024725, 0.434066, 0.434231, 0.444755, 0.478588, 0.428171, 0.426275, 0.436928, 0.491875, 1.372711, 0.433565, 0.451552, 0.524120, 0.468370, 0.509256
Process 25: 0.975451, 0.634780, 0.463345, 0.438532, 0.486124, 2.648096, 0.430577, 0.446709, 0.429024, 0.487209, 0.444829, 0.429957, 0.473886, 0.427669, 0.428186, 2.029768, 0.442289, 0.439440, 0.457486, 0.483254, 0.436105, 0.439574, 0.441945, 0.508613, 1.377357, 0.442334, 0.459596, 0.534061, 0.476997, 0.518536
Process 26: 0.980432, 0.638557, 0.467123, 0.439726, 0.490001, 2.649284, 0.434376, 0.447426, 0.433438, 0.488482, 0.448650, 0.433848, 0.477702, 0.431387, 0.431939, 2.033748, 0.443421, 0.443237, 0.458752, 0.487339, 0.437262, 0.441058, 0.445719, 0.510691, 1.381684, 0.443634, 0.460598, 0.535353, 0.478331, 0.520071
Process 27: 0.986875, 0.643482, 0.472366, 0.448880, 0.495078, 2.654156, 0.439476, 0.452522, 0.437998, 0.496760, 0.453718, 0.438921, 0.487242, 0.436560, 0.437143, 2.046751, 0.448490, 0.448411, 0.469936, 0.492069, 0.441906, 0.443731, 0.450673, 0.518953, 1.386405, 0.452092, 0.465777, 0.546687, 0.486496, 0.531175
Process 28: 0.991941, 0.647354, 0.476258, 0.450179, 0.499010, 2.658105, 0.443352, 0.456403, 0.442506, 0.498077, 0.457779, 0.442836, 0.488702, 0.440452, 0.441052, 2.048376, 0.452372, 0.452248, 0.471897, 0.496104, 0.446262, 0.447354, 0.454534, 0.521550, 1.390871, 0.453408, 0.469655, 0.548210, 0.487808, 0.532714
Process 29: 0.998699, 0.652273, 0.481392, 0.457957, 0.504009, 2.663138, 0.448401, 0.461540, 0.446897, 0.506074, 0.465690, 0.447862, 0.499786, 0.445486, 0.446141, 2.058002, 0.457443, 0.457390, 0.480026, 0.500733, 0.450932, 0.452199, 0.460082, 0.529591, 1.395563, 0.461361, 0.474699, 0.556819, 0.496144, 0.541183
Process 30: 1.003576, 0.656223, 0.485350, 0.459347, 0.508020, 2.667078, 0.452354, 0.465525, 0.451424, 0.507487, 0.466689, 0.451897, 0.501019, 0.449413, 0.450087, 2.059594, 0.461352, 0.461298, 0.481829, 0.504809, 0.455394, 0.456040, 0.463560, 0.531933, 1.400044, 0.462739, 0.478672, 0.558200, 0.497756, 0.542504
Process 31: 1.009858, 0.661069, 0.490482, 0.468746, 0.513010, 2.672177, 0.457400, 0.470605, 0.455859, 0.515211, 0.471708, 0.457027, 0.509138, 0.454540, 0.455095, 2.067930, 0.466408, 0.466402, 0.490139, 0.509530, 0.460040, 0.460918, 0.468391, 0.539843, 1.404507, 0.470633, 0.483691, 0.567952, 0.506118, 0.552809
Process 32: 1.014912, 0.665068, 0.494425, 0.470077, 0.517008, 2.676211, 0.461352, 0.474563, 0.460407, 0.516655, 0.475666, 0.461055, 0.510426, 0.458554, 0.459073, 2.069429, 0.470373, 0.470322, 0.492049, 0.513601, 0.464493, 0.464808, 0.472400, 0.541975, 1.408995, 0.471981, 0.487652, 0.569301, 0.507744, 0.554781
Process 33: 1.021603, 0.670085, 0.499183, 0.476052, 0.521724, 2.680768, 0.466007, 0.479158, 0.464698, 0.521846, 0.480561, 0.465827, 0.515751, 0.463270, 0.463666, 2.074643, 0.475077, 0.474929, 0.498025, 0.518198, 0.469068, 0.469484, 0.477177, 0.548259, 1.413299, 0.477332, 0.492501, 0.574432, 0.513789, 0.560421
Process 34: 1.026523, 0.674114, 0.503442, 0.479360, 0.525948, 2.685015, 0.470232, 0.483348, 0.469285, 0.524075, 0.484809, 0.470100, 0.517344, 0.467465, 0.467883, 2.075957, 0.479411, 0.479070, 0.499733, 0.522340, 0.473574, 0.473634, 0.481423, 0.550236, 1.417886, 0.479109, 0.496741, 0.575657, 0.515621, 0.561773
Process 35: 1.032616, 0.678651, 0.508319, 0.487797, 0.530888, 2.689885, 0.475094, 0.488140, 0.473669, 0.532519, 0.489690, 0.475081, 0.525973, 0.472368, 0.472738, 2.083181, 0.484356, 0.483905, 0.505658, 0.527009, 0.478221, 0.478491, 0.486158, 0.556274, 1.422379, 0.487628, 0.501672, 0.583497, 0.523018, 0.568702
Process 36: 1.038093, 0.682993, 0.512544, 0.489458, 0.535093, 2.694162, 0.479285, 0.492322, 0.478184, 0.533607, 0.493885, 0.479306, 0.526994, 0.476561, 0.476890, 2.085123, 0.488615, 0.488014, 0.507184, 0.532030, 0.482656, 0.482615, 0.490352, 0.557782, 1.426913, 0.488584, 0.505839, 0.584660, 0.524524, 0.570305
Process 37: 1.044081, 0.687399, 0.517221, 0.497823, 0.539817, 2.699120, 0.484112, 0.497068, 0.482555, 0.541596, 0.498745, 0.484081, 0.534942, 0.481479, 0.481631, 2.093720, 0.493296, 0.492813, 0.514265, 0.536455, 0.487309, 0.487547, 0.495013, 0.563801, 1.431476, 0.496682, 0.510544, 0.592532, 0.531501, 0.577800
Process 38: 1.049704, 0.691735, 0.521424, 0.500411, 0.543991, 2.703387, 0.488324, 0.501245, 0.487103, 0.542858, 0.502926, 0.488297, 0.536018, 0.485663, 0.485845, 2.095087, 0.497574, 0.496964, 0.516210, 0.540379, 0.491769, 0.491724, 0.499256, 0.565390, 1.436025, 0.497968, 0.514784, 0.593701, 0.532624, 0.579327
Process 39: 1.055809, 0.696228, 0.526295, 0.508605, 0.548851, 2.708373, 0.493188, 0.506100, 0.491550, 0.551077, 0.507866, 0.493194, 0.544017, 0.490659, 0.490743, 2.103119, 0.502410, 0.501895, 0.524436, 0.545029, 0.496328, 0.496696, 0.503956, 0.571535, 1.440661, 0.505772, 0.519614, 0.601531, 0.540653, 0.586894
Process 40: 1.061094, 0.700506, 0.530490, 0.511222, 0.553026, 2.712660, 0.498159, 0.510296, 0.496618, 0.552842, 0.512067, 0.497420, 0.545772, 0.494858, 0.495799, 2.105096, 0.506631, 0.506023, 0.526127, 0.549224, 0.500749, 0.500863, 0.508193, 0.573223, 1.445152, 0.506866, 0.523822, 0.602748, 0.541737, 0.588315
Process 41: 1.070530, 0.705067, 0.535273, 0.519210, 0.557987, 2.717554, 0.503815, 0.515250, 0.503407, 0.561069, 0.516908, 0.502357, 0.553987, 0.499730, 0.501368, 2.113076, 0.511330, 0.510840, 0.534164, 0.553939, 0.505335, 0.505781, 0.512943, 0.579326, 1.449955, 0.513320, 0.528677, 0.610355, 0.549401, 0.595672
Process 42: 1.072710, 0.709463, 0.539447, 0.521401, 0.562198, 2.721872, 0.506942, 0.519428, 0.505384, 0.563351, 0.521079, 0.507407, 0.556053, 0.503967, 0.504661, 2.115242, 0.515584, 0.514983, 0.535563, 0.558273, 0.509824, 0.510014, 0.517117, 0.580823, 1.454493, 0.514707, 0.532909, 0.611564, 0.550663, 0.596920
Process 43: 1.079091, 0.714057, 0.544297, 0.529623, 0.567045, 2.726631, 0.511790, 0.524181, 0.510228, 0.569738, 0.525874, 0.511865, 0.564238, 0.508891, 0.509437, 2.123271, 0.520380, 0.519850, 0.543117, 0.562958, 0.514382, 0.514891, 0.521800, 0.587875, 1.459146, 0.519450, 0.537774, 0.619358, 0.559387, 0.603021
Process 44: 1.086021, 0.718344, 0.549163, 0.531650, 0.571881, 2.730901, 0.515983, 0.528434, 0.514443, 0.571882, 0.530076, 0.515964, 0.566300, 0.513100, 0.513652, 2.125533, 0.524648, 0.524022, 0.545187, 0.567271, 0.518867, 0.519132, 0.526050, 0.589405, 1.464371, 0.523642, 0.542024, 0.620259, 0.560924, 0.604987
Process 45: 1.093267, 0.722856, 0.553407, 0.536545, 0.578089, 2.735491, 0.520609, 0.533051, 0.519062, 0.576709, 0.534736, 0.520677, 0.574303, 0.520211, 0.518272, 2.133414, 0.529260, 0.528683, 0.552396, 0.571835, 0.523230, 0.523842, 0.530691, 0.597228, 1.471111, 0.528588, 0.546644, 0.628255, 0.569187, 0.609580
Process 46: 1.098751, 0.727253, 0.557596, 0.540692, 0.580492, 2.739794, 0.524920, 0.537344, 0.523392, 0.580920, 0.538948, 0.524898, 0.576278, 0.522332, 0.522574, 2.135435, 0.533591, 0.532859, 0.553625, 0.576163, 0.527786, 0.528026, 0.534971, 0.598789, 1.472637, 0.532857, 0.550909, 0.629225, 0.570706, 0.613867
Process 47: 1.104678, 0.731728, 0.562130, 0.545218, 0.585010, 2.744252, 0.529423, 0.541854, 0.528016, 0.585797, 0.543480, 0.529397, 0.583990, 0.529199, 0.527143, 2.142354, 0.538178, 0.537441, 0.557773, 0.580680, 0.532021, 0.532553, 0.539502, 0.606257, 1.476960, 0.537764, 0.555489, 0.637477, 0.577682, 0.618438
Process 48: 1.109969, 0.735989, 0.566264, 0.549367, 0.589149, 2.749129, 0.533673, 0.546092, 0.532275, 0.590008, 0.547691, 0.533591, 0.586222, 0.531185, 0.531383, 2.144480, 0.543087, 0.541548, 0.561830, 0.584959, 0.537333, 0.536728, 0.543711, 0.607740, 1.481382, 0.541918, 0.560623, 0.638770, 0.579681, 0.622648
Process 49: 1.115944, 0.740455, 0.570799, 0.553833, 0.593617, 2.755286, 0.538105, 0.553442, 0.536919, 0.594681, 0.552106, 0.538010, 0.592706, 0.537245, 0.536691, 2.148896, 0.547444, 0.546065, 0.566447, 0.589338, 0.543408, 0.542775, 0.548152, 0.621045, 1.485939, 0.546547, 0.564771, 0.645376, 0.586449, 0.627194
Process 50: 1.121392, 0.744893, 0.575217, 0.558227, 0.598032, 2.757458, 0.542629, 0.555041, 0.541412, 0.599152, 0.556585, 0.542488, 0.594542, 0.540256, 0.541005, 2.153377, 0.551902, 0.550396, 0.570854, 0.593791, 0.545656, 0.545761, 0.552623, 0.629827, 1.490515, 0.551019, 0.569164, 0.647593, 0.588653, 0.631505
Process 51: 1.127218, 0.749222, 0.579548, 0.562561, 0.602397, 2.761805, 0.546978, 0.559400, 0.545789, 0.603507, 0.560923, 0.546820, 0.598813, 0.546255, 0.545598, 2.157557, 0.556240, 0.554900, 0.575186, 0.598172, 0.550024, 0.550125, 0.556993, 0.642242, 1.494747, 0.555357, 0.573528, 0.651667, 0.595172, 0.635875
Process 52: 1.132854, 0.753360, 0.583723, 0.566730, 0.606548, 2.765947, 0.551147, 0.563585, 0.549946, 0.607698, 0.565118, 0.550991, 0.602962, 0.550580, 0.549652, 2.161682, 0.560415, 0.559112, 0.579349, 0.602324, 0.554183, 0.554278, 0.561684, 0.650630, 1.498868, 0.559555, 0.577687, 0.655773, 0.599451, 0.640035
Process 53: 1.138453, 0.757519, 0.587885, 0.571226, 0.610740, 2.770123, 0.555329, 0.567753, 0.554118, 0.611850, 0.571961, 0.555161, 0.607122, 0.554889, 0.553829, 2.165924, 0.564626, 0.563273, 0.583538, 0.606523, 0.558383, 0.558462, 0.565733, 0.658794, 1.503075, 0.563714, 0.581872, 0.659920, 0.603753, 0.644221
Process 54: 1.144130, 0.761645, 0.592033, 0.575420, 0.614864, 2.774305, 0.559470, 0.571896, 0.558259, 0.615981, 0.573973, 0.559287, 0.611251, 0.558986, 0.557990, 2.170081, 0.568831, 0.567410, 0.587684, 0.610651, 0.562503, 0.562598, 0.569889, 0.667057, 1.507185, 0.567859, 0.586012, 0.664064, 0.607999, 0.648344
Process 55: 1.149836, 0.765821, 0.596214, 0.579600, 0.619062, 2.778509, 0.563644, 0.576081, 0.562461, 0.620179, 0.578148, 0.563506, 0.615424, 0.563244, 0.568826, 2.174244, 0.572946, 0.571582, 0.591894, 0.614819, 0.566713, 0.566839, 0.574026, 0.675283, 1.511358, 0.572017, 0.590218, 0.668398, 0.612248, 0.652543
Process 56: 1.155527, 0.770044, 0.600440, 0.583835, 0.623252, 2.782643, 0.567831, 0.580275, 0.566646, 0.624370, 0.582360, 0.567705, 0.619629, 0.567453, 0.570579, 2.178356, 0.577183, 0.575781, 0.596063, 0.619024, 0.570886, 0.571066, 0.578228, 0.683520, 1.515570, 0.576263, 0.594389, 0.672436, 0.616478, 0.656722
Process 57: 1.161161, 0.774221, 0.604584, 0.588008, 0.627456, 2.786882, 0.572003, 0.584441, 0.570816, 0.628542, 0.586524, 0.571882, 0.623823, 0.571634, 0.572238, 2.182559, 0.581361, 0.579955, 0.600238, 0.623197, 0.575062, 0.575242, 0.582432, 0.691719, 1.519746, 0.580426, 0.598566, 0.676635, 0.617687, 0.660904
Process 58: 1.167484, 0.778733, 0.608922, 0.592438, 0.631876, 2.791265, 0.576482, 0.588918, 0.575283, 0.632977, 0.590955, 0.576304, 0.628278, 0.577199, 0.574117, 2.187043, 0.586647, 0.584404, 0.604711, 0.627669, 0.579500, 0.579688, 0.586881, 0.692811, 1.523939, 0.584891, 0.610601, 0.681084, 0.622232, 0.665319
Process 59: 1.172810, 0.782817, 0.613090, 0.596706, 0.636074, 2.795522, 0.580675, 0.593093, 0.579463, 0.637192, 0.595156, 0.580486, 0.632452, 0.579309, 0.578254, 2.191220, 0.590767, 0.588631, 0.608883, 0.631867, 0.583628, 0.583859, 0.591061, 0.693809, 1.528073, 0.589078, 0.618986, 0.685237, 0.626432, 0.669486
Process 60: 1.178535, 0.786931, 0.617241, 0.600874, 0.640234, 2.799650, 0.584825, 0.597265, 0.583646, 0.641337, 0.599325, 0.584624, 0.636625, 0.582517, 0.582428, 2.195385, 0.594906, 0.592827, 0.613036, 0.636030, 0.587754, 0.588042, 0.595203, 0.695007, 1.532241, 0.593209, 0.627327, 0.689423, 0.630547, 0.673644
Process 61: 1.184360, 0.791083, 0.621407, 0.604985, 0.644489, 2.803805, 0.589050, 0.601524, 0.587773, 0.645503, 0.603536, 0.588874, 0.640783, 0.586695, 0.586715, 2.199588, 0.599108, 0.597014, 0.617172, 0.643792, 0.591867, 0.592195, 0.599384, 0.695900, 1.536479, 0.597591, 0.635803, 0.693591, 0.634699, 0.677799
Process 62: 1.190042, 0.795256, 0.625490, 0.609177, 0.648714, 2.807997, 0.593320, 0.605868, 0.591916, 0.649735, 0.607841, 0.593221, 0.644959, 0.590870, 0.590919, 2.203722, 0.603270, 0.601214, 0.621374, 0.644940, 0.596020, 0.596389, 0.603555, 0.696583, 1.540687, 0.601671, 0.644313, 0.697798, 0.638882, 0.681944
Process 63: 1.195459, 0.799403, 0.629561, 0.613220, 0.652772, 2.812090, 0.597546, 0.612670, 0.596029, 0.653821, 0.611958, 0.597446, 0.649042, 0.594980, 0.594944, 2.208137, 0.609824, 0.605269, 0.625517, 0.648743, 0.600203, 0.600469, 0.607659, 0.697401, 1.544995, 0.605713, 0.652868, 0.701904, 0.642977, 0.685987
