MPI_insiderank_serial
Process 0: 5.815055, 5.444368, 5.359878, 5.415596, 5.339194, 5.338540, 5.308653, 5.372351, 5.316299, 5.354713, 5.342513, 5.303038, 5.340224, 5.306923, 5.303645, 5.344446, 5.376609, 5.330420, 5.290441, 5.328978, 5.338476, 5.299950, 5.323732, 5.303517, 5.290430, 5.291597, 5.359938, 5.302403, 5.300815, 5.310235
Process 1: 5.587567, 5.214322, 5.126626, 5.182324, 5.127879, 5.120741, 5.140439, 5.158771, 5.081863, 5.104850, 5.113304, 5.076308, 5.129715, 5.069872, 5.074835, 5.104589, 5.140512, 5.097777, 5.062078, 5.119258, 5.114022, 5.068544, 5.065695, 5.068234, 5.058702, 5.060980, 5.141391, 5.072627, 5.067046, 5.085712
Process 2: 5.697038, 5.300811, 5.219815, 5.265959, 5.205780, 5.209801, 5.175404, 5.241161, 5.186870, 5.228275, 5.211254, 5.174344, 5.212248, 5.164939, 5.175450, 5.214372, 5.252680, 5.195197, 5.162816, 5.210756, 5.205996, 5.168737, 5.177046, 5.174263, 5.164067, 5.157827, 5.240004, 5.170771, 5.164491, 5.179024
Process 3: 5.820520, 5.453972, 5.366878, 5.423216, 5.346710, 5.347364, 5.315959, 5.380302, 5.321013, 5.360265, 5.347001, 5.307512, 5.344661, 5.314321, 5.310935, 5.352382, 5.381745, 5.338241, 5.297305, 5.336365, 5.346182, 5.307716, 5.331621, 5.308615, 5.295936, 5.298999, 5.367494, 5.309062, 5.307845, 5.317413
