MPI_insiderank_serial
Process 0: 1.379693, 1.306770, 1.156347, 1.662076, 1.326170, 1.158104, 1.141783, 1.673709, 1.201841, 1.238053, 1.432575, 1.292466, 1.981079, 1.663231, 1.716341, 1.897434, 1.363646, 1.704851, 1.958154, 1.501082, 1.858502, 1.897521, 1.710623, 2.030352, 2.001864, 1.951461, 1.997389, 1.791874, 1.712049, 1.959923
Process 1: 0.931482, 0.853888, 0.705316, 1.205071, 0.691080, 0.705469, 0.691962, 0.886277, 0.728064, 0.763750, 0.798416, 0.797668, 1.338470, 0.982851, 0.927162, 1.355295, 0.915596, 0.952538, 1.426567, 0.914936, 1.402110, 1.384545, 0.894699, 1.482093, 1.472000, 1.435091, 1.443556, 1.309065, 0.922081, 1.485291
Process 2: 0.945643, 0.868966, 0.719769, 1.222697, 0.705766, 0.720751, 0.707188, 0.901138, 0.742838, 0.827701, 0.813305, 0.812337, 1.352480, 1.018708, 0.953194, 1.390749, 0.951247, 0.979947, 1.461752, 0.942737, 1.429327, 1.431874, 0.920808, 1.519220, 1.508491, 1.477656, 1.479270, 1.344647, 0.947714, 1.520410
Process 3: 0.960584, 0.884182, 0.735254, 1.240445, 0.721278, 0.735776, 0.722832, 0.917611, 0.758327, 0.834140, 0.828637, 0.827681, 1.367987, 1.025079, 0.980845, 1.397058, 0.957545, 1.007457, 1.467920, 0.971575, 1.458611, 1.451079, 0.948629, 1.525215, 1.515197, 1.498900, 1.485440, 1.350768, 0.975742, 1.526489
Process 4: 0.975460, 0.898993, 0.750301, 1.256672, 0.735963, 0.750498, 0.737743, 0.934002, 0.772834, 0.861639, 0.843471, 0.842683, 1.385767, 1.052762, 1.007854, 1.423675, 0.984904, 1.033892, 1.493704, 0.998489, 1.486697, 1.509349, 0.974970, 1.551714, 1.542362, 1.536212, 1.512046, 1.377122, 1.001376, 1.552058
Process 5: 0.990760, 0.914096, 0.765179, 1.271384, 0.751242, 0.765602, 0.752551, 0.948947, 0.789111, 0.889218, 0.858379, 0.857640, 1.403769, 1.079739, 1.034682, 1.452131, 1.012162, 1.060640, 1.520624, 1.025572, 1.514812, 1.536093, 1.024555, 1.578620, 1.569385, 1.564766, 1.539506, 1.404274, 1.027653, 1.578228
Process 6: 1.005251, 0.928602, 0.780226, 1.286975, 0.765715, 0.780082, 0.767363, 0.963907, 0.828049, 0.917037, 0.872869, 0.872076, 1.417854, 1.106160, 1.060794, 1.478216, 1.038776, 1.086694, 1.546820, 1.051374, 1.541164, 1.562181, 1.050593, 1.604762, 1.595549, 1.591132, 1.579092, 1.430424, 1.052920, 1.603538
Process 7: 1.020415, 0.944430, 0.795516, 1.301228, 0.781266, 0.797083, 0.782482, 1.127792, 0.843414, 0.922701, 0.888135, 0.887965, 1.433745, 1.111275, 1.087852, 1.483065, 1.065930, 1.113982, 1.551905, 1.077268, 1.546849, 1.567283, 1.078825, 1.610014, 1.600544, 1.596369, 1.585126, 1.435589, 1.079751, 1.608666
Process 8: 1.035453, 0.959511, 0.810441, 1.316631, 0.796341, 0.813754, 0.822099, 1.142956, 0.858370, 0.949841, 0.903240, 0.902411, 1.448218, 1.137787, 1.114073, 1.524876, 1.092457, 1.140294, 1.597524, 1.103173, 1.574375, 1.593486, 1.105066, 1.636238, 1.626841, 1.622400, 1.612242, 1.461845, 1.105847, 1.634204
Process 9: 1.050973, 0.974244, 0.825409, 1.331554, 0.811237, 0.829077, 0.827802, 1.157121, 0.873064, 0.977158, 0.918297, 0.917824, 1.462455, 1.144029, 1.140078, 1.530199, 1.119390, 1.166888, 1.602896, 1.131040, 1.580669, 1.599731, 1.131614, 1.641340, 1.632021, 1.628215, 1.617927, 1.467265, 1.132868, 1.639582
Process 10: 1.065431, 0.990063, 0.840914, 1.347175, 0.826619, 0.844055, 0.854461, 1.172399, 0.888415, 1.003835, 0.933573, 0.932479, 1.478365, 1.170766, 1.165871, 1.557632, 1.146269, 1.193376, 1.629550, 1.157627, 1.608078, 1.626314, 1.158105, 1.667901, 1.658565, 1.654958, 1.645404, 1.494767, 1.160967, 1.665380
Process 11: 1.080501, 1.004269, 0.856000, 1.360968, 0.841578, 0.858915, 0.859644, 1.187183, 0.903257, 1.030226, 0.948519, 0.947568, 1.492577, 1.176335, 1.191817, 1.562796, 1.173971, 1.220006, 1.634721, 1.184650, 1.614851, 1.631398, 1.184806, 1.672857, 1.663534, 1.660682, 1.651319, 1.500078, 1.187721, 1.670506
Process 12: 1.095697, 1.019656, 0.870570, 1.376315, 0.856298, 0.873792, 0.885952, 1.201884, 0.917885, 1.056000, 0.963270, 0.962422, 1.507769, 1.202804, 1.217219, 1.589295, 1.200308, 1.246228, 1.660401, 1.210614, 1.641528, 1.657719, 1.211453, 1.699092, 1.689739, 1.687511, 1.680610, 1.526422, 1.214130, 1.696055
Process 13: 1.110717, 1.034219, 0.885818, 1.390917, 0.871358, 0.888784, 0.891297, 1.216855, 0.932788, 1.083084, 0.978351, 0.977241, 1.522371, 1.208099, 1.242928, 1.594599, 1.227002, 1.272614, 1.665654, 1.237193, 1.647406, 1.663044, 1.238433, 1.704145, 1.695084, 1.692810, 1.686512, 1.552815, 1.241214, 1.701243
Process 14: 1.125363, 1.049451, 0.900768, 1.406163, 0.886157, 0.903612, 0.917550, 1.231475, 0.947658, 1.109167, 0.993181, 0.992032, 1.538042, 1.234405, 1.268677, 1.620825, 1.253330, 1.298610, 1.691078, 1.263119, 1.676636, 1.689365, 1.264756, 1.730196, 1.721161, 1.718606, 1.713311, 1.578996, 1.266636, 1.726534
Process 15: 1.140940, 1.064745, 0.915930, 1.420998, 0.901646, 0.919404, 0.923541, 1.247067, 0.963195, 1.135623, 1.008748, 1.007518, 1.552776, 1.240458, 1.295631, 1.626376, 1.280188, 1.325071, 1.696653, 1.289451, 1.682450, 1.716114, 1.291714, 1.745807, 1.729757, 1.725202, 1.719903, 1.605989, 1.292723, 1.732065
Process 16: 1.155542, 1.080284, 0.930962, 1.436749, 0.921004, 0.934086, 0.927232, 1.267416, 0.978367, 1.147829, 1.037412, 1.031773, 1.581650, 1.258672, 1.321534, 1.633306, 1.293007, 1.340406, 1.707196, 1.302984, 1.688971, 1.730211, 1.317975, 1.781329, 1.757112, 1.730184, 1.725134, 1.620458, 1.319175, 1.736852
Process 17: 1.170965, 1.095029, 0.945958, 1.451607, 0.956080, 0.949154, 0.933036, 1.301764, 0.993136, 1.149765, 1.064180, 1.059920, 1.609146, 1.285796, 1.348113, 1.663541, 1.295253, 1.345012, 1.743902, 1.307464, 1.693955, 1.735090, 1.343577, 1.796660, 1.767849, 1.738429, 1.730439, 1.625639, 1.344894, 1.741947
Process 18: 1.185249, 1.109459, 0.960639, 1.466119, 0.982118, 0.963820, 0.947820, 1.328120, 1.007951, 1.151494, 1.090194, 1.098214, 1.635960, 1.312573, 1.373789, 1.702423, 1.299222, 1.358058, 1.762965, 1.311703, 1.698655, 1.739755, 1.368593, 1.810997, 1.782023, 1.752364, 1.743837, 1.631983, 1.370054, 1.746551
Process 19: 1.200614, 1.124858, 0.975863, 1.481439, 1.009093, 0.979130, 0.962788, 1.355062, 1.022987, 1.153514, 1.116864, 1.113473, 1.663069, 1.339507, 1.401617, 1.717926, 1.303906, 1.384347, 1.778415, 1.316048, 1.704338, 1.744786, 1.394089, 1.826656, 1.806647, 1.767657, 1.778239, 1.637743, 1.395703, 1.755268
Process 20: 1.215206, 1.139694, 0.990554, 1.495662, 1.035338, 0.993739, 0.977466, 1.381625, 1.038003, 1.155400, 1.142684, 1.128136, 1.689611, 1.366348, 1.427326, 1.732476, 1.308335, 1.410065, 1.792814, 1.320175, 1.709896, 1.749486, 1.419460, 1.864787, 1.836637, 1.782021, 1.816293, 1.642678, 1.421464, 1.769706
Process 21: 1.230649, 1.154353, 1.005556, 1.510683, 1.062353, 1.008970, 0.992419, 1.408648, 1.052592, 1.157319, 1.169233, 1.143144, 1.716580, 1.393336, 1.453513, 1.747547, 1.312890, 1.436185, 1.808247, 1.324463, 1.715156, 1.754369, 1.447008, 1.880195, 1.851921, 1.798198, 1.831583, 1.648033, 1.448190, 1.785086
Process 22: 1.244970, 1.169311, 1.020249, 1.525966, 1.088638, 1.023503, 1.007298, 1.434870, 1.067348, 1.159112, 1.195073, 1.157844, 1.742904, 1.420255, 1.479377, 1.762024, 1.317319, 1.461993, 1.822578, 1.328634, 1.723772, 1.762255, 1.472859, 1.894505, 1.866338, 1.814857, 1.846666, 1.656385, 1.474402, 1.805886
Process 23: 1.260522, 1.184536, 1.035612, 1.540699, 1.115484, 1.038830, 1.022555, 1.462530, 1.082667, 1.161389, 1.222187, 1.173278, 1.770395, 1.447921, 1.506845, 1.778237, 1.322941, 1.489452, 1.838905, 1.334114, 1.739690, 1.778508, 1.499608, 1.910941, 1.882675, 1.831362, 1.877616, 1.672636, 1.501547, 1.840296
Process 24: 1.274857, 1.199229, 1.050137, 1.555235, 1.141407, 1.053695, 1.037060, 1.488827, 1.097163, 1.163182, 1.248134, 1.187739, 1.796156, 1.474702, 1.532740, 1.792034, 1.327675, 1.515437, 1.852505, 1.338429, 1.753398, 1.792068, 1.525621, 1.924428, 1.896205, 1.844844, 1.891515, 1.686254, 1.528641, 1.853853
Process 25: 1.290473, 1.214181, 1.065306, 1.570331, 1.168060, 1.068470, 1.052224, 1.515116, 1.112355, 1.165297, 1.274649, 1.202894, 1.822873, 1.501967, 1.559269, 1.807249, 1.333033, 1.542031, 1.867947, 1.343289, 1.769144, 1.807675, 1.552102, 1.939873, 1.911624, 1.860296, 1.906588, 1.701760, 1.556698, 1.869301
Process 26: 1.304920, 1.229339, 1.079816, 1.584994, 1.193913, 1.083012, 1.066717, 1.540717, 1.126902, 1.167028, 1.300488, 1.217785, 1.848148, 1.528521, 1.585184, 1.821908, 1.337641, 1.567883, 1.882827, 1.369255, 1.782928, 1.822654, 1.577981, 1.954328, 1.926081, 1.874781, 1.921156, 1.716426, 1.582252, 1.883696
Process 27: 1.320155, 1.246179, 1.095212, 1.600302, 1.220474, 1.098528, 1.082180, 1.567307, 1.142278, 1.178490, 1.326962, 1.232823, 1.874863, 1.555753, 1.611566, 1.837643, 1.343116, 1.594461, 1.898197, 1.395574, 1.798530, 1.837913, 1.604918, 1.970222, 1.941895, 1.890555, 1.937183, 1.732176, 1.608382, 1.899521
Process 28: 1.334495, 1.260752, 1.109708, 1.615097, 1.246557, 1.113427, 1.096671, 1.593243, 1.156808, 1.192999, 1.352814, 1.247485, 1.900736, 1.582173, 1.637381, 1.851468, 1.348110, 1.620722, 1.912153, 1.421344, 1.812737, 1.852231, 1.630722, 1.984082, 1.955836, 1.904437, 1.951372, 1.746933, 1.633865, 1.913449
Process 29: 1.350073, 1.276235, 1.124808, 1.630389, 1.272938, 1.128189, 1.111776, 1.619834, 1.171858, 1.208120, 1.379182, 1.262671, 1.927248, 1.609235, 1.663852, 1.866894, 1.352938, 1.648640, 1.927564, 1.447584, 1.828061, 1.867400, 1.658059, 1.999447, 1.971270, 1.919790, 1.966333, 1.761609, 1.659737, 1.928745
Process 30: 1.364388, 1.291368, 1.139776, 1.645713, 1.298703, 1.142969, 1.126727, 1.645628, 1.186846, 1.223064, 1.405235, 1.277664, 1.952977, 1.635750, 1.689485, 1.881173, 1.357366, 1.675699, 1.941970, 1.473228, 1.843064, 1.881617, 1.683690, 2.013819, 1.985614, 1.934128, 1.980781, 1.775852, 1.685321, 1.943105
Process 31: 1.380370, 1.306760, 1.156351, 1.662076, 1.326172, 1.158107, 1.141778, 1.673715, 1.201823, 1.238052, 1.432575, 1.292460, 1.981085, 1.663228, 1.716338, 1.897441, 1.363638, 1.704840, 1.958154, 1.501089, 1.858499, 1.897520, 1.710617, 2.030349, 2.001855, 1.951459, 1.997385, 1.791875, 1.712053, 1.959919
