MPI_insiderank_openmp_handopt
Process 0: 2.435838, 1.979757, 2.017377, 3.184106, 3.368692, 3.259988, 3.056989, 2.787340, 2.002855, 1.967792, 2.000584, 1.995622, 1.963561, 1.996249, 2.016993, 3.479097, 2.014160, 2.717174, 1.986836, 2.023864, 1.983695, 1.933443, 2.021486, 2.006026, 2.029566, 1.986920, 2.003622, 1.958208, 2.018998, 1.974042
Process 1: 1.521606, 1.064344, 1.070651, 2.254697, 2.466925, 2.347763, 2.141125, 1.843858, 1.095905, 1.052353, 1.061848, 1.089221, 1.075045, 1.107345, 1.094216, 2.573367, 1.103021, 1.821527, 1.090258, 1.112511, 1.078696, 1.046255, 1.111827, 1.093766, 1.126782, 1.080966, 1.080708, 1.062365, 1.105858, 1.078632
Process 2: 1.559045, 1.101341, 1.109862, 2.289613, 2.502806, 2.386653, 2.177733, 1.877847, 1.134511, 1.090403, 1.100110, 1.126890, 1.112125, 1.145207, 1.132130, 2.611147, 1.140110, 1.858474, 1.126224, 1.149668, 1.116266, 1.083963, 1.146514, 1.131785, 1.161912, 1.117731, 1.117832, 1.101392, 1.141097, 1.116860
Process 3: 1.601064, 1.138976, 1.152488, 2.326950, 2.543737, 2.427989, 2.218825, 1.918756, 1.176110, 1.126800, 1.141642, 1.168589, 1.153441, 1.186399, 1.170720, 2.651456, 1.180785, 1.898081, 1.165867, 1.191836, 1.157192, 1.125432, 1.186055, 1.171735, 1.203070, 1.159356, 1.158545, 1.142035, 1.182010, 1.158173
Process 4: 1.642609, 1.179322, 1.194147, 2.366428, 2.585925, 2.468440, 2.260453, 1.957725, 1.215860, 1.168131, 1.181635, 1.209647, 1.194060, 1.227399, 1.212817, 2.691607, 1.222053, 1.938689, 1.202904, 1.232877, 1.196880, 1.166632, 1.225903, 1.212789, 1.243286, 1.200987, 1.198575, 1.182436, 1.223244, 1.197984
Process 5: 1.686143, 1.219164, 1.231479, 2.405321, 2.627485, 2.511226, 2.301408, 1.999809, 1.258037, 1.208706, 1.221207, 1.252127, 1.236946, 1.269853, 1.255138, 2.733652, 1.262288, 1.980682, 1.244514, 1.275793, 1.240199, 1.208059, 1.265859, 1.251290, 1.283100, 1.241183, 1.239957, 1.223779, 1.264907, 1.239669
Process 6: 1.726559, 1.259247, 1.267134, 2.441632, 2.666693, 2.550722, 2.341161, 2.037233, 1.297610, 1.248622, 1.262257, 1.292650, 1.276955, 1.308812, 1.294602, 2.772636, 1.302748, 2.021004, 1.281223, 1.314077, 1.280289, 1.247838, 1.304583, 1.290114, 1.321659, 1.280661, 1.279538, 1.264102, 1.304842, 1.279523
Process 7: 1.761386, 1.292152, 1.309667, 2.480899, 2.706071, 2.586621, 2.379406, 2.073393, 1.335592, 1.284335, 1.297907, 1.329341, 1.319909, 1.344395, 1.332980, 2.808112, 1.339597, 2.060628, 1.313761, 1.353238, 1.318843, 1.285353, 1.339161, 1.329199, 1.357738, 1.321353, 1.319256, 1.301271, 1.344714, 1.317658
Process 8: 1.801720, 1.328171, 1.349671, 2.520670, 2.747399, 2.622844, 2.419806, 2.109780, 1.374126, 1.324060, 1.340380, 1.368300, 1.361093, 1.383535, 1.372664, 2.845611, 1.378470, 2.099593, 1.348881, 1.389660, 1.358032, 1.325587, 1.377369, 1.366421, 1.399589, 1.362724, 1.357326, 1.342936, 1.386470, 1.357355
Process 9: 1.835627, 1.360941, 1.391730, 2.560315, 2.781714, 2.657426, 2.455965, 2.141934, 1.408090, 1.358490, 1.380642, 1.404975, 1.395866, 1.423862, 1.407006, 2.880903, 1.418952, 2.131962, 1.387139, 1.428191, 1.394207, 1.360053, 1.408467, 1.402934, 1.436630, 1.396116, 1.391806, 1.378803, 1.422222, 1.392693
Process 10: 1.875005, 1.398431, 1.429358, 2.597960, 2.819691, 2.693126, 2.494757, 2.178665, 1.447272, 1.398420, 1.419274, 1.444028, 1.433813, 1.460592, 1.445734, 2.919308, 1.456297, 2.168899, 1.424740, 1.464730, 1.431699, 1.399385, 1.445471, 1.440038, 1.472518, 1.436283, 1.429164, 1.416698, 1.461333, 1.431461
Process 11: 1.911516, 1.439377, 1.469933, 2.637255, 2.855957, 2.729410, 2.526314, 2.217761, 1.484759, 1.431369, 1.458072, 1.482431, 1.470913, 1.499158, 1.479398, 2.956578, 1.491345, 2.201914, 1.465445, 1.501823, 1.469811, 1.432054, 1.478841, 1.474266, 1.510588, 1.470960, 1.464564, 1.454627, 1.498344, 1.468127
Process 12: 1.946841, 1.478221, 1.508472, 2.674807, 2.892710, 2.766735, 2.563866, 2.255823, 1.522085, 1.469200, 1.496154, 1.520610, 1.509078, 1.535089, 1.518910, 2.995891, 1.530329, 2.239185, 1.504389, 1.536953, 1.505597, 1.471750, 1.517986, 1.511841, 1.549391, 1.504263, 1.503540, 1.491511, 1.535481, 1.503378
Process 13: 1.983724, 1.513226, 1.547241, 2.712882, 2.930061, 2.805507, 2.602917, 2.293287, 1.560520, 1.504432, 1.533186, 1.558266, 1.546629, 1.572766, 1.554441, 3.033492, 1.566135, 2.279161, 1.542896, 1.572914, 1.540006, 1.507901, 1.552633, 1.550050, 1.587045, 1.543268, 1.542108, 1.529487, 1.575512, 1.541108
Process 14: 2.019426, 1.549205, 1.581432, 2.748457, 2.966614, 2.840616, 2.636352, 2.328036, 1.596807, 1.540843, 1.569665, 1.592541, 1.581387, 1.608772, 1.586236, 3.070002, 1.601807, 2.311634, 1.579396, 1.606736, 1.572717, 1.541316, 1.587945, 1.583044, 1.622330, 1.577558, 1.575709, 1.565735, 1.611737, 1.574906
Process 15: 2.051550, 1.583361, 1.619541, 2.785456, 2.998390, 2.878421, 2.667568, 2.363358, 1.630734, 1.573009, 1.604952, 1.624411, 1.612063, 1.641378, 1.619826, 3.107893, 1.634670, 2.343562, 1.613059, 1.641563, 1.605191, 1.573280, 1.624806, 1.614041, 1.653131, 1.606963, 1.609531, 1.600659, 1.640707, 1.605218
Process 16: 2.078442, 1.613533, 1.648311, 2.813367, 3.026508, 2.908267, 2.696569, 2.394289, 1.658364, 1.602303, 1.634931, 1.652945, 1.638526, 1.668473, 1.648826, 3.135974, 1.664326, 2.369991, 1.639969, 1.666554, 1.633744, 1.602361, 1.652586, 1.643912, 1.682381, 1.634696, 1.637932, 1.629110, 1.669248, 1.632553
Process 17: 2.108071, 1.643203, 1.677617, 2.842036, 3.055199, 2.939019, 2.726847, 2.425257, 1.688996, 1.632528, 1.663835, 1.682324, 1.667927, 1.700760, 1.677468, 3.165629, 1.693405, 2.399669, 1.671145, 1.697478, 1.662097, 1.633122, 1.683180, 1.672039, 1.713763, 1.665944, 1.666494, 1.656640, 1.699160, 1.664076
Process 18: 2.135826, 1.671825, 1.705863, 2.870092, 3.082539, 2.965405, 2.754258, 2.453313, 1.715684, 1.658837, 1.690579, 1.710148, 1.693510, 1.727876, 1.704584, 3.191119, 1.720861, 2.428743, 1.698833, 1.724127, 1.689745, 1.659980, 1.709786, 1.698962, 1.741044, 1.692735, 1.693696, 1.683178, 1.725465, 1.690220
Process 19: 2.162822, 1.701086, 1.735869, 2.898766, 3.108436, 2.992747, 2.781409, 2.482645, 1.740704, 1.685786, 1.719630, 1.736974, 1.721756, 1.756432, 1.731163, 3.216638, 1.747767, 2.456832, 1.727268, 1.750879, 1.715785, 1.686539, 1.738938, 1.725120, 1.769802, 1.720696, 1.721891, 1.710144, 1.751758, 1.717699
Process 20: 2.187228, 1.728311, 1.762352, 2.925887, 3.132657, 3.017766, 2.806631, 2.509057, 1.763338, 1.709982, 1.746734, 1.759819, 1.745733, 1.780570, 1.757758, 3.241913, 1.772826, 2.483052, 1.754205, 1.774008, 1.740383, 1.710351, 1.766275, 1.750560, 1.794910, 1.745523, 1.746418, 1.734568, 1.776143, 1.742545
Process 21: 2.215190, 1.757374, 1.792425, 2.954460, 3.158347, 3.044775, 2.833096, 2.540034, 1.789113, 1.739524, 1.776987, 1.787517, 1.774910, 1.806903, 1.785267, 3.268282, 1.798608, 2.511338, 1.783276, 1.802344, 1.766371, 1.737015, 1.794644, 1.779671, 1.821908, 1.771722, 1.776433, 1.762476, 1.804374, 1.768514
Process 22: 2.238583, 1.781058, 1.815933, 2.979007, 3.179209, 3.069953, 2.856903, 2.563542, 1.811820, 1.764050, 1.801209, 1.809506, 1.798710, 1.828849, 1.809131, 3.289894, 1.821303, 2.534813, 1.807362, 1.824094, 1.790091, 1.759462, 1.817353, 1.803918, 1.843505, 1.794190, 1.801583, 1.786000, 1.825105, 1.790493
Process 23: 2.263192, 1.808103, 1.841542, 3.001553, 3.205086, 3.092627, 2.882642, 2.589731, 1.836956, 1.790014, 1.827850, 1.832454, 1.823359, 1.854448, 1.834358, 3.314887, 1.846688, 2.560192, 1.834287, 1.848857, 1.813466, 1.784915, 1.842984, 1.830632, 1.869067, 1.819395, 1.826857, 1.811054, 1.849308, 1.815257
Process 24: 2.282826, 1.827114, 1.861175, 3.021388, 3.225164, 3.112790, 2.903365, 2.609473, 1.856772, 1.810325, 1.846565, 1.851834, 1.842479, 1.874132, 1.854484, 3.335077, 1.866966, 2.579895, 1.853695, 1.867784, 1.833561, 1.805399, 1.862434, 1.849406, 1.887822, 1.839482, 1.847333, 1.830894, 1.866294, 1.834165
Process 25: 2.305599, 1.849983, 1.883367, 3.043162, 3.247256, 3.135587, 2.926381, 2.632500, 1.879101, 1.834643, 1.868996, 1.873864, 1.864416, 1.895650, 1.877543, 3.357790, 1.888828, 2.603152, 1.876400, 1.889221, 1.855493, 1.827219, 1.884656, 1.872018, 1.909464, 1.861782, 1.869433, 1.852958, 1.888755, 1.856209
Process 26: 2.322914, 1.872451, 1.907811, 3.069907, 3.261783, 3.160891, 2.951074, 2.659119, 1.895677, 1.865407, 1.893808, 1.890520, 1.880261, 1.910681, 1.905837, 3.377527, 1.911996, 2.632321, 1.898900, 1.907972, 1.878103, 1.850539, 1.908996, 1.892382, 1.926404, 1.881448, 1.899557, 1.873927, 1.912764, 1.872482
Process 27: 2.364026, 1.912615, 1.948217, 3.110506, 3.301117, 3.203040, 2.991545, 2.699818, 1.936014, 1.904912, 1.934474, 1.930328, 1.919134, 1.951262, 1.946956, 3.416707, 1.955184, 2.672891, 1.938891, 1.947127, 1.916468, 1.889765, 1.949354, 1.932393, 1.965216, 1.920415, 1.939813, 1.914357, 1.952847, 1.911998
Process 28: 2.389816, 1.934090, 1.976350, 3.138822, 3.323364, 3.220997, 3.013651, 2.728652, 1.957850, 1.927158, 1.957452, 1.951313, 1.931795, 1.963721, 1.969354, 3.438596, 1.976475, 2.684676, 1.951649, 1.965568, 1.940023, 1.901635, 1.978930, 1.961844, 1.989372, 1.941682, 1.961360, 1.926400, 1.973797, 1.932869
Process 29: 2.413660, 1.955121, 1.995209, 3.161805, 3.346474, 3.237284, 3.035091, 2.752947, 1.980772, 1.945339, 1.976502, 1.972769, 1.943082, 1.975783, 1.994657, 3.456589, 1.993228, 2.697041, 1.965132, 1.989669, 1.961420, 1.913026, 1.997374, 1.981535, 2.007453, 1.964035, 1.981605, 1.937739, 1.996097, 1.951776
Process 30: 2.425300, 1.967234, 2.006885, 3.173634, 3.358228, 3.249507, 3.046500, 2.772265, 1.992294, 1.957311, 1.988103, 1.985172, 1.953102, 1.985671, 2.006481, 3.468636, 2.003790, 2.706810, 1.974405, 2.012208, 1.973207, 1.922970, 2.009078, 1.993536, 2.019128, 1.976347, 1.993155, 1.947656, 2.008533, 1.963595
Process 31: 2.436876, 1.980666, 2.018170, 3.184954, 3.369578, 3.260804, 3.057843, 2.788172, 2.003639, 1.968589, 2.001406, 1.996443, 1.964352, 1.997053, 2.017802, 3.479904, 2.015004, 2.718014, 1.987665, 2.024668, 1.984481, 1.934226, 2.022319, 2.006823, 2.030373, 1.987722, 2.004425, 1.959017, 2.019810, 1.974839
