MPI_insiderank_openmp_handopt
Process 0: 4.584723, 4.237391, 4.276818, 4.374844, 4.192795, 4.236444, 4.351084, 4.325790, 4.203603, 4.346050, 4.181533, 4.258118, 4.104357, 4.199118, 4.171612, 4.192579, 4.154700, 4.045467, 4.117913, 4.127938, 4.190088, 4.045305, 4.279918, 4.267513, 4.323128, 4.218514, 4.083124, 4.041630, 3.943919, 4.011348
Process 1: 3.830978, 3.494982, 3.493582, 3.625650, 3.432746, 3.462991, 3.580553, 3.574844, 3.439624, 3.574903, 3.416623, 3.484753, 3.330131, 3.433885, 3.432606, 3.427947, 3.403389, 3.286330, 3.364573, 3.346236, 3.423003, 3.277706, 3.511034, 3.500395, 3.559171, 3.471803, 3.330776, 3.291307, 3.201334, 3.261448
Process 2: 3.928478, 3.614888, 3.603796, 3.726260, 3.558764, 3.576418, 3.690247, 3.673517, 3.551282, 3.687743, 3.527736, 3.598380, 3.439866, 3.545907, 3.526278, 3.539781, 3.525680, 3.397384, 3.471931, 3.455097, 3.529072, 3.389594, 3.618707, 3.613670, 3.669959, 3.569735, 3.440123, 3.402918, 3.323946, 3.373217
Process 3: 4.087062, 3.761262, 3.757272, 3.877720, 3.704785, 3.727457, 3.843976, 3.824611, 3.705712, 3.840960, 3.688582, 3.750353, 3.594542, 3.699559, 3.673941, 3.692923, 3.665213, 3.545571, 3.624349, 3.605971, 3.679747, 3.542750, 3.772207, 3.766539, 3.824722, 3.718820, 3.593437, 3.552533, 3.466233, 3.521932
Process 4: 4.191158, 3.875058, 3.864678, 3.986026, 3.802593, 3.834419, 3.950507, 3.932699, 3.813398, 3.951240, 3.811960, 3.858120, 3.701497, 3.807331, 3.780677, 3.800411, 3.762751, 3.654045, 3.747636, 3.729347, 3.787489, 3.651524, 3.879892, 3.876009, 3.932557, 3.828696, 3.700799, 3.659814, 3.560417, 3.624867
Process 5: 4.338759, 4.009226, 4.023501, 4.133408, 3.948070, 3.989446, 4.098156, 4.081466, 3.964925, 4.098877, 3.950310, 4.014175, 3.848759, 3.954981, 3.927718, 3.947870, 3.909429, 3.801004, 3.885399, 3.886419, 3.943045, 3.799291, 4.027357, 4.023990, 4.080069, 3.974739, 3.843450, 3.802897, 3.705019, 3.769476
Process 6: 4.439103, 4.103483, 4.134847, 4.235350, 4.051972, 4.105214, 4.201291, 4.186132, 4.065192, 4.204205, 4.045458, 4.129409, 3.952723, 4.058558, 4.032234, 4.051216, 4.012632, 3.904764, 3.980286, 3.988733, 4.059651, 3.903773, 4.130647, 4.128912, 4.184193, 4.077473, 3.946560, 3.905534, 3.804578, 3.871892
Process 7: 4.588114, 4.240322, 4.280135, 4.377744, 4.196023, 4.239302, 4.354233, 4.328710, 4.206723, 4.348922, 4.184806, 4.261028, 4.107550, 4.202010, 4.174674, 4.195475, 4.157758, 4.048331, 4.121133, 4.130804, 4.193319, 4.048137, 4.283148, 4.270390, 4.326232, 4.221341, 4.086309, 4.044510, 3.947156, 4.014243
