MPI_insiderank_openmp_handopt
Process 0: 8.877850, 8.789299, 8.754354, 8.720920, 10.901764, 8.677607, 8.723646, 8.691370, 8.732319, 8.672882, 8.755115, 8.673232, 8.668564, 8.661401, 8.709247, 8.672144, 8.701132, 8.705569, 8.669991, 8.661136, 8.655474, 8.716166, 8.667089, 8.699565, 8.706038, 8.667844, 8.660351, 8.658884, 8.707953, 8.670317
Process 1: 8.217266, 8.103576, 8.073578, 8.066316, 10.240178, 8.010702, 8.094131, 8.041387, 8.009589, 8.008763, 8.101046, 8.043372, 8.019108, 8.019099, 8.040462, 8.013357, 8.053171, 8.060428, 8.045078, 8.017511, 8.007073, 8.045851, 8.008411, 8.052041, 8.057918, 8.042483, 8.016219, 8.009804, 8.040296, 8.010754
Process 2: 8.518582, 8.412848, 8.395997, 8.361723, 10.557905, 8.304595, 8.366708, 8.356953, 8.338361, 8.303190, 8.396065, 8.314925, 8.315207, 8.332687, 8.344917, 8.309067, 8.348922, 8.354317, 8.315992, 8.332622, 8.302788, 8.348672, 8.302623, 8.345163, 8.352505, 8.314433, 8.331468, 8.305620, 8.343505, 8.305351
Process 3: 8.884442, 8.796101, 8.761094, 8.727638, 10.908188, 8.684195, 8.730298, 8.698065, 8.738978, 8.679532, 8.761772, 8.679999, 8.675089, 8.668065, 8.715737, 8.678594, 8.707766, 8.712023, 8.676593, 8.667349, 8.661752, 8.722692, 8.673593, 8.706170, 8.712595, 8.674422, 8.666767, 8.665618, 8.714585, 8.676776
