MPI_insiderank_openmp_handopt
Process 0: 1.432903, 1.221096, 1.160867, 1.803070, 1.170591, 1.158685, 1.173197, 1.150177, 1.156679, 1.181021, 1.741919, 1.163976, 1.157488, 1.172346, 1.202587, 1.150065, 1.173759, 1.152807, 1.149702, 1.158100, 1.158975, 1.153647, 1.159378, 1.154382, 1.144039, 1.192780, 1.156883, 1.164044, 1.155827, 1.172005
Process 1: 1.206920, 0.985949, 0.927681, 1.527462, 0.938377, 0.927533, 0.951081, 0.921894, 0.922666, 0.952663, 1.514350, 0.932458, 0.925703, 0.948684, 0.965846, 0.920657, 0.946571, 0.923987, 0.927398, 0.926374, 0.927497, 0.930862, 0.930389, 0.925351, 0.922692, 0.955788, 0.927661, 0.919044, 0.927856, 0.944942
Process 2: 1.221015, 0.998268, 0.940183, 1.540184, 0.950589, 0.938825, 0.963320, 0.934426, 0.934645, 0.964625, 1.527503, 0.944948, 0.938662, 0.961707, 0.977066, 0.933273, 0.958685, 0.936101, 0.939028, 0.938608, 0.938378, 0.943470, 0.942816, 0.937970, 0.935116, 0.967540, 0.939777, 0.931348, 0.940904, 0.956420
Process 3: 1.234630, 1.010523, 0.955618, 1.552917, 0.962592, 0.950879, 0.975957, 0.946878, 0.947017, 0.977085, 1.540141, 0.957158, 0.951747, 0.974138, 0.989437, 0.946332, 0.970871, 0.948438, 0.951356, 0.951113, 0.950832, 0.955745, 0.955006, 0.950137, 0.947479, 0.979521, 0.951748, 0.944640, 0.953682, 0.968553
Process 4: 1.245635, 1.022229, 0.966672, 1.564228, 0.973590, 0.961979, 0.986608, 0.957463, 0.958058, 0.987838, 1.550903, 0.968212, 0.962114, 0.986316, 1.000329, 0.958151, 0.981739, 0.958820, 0.960934, 0.962475, 0.961832, 0.967659, 0.965222, 0.960404, 0.958577, 0.991395, 0.963193, 0.955455, 0.964607, 0.980228
Process 5: 1.256972, 1.032941, 0.977542, 1.576365, 0.985901, 0.973328, 0.996338, 0.968384, 0.971112, 0.998182, 1.562311, 0.979513, 0.973364, 0.998123, 1.011128, 0.968899, 0.991836, 0.969349, 0.971591, 0.973520, 0.972136, 0.979060, 0.976894, 0.971333, 0.970529, 1.001061, 0.974475, 0.967120, 0.975693, 0.990832
Process 6: 1.265992, 1.042713, 0.988577, 1.586264, 0.995538, 0.982661, 1.006330, 0.977697, 0.981964, 1.006919, 1.573068, 0.988284, 0.984172, 1.007004, 1.021386, 0.978708, 1.001505, 0.980357, 0.980869, 0.982505, 0.981453, 0.987955, 0.986184, 0.982616, 0.979995, 1.010782, 0.982767, 0.977990, 0.985135, 0.998964
Process 7: 1.276121, 1.052653, 0.999785, 1.597460, 1.006539, 0.994373, 1.016968, 0.989208, 0.995343, 1.018148, 1.583882, 0.998009, 0.993908, 1.017401, 1.031561, 0.989250, 1.011739, 0.991587, 0.992469, 0.993868, 0.992691, 0.997821, 0.995861, 0.994356, 0.991737, 1.021779, 0.994852, 0.990472, 0.997787, 1.010337
Process 8: 1.286494, 1.062191, 1.009450, 1.607459, 1.015554, 1.004594, 1.026025, 0.999407, 1.005522, 1.027925, 1.593776, 1.008943, 1.003255, 1.027873, 1.041010, 0.998835, 1.022704, 1.002113, 1.003458, 1.002991, 1.002887, 1.006795, 1.005532, 1.005474, 1.000447, 1.032318, 1.006258, 1.002742, 1.007848, 1.020004
Process 9: 1.296757, 1.073139, 1.020192, 1.616664, 1.027166, 1.014452, 1.036144, 1.011592, 1.017341, 1.037659, 1.603225, 1.019933, 1.013408, 1.037652, 1.050759, 1.010660, 1.032242, 1.013743, 1.014615, 1.012558, 1.014019, 1.015597, 1.015165, 1.016041, 1.009969, 1.042688, 1.016784, 1.013474, 1.018459, 1.029402
Process 10: 1.304960, 1.082048, 1.029966, 1.627148, 1.036343, 1.024047, 1.045294, 1.021529, 1.026184, 1.047285, 1.612870, 1.028788, 1.023353, 1.046730, 1.059831, 1.019454, 1.041527, 1.024245, 1.023946, 1.021718, 1.022752, 1.026206, 1.024778, 1.027005, 1.020112, 1.051826, 1.025870, 1.024440, 1.027848, 1.037509
Process 11: 1.315339, 1.095085, 1.040153, 1.637672, 1.048745, 1.034075, 1.056618, 1.033244, 1.037010, 1.057166, 1.624387, 1.040571, 1.033796, 1.056425, 1.071483, 1.027625, 1.051951, 1.034021, 1.033920, 1.032755, 1.032973, 1.034072, 1.036007, 1.038027, 1.031658, 1.062931, 1.036943, 1.033958, 1.037177, 1.046506
Process 12: 1.321037, 1.104618, 1.049902, 1.646591, 1.056996, 1.042820, 1.065479, 1.041507, 1.046136, 1.066125, 1.632357, 1.049648, 1.042111, 1.065245, 1.080107, 1.035686, 1.059860, 1.042400, 1.042752, 1.041026, 1.041712, 1.044748, 1.043847, 1.047172, 1.040130, 1.072323, 1.044577, 1.043113, 1.045473, 1.056255
Process 13: 1.329317, 1.115459, 1.060785, 1.655488, 1.067712, 1.050989, 1.076479, 1.052015, 1.057206, 1.075820, 1.642372, 1.060069, 1.050601, 1.073802, 1.090719, 1.044799, 1.070158, 1.050857, 1.052851, 1.050956, 1.052079, 1.052889, 1.053197, 1.057972, 1.050908, 1.082376, 1.054609, 1.052949, 1.056664, 1.066644
Process 14: 1.336610, 1.123306, 1.068530, 1.663229, 1.075313, 1.057969, 1.083397, 1.059966, 1.065796, 1.082532, 1.649597, 1.067826, 1.058231, 1.081730, 1.098519, 1.053734, 1.077969, 1.059341, 1.061872, 1.058596, 1.059917, 1.061308, 1.062466, 1.065397, 1.059350, 1.090356, 1.061671, 1.059899, 1.064454, 1.076926
Process 15: 1.346259, 1.130990, 1.077089, 1.673909, 1.084151, 1.066812, 1.093653, 1.070578, 1.076593, 1.090767, 1.657794, 1.075747, 1.070044, 1.092647, 1.107689, 1.064800, 1.088420, 1.069048, 1.070811, 1.068446, 1.068418, 1.069516, 1.070087, 1.073262, 1.069643, 1.100949, 1.069465, 1.071365, 1.075686, 1.087771
Process 16: 1.353010, 1.138507, 1.085936, 1.680868, 1.091136, 1.073781, 1.101305, 1.078442, 1.084509, 1.098262, 1.665554, 1.082584, 1.076939, 1.100722, 1.114674, 1.073971, 1.095742, 1.076698, 1.077429, 1.075426, 1.075772, 1.076649, 1.076842, 1.080047, 1.077137, 1.108675, 1.076088, 1.079192, 1.084395, 1.094390
Process 17: 1.360408, 1.146457, 1.094583, 1.690124, 1.099887, 1.081678, 1.108264, 1.085419, 1.092131, 1.106549, 1.674209, 1.090384, 1.086723, 1.110201, 1.122219, 1.083040, 1.103270, 1.083761, 1.084515, 1.082445, 1.084083, 1.084014, 1.084181, 1.086976, 1.085436, 1.116191, 1.084779, 1.086725, 1.092553, 1.102470
Process 18: 1.367073, 1.152574, 1.101589, 1.696032, 1.105465, 1.088230, 1.114151, 1.090836, 1.098166, 1.112824, 1.679829, 1.096991, 1.096941, 1.116389, 1.128555, 1.088923, 1.109045, 1.089122, 1.091759, 1.088764, 1.090275, 1.089992, 1.091036, 1.093654, 1.090779, 1.122752, 1.092544, 1.092291, 1.098042, 1.108043
Process 19: 1.373352, 1.157780, 1.107176, 1.703034, 1.111807, 1.094344, 1.119787, 1.095792, 1.105090, 1.119595, 1.685023, 1.103020, 1.104651, 1.121881, 1.134986, 1.095471, 1.115325, 1.094756, 1.097371, 1.095782, 1.096606, 1.096975, 1.097486, 1.099499, 1.095764, 1.128936, 1.097650, 1.099269, 1.103924, 1.114946
Process 20: 1.378614, 1.162822, 1.113654, 1.706237, 1.117146, 1.099959, 1.124122, 1.100347, 1.107213, 1.125266, 1.690052, 1.107888, 1.108233, 1.126443, 1.138477, 1.099519, 1.118754, 1.099619, 1.100617, 1.100317, 1.101053, 1.102196, 1.102651, 1.104745, 1.099914, 1.133288, 1.102674, 1.103896, 1.108193, 1.118657
Process 21: 1.385707, 1.169421, 1.119476, 1.714089, 1.123322, 1.107046, 1.131396, 1.107537, 1.113727, 1.132574, 1.696212, 1.114285, 1.113930, 1.133169, 1.145773, 1.106576, 1.125589, 1.106846, 1.108122, 1.107097, 1.109137, 1.109094, 1.109097, 1.110233, 1.106319, 1.139654, 1.108882, 1.111501, 1.113695, 1.126565
Process 22: 1.391066, 1.175021, 1.123485, 1.719441, 1.127919, 1.112659, 1.136998, 1.112806, 1.118450, 1.138225, 1.701341, 1.119373, 1.118532, 1.138710, 1.151478, 1.111468, 1.131270, 1.111961, 1.113304, 1.112677, 1.113823, 1.114378, 1.114803, 1.114885, 1.111857, 1.145350, 1.114589, 1.116672, 1.116664, 1.131273
Process 23: 1.398318, 1.181771, 1.129910, 1.727133, 1.135755, 1.119788, 1.143169, 1.119635, 1.126086, 1.145120, 1.707924, 1.126286, 1.126185, 1.145932, 1.158196, 1.119238, 1.138255, 1.119075, 1.120097, 1.119492, 1.120636, 1.120302, 1.121738, 1.121948, 1.118478, 1.152261, 1.120802, 1.124339, 1.124525, 1.139185
Process 24: 1.403747, 1.187407, 1.134697, 1.732010, 1.140487, 1.125711, 1.149071, 1.125372, 1.130512, 1.150937, 1.713424, 1.131393, 1.131138, 1.151523, 1.163979, 1.123889, 1.143799, 1.124681, 1.125513, 1.125126, 1.126139, 1.126121, 1.127292, 1.127332, 1.124109, 1.157767, 1.126231, 1.129007, 1.129278, 1.144067
Process 25: 1.408521, 1.193470, 1.140442, 1.738200, 1.145954, 1.130609, 1.153214, 1.129273, 1.136999, 1.155948, 1.717838, 1.137375, 1.137517, 1.155902, 1.169886, 1.130401, 1.148099, 1.129207, 1.129627, 1.131249, 1.132299, 1.131825, 1.133087, 1.131868, 1.127903, 1.164361, 1.131977, 1.135419, 1.135340, 1.150059
Process 26: 1.412080, 1.198078, 1.144515, 1.742056, 1.149064, 1.135487, 1.157111, 1.133109, 1.140478, 1.160097, 1.721793, 1.142273, 1.141258, 1.159891, 1.176861, 1.134412, 1.152369, 1.132704, 1.133343, 1.136161, 1.137502, 1.136420, 1.137305, 1.135563, 1.131538, 1.171422, 1.135397, 1.140967, 1.138881, 1.153763
Process 27: 1.417355, 1.205783, 1.148811, 1.792827, 1.156988, 1.142262, 1.162510, 1.138936, 1.144745, 1.168307, 1.726842, 1.150203, 1.145536, 1.163227, 1.185370, 1.138734, 1.159360, 1.137651, 1.138932, 1.144239, 1.145400, 1.140289, 1.145834, 1.139347, 1.134917, 1.179480, 1.141359, 1.150208, 1.143200, 1.158036
Process 28: 1.421166, 1.210853, 1.151846, 1.794980, 1.161047, 1.147297, 1.166179, 1.142622, 1.147668, 1.172468, 1.730772, 1.154521, 1.148446, 1.165348, 1.189831, 1.141653, 1.163618, 1.141856, 1.142734, 1.148640, 1.149639, 1.143945, 1.150151, 1.143014, 1.137066, 1.183435, 1.145717, 1.154395, 1.146100, 1.160975
Process 29: 1.427009, 1.216112, 1.155863, 1.798526, 1.165649, 1.152146, 1.168872, 1.145859, 1.151677, 1.175838, 1.735676, 1.159083, 1.152448, 1.168032, 1.195844, 1.145096, 1.168666, 1.146911, 1.145408, 1.153214, 1.154120, 1.149221, 1.154640, 1.148916, 1.139728, 1.187707, 1.150668, 1.158976, 1.150146, 1.165155
Process 30: 1.430410, 1.218362, 1.157623, 1.800787, 1.167813, 1.154943, 1.170718, 1.147708, 1.153398, 1.177916, 1.739141, 1.161101, 1.154184, 1.169893, 1.198613, 1.146767, 1.171464, 1.149791, 1.147223, 1.155358, 1.156437, 1.151572, 1.156579, 1.152101, 1.141551, 1.190005, 1.153802, 1.161230, 1.152532, 1.167346
Process 31: 1.433342, 1.221095, 1.160869, 1.803067, 1.170610, 1.158680, 1.173198, 1.150196, 1.156680, 1.181016, 1.741913, 1.163985, 1.157481, 1.172352, 1.202590, 1.150065, 1.173749, 1.152802, 1.149703, 1.158098, 1.158976, 1.153630, 1.159378, 1.154387, 1.144039, 1.192782, 1.156883, 1.164046, 1.155827, 1.171999
