slurmstepd: error: poll(): Bad address
[1671040058.438723] [eu-g1-023-3:88560:0]        mm_posix.c:192  UCX  ERROR   Failed to write 65536 bytes. Cannot allocate memory
[1671040058.516152] [eu-g1-023-3:88560:0]         uct_mem.c:155  UCX  ERROR   failed to allocate 4292720 bytes using md posix for mm_recv_desc: Input/output error
[1671040058.516159] [eu-g1-023-3:88560:0]           mpool.c:226  UCX  ERROR Failed to allocate memory pool (name=mm_recv_desc) chunk: Input/output error
[1671040058.516161] [eu-g1-023-3:88560:0]        mm_iface.c:793  UCX  ERROR failed to get the first receive descriptor
[eu-g1-023-3:88560] pml_ucx.c:309  Error: Failed to create UCP worker
slurmstepd: error: poll(): Bad address
[1671040060.196795] [eu-g1-023-3:88468:0]        mm_posix.c:192  UCX  ERROR   Failed to write 65536 bytes. Cannot allocate memory
[1671040060.243462] [eu-g1-023-3:88468:0]         uct_mem.c:155  UCX  ERROR   failed to allocate 4292720 bytes using md posix for mm_recv_desc: Input/output error
[1671040060.243474] [eu-g1-023-3:88468:0]           mpool.c:226  UCX  ERROR Failed to allocate memory pool (name=mm_recv_desc) chunk: Input/output error
[1671040060.243479] [eu-g1-023-3:88468:0]        mm_iface.c:793  UCX  ERROR failed to get the first receive descriptor
[eu-g1-023-3:88468] pml_ucx.c:309  Error: Failed to create UCP worker
[1671040060.066244] [eu-g1-023-3:88495:0]        mm_posix.c:192  UCX  ERROR   Failed to write 65536 bytes. Cannot allocate memory
[1671040060.222580] [eu-g1-023-3:88495:0]         uct_mem.c:155  UCX  ERROR   failed to allocate 4292720 bytes using md posix for mm_recv_desc: Input/output error
[1671040060.222586] [eu-g1-023-3:88495:0]           mpool.c:226  UCX  ERROR Failed to allocate memory pool (name=mm_recv_desc) chunk: Input/output error
[1671040060.222589] [eu-g1-023-3:88495:0]        mm_iface.c:793  UCX  ERROR failed to get the first receive descriptor
[eu-g1-023-3:88495] pml_ucx.c:309  Error: Failed to create UCP worker
[1671040061.291297] [eu-g1-023-3:88509:0]         ib_mlx5.h:681  UCX  ERROR mlx5dv_devx_umem_reg() failed: Cannot allocate memory
[eu-g1-023-3:88509] pml_ucx.c:309  Error: Failed to create UCP worker
[1671040059.550269] [eu-g1-023-3:88533:0]        mm_posix.c:192  UCX  ERROR   Failed to write 65536 bytes. Cannot allocate memory
[1671040060.246625] [eu-g1-023-3:88533:0]         uct_mem.c:155  UCX  ERROR   failed to allocate 4292720 bytes using md posix for mm_recv_desc: Input/output error
[1671040060.246637] [eu-g1-023-3:88533:0]           mpool.c:226  UCX  ERROR Failed to allocate memory pool (name=mm_recv_desc) chunk: Input/output error
[1671040060.246642] [eu-g1-023-3:88533:0]        mm_iface.c:793  UCX  ERROR failed to get the first receive descriptor
[eu-g1-023-3:88533] pml_ucx.c:309  Error: Failed to create UCP worker
[1671040059.550238] [eu-g1-023-3:88535:0]        mm_posix.c:192  UCX  ERROR   Failed to write 65536 bytes. Cannot allocate memory
[1671040060.246378] [eu-g1-023-3:88535:0]         uct_mem.c:155  UCX  ERROR   failed to allocate 4292720 bytes using md posix for mm_recv_desc: Input/output error
[1671040060.246387] [eu-g1-023-3:88535:0]           mpool.c:226  UCX  ERROR Failed to allocate memory pool (name=mm_recv_desc) chunk: Input/output error
[1671040060.246390] [eu-g1-023-3:88535:0]        mm_iface.c:793  UCX  ERROR failed to get the first receive descriptor
[eu-g1-023-3:88535] pml_ucx.c:309  Error: Failed to create UCP worker
[1671040059.810407] [eu-g1-023-3:88549:0]        mm_posix.c:192  UCX  ERROR   Failed to write 65536 bytes. Cannot allocate memory
[1671040060.249491] [eu-g1-023-3:88549:0]         uct_mem.c:155  UCX  ERROR   failed to allocate 4292720 bytes using md posix for mm_recv_desc: Input/output error
[1671040060.249505] [eu-g1-023-3:88549:0]           mpool.c:226  UCX  ERROR Failed to allocate memory pool (name=mm_recv_desc) chunk: Input/output error
[1671040060.249512] [eu-g1-023-3:88549:0]        mm_iface.c:793  UCX  ERROR failed to get the first receive descriptor
[eu-g1-023-3:88549] pml_ucx.c:309  Error: Failed to create UCP worker
[1671040059.083174] [eu-g1-023-3:88555:0]        mm_posix.c:192  UCX  ERROR   Failed to write 65536 bytes. Cannot allocate memory
[1671040060.249121] [eu-g1-023-3:88555:0]         uct_mem.c:155  UCX  ERROR   failed to allocate 4292720 bytes using md posix for mm_recv_desc: Input/output error
[1671040060.249130] [eu-g1-023-3:88555:0]           mpool.c:226  UCX  ERROR Failed to allocate memory pool (name=mm_recv_desc) chunk: Input/output error
[1671040060.249134] [eu-g1-023-3:88555:0]        mm_iface.c:793  UCX  ERROR failed to get the first receive descriptor
[eu-g1-023-3:88555] pml_ucx.c:309  Error: Failed to create UCP worker
[1671040059.596107] [eu-g1-023-3:88561:0]           ib_md.c:349  UCX  ERROR ibv_reg_mr(address=0x2b534df9b000, length=37773312, access=0xf) failed: Cannot allocate memory
[1671040060.252428] [eu-g1-023-3:88561:0]           mpool.c:226  UCX  ERROR Failed to allocate memory pool (name=rc_recv_desc) chunk: Input/output error
[1671040062.817432] [eu-g1-023-3:88483:0]           ib_md.c:349  UCX  ERROR ibv_reg_mr(address=0x2af18230f000, length=37773312, access=0xf) failed: Cannot allocate memory
[1671040062.850815] [eu-g1-023-3:88483:0]           mpool.c:226  UCX  ERROR Failed to allocate memory pool (name=rc_recv_desc) chunk: Input/output error
[1671040063.211085] [eu-g1-023-3:88525:0]         ib_mlx5.h:681  UCX  ERROR mlx5dv_devx_umem_reg() failed: Cannot allocate memory
[eu-g1-023-3:88525] pml_ucx.c:309  Error: Failed to create UCP worker
[1671040063.190396] [eu-g1-023-3:88454:0]           ib_md.c:349  UCX  ERROR ibv_reg_mr(address=0x2b41b6da5000, length=37773312, access=0xf) failed: Cannot allocate memory
[1671040063.600250] [eu-g1-023-3:88454:0]           mpool.c:226  UCX  ERROR Failed to allocate memory pool (name=rc_recv_desc) chunk: Input/output error
[1671040131.654039] [eu-g1-023-3:88487:0]           ib_md.c:349  UCX  ERROR ibv_reg_mr(address=0x2b3d911cd000, length=37773312, access=0xf) failed: Cannot allocate memory
[1671040131.895398] [eu-g1-023-3:88487:0]           mpool.c:226  UCX  ERROR Failed to allocate memory pool (name=rc_recv_desc) chunk: Input/output error
[1671040132.124369] [eu-g1-023-3:88552:0]         ib_mlx5.h:681  UCX  ERROR mlx5dv_devx_umem_reg() failed: Cannot allocate memory
[eu-g1-023-3:88552] pml_ucx.c:309  Error: Failed to create UCP worker
[1671040132.569455] [eu-g1-023-3:88471:0]           ib_md.c:349  UCX  ERROR ibv_reg_mr(address=0x2b0c26882000, length=37773312, access=0xf) failed: Cannot allocate memory
[1671040132.631821] [eu-g1-023-3:88539:0]           ib_md.c:349  UCX  ERROR ibv_reg_mr(address=0x2acafdb66000, length=37773312, access=0xf) failed: Cannot allocate memory
[1671040132.643800] [eu-g1-023-3:88471:0]           mpool.c:226  UCX  ERROR Failed to allocate memory pool (name=rc_recv_desc) chunk: Input/output error
[1671040132.644447] [eu-g1-023-3:88539:0]           mpool.c:226  UCX  ERROR Failed to allocate memory pool (name=rc_recv_desc) chunk: Input/output error
srun: error: eu-g1-023-3: tasks 1-2,5-8,11,13,15,21,31,37,43,59,77,81,85,90,98,110,115-116,118-120,122-123,125,127: Killed
[1671040181.483539] [eu-g1-023-3:88458:0]        mm_posix.c:192  UCX  ERROR   Failed to write 65536 bytes. Cannot allocate memory
[1671040181.522822] [eu-g1-023-3:88458:0]         uct_mem.c:155  UCX  ERROR   failed to allocate 4292720 bytes using md posix for mm_recv_desc: Input/output error
[1671040181.522828] [eu-g1-023-3:88458:0]           mpool.c:226  UCX  ERROR Failed to allocate memory pool (name=mm_recv_desc) chunk: Input/output error
[1671040181.522831] [eu-g1-023-3:88458:0]        mm_iface.c:793  UCX  ERROR failed to get the first receive descriptor
[eu-g1-023-3:88458] pml_ucx.c:309  Error: Failed to create UCP worker
[1671040181.623530] [eu-g1-023-3:88490:0]         ib_mlx5.h:681  UCX  ERROR mlx5dv_devx_umem_reg() failed: Cannot allocate memory
[eu-g1-023-3:88490] pml_ucx.c:309  Error: Failed to create UCP worker
[1671040181.581171] [eu-g1-023-3:88492:0]        mm_posix.c:192  UCX  ERROR   Failed to write 65536 bytes. Cannot allocate memory
[1671040182.000704] [eu-g1-023-3:88492:0]         uct_mem.c:155  UCX  ERROR   failed to allocate 4292720 bytes using md posix for mm_recv_desc: Input/output error
[1671040182.000713] [eu-g1-023-3:88492:0]           mpool.c:226  UCX  ERROR Failed to allocate memory pool (name=mm_recv_desc) chunk: Input/output error
[1671040182.000716] [eu-g1-023-3:88492:0]        mm_iface.c:793  UCX  ERROR failed to get the first receive descriptor
[eu-g1-023-3:88492] pml_ucx.c:309  Error: Failed to create UCP worker
[1671040181.581168] [eu-g1-023-3:88500:0]        mm_posix.c:192  UCX  ERROR   Failed to write 65536 bytes. Cannot allocate memory
[1671040182.000648] [eu-g1-023-3:88500:0]         uct_mem.c:155  UCX  ERROR   failed to allocate 4292720 bytes using md posix for mm_recv_desc: Input/output error
[1671040182.000655] [eu-g1-023-3:88500:0]           mpool.c:226  UCX  ERROR Failed to allocate memory pool (name=mm_recv_desc) chunk: Input/output error
[1671040182.000658] [eu-g1-023-3:88500:0]        mm_iface.c:793  UCX  ERROR failed to get the first receive descriptor
[eu-g1-023-3:88500] pml_ucx.c:309  Error: Failed to create UCP worker
[1671040181.581169] [eu-g1-023-3:88504:0]        mm_posix.c:192  UCX  ERROR   Failed to write 65536 bytes. Cannot allocate memory
[1671040182.000645] [eu-g1-023-3:88504:0]         uct_mem.c:155  UCX  ERROR   failed to allocate 4292720 bytes using md posix for mm_recv_desc: Input/output error
[1671040182.000652] [eu-g1-023-3:88504:0]           mpool.c:226  UCX  ERROR Failed to allocate memory pool (name=mm_recv_desc) chunk: Input/output error
[1671040182.000655] [eu-g1-023-3:88504:0]        mm_iface.c:793  UCX  ERROR failed to get the first receive descriptor
[eu-g1-023-3:88504] pml_ucx.c:309  Error: Failed to create UCP worker
[1671040181.545058] [eu-g1-023-3:88529:0]        mm_posix.c:192  UCX  ERROR   Failed to write 65536 bytes. Cannot allocate memory
[1671040182.012108] [eu-g1-023-3:88529:0]         uct_mem.c:155  UCX  ERROR   failed to allocate 4292720 bytes using md posix for mm_recv_desc: Input/output error
[1671040182.012115] [eu-g1-023-3:88529:0]           mpool.c:226  UCX  ERROR Failed to allocate memory pool (name=mm_recv_desc) chunk: Input/output error
[1671040182.012120] [eu-g1-023-3:88529:0]        mm_iface.c:793  UCX  ERROR failed to get the first receive descriptor
[eu-g1-023-3:88529] pml_ucx.c:309  Error: Failed to create UCP worker
[1671040181.604358] [eu-g1-023-3:88537:0]        mm_posix.c:192  UCX  ERROR   Failed to write 65536 bytes. Cannot allocate memory
[1671040182.012275] [eu-g1-023-3:88537:0]         uct_mem.c:155  UCX  ERROR   failed to allocate 4292720 bytes using md posix for mm_recv_desc: Input/output error
[1671040182.012282] [eu-g1-023-3:88537:0]           mpool.c:226  UCX  ERROR Failed to allocate memory pool (name=mm_recv_desc) chunk: Input/output error
[1671040182.012287] [eu-g1-023-3:88537:0]        mm_iface.c:793  UCX  ERROR failed to get the first receive descriptor
[eu-g1-023-3:88537] pml_ucx.c:309  Error: Failed to create UCP worker
[1671040182.444123] [eu-g1-023-3:88521:0]        mm_posix.c:192  UCX  ERROR   Failed to write 65536 bytes. Cannot allocate memory
[1671040182.959079] [eu-g1-023-3:88521:0]         uct_mem.c:155  UCX  ERROR   failed to allocate 4292720 bytes using md posix for mm_recv_desc: Input/output error
[1671040182.959087] [eu-g1-023-3:88521:0]           mpool.c:226  UCX  ERROR Failed to allocate memory pool (name=mm_recv_desc) chunk: Input/output error
[1671040182.959090] [eu-g1-023-3:88521:0]        mm_iface.c:793  UCX  ERROR failed to get the first receive descriptor
[1671040182.933081] [eu-g1-023-3:88479:0]        mm_posix.c:192  UCX  ERROR   Failed to write 65536 bytes. Cannot allocate memory
[1671040182.967892] [eu-g1-023-3:88479:0]         uct_mem.c:155  UCX  ERROR   failed to allocate 4292720 bytes using md posix for mm_recv_desc: Input/output error
[1671040182.967897] [eu-g1-023-3:88479:0]           mpool.c:226  UCX  ERROR Failed to allocate memory pool (name=mm_recv_desc) chunk: Input/output error
[1671040182.967906] [eu-g1-023-3:88479:0]        mm_iface.c:793  UCX  ERROR failed to get the first receive descriptor
[eu-g1-023-3:88479] pml_ucx.c:309  Error: Failed to create UCP worker
[1671040182.933081] [eu-g1-023-3:88485:0]           ib_md.c:349  UCX  ERROR ibv_reg_mr(address=0x2abf7639c000, length=37773312, access=0xf) failed: Cannot allocate memory
[1671040182.967871] [eu-g1-023-3:88485:0]           mpool.c:226  UCX  ERROR Failed to allocate memory pool (name=rc_recv_desc) chunk: Input/output error
[1671040182.933059] [eu-g1-023-3:88497:0]        mm_posix.c:192  UCX  ERROR   Failed to write 65536 bytes. Cannot allocate memory
[1671040182.967880] [eu-g1-023-3:88497:0]         uct_mem.c:155  UCX  ERROR   failed to allocate 4292720 bytes using md posix for mm_recv_desc: Input/output error
[1671040182.967885] [eu-g1-023-3:88497:0]           mpool.c:226  UCX  ERROR Failed to allocate memory pool (name=mm_recv_desc) chunk: Input/output error
[1671040182.967888] [eu-g1-023-3:88497:0]        mm_iface.c:793  UCX  ERROR failed to get the first receive descriptor
[eu-g1-023-3:88497] pml_ucx.c:309  Error: Failed to create UCP worker
[1671040182.933059] [eu-g1-023-3:88499:0]        mm_posix.c:192  UCX  ERROR   Failed to write 65536 bytes. Cannot allocate memory
[1671040182.967860] [eu-g1-023-3:88499:0]         uct_mem.c:155  UCX  ERROR   failed to allocate 4292720 bytes using md posix for mm_recv_desc: Input/output error
[1671040182.967865] [eu-g1-023-3:88499:0]           mpool.c:226  UCX  ERROR Failed to allocate memory pool (name=mm_recv_desc) chunk: Input/output error
[1671040182.967868] [eu-g1-023-3:88499:0]        mm_iface.c:793  UCX  ERROR failed to get the first receive descriptor
[eu-g1-023-3:88499] pml_ucx.c:309  Error: Failed to create UCP worker
[1671040182.933059] [eu-g1-023-3:88503:0]        mm_posix.c:192  UCX  ERROR   Failed to write 65536 bytes. Cannot allocate memory
[1671040182.967890] [eu-g1-023-3:88503:0]         uct_mem.c:155  UCX  ERROR   failed to allocate 4292720 bytes using md posix for mm_recv_desc: Input/output error
[1671040182.967895] [eu-g1-023-3:88503:0]           mpool.c:226  UCX  ERROR Failed to allocate memory pool (name=mm_recv_desc) chunk: Input/output error
[1671040182.967898] [eu-g1-023-3:88503:0]        mm_iface.c:793  UCX  ERROR failed to get the first receive descriptor
[eu-g1-023-3:88503] pml_ucx.c:309  Error: Failed to create UCP worker
[1671040182.953705] [eu-g1-023-3:88513:0]        mm_posix.c:192  UCX  ERROR   Failed to write 65536 bytes. Cannot allocate memory
[1671040183.132207] [eu-g1-023-3:88513:0]         uct_mem.c:155  UCX  ERROR   failed to allocate 4292720 bytes using md posix for mm_recv_desc: Input/output error
[1671040183.132219] [eu-g1-023-3:88513:0]           mpool.c:226  UCX  ERROR Failed to allocate memory pool (name=mm_recv_desc) chunk: Input/output error
[1671040183.132223] [eu-g1-023-3:88513:0]        mm_iface.c:793  UCX  ERROR failed to get the first receive descriptor
[eu-g1-023-3:88513] pml_ucx.c:309  Error: Failed to create UCP worker
[1671040182.885781] [eu-g1-023-3:88517:0]           ib_md.c:349  UCX  ERROR ibv_reg_mr(address=0x2b647d722000, length=37773312, access=0xf) failed: Cannot allocate memory
[1671040183.132478] [eu-g1-023-3:88517:0]           mpool.c:226  UCX  ERROR Failed to allocate memory pool (name=rc_recv_desc) chunk: Input/output error
[eu-g1-023-3:88521] pml_ucx.c:309  Error: Failed to create UCP worker
[1671040184.862206] [eu-g1-023-3:88465:0]           ib_md.c:349  UCX  ERROR ibv_reg_mr(address=0x2aee9a4a3000, length=37773312, access=0xf) failed: Cannot allocate memory
[1671040184.920759] [eu-g1-023-3:88465:0]           mpool.c:226  UCX  ERROR Failed to allocate memory pool (name=rc_recv_desc) chunk: Input/output error
[1671040184.862250] [eu-g1-023-3:88469:0]           ib_md.c:349  UCX  ERROR ibv_reg_mr(address=0x2af9c0278000, length=37773312, access=0xf) failed: Cannot allocate memory
[1671040184.921082] [eu-g1-023-3:88469:0]           mpool.c:226  UCX  ERROR Failed to allocate memory pool (name=rc_recv_desc) chunk: Input/output error
[1671040184.862156] [eu-g1-023-3:88473:0]           ib_md.c:349  UCX  ERROR ibv_reg_mr(address=0x2b45d9338000, length=37773312, access=0xf) failed: Cannot allocate memory
[1671040184.920730] [eu-g1-023-3:88473:0]           mpool.c:226  UCX  ERROR Failed to allocate memory pool (name=rc_recv_desc) chunk: Input/output error
[1671040184.862114] [eu-g1-023-3:88475:0]           ib_md.c:349  UCX  ERROR ibv_reg_mr(address=0x2ad68661d000, length=37773312, access=0xf) failed: Cannot allocate memory
[1671040184.920278] [eu-g1-023-3:88475:0]           mpool.c:226  UCX  ERROR Failed to allocate memory pool (name=rc_recv_desc) chunk: Input/output error
[1671040184.970738] [eu-g1-023-3:88545:0]           ib_md.c:349  UCX  ERROR ibv_reg_mr(address=0x2b9e7a006000, length=37773312, access=0xf) failed: Cannot allocate memory
[1671040185.005298] [eu-g1-023-3:88545:0]           mpool.c:226  UCX  ERROR Failed to allocate memory pool (name=rc_recv_desc) chunk: Input/output error
[1671040184.909298] [eu-g1-023-3:88546:0]         ib_mlx5.h:681  UCX  ERROR mlx5dv_devx_umem_reg() failed: Cannot allocate memory
[1671040184.937967] [eu-g1-023-3:88547:0]           ib_md.c:349  UCX  ERROR ibv_reg_mr(address=0x2b0d96cad000, length=37773312, access=0xf) failed: Cannot allocate memory
[1671040184.995496] [eu-g1-023-3:88547:0]           mpool.c:226  UCX  ERROR Failed to allocate memory pool (name=rc_recv_desc) chunk: Input/output error
[1671040184.909495] [eu-g1-023-3:88548:0]           ib_md.c:349  UCX  ERROR ibv_reg_mr(address=0x2ab633441000, length=37773312, access=0xf) failed: Cannot allocate memory
[1671040184.909592] [eu-g1-023-3:88550:0]           ib_md.c:349  UCX  ERROR ibv_reg_mr(address=0x2b08679d4000, length=37773312, access=0xf) failed: Cannot allocate memory
[1671040184.970433] [eu-g1-023-3:88551:0]           ib_md.c:349  UCX  ERROR ibv_reg_mr(address=0x2ad9924c5000, length=37773312, access=0xf) failed: Cannot allocate memory
[1671040184.994686] [eu-g1-023-3:88551:0]           mpool.c:226  UCX  ERROR Failed to allocate memory pool (name=rc_recv_desc) chunk: Input/output error
[1671040184.970867] [eu-g1-023-3:88553:0]           ib_md.c:349  UCX  ERROR ibv_reg_mr(address=0x2b24a69b5000, length=37773312, access=0xf) failed: Cannot allocate memory
[1671040185.005191] [eu-g1-023-3:88553:0]           mpool.c:226  UCX  ERROR Failed to allocate memory pool (name=rc_recv_desc) chunk: Input/output error
[1671040184.909433] [eu-g1-023-3:88554:0]           ib_md.c:349  UCX  ERROR ibv_reg_mr(address=0x2afdbdaa2000, length=37773312, access=0xf) failed: Cannot allocate memory
[1671040185.006546] [eu-g1-023-3:88554:0]           mpool.c:226  UCX  ERROR Failed to allocate memory pool (name=rc_recv_desc) chunk: Input/output error
[1671040184.970619] [eu-g1-023-3:88557:0]           ib_md.c:349  UCX  ERROR ibv_reg_mr(address=0x2aba1b3d6000, length=37773312, access=0xf) failed: Cannot allocate memory
[1671040185.001674] [eu-g1-023-3:88557:0]           mpool.c:226  UCX  ERROR Failed to allocate memory pool (name=rc_recv_desc) chunk: Input/output error
[1671040184.909567] [eu-g1-023-3:88558:0]           ib_md.c:349  UCX  ERROR ibv_reg_mr(address=0x2ae3566b3000, length=37773312, access=0xf) failed: Cannot allocate memory
[1671040184.970807] [eu-g1-023-3:88559:0]           ib_md.c:349  UCX  ERROR ibv_reg_mr(address=0x2b762bb59000, length=37773312, access=0xf) failed: Cannot allocate memory
[1671040185.004419] [eu-g1-023-3:88559:0]           mpool.c:226  UCX  ERROR Failed to allocate memory pool (name=rc_recv_desc) chunk: Input/output error
[1671040185.008090] [eu-g1-023-3:88548:0]           mpool.c:226  UCX  ERROR Failed to allocate memory pool (name=rc_recv_desc) chunk: Input/output error
[1671040185.008914] [eu-g1-023-3:88558:0]           mpool.c:226  UCX  ERROR Failed to allocate memory pool (name=rc_recv_desc) chunk: Input/output error
[1671040185.009148] [eu-g1-023-3:88550:0]           mpool.c:226  UCX  ERROR Failed to allocate memory pool (name=rc_recv_desc) chunk: Input/output error
[eu-g1-023-3:88546] pml_ucx.c:309  Error: Failed to create UCP worker
[1671040184.597781] [eu-g1-023-3:88478:0]           ib_md.c:349  UCX  ERROR ibv_reg_mr(address=0x2b944b952000, length=37773312, access=0xf) failed: Cannot allocate memory
[1671040184.668885] [eu-g1-023-3:88482:0]         ib_mlx5.h:681  UCX  ERROR mlx5dv_devx_umem_reg() failed: Cannot allocate memory
[1671040184.597084] [eu-g1-023-3:88484:0]           ib_md.c:349  UCX  ERROR ibv_reg_mr(address=0x2aff98a88000, length=37773312, access=0xf) failed: Cannot allocate memory
[1671040184.597864] [eu-g1-023-3:88486:0]           ib_md.c:349  UCX  ERROR ibv_reg_mr(address=0x2ba495e2e000, length=37773312, access=0xf) failed: Cannot allocate memory
[1671040184.524316] [eu-g1-023-3:88498:0]           ib_md.c:349  UCX  ERROR ibv_reg_mr(address=0x2b5d34d32000, length=37773312, access=0xf) failed: Cannot allocate memory
[1671040185.015195] [eu-g1-023-3:88484:0]           mpool.c:226  UCX  ERROR Failed to allocate memory pool (name=rc_recv_desc) chunk: Input/output error
[1671040185.015485] [eu-g1-023-3:88498:0]           mpool.c:226  UCX  ERROR Failed to allocate memory pool (name=rc_recv_desc) chunk: Input/output error
[1671040184.525061] [eu-g1-023-3:88480:0]           ib_md.c:349  UCX  ERROR ibv_reg_mr(address=0x2b3577842000, length=37773312, access=0xf) failed: Cannot allocate memory
[1671040184.524314] [eu-g1-023-3:88494:0]           ib_md.c:349  UCX  ERROR ibv_reg_mr(address=0x2ae13caaa000, length=37773312, access=0xf) failed: Cannot allocate memory
[1671040184.524353] [eu-g1-023-3:88496:0]           ib_md.c:349  UCX  ERROR ibv_reg_mr(address=0x2b52a9b66000, length=37773312, access=0xf) failed: Cannot allocate memory
[1671040184.524279] [eu-g1-023-3:88506:0]         ib_mlx5.h:681  UCX  ERROR mlx5dv_devx_umem_reg() failed: Cannot allocate memory
[1671040185.016703] [eu-g1-023-3:88494:0]           mpool.c:226  UCX  ERROR Failed to allocate memory pool (name=rc_recv_desc) chunk: Input/output error
[1671040185.017310] [eu-g1-023-3:88478:0]           mpool.c:226  UCX  ERROR Failed to allocate memory pool (name=rc_recv_desc) chunk: Input/output error
[1671040185.017339] [eu-g1-023-3:88496:0]           mpool.c:226  UCX  ERROR Failed to allocate memory pool (name=rc_recv_desc) chunk: Input/output error
[1671040185.017404] [eu-g1-023-3:88486:0]           mpool.c:226  UCX  ERROR Failed to allocate memory pool (name=rc_recv_desc) chunk: Input/output error
[1671040185.018621] [eu-g1-023-3:88480:0]           mpool.c:226  UCX  ERROR Failed to allocate memory pool (name=rc_recv_desc) chunk: Input/output error
[eu-g1-023-3:88482] pml_ucx.c:309  Error: Failed to create UCP worker
[eu-g1-023-3:88506] pml_ucx.c:309  Error: Failed to create UCP worker
[1671040186.096346] [eu-g1-023-3:88465:0]           ib_md.c:349  UCX  ERROR ibv_reg_mr(address=0x2aee9c8ce000, length=37773312, access=0xf) failed: Cannot allocate memory
[1671040186.096367] [eu-g1-023-3:88465:0]           mpool.c:226  UCX  ERROR Failed to allocate memory pool (name=rc_recv_desc) chunk: Input/output error
[1671040186.096356] [eu-g1-023-3:88469:0]           ib_md.c:349  UCX  ERROR ibv_reg_mr(address=0x2af9c26a3000, length=37773312, access=0xf) failed: Cannot allocate memory
[1671040186.096488] [eu-g1-023-3:88469:0]           mpool.c:226  UCX  ERROR Failed to allocate memory pool (name=rc_recv_desc) chunk: Input/output error
[1671040186.096347] [eu-g1-023-3:88473:0]           ib_md.c:349  UCX  ERROR ibv_reg_mr(address=0x2b45db763000, length=37773312, access=0xf) failed: Cannot allocate memory
[1671040186.096368] [eu-g1-023-3:88473:0]           mpool.c:226  UCX  ERROR Failed to allocate memory pool (name=rc_recv_desc) chunk: Input/output error
[1671040186.096348] [eu-g1-023-3:88475:0]           ib_md.c:349  UCX  ERROR ibv_reg_mr(address=0x2ad688a48000, length=37773312, access=0xf) failed: Cannot allocate memory
[1671040186.096400] [eu-g1-023-3:88475:0]           mpool.c:226  UCX  ERROR Failed to allocate memory pool (name=rc_recv_desc) chunk: Input/output error
slurmstepd: error: execve(/cluster/slurm/adm/scripts/task-epilog.sh): Argument list too long
slurmstepd: error: --task-epilog failed status=32512
[1671040186.856776] [eu-g1-023-3:88480:0]           ib_md.c:349  UCX  ERROR ibv_reg_mr(address=0x2b3579c6d000, length=37773312, access=0xf) failed: Cannot allocate memory
[1671040186.856805] [eu-g1-023-3:88480:0]           mpool.c:226  UCX  ERROR Failed to allocate memory pool (name=rc_recv_desc) chunk: Input/output error
[1671040186.856776] [eu-g1-023-3:88484:0]           ib_md.c:349  UCX  ERROR ibv_reg_mr(address=0x2aff9aeb3000, length=37773312, access=0xf) failed: Cannot allocate memory
[1671040186.856803] [eu-g1-023-3:88484:0]           mpool.c:226  UCX  ERROR Failed to allocate memory pool (name=rc_recv_desc) chunk: Input/output error
[1671040186.896613] [eu-g1-023-3:88478:0]           ib_md.c:349  UCX  ERROR ibv_reg_mr(address=0x2b944dd7d000, length=37773312, access=0xf) failed: Cannot allocate memory
[1671040186.896639] [eu-g1-023-3:88478:0]           mpool.c:226  UCX  ERROR Failed to allocate memory pool (name=rc_recv_desc) chunk: Input/output error
[1671040186.924126] [eu-g1-023-3:88486:0]           ib_md.c:349  UCX  ERROR ibv_reg_mr(address=0x2ba498259000, length=37773312, access=0xf) failed: Cannot allocate memory
[1671040186.924169] [eu-g1-023-3:88486:0]           mpool.c:226  UCX  ERROR Failed to allocate memory pool (name=rc_recv_desc) chunk: Input/output error
[1671040186.924122] [eu-g1-023-3:88494:0]           ib_md.c:349  UCX  ERROR ibv_reg_mr(address=0x2ae13eed5000, length=37773312, access=0xf) failed: Cannot allocate memory
[1671040186.924142] [eu-g1-023-3:88494:0]           mpool.c:226  UCX  ERROR Failed to allocate memory pool (name=rc_recv_desc) chunk: Input/output error
[1671040186.924122] [eu-g1-023-3:88498:0]           ib_md.c:349  UCX  ERROR ibv_reg_mr(address=0x2b5d3715d000, length=37773312, access=0xf) failed: Cannot allocate memory
[1671040186.924145] [eu-g1-023-3:88498:0]           mpool.c:226  UCX  ERROR Failed to allocate memory pool (name=rc_recv_desc) chunk: Input/output error
[1671040186.924173] [eu-g1-023-3:88508:0]           ib_md.c:349  UCX  ERROR ibv_reg_mr(address=0x2ab8985bf000, length=37773312, access=0xf) failed: Cannot allocate memory
[1671040186.924415] [eu-g1-023-3:88508:0]           mpool.c:226  UCX  ERROR Failed to allocate memory pool (name=rc_recv_desc) chunk: Input/output error
[1671040187.279126] [eu-g1-023-3:88496:0]           ib_md.c:349  UCX  ERROR ibv_reg_mr(address=0x2b52abf91000, length=37773312, access=0xf) failed: Cannot allocate memory
[1671040187.281163] [eu-g1-023-3:88496:0]           mpool.c:226  UCX  ERROR Failed to allocate memory pool (name=rc_recv_desc) chunk: Input/output error
srun: error: eu-g1-023-3: tasks 0,3,9-10,16-17,25,39,41-42,47,55-56,62,64-65,69-73,78,80,86,93-97,101,105,111,117,121,124,126: Killed
slurmstepd: error: *** STEP 4309688.0 ON eu-g1-023-3 CANCELLED AT 2022-12-14T19:47:43 DUE TO TIME LIMIT ***
slurmstepd: error: *** JOB 4309688 ON eu-g1-023-3 CANCELLED AT 2022-12-14T19:47:43 DUE TO TIME LIMIT ***
srun: Job step aborted: Waiting up to 32 seconds for job step to finish.
