MPI_insiderank_serial
Process 0: 8.078246, 7.775335, 7.739139, 7.687754, 7.736584, 7.639151, 8.686011, 7.708222, 7.637813, 7.721857, 7.716549, 7.701524, 7.650139, 7.738401, 7.733467, 7.670586, 7.698099, 7.692143, 7.722462, 7.672401, 7.718472, 7.711908, 7.703553, 7.636272, 7.707200, 7.679523, 7.748159, 7.674987, 7.675704, 7.694522
Process 1: 7.735355, 7.434143, 7.404287, 7.315458, 7.400223, 7.317089, 7.350147, 7.370787, 7.307339, 7.393972, 7.345768, 7.355792, 7.306481, 7.399860, 7.395069, 7.350888, 7.325427, 7.352758, 7.367386, 7.333189, 7.395565, 7.366137, 7.360978, 7.294726, 7.336591, 7.340826, 7.408751, 7.330702, 7.347425, 7.355568
Process 2: 7.903775, 7.597216, 7.578365, 7.494197, 7.558137, 7.490786, 7.538348, 7.528729, 7.474420, 7.559690, 7.523050, 7.524459, 7.480175, 7.559173, 7.568483, 7.527203, 7.481696, 7.528252, 7.542978, 7.509001, 7.554674, 7.542073, 7.542508, 7.478729, 7.514014, 7.513139, 7.580923, 7.504446, 7.508457, 7.527760
Process 3: 8.083516, 7.780014, 7.743726, 7.692060, 7.740356, 7.643130, 8.692818, 7.712802, 7.641810, 7.726014, 7.721881, 7.705572, 7.655106, 7.742483, 7.737440, 7.674866, 7.703305, 7.696412, 7.726848, 7.676371, 7.722841, 7.715719, 7.707761, 7.640842, 7.711421, 7.683229, 7.751849, 7.678843, 7.679826, 7.698243
