slurmstepd: error: poll(): Bad address
slurmstepd: error: poll(): Bad address
srun: error: poll: Bad address
srun: error: eu-g1-051-1: tasks 1,15-16,22: Killed
srun: Job step aborted: Waiting up to 32 seconds for job step to finish.
srun: error: eu-g1-051-1: tasks 0,2-11,13-14,19,23-26,28-29: Killed
srun: error: eu-g1-051-1: tasks 12,17-18,20-21,27,30-31: Exited with exit code 1
