slurmstepd: error: poll(): Bad address
slurmstepd: error: poll(): Bad address
[1671040105.545840] [eu-g1-043-2:102082:0]           ib_md.c:349  UCX  ERROR ibv_reg_mr(address=0x2b70c5b24000, length=37773312, access=0xf) failed: Cannot allocate memory
[1671040105.545857] [eu-g1-043-2:102084:0]           ib_md.c:349  UCX  ERROR ibv_reg_mr(address=0x2ad68c74f000, length=37773312, access=0xf) failed: Cannot allocate memory
[1671040105.547122] [eu-g1-043-2:102084:0]           mpool.c:226  UCX  ERROR Failed to allocate memory pool (name=rc_recv_desc) chunk: Input/output error
[1671040105.547457] [eu-g1-043-2:102082:0]           mpool.c:226  UCX  ERROR Failed to allocate memory pool (name=rc_recv_desc) chunk: Input/output error
[1671040105.699742] [eu-g1-043-2:102062:0]           ib_md.c:349  UCX  ERROR ibv_reg_mr(address=0x2ab6fed7c000, length=37773312, access=0xf) failed: Cannot allocate memory
[1671040105.702113] [eu-g1-043-2:102062:0]           mpool.c:226  UCX  ERROR Failed to allocate memory pool (name=rc_recv_desc) chunk: Input/output error
srun: error: eu-g1-043-2: tasks 7,15,41: Killed
srun: error: eu-g1-043-2: tasks 14,20,45,56: Killed
srun: error: eu-g1-043-2: task 44: Killed
[1671040107.430864] [eu-g1-043-2:102040:0]        mm_posix.c:218  UCX  ERROR   open(file_name=/proc/102042/fd/18 flags=0x0) failed: No such file or directory
[1671040107.430901] [eu-g1-043-2:102040:0]           mm_ep.c:171  UCX  ERROR   mm ep failed to connect to remote FIFO id 0xc000000480018e9a: Shared memory error
[eu-g1-043-2:102040] pml_ucx.c:419  Error: ucp_ep_create(proc=14) failed: Shared memory error
--------------------------------------------------------------------------
It looks like MPI_INIT failed for some reason; your parallel process is
likely to abort.  There are many reasons that a parallel process can
fail during MPI_INIT; some of which are due to configuration or environment
problems.  This failure appears to be an internal failure; here's some
additional information (which may only be relevant to an Open MPI
developer):

  PML add procs failed
  --> Returned "Error" (-1) instead of "Success" (0)
--------------------------------------------------------------------------
[eu-g1-043-2:102040] *** An error occurred in MPI_Init
[eu-g1-043-2:102040] *** reported by process [3267297280,12]
[eu-g1-043-2:102040] *** on a NULL communicator
[eu-g1-043-2:102040] *** Unknown error
[eu-g1-043-2:102040] *** MPI_ERRORS_ARE_FATAL (processes in this communicator will now abort,
[eu-g1-043-2:102040] ***    and potentially your MPI job)
slurmstepd: error: *** STEP 4309695.0 ON eu-g1-043-2 CANCELLED AT 2022-12-14T18:48:27 ***
srun: Job step aborted: Waiting up to 32 seconds for job step to finish.
srun: error: eu-g1-043-2: tasks 0-6,8-11,13,16-19,21-40,42-43,46-55,57-63: Killed
srun: error: eu-g1-043-2: task 12: Exited with exit code 1
