MPI_insiderank_serial
Process 0: 6.492620, 7.280021, 6.347465, 6.403041, 6.370296, 6.285223, 6.836460, 6.328094, 6.325791, 6.278274, 6.319828, 6.290905, 6.326784, 8.882489, 6.322302, 6.280672, 7.496619, 6.282150, 6.274640, 6.309878, 6.275489, 6.332764, 6.278116, 6.323491, 6.278291, 6.279094, 6.283253, 6.279338, 6.341157, 6.324460
Process 1: 5.959893, 7.132004, 5.871174, 5.871561, 5.871041, 5.805862, 6.316058, 5.812900, 5.825969, 5.801786, 5.825172, 5.770763, 5.817303, 5.794023, 5.825454, 5.783540, 7.416741, 5.790312, 5.777068, 5.779627, 5.778450, 5.777494, 5.781075, 5.826130, 5.780682, 5.805683, 5.786022, 5.781962, 5.823496, 5.827014
Process 2: 6.238876, 7.207679, 6.093598, 6.126548, 6.116498, 6.028448, 6.570731, 6.063233, 6.071263, 6.023885, 6.093855, 6.024924, 6.062181, 6.041645, 6.072516, 6.029920, 7.455879, 6.058669, 6.023036, 6.051975, 6.024774, 6.034817, 6.026826, 6.071791, 6.026483, 6.028135, 6.031889, 6.028240, 6.078339, 6.073304
Process 3: 6.501109, 7.289432, 6.355808, 6.411455, 6.378722, 6.293630, 6.844841, 6.336425, 6.334110, 6.286725, 6.328165, 6.299388, 6.335490, 8.891919, 6.330874, 6.289140, 7.506619, 6.290514, 6.282976, 6.318247, 6.283846, 6.341139, 6.286540, 6.331756, 6.286593, 6.287454, 6.291457, 6.287733, 6.349489, 6.332911
