slurmstepd: error: Detected 2 oom-kill event(s) in StepId=4309693.0. Some of your processes may have been killed by the cgroup out-of-memory handler.
srun: error: eu-g1-039-4: tasks 0,7: Out Of Memory
[eu-g1-039-4:47534:0:47534]      cma_ep.c:81   process_vm_readv(pid=47524 {0x2acfd2880010,524288}-->{0x2b4e67ff0410,524288}) returned -1: No such process
==== backtrace (tid:  47534) ====
 0  /cluster/spack/apps/linux-centos7-x86_64/gcc-9.3.0/ucx-1.12.1-xfljgpcc4jht7wamy2hjr2mdvn7y3u5g/lib/libucs.so.0(ucs_handle_error+0x2a4) [0x2acfb53bc574]
 1  /cluster/spack/apps/linux-centos7-x86_64/gcc-9.3.0/ucx-1.12.1-xfljgpcc4jht7wamy2hjr2mdvn7y3u5g/lib/libucs.so.0(ucs_fatal_error_message+0x50) [0x2acfb53b9310]
 2  /cluster/spack/apps/linux-centos7-x86_64/gcc-9.3.0/ucx-1.12.1-xfljgpcc4jht7wamy2hjr2mdvn7y3u5g/lib/libucs.so.0(ucs_log_default_handler+0xea0) [0x2acfb53be100]
 3  /cluster/spack/apps/linux-centos7-x86_64/gcc-9.3.0/ucx-1.12.1-xfljgpcc4jht7wamy2hjr2mdvn7y3u5g/lib/libucs.so.0(ucs_log_dispatch+0xd1) [0x2acfb53be2b1]
 4  /cluster/spack/apps/linux-centos7-x86_64/gcc-9.3.0/ucx-1.12.1-xfljgpcc4jht7wamy2hjr2mdvn7y3u5g/lib/ucx/libuct_cma.so.0(+0x2c93) [0x2acfc0d78c93]
 5  /cluster/spack/apps/linux-centos7-x86_64/gcc-9.3.0/ucx-1.12.1-xfljgpcc4jht7wamy2hjr2mdvn7y3u5g/lib/ucx/libuct_cma.so.0(uct_cma_ep_tx+0x25c) [0x2acfc0d7913c]
 6  /cluster/spack/apps/linux-centos7-x86_64/gcc-9.3.0/ucx-1.12.1-xfljgpcc4jht7wamy2hjr2mdvn7y3u5g/lib/libuct.so.0(uct_scopy_ep_progress_tx+0x63) [0x2acfb5162203]
 7  /cluster/spack/apps/linux-centos7-x86_64/gcc-9.3.0/ucx-1.12.1-xfljgpcc4jht7wamy2hjr2mdvn7y3u5g/lib/libucs.so.0(ucs_arbiter_dispatch_nonempty+0xee) [0x2acfb53ae40e]
 8  /cluster/spack/apps/linux-centos7-x86_64/gcc-9.3.0/ucx-1.12.1-xfljgpcc4jht7wamy2hjr2mdvn7y3u5g/lib/libuct.so.0(uct_scopy_iface_progress+0x59) [0x2acfb5161b99]
 9  /cluster/spack/apps/linux-centos7-x86_64/gcc-9.3.0/ucx-1.12.1-xfljgpcc4jht7wamy2hjr2mdvn7y3u5g/lib/libucp.so.0(ucp_worker_progress+0x7a) [0x2acfb4e582aa]
10  /cluster/spack/apps/linux-centos7-x86_64/gcc-9.3.0/openmpi-4.1.4-ce3rybsut3hyqo2i2sm5qwu2muxqny3x/lib/libmpi.so.40(mca_pml_ucx_recv+0x11f) [0x2acfb2fa9f8f]
11  /cluster/spack/apps/linux-centos7-x86_64/gcc-9.3.0/openmpi-4.1.4-ce3rybsut3hyqo2i2sm5qwu2muxqny3x/lib/libmpi.so.40(MPI_Recv+0xf5) [0x2acfb2e26e45]
12  /cluster/scratch/galoisi/DPHPC/2022_hs_polybench_parallelization/src/seidel/OUT/./mpi_insiderank_serial.out() [0x401e48]
13  /lib64/libc.so.6(__libc_start_main+0xf5) [0x2acfb371e555]
14  /cluster/scratch/galoisi/DPHPC/2022_hs_polybench_parallelization/src/seidel/OUT/./mpi_insiderank_serial.out() [0x401f8c]
=================================
[eu-g1-039-4:47534] *** Process received signal ***
[eu-g1-039-4:47534] Signal: Aborted (6)
[eu-g1-039-4:47534] Signal code:  (-6)
[eu-g1-039-4:47534] [ 0] /lib64/libpthread.so.0(+0xf630)[0x2acfb34ef630]
[eu-g1-039-4:47534] [ 1] /lib64/libc.so.6(gsignal+0x37)[0x2acfb3732387]
[eu-g1-039-4:47534] [ 2] /lib64/libc.so.6(abort+0x148)[0x2acfb3733a78]
[eu-g1-039-4:47534] [ 3] /cluster/spack/apps/linux-centos7-x86_64/gcc-9.3.0/ucx-1.12.1-xfljgpcc4jht7wamy2hjr2mdvn7y3u5g/lib/libucs.so.0(ucs_fatal_error_message+0x55)[0x2acfb53b9315]
[eu-g1-039-4:47534] [ 4] /cluster/spack/apps/linux-centos7-x86_64/gcc-9.3.0/ucx-1.12.1-xfljgpcc4jht7wamy2hjr2mdvn7y3u5g/lib/libucs.so.0(ucs_log_default_handler+0xea0)[0x2acfb53be100]
[eu-g1-039-4:47534] [ 5] /cluster/spack/apps/linux-centos7-x86_64/gcc-9.3.0/ucx-1.12.1-xfljgpcc4jht7wamy2hjr2mdvn7y3u5g/lib/libucs.so.0(ucs_log_dispatch+0xd1)[0x2acfb53be2b1]
[eu-g1-039-4:47534] [ 6] /cluster/spack/apps/linux-centos7-x86_64/gcc-9.3.0/ucx-1.12.1-xfljgpcc4jht7wamy2hjr2mdvn7y3u5g/lib/ucx/libuct_cma.so.0(+0x2c93)[0x2acfc0d78c93]
[eu-g1-039-4:47534] [ 7] /cluster/spack/apps/linux-centos7-x86_64/gcc-9.3.0/ucx-1.12.1-xfljgpcc4jht7wamy2hjr2mdvn7y3u5g/lib/ucx/libuct_cma.so.0(uct_cma_ep_tx+0x25c)[0x2acfc0d7913c]
[eu-g1-039-4:47534] [ 8] /cluster/spack/apps/linux-centos7-x86_64/gcc-9.3.0/ucx-1.12.1-xfljgpcc4jht7wamy2hjr2mdvn7y3u5g/lib/libuct.so.0(uct_scopy_ep_progress_tx+0x63)[0x2acfb5162203]
[eu-g1-039-4:47534] [ 9] /cluster/spack/apps/linux-centos7-x86_64/gcc-9.3.0/ucx-1.12.1-xfljgpcc4jht7wamy2hjr2mdvn7y3u5g/lib/libucs.so.0(ucs_arbiter_dispatch_nonempty+0xee)[0x2acfb53ae40e]
[eu-g1-039-4:47534] [10] /cluster/spack/apps/linux-centos7-x86_64/gcc-9.3.0/ucx-1.12.1-xfljgpcc4jht7wamy2hjr2mdvn7y3u5g/lib/libuct.so.0(uct_scopy_iface_progress+0x59)[0x2acfb5161b99]
[eu-g1-039-4:47534] [11] /cluster/spack/apps/linux-centos7-x86_64/gcc-9.3.0/ucx-1.12.1-xfljgpcc4jht7wamy2hjr2mdvn7y3u5g/lib/libucp.so.0(ucp_worker_progress+0x7a)[0x2acfb4e582aa]
[eu-g1-039-4:47534] [12] /cluster/spack/apps/linux-centos7-x86_64/gcc-9.3.0/openmpi-4.1.4-ce3rybsut3hyqo2i2sm5qwu2muxqny3x/lib/libmpi.so.40(mca_pml_ucx_recv+0x11f)[0x2acfb2fa9f8f]
[eu-g1-039-4:47534] [13] /cluster/spack/apps/linux-centos7-x86_64/gcc-9.3.0/openmpi-4.1.4-ce3rybsut3hyqo2i2sm5qwu2muxqny3x/lib/libmpi.so.40(MPI_Recv+0xf5)[0x2acfb2e26e45]
[eu-g1-039-4:47534] [14] /cluster/scratch/galoisi/DPHPC/2022_hs_polybench_parallelization/src/seidel/OUT/./mpi_insiderank_serial.out[0x401e48]
[eu-g1-039-4:47534] [15] /lib64/libc.so.6(__libc_start_main+0xf5)[0x2acfb371e555]
[eu-g1-039-4:47534] [16] /cluster/scratch/galoisi/DPHPC/2022_hs_polybench_parallelization/src/seidel/OUT/./mpi_insiderank_serial.out[0x401f8c]
[eu-g1-039-4:47534] *** End of error message ***
slurmstepd: error: *** STEP 4309693.0 ON eu-g1-039-4 CANCELLED AT 2022-12-14T19:48:13 DUE TO TIME LIMIT ***
slurmstepd: error: *** JOB 4309693 ON eu-g1-039-4 CANCELLED AT 2022-12-14T19:48:13 DUE TO TIME LIMIT ***
srun: Job step aborted: Waiting up to 32 seconds for job step to finish.
slurmstepd: error: Detected 2 oom-kill event(s) in StepId=4309693.batch. Some of your processes may have been killed by the cgroup out-of-memory handler.
