slurmstepd: error: poll(): Bad address
[1671039990.883238] [eu-a2p-495:129323:0]           ib_md.c:349  UCX  ERROR ibv_reg_mr(address=0x2adc27c06000, length=37773312, access=0xf) failed: Cannot allocate memory
[1671039990.883728] [eu-a2p-495:129333:0]           ib_md.c:349  UCX  ERROR ibv_reg_mr(address=0x2b5812a3e000, length=37773312, access=0xf) failed: Cannot allocate memory
[1671039990.885984] [eu-a2p-495:129323:0]           mpool.c:226  UCX  ERROR Failed to allocate memory pool (name=rc_recv_desc) chunk: Input/output error
[1671039990.888677] [eu-a2p-495:129333:0]           mpool.c:226  UCX  ERROR Failed to allocate memory pool (name=rc_recv_desc) chunk: Input/output error
[1671039991.221688] [eu-a2p-495:129331:0]           ib_md.c:349  UCX  ERROR ibv_reg_mr(address=0x2abca9fd2000, length=37773312, access=0xf) failed: Cannot allocate memory
[1671039991.221741] [eu-a2p-495:129330:0]           ib_md.c:349  UCX  ERROR ibv_reg_mr(address=0x2b4252453000, length=37773312, access=0xf) failed: Cannot allocate memory
[1671039991.222305] [eu-a2p-495:129330:0]           mpool.c:226  UCX  ERROR Failed to allocate memory pool (name=rc_recv_desc) chunk: Input/output error
[1671039991.226274] [eu-a2p-495:129331:0]           mpool.c:226  UCX  ERROR Failed to allocate memory pool (name=rc_recv_desc) chunk: Input/output error
srun: error: eu-a2p-495: tasks 0,6: Killed
[1671039991.574490] [eu-a2p-495:129323:0]           ib_md.c:349  UCX  ERROR ibv_reg_mr(address=0x2adc27e14000, length=37773312, access=0xf) failed: Cannot allocate memory
[1671039991.577894] [eu-a2p-495:129323:0]           mpool.c:226  UCX  ERROR Failed to allocate memory pool (name=rc_recv_desc) chunk: Input/output error
[1671039991.586421] [eu-a2p-495:129320:0]           ib_md.c:349  UCX  ERROR ibv_reg_mr(address=0x2b686aa20000, length=37773312, access=0xf) failed: Cannot allocate memory
[1671039991.586430] [eu-a2p-495:129324:0]           ib_md.c:349  UCX  ERROR ibv_reg_mr(address=0x2ad74116c000, length=37773312, access=0xf) failed: Cannot allocate memory
[1671039991.587359] [eu-a2p-495:129320:0]           mpool.c:226  UCX  ERROR Failed to allocate memory pool (name=rc_recv_desc) chunk: Input/output error
[1671039991.587359] [eu-a2p-495:129324:0]           mpool.c:226  UCX  ERROR Failed to allocate memory pool (name=rc_recv_desc) chunk: Input/output error
srun: error: eu-a2p-495: tasks 9,13,15: Killed
[1671039992.016471] [eu-a2p-495:129331:0]           ib_md.c:349  UCX  ERROR ibv_reg_mr(address=0x2abcaa56a000, length=37773312, access=0xf) failed: Cannot allocate memory
[1671039992.023426] [eu-a2p-495:129331:0]           mpool.c:226  UCX  ERROR Failed to allocate memory pool (name=rc_recv_desc) chunk: Input/output error
[1671039992.027109] [eu-a2p-495:129326:0]           ib_md.c:349  UCX  ERROR ibv_reg_mr(address=0x2b834b03d000, length=37773312, access=0xf) failed: Cannot allocate memory
[1671039992.027662] [eu-a2p-495:129326:0]           mpool.c:226  UCX  ERROR Failed to allocate memory pool (name=rc_recv_desc) chunk: Input/output error
srun: error: eu-a2p-495: task 3: Killed
[1671039992.533279] [eu-a2p-495:129326:0]           ib_md.c:349  UCX  ERROR ibv_reg_mr(address=0x2b834b24b000, length=37773312, access=0xf) failed: Cannot allocate memory
[1671039992.533279] [eu-a2p-495:129330:0]           ib_md.c:349  UCX  ERROR ibv_reg_mr(address=0x2b4254fff000, length=37773312, access=0xf) failed: Cannot allocate memory
[1671039992.533279] [eu-a2p-495:129331:0]           ib_md.c:349  UCX  ERROR ibv_reg_mr(address=0x2abcaa778000, length=37773312, access=0xf) failed: Cannot allocate memory
[1671039992.533279] [eu-a2p-495:129333:0]           ib_md.c:349  UCX  ERROR ibv_reg_mr(address=0x2b58155ea000, length=37773312, access=0xf) failed: Cannot allocate memory
[1671039992.534456] [eu-a2p-495:129330:0]           mpool.c:226  UCX  ERROR Failed to allocate memory pool (name=rc_recv_desc) chunk: Input/output error
[1671039992.534624] [eu-a2p-495:129326:0]           mpool.c:226  UCX  ERROR Failed to allocate memory pool (name=rc_recv_desc) chunk: Input/output error
[1671039992.534765] [eu-a2p-495:129331:0]           mpool.c:226  UCX  ERROR Failed to allocate memory pool (name=rc_recv_desc) chunk: Input/output error
[1671039992.534775] [eu-a2p-495:129333:0]           mpool.c:226  UCX  ERROR Failed to allocate memory pool (name=rc_recv_desc) chunk: Input/output error
srun: error: eu-a2p-495: task 10: Killed
slurmstepd: error: *** STEP 4309669.0 ON eu-a2p-495 CANCELLED AT 2022-12-14T19:46:41 DUE TO TIME LIMIT ***
slurmstepd: error: *** JOB 4309669 ON eu-a2p-495 CANCELLED AT 2022-12-14T19:46:41 DUE TO TIME LIMIT ***
srun: Job step aborted: Waiting up to 32 seconds for job step to finish.
slurmstepd: error: Detected 129 oom-kill event(s) in StepId=4309669.batch. Some of your processes may have been killed by the cgroup out-of-memory handler.
