slurmstepd: error: poll(): Bad address
[1671039945.793252] [eu-g1-051-4:12522:0]           ib_md.c:349  UCX  ERROR ibv_reg_mr(address=0x2abf7b263000, length=37773312, access=0xf) failed: Cannot allocate memory
[1671039945.793856] [eu-g1-051-4:12522:0]           mpool.c:226  UCX  ERROR Failed to allocate memory pool (name=rc_recv_desc) chunk: Input/output error
slurmstepd: error: Detected 71 oom-kill event(s) in StepId=4309671.0. Some of your processes may have been killed by the cgroup out-of-memory handler.
srun: error: eu-g1-051-4: tasks 8,25,40,42,44,46-47,60: Out Of Memory
[1671039965.751168] [eu-g1-051-4:12545:0]        mm_posix.c:192  UCX  ERROR   Failed to write 65536 bytes. Cannot allocate memory
[1671039965.751231] [eu-g1-051-4:12545:0]         uct_mem.c:155  UCX  ERROR   failed to allocate 4292720 bytes using md posix for mm_recv_desc: Input/output error
[1671039965.751244] [eu-g1-051-4:12545:0]           mpool.c:226  UCX  ERROR Failed to allocate memory pool (name=mm_recv_desc) chunk: Input/output error
[1671039965.751252] [eu-g1-051-4:12545:0]        mm_iface.c:793  UCX  ERROR failed to get the first receive descriptor
[eu-g1-051-4:12545] pml_ucx.c:309  Error: Failed to create UCP worker
[1671039966.207663] [eu-g1-051-4:12529:0]        mm_posix.c:192  UCX  ERROR   Failed to write 65536 bytes. Cannot allocate memory
[1671039966.226039] [eu-g1-051-4:12529:0]         uct_mem.c:155  UCX  ERROR   failed to allocate 4292720 bytes using md posix for mm_recv_desc: Input/output error
[1671039966.226045] [eu-g1-051-4:12529:0]           mpool.c:226  UCX  ERROR Failed to allocate memory pool (name=mm_recv_desc) chunk: Input/output error
[1671039966.226048] [eu-g1-051-4:12529:0]        mm_iface.c:793  UCX  ERROR failed to get the first receive descriptor
[1671039966.207648] [eu-g1-051-4:12555:0]        mm_posix.c:192  UCX  ERROR   Failed to write 65536 bytes. Cannot allocate memory
[1671039966.225995] [eu-g1-051-4:12555:0]         uct_mem.c:155  UCX  ERROR   failed to allocate 4292720 bytes using md posix for mm_recv_desc: Input/output error
[1671039966.226001] [eu-g1-051-4:12555:0]           mpool.c:226  UCX  ERROR Failed to allocate memory pool (name=mm_recv_desc) chunk: Input/output error
[1671039966.226004] [eu-g1-051-4:12555:0]        mm_iface.c:793  UCX  ERROR failed to get the first receive descriptor
[eu-g1-051-4:12529] pml_ucx.c:309  Error: Failed to create UCP worker
[eu-g1-051-4:12555] pml_ucx.c:309  Error: Failed to create UCP worker
[1671039966.535719] [eu-g1-051-4:12560:0]        mm_posix.c:192  UCX  ERROR   Failed to write 8447 bytes. Cannot allocate memory
[1671039966.555808] [eu-g1-051-4:12560:0]         uct_mem.c:155  UCX  ERROR   failed to allocate 8447 bytes using md posix for mm_recv_fifo: Input/output error
[1671039966.555811] [eu-g1-051-4:12560:0]        mm_iface.c:750  UCX  ERROR mm_iface failed to allocate receive FIFO
[eu-g1-051-4:12560] pml_ucx.c:309  Error: Failed to create UCP worker
[1671039967.355142] [eu-g1-051-4:12495:0]        mm_posix.c:192  UCX  ERROR   Failed to write 65536 bytes. Cannot allocate memory
[1671039967.503957] [eu-g1-051-4:12501:0]        mm_posix.c:192  UCX  ERROR   Failed to write 65536 bytes. Cannot allocate memory
[1671039967.318421] [eu-g1-051-4:12505:0]        mm_posix.c:192  UCX  ERROR   Failed to write 65536 bytes. Cannot allocate memory
[1671039967.090079] [eu-g1-051-4:12513:0]        mm_posix.c:192  UCX  ERROR   Failed to write 65536 bytes. Cannot allocate memory
[1671039967.241713] [eu-g1-051-4:12515:0]        mm_posix.c:192  UCX  ERROR   Failed to write 65536 bytes. Cannot allocate memory
[1671039967.900024] [eu-g1-051-4:12521:0]        mm_posix.c:192  UCX  ERROR   Failed to write 65536 bytes. Cannot allocate memory
[1671039968.061707] [eu-g1-051-4:12513:0]         uct_mem.c:155  UCX  ERROR   failed to allocate 4292720 bytes using md posix for mm_recv_desc: Input/output error
[1671039968.061715] [eu-g1-051-4:12513:0]           mpool.c:226  UCX  ERROR Failed to allocate memory pool (name=mm_recv_desc) chunk: Input/output error
[1671039968.061718] [eu-g1-051-4:12513:0]        mm_iface.c:793  UCX  ERROR failed to get the first receive descriptor
[1671039968.061783] [eu-g1-051-4:12495:0]         uct_mem.c:155  UCX  ERROR   failed to allocate 4292720 bytes using md posix for mm_recv_desc: Input/output error
[1671039968.061791] [eu-g1-051-4:12495:0]           mpool.c:226  UCX  ERROR Failed to allocate memory pool (name=mm_recv_desc) chunk: Input/output error
[1671039968.061795] [eu-g1-051-4:12495:0]        mm_iface.c:793  UCX  ERROR failed to get the first receive descriptor
[eu-g1-051-4:12513] pml_ucx.c:309  Error: Failed to create UCP worker
[eu-g1-051-4:12495] pml_ucx.c:309  Error: Failed to create UCP worker
[1671039968.062024] [eu-g1-051-4:12521:0]         uct_mem.c:155  UCX  ERROR   failed to allocate 4292720 bytes using md posix for mm_recv_desc: Input/output error
[1671039968.062032] [eu-g1-051-4:12521:0]           mpool.c:226  UCX  ERROR Failed to allocate memory pool (name=mm_recv_desc) chunk: Input/output error
[1671039968.062036] [eu-g1-051-4:12521:0]        mm_iface.c:793  UCX  ERROR failed to get the first receive descriptor
[1671039968.062036] [eu-g1-051-4:12505:0]         uct_mem.c:155  UCX  ERROR   failed to allocate 4292720 bytes using md posix for mm_recv_desc: Input/output error
[1671039968.062044] [eu-g1-051-4:12505:0]           mpool.c:226  UCX  ERROR Failed to allocate memory pool (name=mm_recv_desc) chunk: Input/output error
[1671039968.062047] [eu-g1-051-4:12505:0]        mm_iface.c:793  UCX  ERROR failed to get the first receive descriptor
[1671039968.062049] [eu-g1-051-4:12515:0]         uct_mem.c:155  UCX  ERROR   failed to allocate 4292720 bytes using md posix for mm_recv_desc: Input/output error
[1671039968.062056] [eu-g1-051-4:12515:0]           mpool.c:226  UCX  ERROR Failed to allocate memory pool (name=mm_recv_desc) chunk: Input/output error
[1671039968.062059] [eu-g1-051-4:12515:0]        mm_iface.c:793  UCX  ERROR failed to get the first receive descriptor
[eu-g1-051-4:12515] pml_ucx.c:309  Error: Failed to create UCP worker
[eu-g1-051-4:12505] pml_ucx.c:309  Error: Failed to create UCP worker
[eu-g1-051-4:12521] pml_ucx.c:309  Error: Failed to create UCP worker
[1671039968.062219] [eu-g1-051-4:12501:0]         uct_mem.c:155  UCX  ERROR   failed to allocate 4292720 bytes using md posix for mm_recv_desc: Input/output error
[1671039968.062227] [eu-g1-051-4:12501:0]           mpool.c:226  UCX  ERROR Failed to allocate memory pool (name=mm_recv_desc) chunk: Input/output error
[1671039968.062230] [eu-g1-051-4:12501:0]        mm_iface.c:793  UCX  ERROR failed to get the first receive descriptor
[eu-g1-051-4:12501] pml_ucx.c:309  Error: Failed to create UCP worker
[1671039967.322694] [eu-g1-051-4:12556:0]        mm_posix.c:192  UCX  ERROR   Failed to write 65536 bytes. Cannot allocate memory
[1671039967.097153] [eu-g1-051-4:12558:0]        mm_posix.c:192  UCX  ERROR   Failed to write 65536 bytes. Cannot allocate memory
[1671039967.322710] [eu-g1-051-4:12538:0]         ib_mlx5.h:681  UCX  ERROR mlx5dv_devx_umem_reg() failed: Cannot allocate memory
[1671039968.062567] [eu-g1-051-4:12558:0]         uct_mem.c:155  UCX  ERROR   failed to allocate 4292720 bytes using md posix for mm_recv_desc: Input/output error
[1671039968.062578] [eu-g1-051-4:12558:0]           mpool.c:226  UCX  ERROR Failed to allocate memory pool (name=mm_recv_desc) chunk: Input/output error
[1671039968.062582] [eu-g1-051-4:12558:0]        mm_iface.c:793  UCX  ERROR failed to get the first receive descriptor
[1671039968.062630] [eu-g1-051-4:12556:0]         uct_mem.c:155  UCX  ERROR   failed to allocate 4292720 bytes using md posix for mm_recv_desc: Input/output error
[1671039968.062636] [eu-g1-051-4:12556:0]           mpool.c:226  UCX  ERROR Failed to allocate memory pool (name=mm_recv_desc) chunk: Input/output error
[1671039968.062639] [eu-g1-051-4:12556:0]        mm_iface.c:793  UCX  ERROR failed to get the first receive descriptor
[eu-g1-051-4:12558] pml_ucx.c:309  Error: Failed to create UCP worker
[eu-g1-051-4:12556] pml_ucx.c:309  Error: Failed to create UCP worker
[1671039967.394676] [eu-g1-051-4:12519:0]        mm_posix.c:192  UCX  ERROR   Failed to write 65536 bytes. Cannot allocate memory
[1671039968.065092] [eu-g1-051-4:12519:0]         uct_mem.c:155  UCX  ERROR   failed to allocate 4292720 bytes using md posix for mm_recv_desc: Input/output error
[1671039968.065101] [eu-g1-051-4:12519:0]           mpool.c:226  UCX  ERROR Failed to allocate memory pool (name=mm_recv_desc) chunk: Input/output error
[1671039968.065105] [eu-g1-051-4:12519:0]        mm_iface.c:793  UCX  ERROR failed to get the first receive descriptor
[eu-g1-051-4:12519] pml_ucx.c:309  Error: Failed to create UCP worker
[1671039967.359332] [eu-g1-051-4:12518:0]        mm_posix.c:192  UCX  ERROR   Failed to write 65536 bytes. Cannot allocate memory
[1671039968.065734] [eu-g1-051-4:12518:0]         uct_mem.c:155  UCX  ERROR   failed to allocate 4292720 bytes using md posix for mm_recv_desc: Input/output error
[1671039968.065747] [eu-g1-051-4:12518:0]           mpool.c:226  UCX  ERROR Failed to allocate memory pool (name=mm_recv_desc) chunk: Input/output error
[1671039968.065750] [eu-g1-051-4:12518:0]        mm_iface.c:793  UCX  ERROR failed to get the first receive descriptor
[eu-g1-051-4:12518] pml_ucx.c:309  Error: Failed to create UCP worker
[1671039967.089821] [eu-g1-051-4:12504:0]        mm_posix.c:192  UCX  ERROR   Failed to write 65536 bytes. Cannot allocate memory
[1671039967.089813] [eu-g1-051-4:12506:0]        mm_posix.c:192  UCX  ERROR   Failed to write 65536 bytes. Cannot allocate memory
[1671039968.067746] [eu-g1-051-4:12506:0]         uct_mem.c:155  UCX  ERROR   failed to allocate 4292720 bytes using md posix for mm_recv_desc: Input/output error
[1671039968.067753] [eu-g1-051-4:12506:0]           mpool.c:226  UCX  ERROR Failed to allocate memory pool (name=mm_recv_desc) chunk: Input/output error
[1671039968.067755] [eu-g1-051-4:12506:0]        mm_iface.c:793  UCX  ERROR failed to get the first receive descriptor
[1671039967.321454] [eu-g1-051-4:12514:0]        mm_posix.c:192  UCX  ERROR   Failed to write 65536 bytes. Cannot allocate memory
[1671039967.762596] [eu-g1-051-4:12524:0]        mm_posix.c:192  UCX  ERROR   Failed to write 65536 bytes. Cannot allocate memory
[1671039968.067760] [eu-g1-051-4:12524:0]         uct_mem.c:155  UCX  ERROR   failed to allocate 4292720 bytes using md posix for mm_recv_desc: Input/output error
[1671039968.067766] [eu-g1-051-4:12524:0]           mpool.c:226  UCX  ERROR Failed to allocate memory pool (name=mm_recv_desc) chunk: Input/output error
[1671039968.067769] [eu-g1-051-4:12524:0]        mm_iface.c:793  UCX  ERROR failed to get the first receive descriptor
[1671039967.089811] [eu-g1-051-4:12526:0]        mm_posix.c:192  UCX  ERROR   Failed to write 65536 bytes. Cannot allocate memory
[eu-g1-051-4:12506] pml_ucx.c:309  Error: Failed to create UCP worker
[eu-g1-051-4:12524] pml_ucx.c:309  Error: Failed to create UCP worker
[eu-g1-051-4:12538] pml_ucx.c:309  Error: Failed to create UCP worker
[1671039968.068138] [eu-g1-051-4:12526:0]         uct_mem.c:155  UCX  ERROR   failed to allocate 4292720 bytes using md posix for mm_recv_desc: Input/output error
[1671039968.068146] [eu-g1-051-4:12526:0]           mpool.c:226  UCX  ERROR Failed to allocate memory pool (name=mm_recv_desc) chunk: Input/output error
[1671039968.068149] [eu-g1-051-4:12526:0]        mm_iface.c:793  UCX  ERROR failed to get the first receive descriptor
[1671039968.068199] [eu-g1-051-4:12504:0]         uct_mem.c:155  UCX  ERROR   failed to allocate 4292720 bytes using md posix for mm_recv_desc: Input/output error
[1671039968.068205] [eu-g1-051-4:12504:0]           mpool.c:226  UCX  ERROR Failed to allocate memory pool (name=mm_recv_desc) chunk: Input/output error
[1671039968.068209] [eu-g1-051-4:12504:0]        mm_iface.c:793  UCX  ERROR failed to get the first receive descriptor
[1671039968.068201] [eu-g1-051-4:12514:0]         uct_mem.c:155  UCX  ERROR   failed to allocate 4292720 bytes using md posix for mm_recv_desc: Input/output error
[1671039968.068207] [eu-g1-051-4:12514:0]           mpool.c:226  UCX  ERROR Failed to allocate memory pool (name=mm_recv_desc) chunk: Input/output error
[1671039968.068211] [eu-g1-051-4:12514:0]        mm_iface.c:793  UCX  ERROR failed to get the first receive descriptor
[eu-g1-051-4:12526] pml_ucx.c:309  Error: Failed to create UCP worker
[eu-g1-051-4:12504] pml_ucx.c:309  Error: Failed to create UCP worker
[eu-g1-051-4:12514] pml_ucx.c:309  Error: Failed to create UCP worker
[1671039967.321442] [eu-g1-051-4:12510:0]        mm_posix.c:192  UCX  ERROR   Failed to write 65536 bytes. Cannot allocate memory
[1671039967.359303] [eu-g1-051-4:12516:0]        mm_posix.c:192  UCX  ERROR   Failed to write 65536 bytes. Cannot allocate memory
[1671039968.068943] [eu-g1-051-4:12510:0]         uct_mem.c:155  UCX  ERROR   failed to allocate 4292720 bytes using md posix for mm_recv_desc: Input/output error
[1671039968.068954] [eu-g1-051-4:12510:0]           mpool.c:226  UCX  ERROR Failed to allocate memory pool (name=mm_recv_desc) chunk: Input/output error
[1671039968.068958] [eu-g1-051-4:12510:0]        mm_iface.c:793  UCX  ERROR failed to get the first receive descriptor
[1671039968.068952] [eu-g1-051-4:12516:0]         uct_mem.c:155  UCX  ERROR   failed to allocate 4292720 bytes using md posix for mm_recv_desc: Input/output error
[1671039968.068959] [eu-g1-051-4:12516:0]           mpool.c:226  UCX  ERROR Failed to allocate memory pool (name=mm_recv_desc) chunk: Input/output error
[1671039968.068963] [eu-g1-051-4:12516:0]        mm_iface.c:793  UCX  ERROR failed to get the first receive descriptor
[eu-g1-051-4:12510] pml_ucx.c:309  Error: Failed to create UCP worker
[eu-g1-051-4:12516] pml_ucx.c:309  Error: Failed to create UCP worker
[1671039968.809504] [eu-g1-051-4:12507:0]         ib_mlx5.h:681  UCX  ERROR mlx5dv_devx_umem_reg() failed: Cannot allocate memory
[1671039968.825421] [eu-g1-051-4:12523:0]         ib_mlx5.h:681  UCX  ERROR mlx5dv_devx_umem_reg() failed: Cannot allocate memory
[eu-g1-051-4:12507] pml_ucx.c:309  Error: Failed to create UCP worker
[eu-g1-051-4:12523] pml_ucx.c:309  Error: Failed to create UCP worker
[1671039970.142415] [eu-g1-051-4:12527:0]           ib_md.c:349  UCX  ERROR ibv_reg_mr(address=0x2b50e05ed000, length=37773312, access=0xf) failed: Cannot allocate memory
[1671039970.182633] [eu-g1-051-4:12527:0]           mpool.c:226  UCX  ERROR Failed to allocate memory pool (name=rc_recv_desc) chunk: Input/output error
[1671039970.194375] [eu-g1-051-4:12496:0]           ib_md.c:349  UCX  ERROR ibv_reg_mr(address=0x2b36b8cab000, length=37773312, access=0xf) failed: Cannot allocate memory
[1671039970.196410] [eu-g1-051-4:12496:0]           mpool.c:226  UCX  ERROR Failed to allocate memory pool (name=rc_recv_desc) chunk: Input/output error
[1671039969.288697] [eu-g1-051-4:12508:0]           ib_md.c:349  UCX  ERROR ibv_reg_mr(address=0x2b8d0e30f000, length=37773312, access=0xf) failed: Cannot allocate memory
[1671039970.185394] [eu-g1-051-4:12508:0]           mpool.c:226  UCX  ERROR Failed to allocate memory pool (name=rc_recv_desc) chunk: Input/output error
[1671039970.543323] [eu-g1-051-4:12528:0]           ib_md.c:349  UCX  ERROR ibv_reg_mr(address=0x2b534a9ae000, length=37773312, access=0xf) failed: Cannot allocate memory
slurmstepd: error: execve(/cluster/slurm/adm/scripts/task-epilog.sh): Bad address
slurmstepd: error: --task-epilog failed status=32512
[1671039970.576222] [eu-g1-051-4:12498:0]           ib_md.c:349  UCX  ERROR ibv_reg_mr(address=0x2b24592a3000, length=37773312, access=0xf) failed: Cannot allocate memory
[1671039970.576242] [eu-g1-051-4:12528:0]           mpool.c:226  UCX  ERROR Failed to allocate memory pool (name=rc_recv_desc) chunk: Input/output error
[1671039970.579497] [eu-g1-051-4:12498:0]           mpool.c:226  UCX  ERROR Failed to allocate memory pool (name=rc_recv_desc) chunk: Input/output error
slurmstepd: error: *** STEP 4309671.0 ON eu-g1-051-4 CANCELLED AT 2022-12-14T19:45:41 DUE TO TIME LIMIT ***
slurmstepd: error: *** JOB 4309671 ON eu-g1-051-4 CANCELLED AT 2022-12-14T19:45:41 DUE TO TIME LIMIT ***
slurmstepd: error: Detected 1 oom-kill event(s) in StepId=4309671.batch. Some of your processes may have been killed by the cgroup out-of-memory handler.
