slurmstepd: error: poll(): Bad address
slurmstepd: error: poll(): Bad address
[1671039937.302009] [eu-g1-023-3:87567:0]           ib_md.c:349  UCX  ERROR ibv_reg_mr(address=0x2b43a08e2000, length=19034112, access=0xf) failed: Cannot allocate memory
[1671039937.302834] [eu-g1-023-3:87567:0]           mpool.c:226  UCX  ERROR Failed to allocate memory pool (name=ud_recv_skb) chunk: Input/output error
[1671039937.307742] [eu-g1-023-3:87569:0]           ib_md.c:349  UCX  ERROR ibv_reg_mr(address=0x2b96b286e000, length=19034112, access=0xf) failed: Cannot allocate memory
[1671039937.307713] [eu-g1-023-3:87570:0]           ib_md.c:349  UCX  ERROR ibv_reg_mr(address=0x2b5b07a9b000, length=19034112, access=0xf) failed: Cannot allocate memory
[1671039937.308445] [eu-g1-023-3:87572:0]           ib_md.c:349  UCX  ERROR ibv_reg_mr(address=0x2ac38c1de000, length=19034112, access=0xf) failed: Cannot allocate memory
[1671039937.309365] [eu-g1-023-3:87571:0]           ib_md.c:349  UCX  ERROR   ibv_reg_mr(address=0x2abef8a1b000, length=37773312, access=0xf) failed: Cannot allocate memory
[1671039937.309735] [eu-g1-023-3:87570:0]           mpool.c:226  UCX  ERROR Failed to allocate memory pool (name=ud_recv_skb) chunk: Input/output error
[1671039937.310048] [eu-g1-023-3:87569:0]           mpool.c:226  UCX  ERROR Failed to allocate memory pool (name=ud_recv_skb) chunk: Input/output error
[1671039937.310441] [eu-g1-023-3:87572:0]           mpool.c:226  UCX  ERROR Failed to allocate memory pool (name=ud_recv_skb) chunk: Input/output error
[1671039937.311994] [eu-g1-023-3:87574:a]           ib_md.c:349  UCX  ERROR ibv_reg_mr(address=0x2ac134000000, length=19034112, access=0xf) failed: Cannot allocate memory
[1671039937.313310] [eu-g1-023-3:87574:a]           mpool.c:226  UCX  ERROR Failed to allocate memory pool (name=ud_recv_skb) chunk: Input/output error
[1671039937.314393] [eu-g1-023-3:87571:0]           mpool.c:226  UCX  ERROR   Failed to allocate memory pool (name=rc_recv_desc) chunk: Input/output error
[1671039937.341955] [eu-g1-023-3:87573:a]           ib_md.c:349  UCX  ERROR ibv_reg_mr(address=0x2af8398a4000, length=19034112, access=0xf) failed: Cannot allocate memory
[1671039937.342771] [eu-g1-023-3:87573:a]           mpool.c:226  UCX  ERROR Failed to allocate memory pool (name=ud_recv_skb) chunk: Input/output error
[1671039937.632195] [eu-g1-023-3:87571:0]        mm_posix.c:218  UCX  ERROR   open(file_name=/proc/87568/fd/19 flags=0x0) failed: No such file or directory
[1671039937.632219] [eu-g1-023-3:87571:0]           mm_ep.c:171  UCX  ERROR   mm ep failed to connect to remote FIFO id 0xc0000004c0015610: Shared memory error
[eu-g1-023-3:87571] pml_ucx.c:419  Error: ucp_ep_create(proc=1) failed: Shared memory error
--------------------------------------------------------------------------
It looks like MPI_INIT failed for some reason; your parallel process is
likely to abort.  There are many reasons that a parallel process can
fail during MPI_INIT; some of which are due to configuration or environment
problems.  This failure appears to be an internal failure; here's some
additional information (which may only be relevant to an Open MPI
developer):

  PML add procs failed
  --> Returned "Error" (-1) instead of "Success" (0)
--------------------------------------------------------------------------
[eu-g1-023-3:87571] *** An error occurred in MPI_Init
[eu-g1-023-3:87571] *** reported by process [3265527808,4]
[eu-g1-023-3:87571] *** on a NULL communicator
[eu-g1-023-3:87571] *** Unknown error
[eu-g1-023-3:87571] *** MPI_ERRORS_ARE_FATAL (processes in this communicator will now abort,
[eu-g1-023-3:87571] ***    and potentially your MPI job)
srun: error: eu-g1-023-3: task 1: Killed
srun: error: eu-g1-023-3: task 4: Exited with exit code 1
slurmstepd: error: *** STEP 4309668.0 ON eu-g1-023-3 CANCELLED AT 2022-12-14T18:45:38 ***
srun: Job step aborted: Waiting up to 32 seconds for job step to finish.
srun: error: eu-g1-023-3: tasks 0,2-3,5-7: Killed
