slurmstepd: error: poll(): Bad address
slurmstepd: error: poll(): Bad address
[1671039993.001159] [eu-g1-023-3:87856:0]           ib_md.c:349  UCX  ERROR ibv_reg_mr(address=0x2b7dac000000, length=37773312, access=0xf) failed: Cannot allocate memory
[1671039993.057896] [eu-g1-023-3:87856:0]           mpool.c:226  UCX  ERROR Failed to allocate memory pool (name=rc_recv_desc) chunk: Input/output error
[1671039993.337169] [eu-g1-023-3:87863:0]           ib_md.c:349  UCX  ERROR ibv_reg_mr(address=0x2b459c86b000, length=544768, access=0xf) failed: Cannot allocate memory
[1671039993.337242] [eu-g1-023-3:87863:0]           mpool.c:226  UCX  ERROR Failed to allocate memory pool (name=ud_recv_skb) chunk: Input/output error
[1671039993.337167] [eu-g1-023-3:87865:0]           ib_md.c:349  UCX  ERROR ibv_reg_mr(address=0x2ac021ba2000, length=544768, access=0xf) failed: Cannot allocate memory
[1671039993.337242] [eu-g1-023-3:87865:0]           mpool.c:226  UCX  ERROR Failed to allocate memory pool (name=ud_recv_skb) chunk: Input/output error
srun: error: eu-g1-023-3: tasks 0,9,11,14,19,27,29: Killed
[1671039995.196396] [eu-g1-023-3:87853:0]         ib_mlx5.h:681  UCX  ERROR   mlx5dv_devx_umem_reg() failed: Cannot allocate memory
[eu-g1-023-3:87853] pml_ucx.c:419  Error: ucp_ep_create(proc=17) failed: Out of memory
--------------------------------------------------------------------------
It looks like MPI_INIT failed for some reason; your parallel process is
likely to abort.  There are many reasons that a parallel process can
fail during MPI_INIT; some of which are due to configuration or environment
problems.  This failure appears to be an internal failure; here's some
additional information (which may only be relevant to an Open MPI
developer):

  PML add procs failed
  --> Returned "Error" (-1) instead of "Success" (0)
--------------------------------------------------------------------------
[eu-g1-023-3:87853] *** An error occurred in MPI_Init
[eu-g1-023-3:87853] *** reported by process [3266183168,17]
[eu-g1-023-3:87853] *** on a NULL communicator
[eu-g1-023-3:87853] *** Unknown error
[eu-g1-023-3:87853] *** MPI_ERRORS_ARE_FATAL (processes in this communicator will now abort,
[eu-g1-023-3:87853] ***    and potentially your MPI job)
slurmstepd: error: *** STEP 4309678.0 ON eu-g1-023-3 CANCELLED AT 2022-12-14T18:46:35 ***
srun: Job step aborted: Waiting up to 32 seconds for job step to finish.
srun: error: eu-g1-023-3: tasks 1-8,10,12-13,15-16,18,20-26,28,30-31: Killed
srun: error: eu-g1-023-3: task 17: Exited with exit code 1
