MPI_insiderank_serial
Process 0: 14.376585, 13.726727, 13.630821, 15.216873, 13.591822, 13.582277, 13.600313, 13.599498, 13.618267, 13.556759, 13.634072, 13.551434, 13.614477, 13.587998, 13.602409, 13.571340, 13.602110, 13.635212, 13.549467, 13.621589, 13.580751, 13.615425, 13.588919, 13.602232, 13.567460, 13.605577, 13.633776, 13.549366, 13.621907, 13.580519
Process 1: 14.381805, 13.731243, 13.635856, 15.222003, 13.597145, 13.587574, 13.605150, 13.605271, 13.624344, 13.562296, 13.639321, 13.556263, 13.620860, 13.593423, 13.607275, 13.577118, 13.607431, 13.640469, 13.554742, 13.627365, 13.585719, 13.621182, 13.594263, 13.607563, 13.572880, 13.610505, 13.638670, 13.554725, 13.627393, 13.585789
