MPI_insiderank_openmp_handopt_ssa
Process 0: 9.526475, 9.420303, 9.388509, 9.385982, 9.759100, 9.329874, 9.376712, 9.324238, 9.357509, 9.318466, 9.394822, 9.353253, 9.347229, 11.751479, 9.342311, 9.345973, 9.396395, 9.353663, 9.376661, 9.362968, 9.350877, 9.363819, 9.395417, 9.352103, 9.344275, 9.348813, 9.365628, 9.356584, 9.323405, 9.372752
Process 1: 8.903594, 8.790293, 8.738701, 8.786274, 9.620844, 8.696619, 8.780684, 8.708584, 8.702692, 8.695609, 8.773483, 8.754031, 8.731838, 8.723642, 8.714891, 8.728789, 8.770962, 8.763359, 8.736832, 8.726412, 8.730220, 8.731860, 8.774049, 8.755979, 8.722530, 8.733418, 8.726754, 8.727645, 8.702920, 8.752637
Process 2: 9.191403, 9.065182, 9.051553, 9.047811, 9.701694, 8.981470, 9.040536, 9.012222, 8.995726, 8.980533, 9.059110, 9.015688, 9.035824, 9.016114, 8.999552, 9.012469, 9.055702, 9.022206, 9.068747, 9.018597, 9.014960, 9.016072, 9.059122, 9.013794, 9.006948, 9.035894, 9.017846, 9.009584, 8.987832, 9.036106
Process 3: 9.533872, 9.427125, 9.395413, 9.393126, 9.766657, 9.337617, 9.384103, 9.331564, 9.364693, 9.326047, 9.402657, 9.360708, 9.354436, 11.759098, 9.349769, 9.353676, 9.403915, 9.360811, 9.383803, 9.370228, 9.358633, 9.371630, 9.402973, 9.359438, 9.351641, 9.356597, 9.373650, 9.364193, 9.330736, 9.380092
