MPI_insiderank_openmp_handopt_ssa
Process 0: 1.963718, 1.685367, 1.591310, 1.580865, 1.582651, 1.550140, 1.583433, 1.593035, 1.584605, 1.605169, 1.596613, 1.586025, 1.557525, 1.586325, 1.585999, 1.564589, 1.608513, 1.586277, 1.578320, 1.605223, 1.584955, 1.566550, 1.562026, 1.604683, 1.573960, 1.598332, 1.590446, 1.584682, 1.564024, 1.580156
Process 1: 1.573600, 1.314553, 1.204144, 1.189573, 1.195526, 1.187157, 1.219898, 1.209222, 1.214184, 1.249597, 1.208041, 1.197956, 1.193383, 1.212656, 1.219314, 1.203917, 1.213559, 1.226118, 1.218339, 1.217450, 1.198940, 1.203641, 1.198183, 1.210840, 1.209456, 1.227674, 1.213573, 1.191322, 1.194561, 1.218349
Process 2: 1.591965, 1.333003, 1.223473, 1.211963, 1.214516, 1.206439, 1.239212, 1.228559, 1.232725, 1.268353, 1.226924, 1.217296, 1.212144, 1.232027, 1.238515, 1.222855, 1.232705, 1.245271, 1.237398, 1.236222, 1.217225, 1.222471, 1.217130, 1.229574, 1.228572, 1.246597, 1.232390, 1.210677, 1.213547, 1.237144
Process 3: 1.611449, 1.351488, 1.242112, 1.230641, 1.232444, 1.225050, 1.257804, 1.247506, 1.251246, 1.286251, 1.245769, 1.235786, 1.230506, 1.250675, 1.257481, 1.241614, 1.251406, 1.263813, 1.255484, 1.255396, 1.236797, 1.240740, 1.235887, 1.247981, 1.247387, 1.265266, 1.251132, 1.229365, 1.232107, 1.255173
Process 4: 1.628847, 1.374242, 1.260314, 1.248580, 1.249775, 1.242528, 1.275289, 1.265427, 1.269201, 1.304367, 1.262864, 1.252960, 1.247825, 1.267990, 1.275024, 1.259085, 1.267587, 1.281648, 1.273227, 1.273415, 1.254417, 1.258350, 1.253285, 1.265860, 1.264193, 1.280947, 1.268436, 1.247213, 1.249765, 1.272954
Process 5: 1.647063, 1.392364, 1.277747, 1.266952, 1.267700, 1.260469, 1.293286, 1.283612, 1.287122, 1.321535, 1.281407, 1.270857, 1.266152, 1.285666, 1.292792, 1.277438, 1.286036, 1.299713, 1.291141, 1.290801, 1.273256, 1.276582, 1.271571, 1.284180, 1.282527, 1.299496, 1.286740, 1.265324, 1.268031, 1.290957
Process 6: 1.663283, 1.409058, 1.295469, 1.284415, 1.284840, 1.277950, 1.310774, 1.300982, 1.304518, 1.339086, 1.299104, 1.288370, 1.283721, 1.303245, 1.310158, 1.294929, 1.303494, 1.317364, 1.308983, 1.308330, 1.290780, 1.293629, 1.288652, 1.301464, 1.299607, 1.316947, 1.304301, 1.282279, 1.285075, 1.308465
Process 7: 1.680723, 1.424282, 1.311539, 1.298524, 1.301704, 1.294003, 1.327307, 1.315205, 1.320918, 1.356870, 1.314512, 1.302633, 1.301687, 1.320470, 1.327449, 1.311790, 1.320483, 1.333277, 1.325296, 1.323813, 1.309073, 1.311812, 1.304718, 1.319079, 1.316405, 1.334852, 1.321051, 1.298565, 1.301941, 1.325732
Process 8: 1.696100, 1.440018, 1.328158, 1.313847, 1.317559, 1.309241, 1.343207, 1.330809, 1.338337, 1.371306, 1.330130, 1.318627, 1.316909, 1.336602, 1.343203, 1.327042, 1.335200, 1.349318, 1.341331, 1.339722, 1.324542, 1.326313, 1.320627, 1.333866, 1.332070, 1.350408, 1.337119, 1.316065, 1.317452, 1.340307
Process 9: 1.713195, 1.455214, 1.344434, 1.330415, 1.334428, 1.324990, 1.359507, 1.346533, 1.354258, 1.387589, 1.345549, 1.334247, 1.333015, 1.354302, 1.359320, 1.343932, 1.350956, 1.366533, 1.358605, 1.354188, 1.341676, 1.341903, 1.337569, 1.350269, 1.348690, 1.367503, 1.352352, 1.333539, 1.333957, 1.356872
Process 10: 1.728102, 1.470650, 1.361198, 1.347050, 1.349652, 1.339986, 1.375276, 1.361795, 1.370175, 1.401834, 1.360421, 1.349556, 1.347941, 1.368253, 1.375565, 1.358372, 1.367398, 1.380895, 1.374412, 1.369531, 1.356264, 1.357433, 1.352927, 1.364984, 1.363364, 1.382465, 1.368090, 1.348444, 1.349731, 1.371951
Process 11: 1.744701, 1.484704, 1.375316, 1.362948, 1.364594, 1.356879, 1.391338, 1.376649, 1.385166, 1.417400, 1.376179, 1.365197, 1.362383, 1.383205, 1.391198, 1.372142, 1.383454, 1.395860, 1.389845, 1.386582, 1.371292, 1.372638, 1.368269, 1.381442, 1.378795, 1.396771, 1.385429, 1.363573, 1.365638, 1.388369
Process 12: 1.758838, 1.497394, 1.390150, 1.376587, 1.379437, 1.371629, 1.406408, 1.390115, 1.400462, 1.430692, 1.389245, 1.379297, 1.377243, 1.397639, 1.405587, 1.386504, 1.396905, 1.410435, 1.404958, 1.401782, 1.386165, 1.387401, 1.382895, 1.396886, 1.392249, 1.410939, 1.401232, 1.378933, 1.380253, 1.403454
Process 13: 1.772638, 1.510562, 1.401779, 1.389642, 1.393311, 1.385763, 1.421161, 1.404397, 1.413911, 1.443599, 1.404768, 1.393117, 1.390884, 1.411228, 1.419367, 1.400927, 1.410282, 1.425628, 1.418918, 1.416056, 1.400396, 1.402016, 1.397258, 1.411264, 1.406280, 1.425000, 1.415528, 1.391234, 1.392967, 1.417385
Process 14: 1.783556, 1.523478, 1.411539, 1.398859, 1.406890, 1.396505, 1.434814, 1.419415, 1.427290, 1.456232, 1.418084, 1.404861, 1.402705, 1.422543, 1.431932, 1.412997, 1.422116, 1.437988, 1.429470, 1.429433, 1.409682, 1.414999, 1.410159, 1.422257, 1.420364, 1.438523, 1.427545, 1.402868, 1.405557, 1.430486
Process 15: 1.800193, 1.539201, 1.423727, 1.412494, 1.423780, 1.408268, 1.448935, 1.432987, 1.441143, 1.469706, 1.432730, 1.420455, 1.418295, 1.440167, 1.442810, 1.429306, 1.434519, 1.451424, 1.442992, 1.445746, 1.423094, 1.430790, 1.424489, 1.433769, 1.434762, 1.452120, 1.443938, 1.416420, 1.420031, 1.442713
Process 16: 1.811685, 1.553400, 1.437254, 1.426028, 1.435534, 1.421559, 1.461481, 1.446014, 1.454523, 1.480636, 1.446189, 1.432665, 1.430249, 1.453210, 1.453889, 1.440022, 1.447981, 1.465072, 1.454612, 1.458053, 1.436112, 1.442814, 1.438462, 1.447066, 1.447509, 1.464125, 1.455893, 1.430227, 1.431042, 1.456125
Process 17: 1.824491, 1.569135, 1.452404, 1.440743, 1.447107, 1.435391, 1.474720, 1.458396, 1.464688, 1.492447, 1.460401, 1.445655, 1.443893, 1.465689, 1.467069, 1.451892, 1.462983, 1.477227, 1.465923, 1.471618, 1.449918, 1.455804, 1.448389, 1.460640, 1.460600, 1.476565, 1.467885, 1.442154, 1.441730, 1.468267
Process 18: 1.836384, 1.578993, 1.463446, 1.453021, 1.456884, 1.447692, 1.484685, 1.469754, 1.476584, 1.504238, 1.473114, 1.455874, 1.455258, 1.477985, 1.479371, 1.464366, 1.474675, 1.489891, 1.477174, 1.481892, 1.461264, 1.467279, 1.458836, 1.473557, 1.471247, 1.487853, 1.479768, 1.454352, 1.453437, 1.477641
Process 19: 1.848286, 1.591556, 1.475681, 1.465987, 1.469530, 1.459896, 1.495898, 1.480309, 1.487408, 1.514366, 1.483917, 1.468159, 1.465356, 1.486681, 1.491790, 1.474711, 1.487434, 1.501347, 1.486891, 1.492907, 1.474620, 1.479914, 1.470463, 1.485337, 1.480222, 1.499447, 1.490201, 1.467772, 1.467495, 1.487534
Process 20: 1.858939, 1.602712, 1.486796, 1.476919, 1.480594, 1.470539, 1.505800, 1.491870, 1.499363, 1.523173, 1.494823, 1.478258, 1.476190, 1.497895, 1.503069, 1.483605, 1.497952, 1.511088, 1.498488, 1.504153, 1.485407, 1.489438, 1.483237, 1.497155, 1.493182, 1.510243, 1.499361, 1.478855, 1.477840, 1.498867
Process 21: 1.867061, 1.613647, 1.497364, 1.488825, 1.490469, 1.482024, 1.517058, 1.504071, 1.512191, 1.534743, 1.507412, 1.490498, 1.486898, 1.507491, 1.514504, 1.495478, 1.509354, 1.520285, 1.510501, 1.514438, 1.496000, 1.499036, 1.491624, 1.506067, 1.503378, 1.522668, 1.508988, 1.489309, 1.488720, 1.510868
Process 22: 1.874581, 1.622156, 1.505967, 1.496713, 1.500136, 1.491190, 1.526013, 1.512716, 1.520716, 1.543604, 1.515743, 1.500191, 1.495224, 1.516248, 1.522378, 1.505466, 1.518798, 1.529455, 1.518402, 1.522299, 1.503830, 1.507710, 1.500491, 1.516096, 1.512400, 1.531527, 1.516727, 1.499339, 1.498371, 1.519751
Process 23: 1.886403, 1.632558, 1.517171, 1.506377, 1.509669, 1.503132, 1.535918, 1.523534, 1.532478, 1.554739, 1.527686, 1.511047, 1.507393, 1.526550, 1.532288, 1.515333, 1.528170, 1.540095, 1.529347, 1.531676, 1.513319, 1.519187, 1.509633, 1.525613, 1.522279, 1.542686, 1.527134, 1.509006, 1.509387, 1.529569
Process 24: 1.894118, 1.640461, 1.526604, 1.516122, 1.519597, 1.513016, 1.543299, 1.532804, 1.539655, 1.561807, 1.539476, 1.519513, 1.516219, 1.534532, 1.540765, 1.523931, 1.539574, 1.547981, 1.537925, 1.539542, 1.522922, 1.527152, 1.518834, 1.536581, 1.531214, 1.551006, 1.534450, 1.518760, 1.518018, 1.537640
Process 25: 1.907049, 1.650670, 1.536472, 1.527365, 1.527530, 1.521074, 1.552504, 1.543985, 1.548865, 1.573962, 1.550362, 1.531761, 1.528523, 1.546714, 1.551956, 1.534550, 1.554571, 1.557018, 1.547111, 1.552182, 1.535196, 1.535291, 1.528190, 1.549439, 1.544046, 1.559121, 1.541056, 1.529680, 1.530333, 1.548679
Process 26: 1.916749, 1.655552, 1.544872, 1.536423, 1.537604, 1.527306, 1.558699, 1.556878, 1.556460, 1.579254, 1.563189, 1.542752, 1.534727, 1.558922, 1.560588, 1.540815, 1.568801, 1.564149, 1.553955, 1.564440, 1.548211, 1.542986, 1.535955, 1.559731, 1.550917, 1.567420, 1.552602, 1.537390, 1.537461, 1.556357
Process 27: 1.930427, 1.664056, 1.558618, 1.550199, 1.550999, 1.533058, 1.564982, 1.570340, 1.563551, 1.588300, 1.572237, 1.558059, 1.540929, 1.567504, 1.567970, 1.547085, 1.583478, 1.569067, 1.560201, 1.576201, 1.559567, 1.549293, 1.543730, 1.575068, 1.557085, 1.579684, 1.561680, 1.549485, 1.546632, 1.562649
Process 28: 1.940756, 1.671680, 1.569126, 1.557867, 1.559832, 1.537476, 1.569457, 1.576448, 1.568397, 1.593129, 1.577711, 1.567175, 1.545649, 1.573006, 1.573522, 1.552421, 1.589295, 1.573733, 1.565561, 1.582445, 1.567879, 1.553894, 1.549225, 1.588764, 1.561561, 1.585716, 1.571829, 1.562418, 1.551310, 1.567425
Process 29: 1.954695, 1.677645, 1.582558, 1.570366, 1.573305, 1.542594, 1.574411, 1.585216, 1.574554, 1.597733, 1.585761, 1.576474, 1.550135, 1.577420, 1.578461, 1.557004, 1.597500, 1.578745, 1.570768, 1.593817, 1.576469, 1.558932, 1.554464, 1.595133, 1.566450, 1.590817, 1.580698, 1.576228, 1.556438, 1.572583
Process 30: 1.959631, 1.681115, 1.586010, 1.576252, 1.578209, 1.545910, 1.578089, 1.588947, 1.578883, 1.600948, 1.592309, 1.581776, 1.553312, 1.581572, 1.581794, 1.560342, 1.603909, 1.582044, 1.574094, 1.600623, 1.580747, 1.562288, 1.557785, 1.599920, 1.569735, 1.594084, 1.586436, 1.580388, 1.559766, 1.575911
Process 31: 1.964778, 1.685373, 1.591307, 1.580864, 1.582660, 1.550144, 1.583431, 1.593037, 1.584604, 1.605165, 1.596618, 1.586023, 1.557515, 1.586312, 1.586002, 1.564589, 1.608517, 1.586271, 1.578316, 1.605228, 1.584951, 1.566552, 1.562029, 1.604673, 1.573962, 1.598332, 1.590446, 1.584683, 1.564023, 1.580157
