MPI_insiderank_openmp_handopt_ssa
Process 0: 3.276136, 3.182266, 4.853076, 3.129051, 3.224828, 3.169556, 3.120902, 3.129568, 3.105092, 3.162173, 3.176349, 3.141203, 3.175182, 3.102828, 3.146596, 3.118630, 3.162293, 3.111545, 3.100958, 3.110233, 3.114292, 3.126948, 3.138703, 3.150576, 3.152468, 3.108614, 3.109939, 3.137167, 3.116876, 3.132041
Process 1: 3.055049, 2.978855, 4.558607, 2.930654, 2.983032, 2.997848, 2.913327, 2.878272, 2.897984, 2.951622, 2.968953, 2.945379, 2.928095, 2.907170, 2.941627, 2.916717, 2.958660, 2.924435, 2.901252, 2.911401, 2.910850, 2.910668, 2.930317, 2.944373, 2.940389, 2.918333, 2.912020, 2.953008, 2.919425, 2.935298
Process 2: 3.093702, 3.020973, 4.602290, 2.972816, 3.024146, 3.032395, 2.951346, 2.922513, 2.936746, 2.990851, 3.012216, 2.982139, 2.967126, 2.943499, 2.981631, 2.955510, 2.997226, 2.964196, 2.939521, 2.949388, 2.949179, 2.950193, 2.971169, 2.984959, 2.981133, 2.955031, 2.949079, 2.992200, 2.956128, 2.972047
Process 3: 3.130480, 3.050102, 4.645914, 3.005243, 3.066384, 3.064275, 2.985230, 2.965253, 2.970561, 3.024657, 3.045003, 3.013775, 3.004914, 2.975849, 3.014109, 2.987991, 3.030310, 2.996643, 2.973093, 2.980752, 2.982864, 2.981912, 3.004212, 3.017420, 3.013950, 2.987205, 2.982612, 3.022252, 2.990200, 3.004733
Process 4: 3.159925, 3.076329, 4.670377, 3.028785, 3.109731, 3.087924, 3.017278, 3.012779, 3.001935, 3.057063, 3.069178, 3.044891, 3.062026, 3.006995, 3.046327, 3.020020, 3.062301, 3.021035, 3.004062, 3.011710, 3.013859, 3.021562, 3.035509, 3.049324, 3.046476, 3.018250, 3.013729, 3.045888, 3.022331, 3.035947
Process 5: 3.225613, 3.124726, 4.760544, 3.075484, 3.172802, 3.116775, 3.068800, 3.074168, 3.054144, 3.111098, 3.124151, 3.091766, 3.127937, 3.050081, 3.097697, 3.068487, 3.111923, 3.060311, 3.051613, 3.058964, 3.063988, 3.075681, 3.088945, 3.101312, 3.101979, 3.061302, 3.060345, 3.084560, 3.070207, 3.083189
Process 6: 3.251047, 3.155612, 4.789654, 3.105786, 3.201857, 3.146044, 3.097323, 3.106919, 3.081815, 3.139811, 3.152789, 3.120728, 3.155682, 3.081230, 3.126857, 3.098334, 3.140957, 3.090934, 3.080918, 3.089330, 3.093814, 3.107781, 3.117523, 3.131248, 3.131116, 3.088457, 3.088407, 3.116493, 3.097148, 3.112866
Process 7: 3.278276, 3.184055, 4.855090, 3.130917, 3.226728, 3.171317, 3.122777, 3.131461, 3.107013, 3.164061, 3.178279, 3.142885, 3.176962, 3.104596, 3.148419, 3.120433, 3.164072, 3.113234, 3.102766, 3.111982, 3.116094, 3.128616, 3.140517, 3.152456, 3.154276, 3.110318, 3.111970, 3.138891, 3.118876, 3.133697
