MPI_insiderank_openmp_handopt_ssa
Process 0: 1.604642, 1.145064, 1.047370, 1.055448, 1.061280, 1.055223, 1.052101, 1.059553, 1.063667, 1.027684, 1.062238, 1.029743, 1.029832, 1.062135, 1.054182, 1.064747, 1.056375, 1.056840, 1.066920, 1.023256, 1.062604, 1.061152, 1.055257, 1.049400, 1.051593, 1.062095, 1.053433, 1.059368, 1.051374, 1.061111
Process 1: 1.196977, 0.754747, 0.661076, 0.646112, 0.659749, 0.653674, 0.652547, 0.660958, 0.657231, 0.624556, 0.656282, 0.625715, 0.625580, 0.655445, 0.659994, 0.658648, 0.655976, 0.661136, 0.656589, 0.633300, 0.656370, 0.655190, 0.653707, 0.648868, 0.655755, 0.658196, 0.655024, 0.663662, 0.654262, 0.656828
Process 2: 1.204846, 0.764163, 0.670565, 0.655151, 0.669040, 0.663951, 0.662037, 0.670149, 0.666507, 0.633805, 0.665588, 0.634290, 0.634901, 0.664909, 0.669600, 0.668127, 0.665397, 0.670715, 0.666103, 0.642370, 0.665825, 0.664518, 0.662962, 0.658110, 0.665207, 0.667610, 0.664472, 0.673228, 0.663353, 0.666172
Process 3: 1.213520, 0.772983, 0.679742, 0.663623, 0.676994, 0.673248, 0.670093, 0.678015, 0.714239, 0.642140, 0.674194, 0.643251, 0.642913, 0.674030, 0.678399, 0.676488, 0.673854, 0.679703, 0.674527, 0.650516, 0.674773, 0.673361, 0.671099, 0.667036, 0.673824, 0.676280, 0.673141, 0.681129, 0.671416, 0.674970
Process 4: 1.222204, 0.781896, 0.688714, 0.672447, 0.685885, 0.682325, 0.679102, 0.686960, 0.715853, 0.650711, 0.683192, 0.652163, 0.651852, 0.682962, 0.686425, 0.685407, 0.682892, 0.688548, 0.682969, 0.659349, 0.683677, 0.681899, 0.682473, 0.675928, 0.682812, 0.684969, 0.681693, 0.689631, 0.680265, 0.683916
Process 5: 1.229585, 0.788496, 0.694526, 0.678620, 0.692408, 0.687705, 0.685518, 0.693655, 0.717734, 0.657142, 0.688779, 0.658382, 0.658143, 0.688668, 0.692543, 0.691689, 0.688813, 0.694185, 0.689898, 0.666411, 0.689422, 0.688347, 0.689696, 0.681574, 0.688549, 0.690723, 0.688312, 0.696632, 0.687449, 0.689676
Process 6: 1.237525, 0.796821, 0.702939, 0.687346, 0.701196, 0.696671, 0.693995, 0.702320, 0.719406, 0.665847, 0.697510, 0.667062, 0.666959, 0.697300, 0.701239, 0.700400, 0.697162, 0.702644, 0.698647, 0.673898, 0.698012, 0.697135, 0.698276, 0.690477, 0.697194, 0.699479, 0.697062, 0.705319, 0.696331, 0.698150
Process 7: 1.246398, 0.805925, 0.712009, 0.696768, 0.710340, 0.705998, 0.703418, 0.711281, 0.721258, 0.675080, 0.706769, 0.676070, 0.676057, 0.706212, 0.710257, 0.709599, 0.706360, 0.711889, 0.707726, 0.683034, 0.707093, 0.706089, 0.708537, 0.699531, 0.706703, 0.708108, 0.706034, 0.714363, 0.705582, 0.707274
Process 8: 1.255273, 0.814789, 0.720802, 0.705232, 0.719187, 0.714583, 0.712407, 0.720002, 0.723054, 0.683636, 0.715615, 0.684694, 0.684956, 0.715172, 0.718828, 0.718134, 0.715337, 0.720680, 0.716576, 0.691855, 0.715879, 0.714856, 0.716154, 0.708460, 0.715533, 0.716961, 0.714754, 0.723041, 0.714593, 0.716124
Process 9: 1.262773, 0.821618, 0.727544, 0.713174, 0.726766, 0.721754, 0.719354, 0.727505, 0.782822, 0.691465, 0.723373, 0.692092, 0.692667, 0.722006, 0.726585, 0.724794, 0.721940, 0.727688, 0.723109, 0.698247, 0.722925, 0.722004, 0.723532, 0.715789, 0.722634, 0.723836, 0.722929, 0.729940, 0.722042, 0.722477
Process 10: 1.270146, 0.829820, 0.735754, 0.721594, 0.735068, 0.729732, 0.727204, 0.735921, 0.784353, 0.698808, 0.731179, 0.699866, 0.700687, 0.729914, 0.734291, 0.732623, 0.730014, 0.735080, 0.731191, 0.705581, 0.730827, 0.729922, 0.731669, 0.723926, 0.729986, 0.731933, 0.731028, 0.738328, 0.729964, 0.729583
Process 11: 1.276815, 0.836173, 0.741150, 0.727231, 0.740609, 0.734955, 0.732536, 0.741220, 0.786385, 0.703800, 0.736214, 0.705584, 0.705524, 0.735081, 0.739647, 0.738384, 0.735223, 0.740026, 0.736392, 0.710644, 0.736471, 0.734940, 0.736828, 0.728938, 0.735402, 0.737273, 0.736459, 0.743192, 0.734876, 0.735088
Process 12: 1.281497, 0.840854, 0.746206, 0.731831, 0.745414, 0.739688, 0.736744, 0.746047, 0.787842, 0.708418, 0.741172, 0.710857, 0.710481, 0.740806, 0.744882, 0.743437, 0.740757, 0.746406, 0.740821, 0.714519, 0.740751, 0.740478, 0.741578, 0.734499, 0.741100, 0.742522, 0.741829, 0.747967, 0.739853, 0.741162
Process 13: 1.287805, 0.847157, 0.752302, 0.737001, 0.752146, 0.746888, 0.743350, 0.751517, 0.846249, 0.715007, 0.747824, 0.717642, 0.716857, 0.747437, 0.751301, 0.749771, 0.747598, 0.753156, 0.747279, 0.720603, 0.747377, 0.746591, 0.747004, 0.741303, 0.747615, 0.750035, 0.747098, 0.754582, 0.746621, 0.747833
Process 14: 1.293920, 0.853423, 0.758701, 0.743448, 0.758486, 0.752588, 0.749569, 0.757739, 0.847629, 0.721259, 0.754245, 0.723900, 0.723397, 0.754044, 0.757516, 0.756120, 0.753865, 0.759221, 0.753618, 0.726336, 0.753405, 0.752984, 0.753673, 0.747566, 0.753565, 0.756921, 0.753461, 0.760842, 0.753124, 0.754110
Process 15: 1.301940, 0.860059, 0.766676, 0.751518, 0.766292, 0.760318, 0.756436, 0.765540, 0.849298, 0.728940, 0.762128, 0.731806, 0.731200, 0.761591, 0.765217, 0.764103, 0.761881, 0.766935, 0.761080, 0.733939, 0.761176, 0.760835, 0.760646, 0.755409, 0.761136, 0.764606, 0.760270, 0.768713, 0.761061, 0.761948
Process 16: 1.306645, 0.866365, 0.772584, 0.757470, 0.772015, 0.766901, 0.762782, 0.771294, 0.850512, 0.734896, 0.769300, 0.737609, 0.736908, 0.767313, 0.770888, 0.770029, 0.767539, 0.772663, 0.767116, 0.740488, 0.767054, 0.766399, 0.767000, 0.760452, 0.767069, 0.770357, 0.766524, 0.773701, 0.766578, 0.767123
Process 17: 1.312953, 0.872815, 0.778987, 0.763626, 0.778196, 0.773168, 0.768915, 0.777543, 0.851876, 0.741167, 0.774301, 0.743798, 0.742997, 0.773437, 0.777131, 0.776331, 0.773849, 0.778799, 0.773321, 0.747077, 0.773254, 0.772512, 0.772944, 0.766832, 0.773313, 0.776215, 0.772738, 0.780481, 0.772925, 0.773282
Process 18: 1.318988, 0.878524, 0.784236, 0.769046, 0.783376, 0.778356, 0.774730, 0.782957, 0.853117, 0.746960, 0.779629, 0.749071, 0.748652, 0.778488, 0.782931, 0.781645, 0.779190, 0.783643, 0.778791, 0.752841, 0.778592, 0.777887, 0.777271, 0.772542, 0.778833, 0.781451, 0.778209, 0.786712, 0.778410, 0.778694
Process 19: 1.325501, 0.883589, 0.789510, 0.774082, 0.788432, 0.783562, 0.780203, 0.788357, 0.854495, 0.752258, 0.783541, 0.753539, 0.753827, 0.782802, 0.788443, 0.786343, 0.784398, 0.789110, 0.785496, 0.757887, 0.784748, 0.783631, 0.784190, 0.777659, 0.784435, 0.785892, 0.783241, 0.792717, 0.783214, 0.785295
Process 20: 1.331624, 0.888602, 0.794298, 0.780995, 0.792282, 0.787999, 0.785307, 0.793380, 0.855766, 0.756947, 0.789679, 0.758603, 0.760323, 0.789209, 0.792784, 0.792253, 0.788300, 0.794497, 0.791603, 0.763497, 0.791583, 0.789518, 0.789649, 0.782527, 0.789033, 0.791115, 0.787493, 0.798443, 0.785951, 0.791030
Process 21: 1.338956, 0.894150, 0.800393, 0.789267, 0.798665, 0.794007, 0.791762, 0.799946, 0.857322, 0.763398, 0.796468, 0.765340, 0.767350, 0.796805, 0.799845, 0.799111, 0.794632, 0.800879, 0.798196, 0.769375, 0.798442, 0.796119, 0.796316, 0.789188, 0.795001, 0.798363, 0.793717, 0.804881, 0.791840, 0.797692
Process 22: 1.345215, 0.899934, 0.806539, 0.797004, 0.805047, 0.800265, 0.797834, 0.805686, 0.858610, 0.770442, 0.803087, 0.772153, 0.773350, 0.803043, 0.805930, 0.805012, 0.801081, 0.806910, 0.804880, 0.775387, 0.804511, 0.802179, 0.802534, 0.795173, 0.800868, 0.804656, 0.799779, 0.810696, 0.797906, 0.804347
Process 23: 1.352698, 0.906605, 0.812648, 0.804405, 0.812047, 0.808060, 0.804540, 0.813241, 0.860266, 0.777015, 0.810550, 0.780663, 0.780397, 0.810002, 0.812805, 0.811707, 0.808478, 0.813605, 0.812804, 0.781744, 0.811641, 0.809390, 0.811167, 0.801762, 0.807876, 0.811838, 0.806561, 0.817281, 0.804467, 0.811423
Process 24: 1.359872, 0.913491, 0.818596, 0.811645, 0.818944, 0.814693, 0.810646, 0.819207, 0.861447, 0.783239, 0.817765, 0.787474, 0.786622, 0.816144, 0.819588, 0.818855, 0.814928, 0.819846, 0.820449, 0.788176, 0.819606, 0.815687, 0.817194, 0.808779, 0.813913, 0.818150, 0.812950, 0.823368, 0.811157, 0.818159
Process 25: 1.368227, 0.920579, 0.825464, 0.819016, 0.827393, 0.821741, 0.817617, 0.825930, 0.862788, 0.791612, 0.825497, 0.795488, 0.793956, 0.822884, 0.827649, 0.825704, 0.823096, 0.827418, 0.827993, 0.795590, 0.828896, 0.823457, 0.825197, 0.815543, 0.821732, 0.825471, 0.820019, 0.831257, 0.818832, 0.824651
Process 26: 1.375546, 0.927118, 0.831723, 0.826122, 0.835038, 0.829664, 0.825271, 0.832872, 0.864039, 0.798619, 0.832039, 0.803145, 0.801267, 0.831113, 0.834009, 0.834282, 0.830369, 0.834886, 0.836088, 0.801676, 0.837900, 0.831514, 0.831719, 0.823466, 0.830102, 0.832287, 0.827117, 0.837658, 0.826583, 0.832026
Process 27: 1.384545, 0.933827, 0.839055, 0.833929, 0.843609, 0.838099, 0.833181, 0.841383, 0.865431, 0.806625, 0.841149, 0.810726, 0.809336, 0.839995, 0.841485, 0.843173, 0.839177, 0.843020, 0.844388, 0.808405, 0.846441, 0.839528, 0.838826, 0.831869, 0.837934, 0.839462, 0.834642, 0.844275, 0.834092, 0.839958
Process 28: 1.391274, 0.940410, 0.845824, 0.842562, 0.850918, 0.845785, 0.841710, 0.848970, 0.866695, 0.815027, 0.849293, 0.818592, 0.816493, 0.848385, 0.848320, 0.851153, 0.846416, 0.850798, 0.852964, 0.815066, 0.854376, 0.847978, 0.845793, 0.840208, 0.845391, 0.847826, 0.842197, 0.851252, 0.841027, 0.848842
Process 29: 1.400767, 0.947275, 0.853243, 0.851625, 0.859044, 0.854351, 0.850433, 0.857909, 0.868237, 0.824612, 0.857799, 0.827867, 0.825557, 0.857376, 0.857293, 0.859921, 0.855781, 0.858574, 0.862615, 0.823696, 0.864352, 0.856465, 0.854254, 0.848348, 0.853339, 0.857395, 0.852011, 0.859043, 0.849064, 0.857874
Process 30: 1.409285, 0.955963, 0.861167, 0.860771, 0.866974, 0.862484, 0.858668, 0.866204, 0.869511, 0.833527, 0.866277, 0.837951, 0.834538, 0.866666, 0.866199, 0.869708, 0.864325, 0.865518, 0.870582, 0.831961, 0.873156, 0.866305, 0.862160, 0.856646, 0.861472, 0.866114, 0.859856, 0.867118, 0.857087, 0.866947
Process 31: 1.419823, 0.965338, 0.869968, 0.869749, 0.876827, 0.872551, 0.867785, 0.875826, 0.876862, 0.842501, 0.875827, 0.847874, 0.844092, 0.877119, 0.876522, 0.878375, 0.873541, 0.874538, 0.880135, 0.842206, 0.882802, 0.876266, 0.871204, 0.866517, 0.871357, 0.875539, 0.868905, 0.876677, 0.868635, 0.877266
Process 32: 1.427437, 0.973659, 0.877109, 0.878361, 0.885723, 0.881293, 0.876146, 0.884196, 0.885939, 0.851490, 0.884997, 0.857207, 0.852527, 0.885583, 0.884270, 0.887390, 0.881834, 0.882690, 0.888502, 0.851264, 0.891423, 0.885243, 0.879819, 0.875324, 0.880399, 0.884378, 0.877865, 0.885093, 0.877058, 0.885815
Process 33: 1.437599, 0.981769, 0.885001, 0.887267, 0.894721, 0.890381, 0.885028, 0.893426, 0.895932, 0.860958, 0.894421, 0.866919, 0.862013, 0.894643, 0.893254, 0.896522, 0.890024, 0.891189, 0.897649, 0.859709, 0.900807, 0.894473, 0.888999, 0.884562, 0.889885, 0.893838, 0.886978, 0.894470, 0.886336, 0.895240
Process 34: 1.445311, 0.989248, 0.892200, 0.895612, 0.903332, 0.898772, 0.893284, 0.902036, 0.904024, 0.869737, 0.903036, 0.875134, 0.870388, 0.903239, 0.901065, 0.905228, 0.898093, 0.899246, 0.905834, 0.867698, 0.908648, 0.903085, 0.897493, 0.893133, 0.897968, 0.902244, 0.895474, 0.903137, 0.893971, 0.902685
Process 35: 1.454933, 0.996858, 0.900402, 0.904635, 0.912341, 0.907075, 0.901483, 0.911134, 0.912813, 0.879129, 0.912063, 0.883373, 0.879360, 0.912070, 0.908991, 0.914830, 0.906681, 0.906451, 0.914834, 0.876037, 0.917687, 0.911954, 0.906202, 0.901385, 0.906841, 0.910975, 0.904520, 0.911517, 0.902840, 0.911372
Process 36: 1.463001, 1.003531, 0.906474, 0.911383, 0.920139, 0.913701, 0.907843, 0.918789, 0.919360, 0.886597, 0.920757, 0.889415, 0.886535, 0.919758, 0.915077, 0.922900, 0.914129, 0.913825, 0.923215, 0.884461, 0.923699, 0.919883, 0.914584, 0.909517, 0.913036, 0.917960, 0.911149, 0.918962, 0.909400, 0.917973
Process 37: 1.471158, 1.010980, 0.913701, 0.919360, 0.928646, 0.921215, 0.915400, 0.926997, 0.927712, 0.895533, 0.929264, 0.896236, 0.894058, 0.928435, 0.921672, 0.930547, 0.921709, 0.920955, 0.930830, 0.891561, 0.931526, 0.927815, 0.924332, 0.917823, 0.920645, 0.926639, 0.918457, 0.926076, 0.916975, 0.925218
Process 38: 1.477251, 1.017598, 0.921677, 0.926417, 0.935940, 0.927902, 0.923866, 0.934846, 0.934933, 0.902575, 0.936450, 0.904677, 0.901587, 0.937054, 0.928435, 0.937321, 0.929122, 0.927593, 0.937878, 0.898426, 0.938220, 0.936264, 0.932036, 0.924981, 0.928309, 0.934097, 0.925549, 0.933025, 0.923968, 0.932491
Process 39: 1.485671, 1.025285, 0.930531, 0.934224, 0.943322, 0.936403, 0.932257, 0.943441, 0.943671, 0.909739, 0.943352, 0.913377, 0.909076, 0.945185, 0.936769, 0.945229, 0.937149, 0.935376, 0.945643, 0.905474, 0.945956, 0.944752, 0.940342, 0.932972, 0.935835, 0.942004, 0.933330, 0.940959, 0.930704, 0.940424
Process 40: 1.493820, 1.033203, 0.937248, 0.941303, 0.950287, 0.945068, 0.939110, 0.950628, 0.951100, 0.916499, 0.950439, 0.920540, 0.916869, 0.951907, 0.944170, 0.953026, 0.944212, 0.941782, 0.953209, 0.912710, 0.953057, 0.952203, 0.947460, 0.939591, 0.943023, 0.950488, 0.940508, 0.947544, 0.938167, 0.947254
Process 41: 1.501888, 1.042219, 0.944509, 0.950265, 0.957457, 0.954228, 0.946687, 0.958027, 0.958437, 0.924047, 0.957832, 0.927811, 0.925659, 0.959267, 0.953282, 0.961208, 0.952366, 0.949392, 0.960949, 0.921437, 0.961884, 0.960188, 0.955097, 0.946951, 0.950365, 0.958744, 0.949215, 0.955381, 0.945791, 0.954799
Process 42: 1.507933, 1.050469, 0.950989, 0.957812, 0.964569, 0.961218, 0.954512, 0.965322, 0.965483, 0.931421, 0.964710, 0.935766, 0.932346, 0.966299, 0.961567, 0.969094, 0.960038, 0.956221, 0.968332, 0.928894, 0.970258, 0.967908, 0.962370, 0.953527, 0.957114, 0.965877, 0.956261, 0.963694, 0.953012, 0.962583
Process 43: 1.515383, 1.057273, 0.959219, 0.967008, 0.971651, 0.968214, 0.962648, 0.973368, 0.972295, 0.939570, 0.971524, 0.942884, 0.939906, 0.974405, 0.968434, 0.977358, 0.966744, 0.963603, 0.976039, 0.936550, 0.978351, 0.975375, 0.969788, 0.961136, 0.964504, 0.972699, 0.964011, 0.972596, 0.960614, 0.970265
Process 44: 1.520289, 1.062480, 0.964573, 0.971822, 0.978066, 0.973121, 0.967834, 0.978445, 0.978458, 0.945068, 0.977334, 0.948621, 0.944944, 0.979934, 0.972742, 0.982998, 0.971500, 0.969797, 0.981906, 0.941093, 0.982802, 0.980845, 0.975326, 0.966440, 0.969645, 0.977658, 0.970140, 0.979038, 0.966720, 0.975388
Process 45: 1.528226, 1.069230, 0.969966, 0.978543, 0.984987, 0.979743, 0.974935, 0.985041, 0.985327, 0.952275, 0.983501, 0.955763, 0.952290, 0.987239, 0.979676, 0.990002, 0.978337, 0.977665, 0.988892, 0.947863, 0.987314, 0.987955, 0.981397, 0.973822, 0.977094, 0.984553, 0.976548, 0.983941, 0.973480, 0.982770
Process 46: 1.533814, 1.074993, 0.976124, 0.984904, 0.991121, 0.985525, 0.981889, 0.991093, 0.991218, 0.958429, 0.989365, 0.961815, 0.959049, 0.993137, 0.985708, 0.995729, 0.984227, 0.983793, 0.995369, 0.953787, 0.993208, 0.993742, 0.987248, 0.979876, 0.983284, 0.990565, 0.982542, 0.990046, 0.979850, 0.988667
Process 47: 1.540282, 1.081325, 0.983314, 0.992479, 0.997437, 0.991979, 0.988402, 0.997613, 0.998106, 0.964817, 0.996345, 0.968311, 0.965668, 1.000186, 0.992667, 1.002055, 0.991271, 0.991115, 1.002090, 0.960590, 0.999624, 1.000168, 0.993667, 0.986377, 0.989690, 0.998301, 0.989106, 0.996634, 0.985883, 0.996493
Process 48: 1.546446, 1.086892, 0.989213, 0.998404, 1.003505, 0.997606, 0.994264, 1.003589, 1.004266, 0.970863, 1.003346, 0.973602, 0.971577, 1.005757, 0.998905, 1.008238, 0.997456, 0.997302, 1.008152, 0.966201, 1.005330, 1.005958, 0.999716, 0.991640, 0.995501, 1.004282, 0.995362, 1.002313, 0.992211, 1.002618
Process 49: 1.552889, 1.093111, 0.996563, 1.004517, 1.009716, 1.003941, 1.000612, 1.009734, 1.010870, 0.977188, 1.009643, 0.979552, 0.978349, 1.012003, 1.005052, 1.014507, 1.004132, 1.004646, 1.015190, 0.972584, 1.011686, 1.012113, 1.006139, 0.997566, 1.002094, 1.011155, 1.001627, 1.008606, 0.998379, 1.009862
Process 50: 1.558543, 1.097967, 1.001783, 1.010481, 1.014911, 1.008920, 1.005887, 1.014303, 1.017469, 0.982533, 1.014842, 0.983825, 0.983479, 1.017121, 1.009794, 1.019623, 1.009372, 1.010446, 1.020685, 0.977819, 1.017013, 1.017120, 1.010975, 1.002561, 1.007266, 1.016573, 1.006858, 1.013945, 1.003585, 1.014958
Process 51: 1.564482, 1.103391, 1.007851, 1.016029, 1.020553, 1.014640, 1.011523, 1.019750, 1.023335, 0.988246, 1.020411, 0.989658, 0.989274, 1.022798, 1.015438, 1.025317, 1.015928, 1.016030, 1.026488, 0.983598, 1.022803, 1.022470, 1.016279, 1.008106, 1.012781, 1.022226, 1.012384, 1.019449, 1.008945, 1.020750
Process 52: 1.569326, 1.108148, 1.012536, 1.020695, 1.025463, 1.018817, 1.017169, 1.023306, 1.028684, 0.991529, 1.025290, 0.994173, 0.993970, 1.025992, 1.018535, 1.028310, 1.020648, 1.020608, 1.031194, 0.988488, 1.026625, 1.025622, 1.019561, 1.012664, 1.016144, 1.026971, 1.017045, 1.023535, 1.013641, 1.025323
Process 53: 1.574254, 1.113771, 1.017806, 1.025599, 1.030182, 1.023921, 1.022042, 1.029078, 1.033045, 0.997410, 1.030485, 1.000428, 0.998991, 1.031117, 1.023871, 1.034086, 1.026592, 1.025137, 1.036254, 0.993485, 1.031551, 1.030798, 1.024208, 1.018208, 1.021186, 1.032040, 1.022169, 1.029147, 1.019818, 1.030481
Process 54: 1.578678, 1.117823, 1.021933, 1.030005, 1.034639, 1.028410, 1.026397, 1.033455, 1.037610, 1.001631, 1.034835, 1.004528, 1.003377, 1.035433, 1.028230, 1.038324, 1.030462, 1.029368, 1.040596, 0.997935, 1.036607, 1.035012, 1.028449, 1.022093, 1.025247, 1.036311, 1.026378, 1.033350, 1.024197, 1.034578
Process 55: 1.583872, 1.123688, 1.027658, 1.034850, 1.039146, 1.034203, 1.030788, 1.039336, 1.043444, 1.006585, 1.040847, 1.010216, 1.008997, 1.040900, 1.032938, 1.043377, 1.036589, 1.035082, 1.045889, 1.002430, 1.041407, 1.041215, 1.034215, 1.027801, 1.030080, 1.042014, 1.031719, 1.039418, 1.029819, 1.040686
Process 56: 1.587574, 1.128961, 1.031119, 1.039010, 1.043340, 1.038481, 1.034990, 1.043412, 1.047190, 1.010733, 1.045222, 1.013679, 1.012779, 1.045225, 1.036945, 1.047278, 1.040543, 1.039355, 1.049691, 1.006786, 1.045241, 1.045427, 1.039678, 1.032020, 1.034387, 1.045874, 1.035740, 1.043337, 1.033432, 1.044656
Process 57: 1.592658, 1.132638, 1.035284, 1.043209, 1.048020, 1.043009, 1.039354, 1.048284, 1.051922, 1.015559, 1.049636, 1.017802, 1.017546, 1.049647, 1.041820, 1.051999, 1.045169, 1.043933, 1.054077, 1.011006, 1.049902, 1.049887, 1.043771, 1.036463, 1.038592, 1.049961, 1.040648, 1.048079, 1.037509, 1.049129
Process 58: 1.595533, 1.135566, 1.038013, 1.045851, 1.051684, 1.045865, 1.042642, 1.050115, 1.054235, 1.018269, 1.051713, 1.020380, 1.020464, 1.052781, 1.044569, 1.055307, 1.047026, 1.047408, 1.056851, 1.013858, 1.053204, 1.051736, 1.045983, 1.039845, 1.042038, 1.052682, 1.043902, 1.049910, 1.040826, 1.051725
Process 59: 1.597963, 1.138090, 1.040250, 1.048361, 1.054107, 1.048156, 1.044974, 1.052369, 1.056448, 1.020532, 1.053990, 1.022584, 1.022728, 1.055036, 1.047108, 1.057591, 1.049228, 1.049700, 1.059762, 1.016136, 1.055472, 1.053986, 1.048177, 1.042243, 1.044452, 1.054901, 1.046307, 1.052144, 1.043114, 1.054078
Process 60: 1.599132, 1.139592, 1.041797, 1.049913, 1.055693, 1.049700, 1.046559, 1.054058, 1.058109, 1.022158, 1.055995, 1.024225, 1.024278, 1.056587, 1.048651, 1.059168, 1.050888, 1.051307, 1.061331, 1.017718, 1.057056, 1.055657, 1.049748, 1.043821, 1.046065, 1.056545, 1.047885, 1.053841, 1.045119, 1.055607
Process 61: 1.601599, 1.141731, 1.043939, 1.052002, 1.057803, 1.051773, 1.048652, 1.056112, 1.060192, 1.024218, 1.058249, 1.026285, 1.026355, 1.058686, 1.050738, 1.061268, 1.052931, 1.053389, 1.063433, 1.019815, 1.059154, 1.057703, 1.051799, 1.045975, 1.048165, 1.058651, 1.049965, 1.055905, 1.047368, 1.057680
Process 62: 1.602911, 1.143160, 1.045456, 1.053531, 1.059357, 1.053305, 1.050174, 1.057641, 1.061736, 1.025752, 1.060164, 1.027813, 1.027896, 1.060215, 1.052259, 1.062821, 1.054458, 1.054908, 1.064963, 1.021335, 1.060691, 1.059233, 1.053334, 1.047474, 1.049687, 1.060198, 1.051500, 1.057430, 1.049294, 1.059205
Process 63: 1.605102, 1.145065, 1.047371, 1.055462, 1.061281, 1.055221, 1.052101, 1.059554, 1.063673, 1.027682, 1.062237, 1.029746, 1.029833, 1.062136, 1.054184, 1.064748, 1.056376, 1.056840, 1.066921, 1.023248, 1.062604, 1.061152, 1.055262, 1.049396, 1.051595, 1.062096, 1.053433, 1.059369, 1.051374, 1.061115
