MPI_insiderank_openmp_handopt_ssa
Process 0: 2.164064, 2.066904, 2.837780, 1.917734, 1.869778, 1.939615, 1.843560, 1.911286, 1.843251, 1.894692, 1.921728, 1.908286, 1.962173, 1.834135, 1.846499, 1.841542, 1.850679, 1.929967, 1.844317, 1.838985, 1.846357, 1.848461, 1.813908, 1.838180, 1.822654, 1.827904, 1.827867, 1.992553, 1.925326, 1.842679
Process 1: 1.913717, 1.818049, 2.586973, 1.660054, 1.612730, 1.692000, 1.590435, 1.655111, 1.588959, 1.610047, 1.669889, 1.652058, 1.707142, 1.581685, 1.594193, 1.591719, 1.599308, 1.676975, 1.591713, 1.588471, 1.596439, 1.595713, 1.571065, 1.594428, 1.578535, 1.585124, 1.581653, 1.697484, 1.669700, 1.588532
Process 2: 1.942270, 1.845265, 2.609324, 1.685303, 1.636549, 1.716883, 1.616069, 1.682276, 1.615797, 1.633382, 1.697469, 1.678109, 1.734384, 1.606340, 1.620570, 1.619049, 1.626551, 1.703293, 1.618697, 1.614960, 1.624187, 1.624103, 1.595696, 1.619482, 1.602784, 1.611055, 1.608176, 1.724150, 1.696222, 1.615724
Process 3: 1.966850, 1.872941, 2.634772, 1.709305, 1.657957, 1.743623, 1.639404, 1.707859, 1.640604, 1.658516, 1.721030, 1.703499, 1.759835, 1.631123, 1.644461, 1.643521, 1.652826, 1.728075, 1.643484, 1.640297, 1.649590, 1.648902, 1.619969, 1.642842, 1.627500, 1.635619, 1.631482, 1.749633, 1.720776, 1.641803
Process 4: 1.988710, 1.895836, 2.657912, 1.732236, 1.682328, 1.767980, 1.662035, 1.730801, 1.663086, 1.681204, 1.743559, 1.726938, 1.783097, 1.653390, 1.667373, 1.666796, 1.676801, 1.750365, 1.666423, 1.663472, 1.672642, 1.671409, 1.642929, 1.665700, 1.650826, 1.659437, 1.654665, 1.774181, 1.743365, 1.664424
Process 5: 2.013100, 1.919481, 2.680301, 1.755062, 1.707094, 1.792736, 1.682818, 1.753959, 1.686515, 1.705886, 1.763648, 1.749696, 1.806844, 1.676304, 1.690960, 1.689624, 1.702301, 1.774392, 1.690161, 1.687128, 1.693924, 1.693887, 1.665773, 1.688990, 1.673286, 1.681641, 1.677994, 1.799030, 1.766964, 1.687763
Process 6: 2.032630, 1.940006, 2.700885, 1.777226, 1.729108, 1.813544, 1.702618, 1.775489, 1.707644, 1.728055, 1.784238, 1.770926, 1.826926, 1.696223, 1.712063, 1.712218, 1.723283, 1.795614, 1.711650, 1.708189, 1.714485, 1.715180, 1.687009, 1.710086, 1.694517, 1.703362, 1.698258, 1.820225, 1.788243, 1.709574
Process 7: 2.054678, 1.959966, 2.723196, 1.801624, 1.749866, 1.832991, 1.723746, 1.796700, 1.728225, 1.746191, 1.804266, 1.789653, 1.848078, 1.717758, 1.732708, 1.732942, 1.742396, 1.814788, 1.732601, 1.727716, 1.733283, 1.733598, 1.707400, 1.730783, 1.714886, 1.720748, 1.718782, 1.840266, 1.808173, 1.729580
Process 8: 2.071211, 1.977084, 2.740595, 1.814593, 1.767048, 1.846747, 1.741008, 1.817265, 1.745020, 1.760013, 1.822537, 1.806495, 1.868524, 1.735161, 1.749849, 1.750563, 1.757384, 1.832055, 1.749233, 1.744585, 1.753974, 1.750572, 1.724582, 1.747815, 1.732016, 1.737726, 1.735694, 1.853837, 1.825415, 1.746918
Process 9: 2.089934, 1.995173, 2.758135, 1.832449, 1.786157, 1.864636, 1.758715, 1.835268, 1.764485, 1.777405, 1.836896, 1.825291, 1.886833, 1.754410, 1.768687, 1.768985, 1.775105, 1.850507, 1.769067, 1.764244, 1.771864, 1.769203, 1.742303, 1.765722, 1.748737, 1.755683, 1.756439, 1.871393, 1.842282, 1.765688
Process 10: 2.102134, 2.009123, 2.772759, 1.849496, 1.802642, 1.878648, 1.774457, 1.848255, 1.779761, 1.794761, 1.851655, 1.842180, 1.900509, 1.771105, 1.782298, 1.778937, 1.789161, 1.866347, 1.785832, 1.780746, 1.787004, 1.785877, 1.759105, 1.782685, 1.762531, 1.771918, 1.773433, 1.884964, 1.859111, 1.777784
Process 11: 2.124189, 2.023156, 2.790435, 1.873477, 1.825869, 1.897998, 1.787204, 1.870817, 1.802990, 1.804200, 1.868309, 1.866553, 1.921397, 1.788375, 1.804177, 1.799139, 1.809140, 1.888269, 1.798147, 1.793080, 1.806676, 1.808516, 1.770954, 1.795614, 1.780953, 1.784698, 1.784524, 1.898144, 1.879334, 1.799767
Process 12: 2.135460, 2.035692, 2.803062, 1.885244, 1.837821, 1.909208, 1.798399, 1.884154, 1.814550, 1.824292, 1.879488, 1.878209, 1.934983, 1.798963, 1.815650, 1.810382, 1.820570, 1.899959, 1.809089, 1.803985, 1.819288, 1.819996, 1.782441, 1.806771, 1.791700, 1.796355, 1.795457, 1.922848, 1.890692, 1.811615
Process 13: 2.148051, 2.048009, 2.812732, 1.897321, 1.849931, 1.919572, 1.810390, 1.893743, 1.824257, 1.856459, 1.890787, 1.889019, 1.944654, 1.812282, 1.826728, 1.821770, 1.830869, 1.910303, 1.822243, 1.817327, 1.828824, 1.829358, 1.794147, 1.818626, 1.803442, 1.808640, 1.807771, 1.955412, 1.903411, 1.823081
Process 14: 2.156075, 2.057679, 2.821308, 1.906641, 1.860574, 1.930444, 1.821649, 1.902056, 1.834025, 1.881635, 1.901667, 1.899091, 1.952973, 1.822713, 1.837310, 1.832300, 1.841460, 1.920747, 1.832887, 1.827552, 1.837158, 1.839258, 1.804674, 1.828971, 1.813448, 1.818657, 1.818651, 1.978741, 1.913897, 1.833459
Process 15: 2.165225, 2.066895, 2.837785, 1.917734, 1.869780, 1.939600, 1.843560, 1.911274, 1.843253, 1.894707, 1.921720, 1.908286, 1.962173, 1.834137, 1.846501, 1.841542, 1.850677, 1.929963, 1.844315, 1.838989, 1.846357, 1.848460, 1.813908, 1.838180, 1.822653, 1.827905, 1.827867, 1.992552, 1.925327, 1.842682
