mpi_trmm_opt3
Process 0: 7.247241, 6.974536, 6.926757, 7.089647, 6.950740, 6.942141, 6.985555, 6.930635, 7.025378, 6.934068, 6.890071, 6.974506, 6.858551, 6.935392, 6.949998, 6.898866, 6.893701, 6.942110, 7.011115, 6.909630, 6.907455, 7.054117, 6.948922, 6.893498, 6.928594, 6.997893, 6.983364, 6.908465, 6.888738, 6.742624
Process 1: 7.206016, 6.931924, 6.885415, 7.004641, 6.918212, 6.910302, 6.946383, 6.898251, 6.993900, 6.896652, 6.855008, 6.945201, 6.827342, 6.906452, 6.917370, 6.867065, 6.855391, 6.910093, 6.972200, 6.877791, 6.877008, 7.022831, 6.911291, 6.861328, 6.890457, 6.966583, 6.952435, 6.875907, 6.860962, 6.715713
Process 2: 7.222248, 6.947929, 6.901494, 7.022965, 6.927059, 6.918649, 6.961929, 6.907229, 7.002421, 6.908274, 6.870211, 6.953967, 6.835089, 6.914940, 6.926347, 6.875692, 6.871161, 6.918364, 6.983219, 6.886466, 6.885858, 7.031167, 6.923405, 6.869800, 6.905771, 6.974630, 6.959895, 6.883993, 6.868309, 6.722637
Process 3: 7.249595, 6.976938, 6.929127, 7.092017, 6.953136, 6.944489, 6.987982, 6.932998, 7.027737, 6.936479, 6.892465, 6.976888, 6.860844, 6.937827, 6.952405, 6.901272, 6.896102, 6.944538, 7.013526, 6.912020, 6.909843, 7.056534, 6.951322, 6.895900, 6.931008, 7.000339, 6.985701, 6.910853, 6.891433, 6.745354
