MPI_insiderank_openmp_handopt
Process 0: 40.011312, 39.595438, 39.083527, 37.985558, 38.965932, 38.939205, 39.136602, 38.959176, 38.491402, 38.325092, 38.089952, 38.255536, 38.410760, 38.320914, 38.094694, 38.146729, 38.267586, 38.488953, 38.684471, 38.350058, 38.412313, 38.279386, 38.407954, 38.159372, 38.334509, 37.984189, 38.101144, 38.002021, 38.178252, 38.721946
Process 1: 40.020946, 39.605521, 39.091863, 37.993987, 38.973671, 38.947058, 39.144285, 38.966838, 38.499250, 38.334353, 38.098729, 38.263717, 38.419156, 38.329266, 38.102846, 38.155186, 38.276620, 38.497864, 38.693255, 38.358324, 38.421757, 38.287703, 38.416540, 38.167820, 38.343026, 37.992848, 38.109563, 38.011388, 38.187032, 38.731355
