MPI_insiderank_openmp_handopt
Process 0: 1.458956, 1.784011, 2.296960, 1.095555, 1.097831, 1.159204, 1.092234, 1.108502, 1.050899, 1.044428, 1.105009, 1.019889, 0.924166, 0.883763, 0.863686, 0.870051, 0.873923, 0.877201, 0.972036, 0.848271, 0.861457, 0.839546, 1.161106, 1.023465, 0.936679, 0.888143, 1.167828, 0.893287, 0.841939, 0.826411
Process 1: 1.440109, 1.766150, 2.279267, 1.077742, 1.079587, 1.142759, 1.073868, 1.090845, 1.035018, 1.028727, 1.084570, 0.998252, 0.902783, 0.863943, 0.846432, 0.851815, 0.854874, 0.859791, 0.954396, 0.830231, 0.843105, 0.821377, 1.141056, 1.000143, 0.912625, 0.870086, 1.133726, 0.872606, 0.824404, 0.809383
Process 2: 1.446762, 1.772787, 2.286159, 1.084392, 1.088122, 1.149651, 1.082577, 1.097530, 1.041413, 1.034796, 1.093383, 1.008156, 0.912215, 0.870596, 0.853307, 0.858254, 0.861306, 0.867086, 0.960213, 0.836401, 0.849267, 0.827738, 1.150741, 1.011722, 0.921451, 0.876233, 1.147265, 0.882232, 0.830635, 0.815014
Process 3: 1.459813, 1.784013, 2.296960, 1.095556, 1.097831, 1.159204, 1.092234, 1.108505, 1.050898, 1.044427, 1.105008, 1.019889, 0.924164, 0.883758, 0.863685, 0.870051, 0.873926, 0.877200, 0.972036, 0.848271, 0.861457, 0.839545, 1.161105, 1.023464, 0.936680, 0.888142, 1.167824, 0.893286, 0.841939, 0.826410
