MPI_insiderank_openmp_handopt
Process 0: 0.493445, 0.475722, 0.401174, 0.403154, 0.395590, 0.401921, 0.397912, 0.401200, 0.407123, 0.413605, 0.404777, 0.402511, 0.393884, 0.402659, 0.403289, 0.395563, 0.404537, 0.399949, 0.393219, 0.440292, 0.393810, 0.422484, 0.394665, 0.394161, 0.399730, 0.399876, 0.400313, 0.410282, 0.392457, 0.354048
Process 1: 0.454168, 0.439366, 0.362953, 0.366791, 0.358523, 0.366548, 0.363160, 0.367485, 0.371175, 0.379771, 0.363784, 0.366481, 0.359896, 0.365499, 0.367071, 0.360228, 0.370380, 0.364509, 0.358844, 0.406709, 0.358972, 0.385249, 0.356847, 0.357470, 0.366336, 0.361161, 0.365885, 0.378145, 0.358958, 0.317828
Process 2: 0.457918, 0.441721, 0.366849, 0.370843, 0.362195, 0.370843, 0.367231, 0.370625, 0.375222, 0.383799, 0.368072, 0.370406, 0.363698, 0.368722, 0.371452, 0.365407, 0.373992, 0.368288, 0.362805, 0.410909, 0.363584, 0.388439, 0.360566, 0.362029, 0.370238, 0.364700, 0.370306, 0.380903, 0.362481, 0.321084
Process 3: 0.462797, 0.446359, 0.371010, 0.375035, 0.366851, 0.374744, 0.371633, 0.376086, 0.379651, 0.388100, 0.371632, 0.374641, 0.367873, 0.373155, 0.375664, 0.369718, 0.378537, 0.372561, 0.366931, 0.414483, 0.367813, 0.392687, 0.364473, 0.366314, 0.373742, 0.369579, 0.374738, 0.384713, 0.366667, 0.325205
Process 4: 0.466092, 0.450616, 0.374622, 0.378326, 0.369870, 0.378116, 0.374794, 0.379055, 0.383204, 0.391163, 0.375377, 0.377780, 0.370910, 0.376279, 0.379427, 0.373206, 0.382051, 0.376435, 0.370246, 0.417865, 0.371194, 0.396020, 0.367955, 0.369425, 0.376870, 0.372843, 0.378117, 0.387877, 0.369939, 0.328082
Process 5: 0.470541, 0.455175, 0.378548, 0.382568, 0.374220, 0.382409, 0.378953, 0.384009, 0.387262, 0.394432, 0.379297, 0.382073, 0.375124, 0.380427, 0.383600, 0.377041, 0.385551, 0.380717, 0.374398, 0.421672, 0.374798, 0.400246, 0.372124, 0.372826, 0.380933, 0.379723, 0.381683, 0.391374, 0.373295, 0.333050
Process 6: 0.474032, 0.458054, 0.381348, 0.385821, 0.377448, 0.385624, 0.381429, 0.386766, 0.389981, 0.397088, 0.382156, 0.385183, 0.377740, 0.383234, 0.386032, 0.379522, 0.388647, 0.383946, 0.377415, 0.424798, 0.377721, 0.402951, 0.375221, 0.375729, 0.383620, 0.382057, 0.383974, 0.393805, 0.376067, 0.335395
Process 7: 0.478699, 0.462115, 0.385272, 0.389786, 0.381513, 0.389005, 0.385267, 0.390324, 0.393662, 0.400518, 0.386382, 0.389044, 0.381200, 0.387653, 0.389550, 0.383296, 0.392122, 0.387301, 0.380791, 0.428745, 0.381073, 0.407415, 0.383340, 0.382455, 0.387372, 0.385648, 0.387460, 0.397235, 0.379931, 0.343196
Process 8: 0.481891, 0.464803, 0.387436, 0.392432, 0.384329, 0.391423, 0.387279, 0.392731, 0.396158, 0.403092, 0.388975, 0.391677, 0.383376, 0.390610, 0.392691, 0.385238, 0.394094, 0.389362, 0.383091, 0.430851, 0.383390, 0.410219, 0.384430, 0.384138, 0.389111, 0.388761, 0.390055, 0.399436, 0.381873, 0.344299
Process 9: 0.486832, 0.469715, 0.396802, 0.396663, 0.389069, 0.395517, 0.391477, 0.396116, 0.400511, 0.407750, 0.393391, 0.396243, 0.387447, 0.395453, 0.396622, 0.389484, 0.398344, 0.393425, 0.387437, 0.434772, 0.387515, 0.415204, 0.388390, 0.388217, 0.393547, 0.393188, 0.394080, 0.404328, 0.386039, 0.348173
Process 10: 0.489124, 0.471399, 0.397893, 0.399263, 0.391656, 0.398226, 0.393940, 0.398306, 0.403164, 0.410670, 0.395602, 0.398605, 0.389999, 0.398247, 0.399400, 0.391549, 0.400764, 0.396010, 0.389297, 0.436311, 0.389844, 0.418076, 0.390693, 0.390188, 0.395765, 0.396010, 0.396545, 0.406298, 0.388324, 0.350106
Process 11: 0.493834, 0.475721, 0.401178, 0.403153, 0.395590, 0.401925, 0.397912, 0.401199, 0.407121, 0.413604, 0.404779, 0.402515, 0.393887, 0.402660, 0.403295, 0.395561, 0.404534, 0.399949, 0.393216, 0.440298, 0.393807, 0.422483, 0.394667, 0.394168, 0.399737, 0.399875, 0.400313, 0.410287, 0.392456, 0.354045
