MPI_insiderank_openmp_handopt
Process 0: 59.390459, 59.104135, 59.936088, 60.023620, 60.217382, 60.140135, 60.026228, 59.824000, 60.103368, 59.793749, 59.444493, 59.556525, 59.896867, 59.818235, 59.871370, 59.989727, 59.902627, 60.103858, 60.473014, 60.269402, 60.536174, 58.686163, 60.301683, 59.762095, 59.367987, 61.291254, 63.252329, 61.854508, 61.215169, 60.761603
Process 1: 59.400355, 59.113690, 59.946136, 60.036392, 60.227290, 60.149724, 60.038582, 59.834621, 60.113546, 59.803825, 59.455804, 59.567480, 59.906979, 59.831719, 59.881962, 59.999972, 59.913813, 60.114095, 60.482933, 60.280746, 60.548754, 58.695861, 60.311450, 59.772517, 59.378126, 61.301089, 63.263238, 61.867199, 61.225355, 60.771605
