MPI_insiderank_openmp_handopt
Process 0: 3.317792, 3.006034, 3.130516, 2.971401, 2.923288, 3.184333, 3.791462, 3.509992, 3.621247, 3.906630, 3.644503, 4.057295, 3.580437, 4.065910, 4.002970, 3.875752, 3.854293, 3.498391, 3.709394, 3.495845, 3.871811, 3.521771, 3.791719, 3.511287, 3.669650, 3.506098, 3.490808, 3.484639, 3.433537, 3.424330
Process 1: 3.191146, 2.879715, 3.000115, 2.826721, 2.792477, 3.048160, 3.634581, 3.398455, 3.492459, 3.746219, 3.512031, 3.911048, 3.446068, 3.921760, 3.840179, 3.731348, 3.719852, 3.365353, 3.600649, 3.366081, 3.740502, 3.390961, 3.638394, 3.379693, 3.536559, 3.371045, 3.358462, 3.354192, 3.321167, 3.291317
Process 2: 3.228985, 2.919680, 3.042503, 2.887204, 2.843956, 3.100771, 3.698412, 3.429182, 3.541465, 3.813383, 3.564020, 3.966809, 3.496021, 3.977357, 3.905942, 3.786822, 3.771335, 3.418347, 3.626660, 3.416064, 3.792611, 3.442825, 3.701932, 3.431932, 3.587854, 3.425746, 3.410113, 3.405190, 3.349493, 3.343662
Process 3: 3.325246, 3.013567, 3.138097, 2.978960, 2.930938, 3.191579, 3.798981, 3.517247, 3.627920, 3.913879, 3.651769, 4.064518, 3.588032, 4.073144, 4.010532, 3.882885, 3.861757, 3.505553, 3.717000, 3.502966, 3.878951, 3.529050, 3.799382, 3.517717, 3.676406, 3.513270, 3.498038, 3.491865, 3.440732, 3.431545
