MPI_insiderank_serial
Process 0: 1.879445, 1.911546, 1.877995, 1.889986, 1.886638, 1.889667, 1.892593, 1.888496, 1.882950, 1.888383, 1.882663, 1.898772, 1.882306, 1.880236, 1.889847, 1.899867, 1.879974, 1.888802, 1.901229, 1.877921, 1.891994, 1.877201, 1.889050, 1.889119, 1.876806, 1.879176, 1.889336, 1.878873, 1.879326, 1.881763
Process 1: 1.318967, 1.340282, 1.318456, 1.317932, 1.317139, 1.317643, 1.330844, 1.317282, 1.317760, 1.321390, 1.318068, 1.317483, 1.317689, 1.321302, 1.317831, 1.319606, 1.320478, 1.317672, 1.317389, 1.316148, 1.317919, 1.317768, 1.317598, 1.318003, 1.317323, 1.332387, 1.330471, 1.329184, 1.332610, 1.331530
Process 2: 1.355986, 1.377366, 1.354869, 1.354248, 1.353454, 1.354605, 1.366328, 1.353653, 1.354107, 1.357735, 1.354413, 1.354120, 1.354634, 1.370580, 1.354813, 1.356261, 1.356832, 1.353548, 1.353742, 1.352531, 1.354343, 1.354185, 1.354378, 1.354585, 1.353717, 1.369306, 1.366991, 1.365420, 1.369196, 1.367904
Process 3: 1.394065, 1.426848, 1.392631, 1.392138, 1.401689, 1.404246, 1.404054, 1.398511, 1.397532, 1.403149, 1.397424, 1.403754, 1.404648, 1.407473, 1.404516, 1.406038, 1.394580, 1.403003, 1.391164, 1.393044, 1.394962, 1.391966, 1.404145, 1.404696, 1.391505, 1.406423, 1.417059, 1.415486, 1.406576, 1.408989
Process 4: 1.443882, 1.476785, 1.442610, 1.442090, 1.451692, 1.454280, 1.454125, 1.448535, 1.447530, 1.453138, 1.447272, 1.453732, 1.454362, 1.457487, 1.454452, 1.456047, 1.444658, 1.453275, 1.441251, 1.442928, 1.444807, 1.442011, 1.454149, 1.454484, 1.441486, 1.456448, 1.466705, 1.465125, 1.456538, 1.458963
Process 5: 1.493800, 1.526655, 1.492482, 1.491974, 1.501565, 1.504197, 1.503996, 1.498413, 1.497424, 1.503082, 1.497157, 1.503570, 1.504250, 1.507328, 1.504372, 1.505986, 1.494515, 1.503174, 1.491190, 1.492617, 1.494689, 1.491906, 1.503982, 1.504411, 1.491417, 1.506319, 1.516509, 1.515091, 1.506415, 1.508826
Process 6: 1.531123, 1.563868, 1.542275, 1.541447, 1.538572, 1.553957, 1.541172, 1.535611, 1.534419, 1.540015, 1.546943, 1.540579, 1.546721, 1.544264, 1.541336, 1.543388, 1.531409, 1.552941, 1.528563, 1.529841, 1.531693, 1.529085, 1.540947, 1.541617, 1.528534, 1.556085, 1.553421, 1.552095, 1.543355, 1.545789
Process 7: 1.568703, 1.601665, 1.579651, 1.579097, 1.576424, 1.591343, 1.578875, 1.573298, 1.584922, 1.577766, 1.584180, 1.587895, 1.584048, 1.581928, 1.591853, 1.580976, 1.569316, 1.590300, 1.566183, 1.567691, 1.569491, 1.566737, 1.578838, 1.579455, 1.578912, 1.593444, 1.590971, 1.589841, 1.580993, 1.583416
Process 8: 1.605958, 1.638931, 1.617152, 1.629236, 1.613789, 1.628808, 1.619170, 1.610628, 1.622124, 1.615149, 1.621831, 1.637924, 1.621466, 1.619441, 1.629060, 1.618238, 1.606652, 1.627958, 1.603477, 1.604987, 1.618608, 1.603946, 1.616155, 1.616682, 1.616073, 1.630765, 1.628594, 1.627124, 1.631107, 1.620938
Process 9: 1.643634, 1.688303, 1.654735, 1.666732, 1.651352, 1.666419, 1.669190, 1.652747, 1.659745, 1.665093, 1.659468, 1.675423, 1.659040, 1.656927, 1.666559, 1.664063, 1.657002, 1.665535, 1.652832, 1.654575, 1.668985, 1.653848, 1.653719, 1.665778, 1.653595, 1.668457, 1.666057, 1.668030, 1.668513, 1.658501
Process 10: 1.693613, 1.738274, 1.704737, 1.716701, 1.701349, 1.716449, 1.719169, 1.702766, 1.709714, 1.715046, 1.709467, 1.725489, 1.709020, 1.706928, 1.716581, 1.714106, 1.706701, 1.715510, 1.702811, 1.704583, 1.718723, 1.703834, 1.703713, 1.715795, 1.703603, 1.718424, 1.716075, 1.718011, 1.718526, 1.708518
Process 11: 1.743853, 1.788579, 1.755067, 1.767036, 1.751675, 1.766815, 1.769552, 1.753144, 1.760002, 1.765397, 1.759765, 1.775836, 1.759351, 1.757316, 1.766925, 1.764484, 1.757033, 1.765863, 1.753226, 1.754913, 1.769051, 1.754152, 1.754000, 1.766105, 1.753923, 1.756042, 1.766444, 1.755584, 1.756098, 1.758800
Process 12: 1.780556, 1.825405, 1.791855, 1.803800, 1.800527, 1.803462, 1.806449, 1.802630, 1.796766, 1.802181, 1.796518, 1.812585, 1.796133, 1.794015, 1.803599, 1.813923, 1.793729, 1.802584, 1.802418, 1.791698, 1.805832, 1.791048, 1.802861, 1.802926, 1.790619, 1.792990, 1.803119, 1.792632, 1.793118, 1.795716
Process 13: 1.830639, 1.875526, 1.841938, 1.853921, 1.850607, 1.853588, 1.856519, 1.852469, 1.846884, 1.852246, 1.846589, 1.862660, 1.846228, 1.844117, 1.853758, 1.863812, 1.843858, 1.852730, 1.852523, 1.841814, 1.855994, 1.841114, 1.852982, 1.853020, 1.840762, 1.843122, 1.853272, 1.842769, 1.843228, 1.845660
Process 14: 1.881014, 1.912708, 1.879128, 1.891169, 1.887831, 1.890826, 1.893774, 1.889638, 1.884092, 1.889530, 1.883814, 1.899938, 1.883479, 1.881416, 1.891007, 1.901010, 1.881139, 1.889952, 1.902826, 1.879098, 1.893153, 1.878380, 1.890192, 1.890273, 1.877976, 1.880339, 1.890516, 1.880019, 1.880495, 1.882959
