MPI_insiderank_serial
Process 0: 22.145727, 11.387183, 11.190396, 11.357636, 11.159097, 11.118334, 11.241308, 11.121313, 11.200452, 11.248939, 11.104024, 11.393006, 10.991352, 11.210809, 11.341183, 11.220950, 11.113568, 10.877018, 10.940065, 10.872428, 10.822011, 10.816840, 10.925340, 10.837676, 10.880187, 10.933895, 10.785692, 10.823612, 10.856396, 10.804016
Process 1: 21.419994, 10.629834, 10.432579, 10.654369, 10.448150, 10.391768, 10.485184, 10.415889, 10.469770, 10.520302, 10.386815, 10.646003, 10.265699, 10.505779, 10.615020, 10.495695, 10.404717, 10.147224, 10.253365, 10.143996, 10.108526, 10.089976, 10.198702, 10.127719, 10.189495, 10.222624, 10.076744, 10.110816, 10.128327, 10.116992
Process 2: 21.535826, 10.791868, 10.552274, 10.751606, 10.574892, 10.508838, 10.604623, 10.509902, 10.589017, 10.657665, 10.500001, 10.762406, 10.381378, 10.599668, 10.750370, 10.608425, 10.515766, 10.258725, 10.343827, 10.272138, 10.243163, 10.201963, 10.309786, 10.250749, 10.281165, 10.354071, 10.187768, 10.223053, 10.239338, 10.207900
Process 3: 21.667410, 10.931080, 10.696945, 10.891358, 10.701221, 10.652029, 10.749597, 10.656249, 10.738984, 10.810729, 10.628348, 10.910910, 10.532591, 10.744408, 10.911880, 10.758854, 10.646410, 10.402664, 10.471657, 10.402070, 10.372126, 10.332309, 10.436593, 10.368281, 10.409998, 10.482691, 10.319336, 10.352818, 10.368773, 10.336853
Process 4: 21.784695, 11.026166, 10.834736, 11.004452, 10.805073, 10.787895, 10.864208, 10.767278, 10.852602, 10.897764, 10.762075, 11.025821, 10.642417, 10.854719, 10.994791, 10.892275, 10.760370, 10.500441, 10.584330, 10.516001, 10.468076, 10.465503, 10.551229, 10.481271, 10.522429, 10.580921, 10.429932, 10.466298, 10.480845, 10.448590
Process 5: 21.908725, 11.147556, 10.953947, 11.123883, 10.925097, 10.910445, 10.983406, 10.887204, 10.971083, 11.015838, 10.892262, 11.144330, 10.761045, 10.974893, 11.112715, 11.013050, 10.877977, 10.620413, 10.705136, 10.636469, 10.584294, 10.586300, 10.670834, 10.600850, 10.643691, 10.697894, 10.562961, 10.588660, 10.601389, 10.568682
Process 6: 22.028783, 11.268424, 11.072069, 11.242745, 11.043647, 11.009698, 11.119705, 11.005759, 11.087397, 11.134769, 10.999362, 11.279203, 10.878186, 11.094098, 11.217269, 11.109615, 10.996419, 10.755247, 10.822596, 10.755623, 10.702874, 10.689113, 10.802459, 10.719745, 10.760664, 10.816727, 10.673486, 10.706616, 10.733456, 10.687065
Process 7: 22.151811, 11.390815, 11.193771, 11.361126, 11.162746, 11.121041, 11.245408, 11.124813, 11.205898, 11.252510, 11.109100, 11.395854, 10.995379, 11.213958, 11.344469, 11.224468, 11.115850, 10.879424, 10.942737, 10.874905, 10.824638, 10.820792, 10.927913, 10.840405, 10.882726, 10.936645, 10.788470, 10.826521, 10.859006, 10.806641
