MPI_insiderank_serial
Process 0: 34.753772, 25.783554, 23.695719, 25.652505, 20.386131, 21.603628, 25.894864, 20.642631, 20.078315, 24.219829, 24.073227, 20.355890, 20.354693, 25.466059, 20.246522, 20.430951, 27.070383, 20.438480, 23.144557, 25.053898, 20.395775, 23.812378, 23.775523, 20.569507, 23.692225, 22.152477, 20.689481, 25.419040, 20.356306, 21.601911
Process 1: 27.310015, 18.348051, 16.180664, 18.225462, 12.882111, 14.165733, 18.410598, 13.153189, 12.649789, 16.807756, 16.632193, 12.895410, 12.903491, 18.031667, 12.766189, 12.931305, 19.647684, 13.006378, 15.682419, 17.594637, 12.936436, 16.376946, 16.317714, 13.030552, 16.283153, 14.670115, 13.257080, 17.934239, 12.942072, 14.175073
Process 2: 27.428147, 18.468981, 16.300682, 18.336891, 13.013386, 14.288324, 18.530142, 13.270752, 12.769350, 16.928333, 16.755733, 13.012675, 13.025744, 18.150909, 12.886421, 13.048403, 19.773936, 13.109300, 15.806082, 17.725336, 13.062499, 16.505715, 16.450502, 13.163607, 16.415001, 14.791727, 13.379035, 18.057205, 13.048835, 14.303054
Process 3: 27.547761, 18.586854, 16.418167, 18.437823, 13.118947, 14.403048, 18.645119, 13.390078, 12.885311, 17.043302, 16.869014, 13.136522, 13.140192, 18.268141, 13.002046, 13.166523, 19.881207, 13.219492, 15.919460, 17.828265, 13.170478, 16.611079, 16.551607, 13.263363, 16.515534, 14.905054, 13.491348, 18.167360, 13.151493, 14.412683
Process 4: 27.693833, 18.727914, 16.585343, 18.625969, 13.310010, 14.602420, 18.778665, 13.524001, 13.047745, 17.247091, 17.051726, 13.324923, 13.344136, 18.406228, 13.160644, 13.359937, 20.073130, 13.429366, 16.116165, 18.031328, 13.358530, 16.819503, 16.738831, 13.478413, 16.711378, 15.071355, 13.689140, 18.363132, 13.365107, 14.608937
Process 5: 27.798981, 18.824457, 16.687277, 18.677750, 13.357332, 14.641512, 18.888629, 13.626786, 13.122250, 17.283712, 17.108477, 13.375112, 13.392876, 18.506609, 13.240579, 13.403879, 20.121144, 13.455575, 16.157699, 18.097818, 13.409802, 16.849814, 16.790959, 13.513683, 16.753378, 15.142456, 13.753362, 18.439440, 13.388294, 14.647288
Process 6: 27.920424, 18.946612, 16.828688, 18.798931, 13.489865, 14.765670, 19.012707, 13.747865, 13.244682, 17.405499, 17.231740, 13.497912, 13.515743, 18.630809, 13.364041, 13.543207, 20.244207, 13.576172, 16.279588, 18.221182, 13.532239, 16.974098, 16.914036, 13.627711, 16.875215, 15.267209, 13.875941, 18.561695, 13.513122, 14.772898
Process 7: 28.038360, 19.065218, 16.962583, 18.916947, 13.629418, 14.883002, 19.127535, 13.864590, 13.361795, 17.522140, 17.348993, 13.615532, 13.646897, 18.747042, 13.481260, 13.665121, 20.357350, 13.693586, 16.395128, 18.337647, 13.648636, 17.090790, 17.029477, 13.741825, 16.993751, 15.385419, 13.992623, 18.678357, 13.627762, 14.889059
Process 8: 28.158160, 19.187594, 17.085730, 19.037049, 13.753101, 15.006383, 19.232805, 13.986525, 13.481834, 17.640527, 17.473091, 13.736650, 13.767376, 18.868723, 13.601969, 13.782595, 20.480808, 13.814315, 16.514729, 18.459410, 13.765783, 17.214039, 17.154547, 13.861087, 17.116704, 15.508655, 14.110427, 18.798057, 13.749103, 15.012594
Process 9: 28.283522, 19.306822, 17.222850, 19.152417, 13.874800, 15.123301, 19.392224, 14.103270, 13.600149, 17.763629, 17.589770, 13.856350, 13.891383, 18.988907, 13.722487, 13.907161, 20.597809, 13.933488, 16.633650, 18.578835, 13.888432, 17.330267, 17.271693, 13.986571, 17.229776, 15.624876, 14.234443, 18.916940, 13.868808, 15.130241
Process 10: 28.405245, 19.426513, 17.340202, 19.276523, 14.004474, 15.244927, 19.525526, 14.222658, 13.717829, 17.881355, 17.712152, 13.977940, 14.007243, 19.109543, 13.843070, 14.024220, 20.716503, 14.051960, 16.751383, 18.700248, 13.992398, 17.452611, 17.392505, 14.102889, 17.349032, 15.748431, 14.350814, 19.035541, 13.989419, 15.265240
Process 11: 28.522687, 19.546622, 17.458251, 19.395474, 14.136315, 15.363995, 19.642221, 14.342022, 13.836340, 18.006070, 17.831150, 14.095776, 14.132988, 19.227627, 13.960450, 14.149402, 20.834888, 14.169171, 16.871063, 18.818093, 14.104846, 17.575928, 17.522839, 14.245811, 17.468597, 15.862672, 14.474348, 19.153978, 14.104511, 15.394912
Process 12: 28.649519, 19.669702, 17.580138, 19.516575, 14.253601, 15.487240, 19.763664, 14.464770, 13.960786, 18.114340, 17.953812, 14.218998, 14.246370, 19.351051, 14.084382, 14.266220, 20.959801, 14.292935, 16.999333, 18.941482, 14.227190, 17.697025, 17.647273, 14.393567, 17.588794, 15.990007, 14.589440, 19.276205, 14.224166, 15.511778
Process 13: 28.785510, 19.789127, 17.699472, 19.632192, 14.374759, 15.606095, 19.883045, 14.584063, 14.079410, 18.223443, 18.076907, 14.337909, 14.367646, 19.470749, 14.201867, 14.403055, 21.076582, 14.411606, 17.117210, 19.058510, 14.345167, 17.814574, 17.763349, 14.520164, 17.712070, 16.118747, 14.710350, 19.394893, 14.343960, 15.633896
Process 14: 28.906403, 19.909331, 17.818722, 19.752018, 14.495385, 15.726104, 20.003073, 14.704098, 14.200585, 18.346595, 18.198396, 14.457487, 14.488355, 19.590811, 14.326487, 14.541194, 21.194539, 14.539545, 17.257675, 19.180289, 14.467492, 17.936916, 17.887375, 14.641166, 17.831406, 16.251720, 14.831191, 19.516502, 14.462703, 15.754590
Process 15: 29.031858, 20.027040, 17.936342, 19.870019, 14.617256, 15.845288, 20.122328, 14.823596, 14.320116, 18.463668, 18.315694, 14.581344, 14.610816, 19.710787, 14.446375, 14.665698, 21.316970, 14.658774, 17.408143, 19.297446, 14.584895, 18.053263, 18.003907, 14.765691, 17.946951, 16.368964, 14.953416, 19.635581, 14.581173, 15.877351
Process 16: 29.146936, 20.148717, 18.056832, 19.991600, 14.735968, 15.969037, 20.243706, 14.951118, 14.442980, 18.590117, 18.437041, 14.699845, 14.722833, 19.833635, 14.567796, 14.786795, 21.437746, 14.780766, 17.526720, 19.420699, 14.706500, 18.174511, 18.127232, 14.892313, 18.072209, 16.493932, 15.071579, 19.757044, 14.702667, 15.995690
Process 17: 29.271182, 20.270474, 18.176471, 20.114270, 14.859051, 16.089863, 20.364284, 15.088067, 14.563824, 18.705552, 18.557897, 14.820868, 14.829334, 19.956784, 14.687412, 14.910105, 21.555169, 14.901566, 17.648649, 19.539973, 14.827657, 18.297211, 18.246183, 15.020922, 18.193499, 16.612793, 15.194157, 19.878032, 14.823231, 16.122127
Process 18: 29.395194, 20.393561, 18.301163, 20.236460, 14.983315, 16.214374, 20.489583, 15.214139, 14.688024, 18.832767, 18.682711, 14.946372, 14.956076, 20.081982, 14.833893, 15.038162, 21.684721, 15.029637, 17.776182, 19.668437, 14.986597, 18.424571, 18.373796, 15.150833, 18.317738, 16.740353, 15.323671, 20.008995, 14.950917, 16.251501
Process 19: 29.510605, 20.509848, 18.414596, 20.352179, 15.099914, 16.326687, 20.602135, 15.330047, 14.801549, 18.944653, 18.795603, 15.057865, 15.066278, 20.194987, 14.946043, 15.151547, 21.794737, 15.139575, 17.890792, 19.777865, 15.099416, 18.535781, 18.486748, 15.260086, 18.430178, 16.849065, 15.434202, 20.114190, 15.060421, 16.364032
Process 20: 29.633291, 20.630941, 18.537097, 20.474097, 15.220348, 16.450512, 20.724868, 15.450419, 14.924792, 19.066236, 18.915500, 15.181336, 15.188979, 20.317088, 15.069493, 15.269977, 21.916787, 15.262155, 18.011499, 19.900700, 15.221951, 18.662163, 18.608760, 15.381740, 18.550927, 16.981058, 15.553647, 20.238074, 15.185424, 16.483476
Process 21: 29.738234, 20.751663, 18.655813, 20.597885, 15.337883, 16.570766, 20.843279, 15.566604, 15.042802, 19.189440, 19.038172, 15.301000, 15.307872, 20.437084, 15.188391, 15.367682, 22.041955, 15.381540, 18.127839, 20.019886, 15.341114, 18.802622, 18.727454, 15.499358, 18.666214, 17.094775, 15.652340, 20.361916, 15.303258, 16.601440
Process 22: 29.846260, 20.873904, 18.775890, 20.713579, 15.456103, 16.690322, 20.963481, 15.685865, 15.165065, 19.306839, 19.158700, 15.420918, 15.427929, 20.555809, 15.308991, 15.487325, 22.161679, 15.501550, 18.245905, 20.139251, 15.460661, 18.918444, 18.845349, 15.620650, 18.784026, 17.217866, 15.773403, 20.505303, 15.424458, 16.717555
Process 23: 29.964634, 20.994652, 18.894367, 20.847870, 15.578227, 16.807752, 21.081453, 15.806993, 15.281617, 19.423921, 19.299734, 15.539350, 15.544818, 20.673072, 15.427679, 15.613445, 22.280179, 15.618224, 18.367862, 20.255939, 15.579566, 19.043504, 18.966113, 15.737575, 18.901974, 17.330440, 15.891097, 20.626387, 15.540459, 16.840085
Process 24: 30.086758, 21.114420, 19.013848, 20.970259, 15.700987, 16.929573, 21.202576, 15.929276, 15.403832, 19.548768, 19.423636, 15.659973, 15.665123, 20.792801, 15.549808, 15.756982, 22.399444, 15.740485, 18.489273, 20.381093, 15.699970, 19.164998, 19.082735, 15.856003, 19.022379, 17.453800, 16.011903, 20.747315, 15.661227, 16.960717
Process 25: 30.207518, 21.235619, 19.134394, 21.090674, 15.818699, 17.051414, 21.323627, 16.047227, 15.524513, 19.670638, 19.540644, 15.783575, 15.787076, 20.915078, 15.669665, 15.883692, 22.522024, 15.860391, 18.606928, 20.501592, 15.821740, 19.284723, 19.205593, 15.978090, 19.143959, 17.574436, 16.134009, 20.868185, 15.784744, 17.077124
Process 26: 30.325540, 21.354029, 19.253090, 21.208367, 15.938993, 17.170632, 21.445507, 16.168784, 15.645065, 19.787644, 19.660698, 15.902372, 15.905637, 21.034330, 15.790642, 16.002256, 22.642418, 15.982297, 18.729205, 20.619920, 15.943547, 19.403323, 19.325315, 16.097449, 19.262520, 17.688839, 16.254025, 20.987626, 15.905343, 17.197439
Process 27: 30.444465, 21.479451, 19.371407, 21.328508, 16.041328, 17.291435, 21.565084, 16.288891, 15.763280, 19.909234, 19.782718, 16.019451, 16.024596, 21.153136, 15.908691, 16.119994, 22.763698, 16.099431, 18.848603, 20.739803, 16.062485, 19.523880, 19.442847, 16.213215, 19.399419, 17.813452, 16.372924, 21.104770, 16.024622, 17.298969
Process 28: 30.564624, 21.614198, 19.489400, 21.449042, 16.158178, 17.411055, 21.683417, 16.409578, 15.884760, 20.030024, 19.903596, 16.142685, 16.144384, 21.272640, 16.030256, 16.240461, 22.881122, 16.220977, 18.970896, 20.859216, 16.183625, 19.642438, 19.560096, 16.333516, 19.525586, 17.930958, 16.493530, 21.223991, 16.144322, 17.411598
Process 29: 30.686775, 21.732623, 19.610797, 21.570424, 16.279375, 17.533001, 21.806573, 16.528410, 16.005892, 20.148713, 20.021475, 16.264554, 16.267125, 21.410845, 16.151594, 16.360395, 23.002084, 16.342909, 19.075169, 20.982972, 16.305070, 19.763777, 19.682959, 16.453729, 19.643523, 18.048260, 16.617324, 21.346059, 16.266734, 17.533185
Process 30: 30.806026, 21.858119, 19.730912, 21.688135, 16.401156, 17.652834, 21.926410, 16.672165, 16.128191, 20.271505, 20.147821, 16.385213, 16.386510, 21.540280, 16.272960, 16.484081, 23.121118, 16.463282, 19.189848, 21.104406, 16.427181, 19.890320, 19.804894, 16.575941, 19.769239, 18.167213, 16.736581, 21.467867, 16.387951, 17.653851
Process 31: 30.924986, 21.976970, 19.853128, 21.807058, 16.520999, 17.773306, 22.047983, 16.817099, 16.246332, 20.389224, 20.263780, 16.503650, 16.508293, 21.659027, 16.392133, 16.602911, 23.242438, 16.583438, 19.318314, 21.224012, 16.545254, 20.008465, 19.924727, 16.693923, 19.886338, 18.287004, 16.858115, 21.590266, 16.507476, 17.772697
Process 32: 31.045146, 22.094833, 19.981126, 21.925224, 16.640354, 17.892594, 22.165996, 16.934374, 16.366767, 20.507341, 20.382010, 16.625298, 16.631486, 21.777481, 16.511309, 16.719298, 23.361301, 16.704366, 19.428565, 21.343806, 16.663204, 20.125992, 20.041363, 16.811467, 20.006885, 18.406879, 16.976173, 21.707306, 16.628165, 17.892077
Process 33: 31.174482, 22.226906, 20.119874, 22.059562, 16.769538, 18.036002, 22.298010, 17.056163, 16.496857, 20.641177, 20.514939, 16.754233, 16.778704, 21.910381, 16.642938, 16.852489, 23.493308, 16.834186, 19.561017, 21.475238, 16.797715, 20.260182, 20.175274, 16.943103, 20.139216, 18.538636, 17.109405, 21.852756, 16.759115, 18.026684
Process 34: 31.285901, 22.333390, 20.229607, 22.168192, 16.881301, 18.157528, 22.408543, 17.154323, 16.606726, 20.749654, 20.620979, 16.868808, 16.888609, 22.018128, 16.752717, 16.962757, 23.601552, 16.945270, 19.671086, 21.585933, 16.906844, 20.366810, 20.285842, 17.053578, 20.245085, 18.647399, 17.217787, 21.969491, 16.868104, 18.135936
Process 35: 31.412457, 22.463653, 20.357470, 22.303174, 17.015185, 18.283302, 22.535743, 17.280707, 16.735742, 20.875557, 20.751984, 16.990270, 17.015115, 22.147159, 16.879744, 17.086453, 23.740078, 17.070245, 19.798957, 21.709889, 17.031687, 20.495928, 20.411657, 17.177799, 20.373961, 18.773187, 17.344196, 22.099368, 16.994239, 18.259442
Process 36: 31.523788, 22.574727, 20.466642, 22.407158, 17.128100, 18.394247, 22.644476, 17.394074, 16.845361, 20.986211, 20.860734, 17.104231, 17.126050, 22.256942, 16.990545, 17.200219, 23.864602, 17.183751, 19.908959, 21.819601, 17.144516, 20.606119, 20.523396, 17.290727, 20.485380, 18.884872, 17.456201, 22.210593, 17.105365, 18.371440
Process 37: 31.650119, 22.703865, 20.593934, 22.533758, 17.282444, 18.523129, 22.772363, 17.518253, 16.972003, 21.112591, 20.991485, 17.235849, 17.251791, 22.384074, 17.117645, 17.324879, 23.993158, 17.309485, 20.034406, 21.947684, 17.269636, 20.724721, 20.648596, 17.415928, 20.611906, 19.010701, 17.582909, 22.338436, 17.230122, 18.498218
Process 38: 31.764408, 22.812009, 20.707969, 22.644263, 17.393304, 18.631985, 22.886454, 17.633607, 17.085467, 21.228606, 21.098373, 17.344370, 17.368433, 22.495153, 17.232570, 17.439915, 24.102634, 17.424910, 20.149992, 22.063847, 17.386045, 20.820644, 20.767159, 17.531524, 20.724047, 19.125683, 17.697241, 22.447201, 17.346411, 18.616224
Process 39: 31.889633, 22.942755, 20.833231, 22.766762, 17.536093, 18.761306, 23.011658, 17.758153, 17.217061, 21.353042, 21.229989, 17.469385, 17.491529, 22.623940, 17.356388, 17.564730, 24.233911, 17.548627, 20.274808, 22.186860, 17.509163, 20.947590, 20.891088, 17.653845, 20.851678, 19.250082, 17.822150, 22.576634, 17.471596, 18.735694
Process 40: 32.001797, 23.038497, 20.948114, 22.880033, 17.636722, 18.872173, 23.123916, 17.872426, 17.346049, 21.467559, 21.339694, 17.589470, 17.605289, 22.734614, 17.470542, 17.677454, 24.343534, 17.662068, 20.387424, 22.300223, 17.623354, 21.061976, 21.006071, 17.777579, 20.964268, 19.382529, 17.933623, 22.687300, 17.585166, 18.849949
Process 41: 32.127203, 23.155223, 21.072855, 23.006122, 17.761543, 19.000004, 23.248418, 17.995600, 17.473320, 21.592265, 21.464434, 17.709507, 17.728275, 22.863025, 17.595065, 17.800773, 24.468815, 17.785100, 20.512266, 22.428687, 17.749677, 21.182525, 21.129735, 17.920876, 21.089411, 19.505902, 18.059162, 22.817429, 17.708761, 18.973604
Process 42: 32.243633, 23.272634, 21.188314, 23.122617, 17.879113, 19.109659, 23.364555, 18.113901, 17.583352, 21.709735, 21.560092, 17.823319, 17.845419, 22.973121, 17.711053, 17.920912, 24.578542, 17.904892, 20.628294, 22.562006, 17.865641, 21.301562, 21.242324, 18.047180, 21.201813, 19.622538, 18.179197, 22.926688, 17.825112, 19.091165
Process 43: 32.366525, 23.397002, 21.312888, 23.247146, 17.998791, 19.240517, 23.487875, 18.236259, 17.715098, 21.831318, 21.682406, 17.946280, 17.969279, 23.102811, 17.834982, 18.041797, 24.709617, 18.028318, 20.753663, 22.691774, 17.987819, 21.423653, 21.367805, 18.181265, 21.331006, 19.746442, 18.300593, 23.057603, 17.950000, 19.214148
Process 44: 32.481065, 23.510943, 21.435612, 23.359584, 18.113714, 19.349865, 23.601267, 18.349842, 17.825610, 21.949100, 21.797725, 18.060041, 18.083846, 23.213258, 17.948680, 18.154693, 24.819976, 18.141282, 20.866468, 22.803410, 18.102224, 21.538721, 21.477043, 18.296246, 21.418825, 19.864288, 18.415006, 23.169636, 18.061965, 19.330939
Process 45: 32.603165, 23.632174, 21.570305, 23.481341, 18.235279, 19.477093, 23.724940, 18.472816, 17.950763, 22.070941, 21.919309, 18.183100, 18.205103, 23.341371, 18.074751, 18.280697, 24.945521, 18.265572, 20.994881, 22.929940, 18.223246, 21.663186, 21.601110, 18.416546, 21.542416, 19.987765, 18.540477, 23.296593, 18.184303, 19.453810
Process 46: 32.720959, 23.750983, 21.682919, 23.597883, 18.352837, 19.589349, 23.840603, 18.589164, 18.064021, 22.188319, 22.040862, 18.320757, 18.324062, 23.433674, 18.190177, 18.396337, 25.058541, 18.381947, 21.110028, 23.042119, 18.343324, 21.779174, 21.740368, 18.537085, 21.659957, 20.097775, 18.656793, 23.407590, 18.301227, 19.567301
Process 47: 32.843829, 23.875514, 21.814333, 23.721520, 18.476596, 19.721939, 23.966193, 18.713651, 18.195946, 22.311092, 22.164037, 18.454286, 18.447632, 23.556222, 18.314578, 18.518683, 25.192835, 18.505916, 21.235081, 23.175658, 18.465113, 21.903973, 21.874347, 18.658788, 21.783244, 20.222522, 18.777287, 23.540297, 18.426070, 19.694960
Process 48: 32.959542, 23.991521, 21.922801, 23.835506, 18.590129, 19.830904, 24.080791, 18.828328, 18.304637, 22.427363, 22.281437, 18.567523, 18.562539, 23.672871, 18.430171, 18.635874, 25.299865, 18.621168, 21.349368, 23.283100, 18.579608, 22.018351, 21.980489, 18.776387, 21.899623, 20.335920, 18.893068, 23.650784, 18.540591, 19.807486
Process 49: 33.080239, 24.112134, 22.046859, 23.959159, 18.716209, 19.955616, 24.202199, 18.951550, 18.429925, 22.550234, 22.402581, 18.689318, 18.683613, 23.795558, 18.549923, 18.760194, 25.425896, 18.742151, 21.471951, 23.411073, 18.702175, 22.142402, 22.105745, 18.898715, 22.021148, 20.459660, 19.016540, 23.775612, 18.663378, 19.932320
Process 50: 33.199386, 24.232995, 22.166359, 24.076152, 18.837237, 20.073778, 24.321549, 19.068919, 18.547028, 22.665672, 22.525249, 18.804589, 18.802767, 23.912680, 18.687785, 18.876915, 25.540609, 18.860834, 21.592428, 23.528923, 18.819942, 22.261118, 22.225242, 19.017169, 22.140568, 20.598088, 19.136045, 23.875840, 18.781081, 20.050508
Process 51: 33.321339, 24.352824, 22.286725, 24.199074, 18.957548, 20.193847, 24.444337, 19.191493, 18.669234, 22.792370, 22.641250, 18.930434, 18.924424, 24.037528, 18.812863, 19.001677, 25.660818, 18.984109, 21.713968, 23.651772, 18.942917, 22.382711, 22.347962, 19.139927, 22.261794, 20.722510, 19.257349, 24.015170, 18.904278, 20.172590
Process 52: 33.439110, 24.473312, 22.406666, 24.319800, 19.074742, 20.299895, 24.562723, 19.311365, 18.788069, 22.909020, 22.759711, 19.046522, 19.043576, 24.154469, 18.933869, 19.117814, 25.767423, 19.102560, 21.831479, 23.769572, 19.062169, 22.500061, 22.463482, 19.258295, 22.379145, 20.842008, 19.377051, 24.120639, 19.022430, 20.289661
Process 53: 33.559334, 24.591620, 22.525815, 24.434650, 19.191892, 20.408621, 24.680342, 19.428858, 18.908554, 23.025255, 22.880241, 19.166480, 19.161877, 24.273531, 19.054002, 19.232214, 25.875983, 19.220628, 21.950793, 23.889262, 19.180364, 22.620835, 22.584154, 19.372996, 22.499087, 20.962602, 19.496077, 24.232473, 19.140759, 20.410012
Process 54: 33.677682, 24.710673, 22.644996, 24.555915, 19.313425, 20.528577, 24.799397, 19.547581, 19.026297, 23.147381, 22.998362, 19.287841, 19.281830, 24.391387, 19.171987, 19.355317, 25.993271, 19.338616, 22.069248, 24.005430, 19.300364, 22.741898, 22.702240, 19.496951, 22.618298, 21.080778, 19.615211, 24.357270, 19.273972, 20.528385
Process 55: 33.800419, 24.831266, 22.742567, 24.680299, 19.432557, 20.649970, 24.924869, 19.668993, 19.144422, 23.266899, 23.117966, 19.404036, 19.403761, 24.512709, 19.290879, 19.475617, 26.119236, 19.464480, 22.192536, 24.129011, 19.422291, 22.859747, 22.821867, 19.616944, 22.743296, 21.196954, 19.735698, 24.468855, 19.383894, 20.653899
Process 56: 33.920448, 24.952606, 22.862998, 24.800501, 19.555028, 20.772034, 25.044363, 19.790429, 19.266678, 23.390593, 23.237325, 19.523545, 19.523686, 24.635266, 19.411597, 19.598233, 26.237786, 19.592508, 22.312755, 24.243842, 19.540570, 22.982972, 22.942255, 19.736417, 22.864215, 21.319145, 19.855148, 24.592878, 19.511626, 20.770958
Process 57: 34.038661, 25.070688, 22.983047, 24.918794, 19.672178, 20.889676, 25.163776, 19.922138, 19.386643, 23.506446, 23.359076, 19.661968, 19.649800, 24.756396, 19.539007, 19.720081, 26.363902, 19.728346, 22.438556, 24.370511, 19.667956, 23.104143, 23.070029, 19.858457, 22.987968, 21.445868, 19.986143, 24.716508, 19.651502, 20.896667
Process 58: 34.157827, 25.191406, 23.100757, 25.039957, 19.790396, 21.006989, 25.283949, 20.050267, 19.498335, 23.628580, 23.476512, 19.765669, 19.762841, 24.872941, 19.654501, 19.835408, 26.477716, 19.846032, 22.551313, 24.485247, 19.780518, 23.221756, 23.184293, 19.976290, 23.099765, 21.561260, 20.097378, 24.825385, 19.765031, 21.008632
Process 59: 34.279264, 25.310018, 23.222779, 25.158362, 19.911566, 21.130320, 25.403919, 20.170075, 19.606379, 23.748921, 23.596765, 19.896273, 19.882180, 24.993703, 19.769392, 19.954036, 26.597711, 19.963864, 22.668967, 24.601220, 19.900126, 23.339966, 23.300294, 20.097313, 23.220529, 21.677005, 20.214300, 24.948662, 19.881834, 21.130900
Process 60: 34.398996, 25.432294, 23.342744, 25.277265, 20.031251, 21.248230, 25.523196, 20.290984, 19.724021, 23.869010, 23.717791, 20.019028, 20.002294, 25.111541, 19.892444, 20.075305, 26.718363, 20.083288, 22.787634, 24.717709, 20.021471, 23.458870, 23.422887, 20.215926, 23.339193, 21.799546, 20.336486, 25.065505, 20.003377, 21.247465
Process 61: 34.516489, 25.548288, 23.460290, 25.409183, 20.147005, 21.367429, 25.639704, 20.406358, 19.842045, 23.987581, 23.833619, 20.132304, 20.118478, 25.229376, 20.010698, 20.194031, 26.834478, 20.202928, 22.907734, 24.817919, 20.136035, 23.574771, 23.537660, 20.331959, 23.457957, 21.917012, 20.453152, 25.183643, 20.121945, 21.365100
Process 62: 34.633915, 25.668065, 23.577760, 25.535580, 20.266756, 21.485232, 25.760014, 20.525003, 19.962879, 24.108308, 23.952347, 20.241237, 20.238493, 25.347776, 20.129584, 20.313897, 26.953963, 20.322750, 23.027628, 24.935861, 20.261678, 23.693131, 23.661380, 20.452889, 23.575916, 22.037443, 20.571646, 25.302863, 20.240882, 21.483183
Process 63: 34.756059, 25.786143, 23.698280, 25.656139, 20.388695, 21.606386, 25.898170, 20.645226, 20.080580, 24.223272, 24.075957, 20.358747, 20.357373, 25.468189, 20.249895, 20.433089, 27.073629, 20.441632, 23.147439, 25.057534, 20.398309, 23.814614, 23.778245, 20.573163, 23.694685, 22.156131, 20.691717, 25.421532, 20.358813, 21.605338
