MPI_insiderank_serial
Process 0: 10.593480, 10.058197, 10.019647, 9.900371, 9.812025, 9.762316, 9.802111, 9.848792, 9.772224, 9.756821, 9.806431, 9.777003, 9.779856, 9.800574, 9.765566, 9.789624, 9.832917, 9.744571, 9.767478, 9.784926, 9.750656, 9.765121, 9.743122, 9.792046, 9.931627, 9.815709, 9.829099, 9.864510, 9.846814, 9.835530
Process 1: 10.595252, 10.059958, 10.021355, 9.902418, 9.813847, 9.764560, 9.804256, 9.850707, 9.774254, 9.759252, 9.808384, 9.779379, 9.783682, 9.804686, 9.769945, 9.793646, 9.837087, 9.749083, 9.771426, 9.788837, 9.755172, 9.769106, 9.747219, 9.795723, 9.935493, 9.819534, 9.833140, 9.868335, 9.850929, 9.840047
