MPI_insiderank_optimisedserial
Process 0: 0.473909, 0.478114, 0.447294, 0.447002, 0.446585, 0.447249, 0.447641, 0.447172, 0.449529, 0.448479, 0.448635, 0.448090, 0.448336, 0.448545, 0.448515, 0.448405, 0.447487, 0.447287, 0.447540, 0.446922, 0.446564, 0.447064, 0.447098, 0.447830, 0.446404, 0.445713, 0.447587, 0.447078, 0.447894, 0.446532
Process 1: 0.423676, 0.427331, 0.396699, 0.396170, 0.396174, 0.396270, 0.396832, 0.396702, 0.400130, 0.398923, 0.398860, 0.398382, 0.398693, 0.398915, 0.399144, 0.398651, 0.398921, 0.396728, 0.397107, 0.396497, 0.396553, 0.396815, 0.397281, 0.396341, 0.395351, 0.395925, 0.397786, 0.397232, 0.396630, 0.395626
Process 2: 0.428222, 0.431780, 0.401165, 0.400633, 0.400485, 0.400755, 0.401180, 0.401135, 0.404255, 0.403087, 0.403000, 0.402743, 0.402766, 0.403173, 0.403213, 0.402747, 0.402544, 0.401088, 0.401396, 0.400740, 0.400707, 0.400991, 0.401223, 0.400571, 0.399349, 0.399892, 0.401961, 0.401430, 0.400780, 0.399610
Process 3: 0.432511, 0.436100, 0.405509, 0.404994, 0.404825, 0.405053, 0.405643, 0.405263, 0.407947, 0.406900, 0.406656, 0.406740, 0.406483, 0.406894, 0.407002, 0.406530, 0.406411, 0.405282, 0.405679, 0.405039, 0.404980, 0.405233, 0.405241, 0.405008, 0.403750, 0.403800, 0.405905, 0.405494, 0.405081, 0.403886
Process 4: 0.436689, 0.440349, 0.409753, 0.409211, 0.408982, 0.409206, 0.409698, 0.409349, 0.411784, 0.410624, 0.410866, 0.410440, 0.410404, 0.410696, 0.410793, 0.410200, 0.409940, 0.409551, 0.409788, 0.409205, 0.409076, 0.409384, 0.409411, 0.409226, 0.408005, 0.408021, 0.409790, 0.409494, 0.409266, 0.408090
Process 5: 0.440777, 0.444389, 0.413859, 0.413217, 0.413032, 0.413437, 0.413821, 0.413459, 0.415741, 0.414646, 0.414940, 0.414358, 0.414484, 0.414739, 0.414763, 0.414364, 0.413832, 0.413639, 0.413732, 0.413202, 0.412942, 0.413302, 0.413314, 0.413219, 0.412007, 0.412096, 0.413826, 0.413565, 0.413303, 0.412079
Process 6: 0.444610, 0.448195, 0.417661, 0.416968, 0.416794, 0.417186, 0.417535, 0.417233, 0.419518, 0.418448, 0.418688, 0.418136, 0.418304, 0.418519, 0.418513, 0.418192, 0.417622, 0.417396, 0.417490, 0.417096, 0.416808, 0.417087, 0.417199, 0.417075, 0.415860, 0.415831, 0.417566, 0.417322, 0.417106, 0.415928
Process 7: 0.448323, 0.451923, 0.421344, 0.420691, 0.420567, 0.421079, 0.421408, 0.420980, 0.423315, 0.422217, 0.422452, 0.421773, 0.421948, 0.422235, 0.422197, 0.422146, 0.421312, 0.421110, 0.421322, 0.420821, 0.420511, 0.420847, 0.420971, 0.420842, 0.419594, 0.419609, 0.421376, 0.421052, 0.420980, 0.419633
Process 8: 0.451997, 0.455671, 0.425078, 0.424595, 0.424439, 0.424863, 0.425263, 0.424771, 0.427016, 0.425992, 0.426139, 0.425567, 0.425757, 0.426033, 0.425960, 0.425965, 0.425180, 0.424926, 0.425115, 0.424781, 0.424337, 0.424800, 0.424832, 0.424685, 0.423307, 0.423396, 0.425316, 0.424847, 0.424743, 0.423490
Process 9: 0.455704, 0.459436, 0.428768, 0.428296, 0.428114, 0.428587, 0.428982, 0.428511, 0.430584, 0.429522, 0.429600, 0.429166, 0.429358, 0.429547, 0.429584, 0.429401, 0.428871, 0.428609, 0.428895, 0.428281, 0.427974, 0.428448, 0.428513, 0.428366, 0.426978, 0.427096, 0.428974, 0.428438, 0.428455, 0.427083
Process 10: 0.458799, 0.462828, 0.432068, 0.431743, 0.431349, 0.432013, 0.432374, 0.431911, 0.434203, 0.433123, 0.433269, 0.432803, 0.432993, 0.433179, 0.433142, 0.433055, 0.432249, 0.431996, 0.432294, 0.432092, 0.431271, 0.431822, 0.431864, 0.431768, 0.430396, 0.430468, 0.432356, 0.431850, 0.431889, 0.430501
Process 11: 0.462332, 0.466359, 0.435564, 0.435231, 0.434809, 0.435489, 0.435861, 0.435398, 0.437455, 0.436393, 0.436525, 0.436048, 0.436235, 0.436444, 0.436402, 0.436272, 0.435704, 0.435496, 0.435819, 0.435214, 0.434805, 0.435324, 0.435334, 0.435331, 0.433924, 0.433948, 0.435863, 0.435327, 0.435424, 0.434052
Process 12: 0.465800, 0.469768, 0.438928, 0.438612, 0.438245, 0.438861, 0.439211, 0.438805, 0.440827, 0.439768, 0.439901, 0.439445, 0.439623, 0.439820, 0.439786, 0.439651, 0.439124, 0.438914, 0.439194, 0.438598, 0.438175, 0.438668, 0.438765, 0.438731, 0.437313, 0.437363, 0.439225, 0.438705, 0.438795, 0.437409
Process 13: 0.469036, 0.473025, 0.442199, 0.441887, 0.441481, 0.442132, 0.442491, 0.442082, 0.444147, 0.443092, 0.443224, 0.442761, 0.442941, 0.443136, 0.443103, 0.442977, 0.442376, 0.442148, 0.442450, 0.441844, 0.441445, 0.441943, 0.442007, 0.442011, 0.440602, 0.440604, 0.442498, 0.441964, 0.442087, 0.440711
Process 14: 0.471583, 0.475615, 0.444805, 0.444475, 0.444096, 0.444754, 0.445113, 0.444660, 0.446852, 0.445800, 0.445988, 0.445470, 0.445672, 0.445886, 0.445826, 0.445745, 0.444977, 0.444745, 0.445037, 0.444428, 0.444053, 0.444548, 0.444596, 0.445332, 0.443918, 0.443219, 0.445083, 0.444592, 0.445393, 0.444032
Process 15: 0.474142, 0.478109, 0.447296, 0.447003, 0.446581, 0.447243, 0.447647, 0.447172, 0.449526, 0.448480, 0.448636, 0.448090, 0.448336, 0.448544, 0.448515, 0.448405, 0.447486, 0.447287, 0.447540, 0.446922, 0.446566, 0.447066, 0.447099, 0.447831, 0.446404, 0.445714, 0.447587, 0.447078, 0.447894, 0.446533
