MPI_insiderank_optimisedserial
Process 0: 0.504180, 0.507608, 0.477706, 0.477011, 0.478133, 0.481176, 0.481221, 0.480480, 0.476233, 0.480560, 0.480760, 0.479627, 0.478234, 0.480141, 0.478332, 0.478192, 0.478131, 0.478910, 0.478487, 0.478384, 0.477801, 0.478361, 0.482159, 0.481215, 0.477005, 0.478427, 0.481964, 0.479895, 0.481461, 0.481320
Process 1: 0.462144, 0.465128, 0.435339, 0.434516, 0.435391, 0.437296, 0.437270, 0.436683, 0.433468, 0.436620, 0.437091, 0.436549, 0.435687, 0.436761, 0.435487, 0.435579, 0.435450, 0.436035, 0.435827, 0.435497, 0.435120, 0.435619, 0.438390, 0.437473, 0.434309, 0.435753, 0.438154, 0.436484, 0.437449, 0.437336
Process 2: 0.467018, 0.469906, 0.440041, 0.439357, 0.440424, 0.442194, 0.442182, 0.441983, 0.438663, 0.441735, 0.442012, 0.441405, 0.440600, 0.441643, 0.440716, 0.440462, 0.440341, 0.440921, 0.440711, 0.440350, 0.439993, 0.440511, 0.443274, 0.442393, 0.439176, 0.440607, 0.443065, 0.441411, 0.442354, 0.442203
Process 3: 0.471909, 0.474912, 0.444988, 0.444212, 0.445300, 0.447175, 0.447063, 0.446853, 0.443470, 0.446602, 0.446857, 0.446281, 0.445478, 0.446419, 0.445417, 0.445247, 0.445127, 0.445829, 0.445563, 0.445149, 0.444835, 0.445326, 0.448175, 0.447264, 0.443961, 0.445429, 0.447937, 0.446270, 0.447255, 0.447079
Process 4: 0.476781, 0.479586, 0.449680, 0.449008, 0.450056, 0.451908, 0.451816, 0.451517, 0.448113, 0.451364, 0.451630, 0.451064, 0.450269, 0.451322, 0.450188, 0.450058, 0.449933, 0.450661, 0.450338, 0.449941, 0.449622, 0.450096, 0.452963, 0.452009, 0.448740, 0.450232, 0.452726, 0.451074, 0.452043, 0.451869
Process 5: 0.481458, 0.484342, 0.454397, 0.453648, 0.454750, 0.456571, 0.456488, 0.456200, 0.452841, 0.456045, 0.456345, 0.455742, 0.454912, 0.456025, 0.454888, 0.454743, 0.454648, 0.455354, 0.454984, 0.454790, 0.454319, 0.454856, 0.457715, 0.456731, 0.453491, 0.454958, 0.457417, 0.455785, 0.456721, 0.456563
Process 6: 0.485994, 0.488966, 0.459033, 0.458316, 0.459437, 0.461328, 0.461241, 0.460849, 0.457464, 0.460786, 0.461129, 0.460468, 0.459577, 0.460683, 0.459539, 0.459379, 0.459291, 0.460031, 0.459684, 0.459595, 0.458955, 0.459494, 0.462423, 0.461463, 0.458102, 0.459608, 0.462182, 0.460499, 0.461456, 0.461281
Process 7: 0.489202, 0.492152, 0.462172, 0.461490, 0.462627, 0.464539, 0.464562, 0.464017, 0.460665, 0.465322, 0.465627, 0.463629, 0.462731, 0.464082, 0.462925, 0.462739, 0.462664, 0.463413, 0.463038, 0.463000, 0.462345, 0.462876, 0.466950, 0.465987, 0.461298, 0.462808, 0.466720, 0.463683, 0.464769, 0.464591
Process 8: 0.492611, 0.495603, 0.465652, 0.464966, 0.466087, 0.469284, 0.469296, 0.468094, 0.464131, 0.468510, 0.468805, 0.467252, 0.466205, 0.467757, 0.466429, 0.466212, 0.466138, 0.466871, 0.466516, 0.466447, 0.465846, 0.466366, 0.470121, 0.469170, 0.464778, 0.466268, 0.469907, 0.467367, 0.469485, 0.469325
Process 9: 0.496512, 0.499527, 0.469586, 0.468910, 0.470066, 0.473082, 0.473125, 0.472436, 0.468154, 0.472449, 0.472624, 0.471579, 0.470176, 0.472107, 0.470242, 0.470075, 0.470034, 0.470786, 0.470404, 0.470260, 0.469664, 0.470228, 0.473949, 0.473004, 0.468793, 0.470188, 0.473706, 0.471711, 0.473215, 0.473062
Process 10: 0.501027, 0.504118, 0.474177, 0.473474, 0.474673, 0.477654, 0.477722, 0.476979, 0.472724, 0.477036, 0.477209, 0.476143, 0.474744, 0.476664, 0.474829, 0.474656, 0.474608, 0.475360, 0.474967, 0.474831, 0.474247, 0.474815, 0.478543, 0.477588, 0.473345, 0.474755, 0.478298, 0.476267, 0.477805, 0.477652
Process 11: 0.504481, 0.507609, 0.477707, 0.477011, 0.478134, 0.481176, 0.481221, 0.480479, 0.476231, 0.480560, 0.480758, 0.479626, 0.478234, 0.480139, 0.478330, 0.478191, 0.478127, 0.478909, 0.478483, 0.478383, 0.477799, 0.478359, 0.482160, 0.481215, 0.477002, 0.478427, 0.481962, 0.479894, 0.481459, 0.481318
