MPI_insiderank_optimisedserial
Process 0: 1.022457, 1.035152, 1.009673, 1.009970, 1.011319, 1.008351, 1.010934, 1.007549, 1.006830, 1.011541, 1.017675, 1.013545, 1.015035, 0.998284, 1.004056, 1.014055, 1.014052, 1.015090, 1.014680, 1.015443, 1.013655, 1.013085, 1.013181, 1.014041, 1.012105, 1.012703, 1.011612, 1.014304, 1.014439, 1.015571
Process 1: 1.001464, 1.013088, 0.988087, 0.987894, 0.989126, 0.986467, 0.988823, 0.985488, 0.984921, 0.989482, 0.995509, 0.991363, 0.993039, 0.976542, 0.981405, 0.991307, 0.991959, 0.993033, 0.992588, 0.993246, 0.991561, 0.991002, 0.991119, 0.991932, 0.989919, 0.990637, 0.990237, 0.992255, 0.991916, 0.993412
Process 2: 1.012316, 1.024233, 0.998899, 0.999057, 1.000349, 0.997494, 0.999999, 0.996622, 0.995965, 1.000642, 1.006702, 1.002669, 1.004211, 0.987575, 0.992524, 1.003087, 1.003137, 1.004105, 1.003720, 1.004434, 1.002737, 1.002149, 1.002248, 1.003100, 1.001213, 1.001781, 1.000946, 1.003375, 1.003473, 1.004616
Process 3: 1.023421, 1.035153, 1.009673, 1.009971, 1.011318, 1.008352, 1.010934, 1.007547, 1.006827, 1.011542, 1.017677, 1.013545, 1.015035, 0.998283, 1.004056, 1.014055, 1.014052, 1.015090, 1.014681, 1.015442, 1.013654, 1.013085, 1.013181, 1.014041, 1.012105, 1.012703, 1.011613, 1.014302, 1.014438, 1.015570
