MPI_insiderank_serial
Process 0: 2.088619, 2.136635, 2.090679, 2.105522, 2.074085, 2.090404, 2.095866, 2.091918, 2.111402, 2.094546, 2.090232, 2.090693, 2.091825, 2.101040, 2.089684, 2.090281, 2.090380, 2.113709, 2.102790, 2.099645, 2.089365, 2.107335, 2.106403, 2.105264, 2.083130, 2.124601, 2.105325, 2.118881, 2.090500, 2.100468
Process 1: 1.575457, 1.597384, 1.490205, 1.507080, 1.492520, 1.514674, 1.566801, 1.515982, 1.535967, 1.529275, 1.558176, 1.529910, 1.517355, 1.525186, 1.514354, 1.514120, 1.514882, 1.527766, 1.541406, 1.530160, 1.513855, 1.515109, 1.514181, 1.529776, 1.524844, 1.543247, 1.529661, 1.543335, 1.513620, 1.530153
Process 2: 1.622399, 1.643715, 1.551928, 1.560532, 1.538592, 1.576269, 1.628906, 1.577810, 1.597553, 1.590763, 1.604083, 1.591381, 1.577838, 1.586968, 1.575652, 1.575708, 1.576461, 1.589342, 1.592260, 1.592242, 1.575428, 1.576715, 1.575767, 1.591231, 1.585394, 1.605130, 1.591374, 1.604924, 1.575338, 1.591849
Process 3: 1.668991, 1.690561, 1.612672, 1.622972, 1.585419, 1.638839, 1.675468, 1.640723, 1.660083, 1.653005, 1.653183, 1.653635, 1.640429, 1.649514, 1.638522, 1.637961, 1.638887, 1.651923, 1.654569, 1.654487, 1.637988, 1.639136, 1.638193, 1.654099, 1.647484, 1.667669, 1.654039, 1.667510, 1.637911, 1.654476
Process 4: 1.716177, 1.738312, 1.659259, 1.685451, 1.638353, 1.701197, 1.722290, 1.702822, 1.722501, 1.715965, 1.716134, 1.716526, 1.702752, 1.711945, 1.700527, 1.700945, 1.701385, 1.714196, 1.717515, 1.716879, 1.700318, 1.701658, 1.700712, 1.716312, 1.710406, 1.730002, 1.716376, 1.729860, 1.700642, 1.717166
Process 5: 1.762670, 1.785299, 1.716567, 1.747758, 1.700828, 1.763995, 1.785127, 1.765628, 1.785238, 1.778071, 1.778307, 1.780005, 1.765506, 1.774788, 1.763411, 1.762737, 1.764088, 1.777067, 1.779320, 1.779632, 1.763249, 1.764332, 1.763558, 1.779023, 1.772548, 1.792888, 1.779245, 1.792670, 1.763266, 1.779707
Process 6: 1.809791, 1.831928, 1.779661, 1.810164, 1.763106, 1.810471, 1.831634, 1.812105, 1.831627, 1.824933, 1.825120, 1.826464, 1.827885, 1.821237, 1.809825, 1.809683, 1.810503, 1.833921, 1.826275, 1.826129, 1.809531, 1.811905, 1.809868, 1.825509, 1.819375, 1.839163, 1.841638, 1.839001, 1.809676, 1.826179
Process 7: 1.856135, 1.888174, 1.842041, 1.872900, 1.825576, 1.873350, 1.878452, 1.858930, 1.878429, 1.871324, 1.872898, 1.873324, 1.874594, 1.884252, 1.856677, 1.856011, 1.857205, 1.896807, 1.872617, 1.873022, 1.864972, 1.874716, 1.857884, 1.872248, 1.865836, 1.886004, 1.888042, 1.885848, 1.856500, 1.873071
Process 8: 1.903063, 1.950370, 1.904737, 1.919283, 1.887714, 1.919625, 1.924956, 1.905621, 1.941208, 1.919367, 1.919576, 1.919911, 1.921156, 1.930389, 1.903433, 1.904089, 1.904151, 1.943035, 1.919525, 1.919532, 1.912312, 1.921136, 1.920212, 1.919068, 1.912703, 1.938297, 1.934613, 1.932508, 1.904206, 1.919592
Process 9: 1.965653, 2.013276, 1.967208, 1.982153, 1.950637, 1.966593, 1.972092, 1.968073, 1.987522, 1.970686, 1.966425, 1.966923, 1.967990, 1.977260, 1.965891, 1.966464, 1.966931, 1.989919, 1.977782, 1.974703, 1.964936, 1.983573, 1.982605, 1.981441, 1.959537, 2.001164, 1.981596, 1.995407, 1.966709, 1.977103
Process 10: 2.028260, 2.075525, 2.029843, 2.044517, 2.013102, 2.029386, 2.034865, 2.030821, 2.050213, 2.033547, 2.029220, 2.029617, 2.030902, 2.039943, 2.028605, 2.029306, 2.029372, 2.052640, 2.040818, 2.038579, 2.028408, 2.046304, 2.045461, 2.044277, 2.022485, 2.063612, 2.044389, 2.057876, 2.029472, 2.039397
Process 11: 2.090675, 2.138596, 2.092458, 2.107342, 2.075852, 2.092182, 2.097638, 2.093713, 2.113158, 2.096305, 2.091983, 2.092448, 2.093655, 2.102807, 2.091472, 2.092047, 2.092143, 2.115490, 2.104554, 2.101449, 2.091122, 2.109166, 2.108165, 2.107036, 2.084962, 2.126427, 2.107075, 2.120674, 2.092258, 2.102269
