Process 0: 12.343453, 12.033850, 11.624870, 10.574023, 11.511137, 10.695271, 10.560333, 11.771476, 10.490100, 10.471739, 12.367599, 10.526032, 10.713222, 11.371436, 10.491536, 10.967118, 11.155331, 10.428947, 11.872362, 10.563920, 10.505282, 12.230648, 10.464575, 11.035234, 11.383103, 10.527854, 11.212942, 10.490737, 10.478704, 12.014096
Process 1: 2.782044, 12.337962, 12.067954, 11.506581, 10.647403, 11.376569, 10.790057, 10.436129, 11.806407, 10.506813, 10.467009, 12.383531, 10.480563, 10.766974, 11.361891, 10.486094, 10.924431, 11.140104, 10.491410, 11.916995, 10.500010, 10.496010, 12.225719, 10.493788, 11.039521, 11.403987, 10.483949, 11.198607, 10.515446, 10.475855
Process 2: 2.769739, 12.330170, 12.069606, 11.504670, 10.649033, 11.390724, 10.771618, 10.453704, 11.804774, 10.496904, 10.477995, 12.376924, 10.476129, 10.768974, 11.367027, 10.472357, 10.939718, 11.144341, 10.475621, 11.927992, 10.498914, 10.491815, 12.228746, 10.485470, 11.046086, 11.392867, 10.493964, 11.199944, 10.510284, 10.486427
Process 3: 2.784398, 12.341365, 12.069005, 11.501062, 10.651925, 11.381538, 10.779228, 10.443957, 11.805143, 10.505099, 10.468678, 12.382957, 10.477504, 10.771892, 11.360807, 10.479973, 10.929651, 11.144887, 10.481532, 11.924151, 10.499979, 10.495022, 12.223825, 10.492854, 11.043330, 11.396982, 10.487002, 11.200348, 10.516658, 10.476677
Process 4: 2.771017, 12.331647, 12.069780, 11.504727, 10.648688, 11.388553, 10.773795, 10.453160, 11.806761, 10.495132, 10.478653, 12.376924, 10.476114, 10.771961, 11.363563, 10.472295, 10.942355, 11.141717, 10.476171, 11.928879, 10.500101, 10.489861, 12.228269, 10.484596, 11.047221, 11.392985, 10.493101, 11.200089, 10.510728, 10.485629
Process 5: 2.785478, 12.339478, 12.068995, 11.502034, 10.648961, 11.384104, 10.778962, 10.445149, 11.806231, 10.502057, 10.470793, 12.382611, 10.477108, 10.771073, 11.361436, 10.480048, 10.933673, 11.140879, 10.481646, 11.925234, 10.498135, 10.494863, 12.225859, 10.491524, 11.041616, 11.397066, 10.488055, 11.201346, 10.515535, 10.477838
Process 6: 2.753293, 12.328420, 12.067943, 11.502102, 10.650421, 11.390600, 10.767812, 10.458504, 11.799636, 10.503613, 10.473681, 12.377039, 10.474728, 10.768573, 11.366087, 10.479200, 10.932137, 11.145713, 10.480807, 11.925784, 10.497640, 10.493842, 12.221581, 10.493917, 11.041752, 11.400884, 10.490987, 11.198912, 10.511120, 10.484013
Process 7: 2.768938, 12.332909, 12.063922, 11.507046, 10.644022, 11.384273, 10.785556, 10.437577, 11.801936, 10.507751, 10.471834, 12.377008, 10.483008, 10.770896, 11.352746, 10.498313, 10.914052, 11.148370, 10.491752, 11.913888, 10.498894, 10.498981, 12.220694, 10.500590, 11.035733, 11.412586, 10.489509, 11.181043, 10.521555, 10.473192
Process 8: 2.768768, 12.323129, 12.071254, 11.508829, 10.636572, 11.388161, 10.779934, 10.447458, 11.817260, 10.487084, 10.476504, 12.384769, 10.472267, 10.773970, 11.362153, 10.473312, 10.938297, 11.143114, 10.485891, 11.918163, 10.504995, 10.483013, 12.232503, 10.482392, 11.053085, 11.401095, 10.490982, 11.186847, 10.513056, 10.482500
Process 9: 2.781039, 12.339686, 12.066035, 11.505500, 10.647480, 11.381146, 10.786140, 10.437930, 11.809127, 10.501645, 10.468072, 12.385607, 10.480264, 10.767994, 11.360557, 10.483146, 10.920583, 11.146953, 10.487853, 11.919009, 10.500019, 10.494881, 12.228792, 10.491736, 11.042547, 11.399017, 10.486005, 11.198094, 10.515829, 10.477993
Process 10: 2.771208, 12.329504, 12.070319, 11.504928, 10.645788, 11.389534, 10.774384, 10.451710, 11.809562, 10.493001, 10.477790, 12.379999, 10.472978, 10.771993, 11.364810, 10.472749, 10.936917, 11.146691, 10.479225, 11.925567, 10.500083, 10.488967, 12.230066, 10.483878, 11.048068, 11.395802, 10.493288, 11.196915, 10.509944, 10.484913
Process 11: 2.783011, 12.338914, 12.069029, 11.502871, 10.652107, 11.385331, 10.775820, 10.445207, 11.806150, 10.503345, 10.469151, 12.382472, 10.477956, 10.769607, 11.362954, 10.479120, 10.930127, 11.145470, 10.480830, 11.923564, 10.499970, 10.492938, 12.227443, 10.492124, 11.041507, 11.395356, 10.488902, 11.202753, 10.513954, 10.478399
Process 12: 2.772212, 12.330234, 12.069373, 11.505383, 10.646425, 11.389639, 10.774117, 10.452360, 11.808402, 10.494002, 10.477556, 12.378732, 10.475258, 10.771030, 11.364776, 10.472417, 10.941421, 11.142583, 10.477838, 11.925937, 10.501015, 10.487789, 12.230383, 10.484464, 11.049436, 11.393298, 10.493570, 11.196844, 10.511143, 10.485097
Process 13: 2.785535, 12.338142, 12.068096, 11.502369, 10.652474, 11.380156, 10.779926, 10.445988, 11.806647, 10.502227, 10.469679, 12.382827, 10.477130, 10.770442, 11.362347, 10.479540, 10.932025, 11.143019, 10.481361, 11.923730, 10.500102, 10.494002, 12.226444, 10.491326, 11.043137, 11.393717, 10.490307, 11.201091, 10.514975, 10.478380
Process 14: 2.751212, 12.331424, 12.070026, 11.498029, 10.652318, 11.391012, 10.766723, 10.459901, 11.798275, 10.504484, 10.473261, 12.376704, 10.475444, 10.767538, 11.366218, 10.480852, 10.930842, 11.145360, 10.484023, 11.923971, 10.497073, 10.494403, 12.220178, 10.494582, 11.041845, 11.403959, 10.495010, 11.191863, 10.511142, 10.483933
Process 15: 2.766333, 12.327402, 12.064014, 11.505943, 10.646829, 11.387008, 10.780621, 10.442783, 11.803226, 10.503920, 10.471600, 12.379725, 10.480323, 10.769051, 11.358576, 10.490162, 10.922470, 11.146483, 10.485725, 11.918491, 10.498967, 10.496062, 12.224577, 10.496507, 11.037877, 11.410888, 10.484168, 11.189991, 10.518029, 10.476983
Process 16: 2.770475, 12.326150, 12.072607, 11.505946, 10.634610, 11.393743, 10.778507, 10.444809, 11.819183, 10.485853, 10.478770, 12.383960, 10.471990, 10.775091, 11.362613, 10.470438, 10.936255, 11.148556, 10.478518, 11.924517, 10.507122, 10.481920, 12.232140, 10.478738, 11.058192, 11.394447, 10.495572, 11.183172, 10.515675, 10.480883
Process 17: 2.784414, 12.338485, 12.070033, 11.501727, 10.646349, 11.383406, 10.785174, 10.434078, 11.811325, 10.501927, 10.469923, 12.383543, 10.479525, 10.767085, 11.363067, 10.484828, 10.916921, 11.148382, 10.490039, 11.918617, 10.499983, 10.498091, 12.224218, 10.492459, 11.041268, 11.403027, 10.483594, 11.198571, 10.516829, 10.474393
Process 18: 2.772621, 12.329054, 12.070133, 11.504737, 10.643157, 11.394183, 10.772874, 10.450058, 11.810832, 10.492017, 10.481022, 12.377392, 10.474579, 10.773991, 11.362667, 10.471117, 10.941481, 11.143349, 10.476922, 11.928496, 10.501907, 10.485502, 12.231023, 10.481652, 11.053806, 11.391128, 10.497931, 11.190978, 10.511222, 10.485377
Process 19: 2.785508, 12.341189, 12.069915, 11.501015, 10.651977, 11.380704, 10.779451, 10.442063, 11.806280, 10.506511, 10.467922, 12.381408, 10.478723, 10.772049, 11.359985, 10.480699, 10.928366, 11.145360, 10.482637, 11.924929, 10.498011, 10.496894, 12.221838, 10.494176, 11.044020, 11.397053, 10.486003, 11.199648, 10.518265, 10.474186
Process 20: 2.773471, 12.328554, 12.070946, 11.504633, 10.644446, 11.390672, 10.775365, 10.451040, 11.810574, 10.492189, 10.480760, 12.377120, 10.475777, 10.771998, 11.364004, 10.470713, 10.941246, 11.143180, 10.476857, 11.929005, 10.501002, 10.487078, 12.229923, 10.481919, 11.052136, 11.391547, 10.498409, 11.192079, 10.510981, 10.485248
Process 21: 2.785593, 12.342009, 12.068084, 11.502900, 10.650092, 11.380284, 10.780594, 10.442992, 11.807122, 10.504018, 10.468804, 12.382450, 10.477679, 10.772997, 11.358648, 10.481285, 10.929713, 11.143997, 10.482454, 11.925872, 10.498002, 10.495082, 12.223985, 10.493084, 11.042974, 11.398870, 10.486015, 11.199151, 10.516925, 10.475993
Process 22: 2.754483, 12.325122, 12.070038, 11.503001, 10.647612, 11.402995, 10.756281, 10.460755, 11.798004, 10.503133, 10.472509, 12.377946, 10.477689, 10.766395, 11.365653, 10.479157, 10.933210, 11.144587, 10.480420, 11.925586, 10.500976, 10.492893, 12.219849, 10.492954, 11.045374, 11.398070, 10.501954, 11.188703, 10.510253, 10.482095
Process 23: 2.769339, 12.336354, 12.056057, 11.513080, 10.637104, 11.396349, 10.781566, 10.431305, 11.802570, 10.505876, 10.469099, 12.380400, 10.483677, 10.766923, 11.358016, 10.501773, 10.911192, 11.145980, 10.497692, 11.908385, 10.497937, 10.502081, 12.217816, 10.505520, 11.032568, 11.411863, 10.491254, 11.179537, 10.523446, 10.470123
Process 24: 2.818049, 12.339586, 12.073136, 11.503935, 10.647018, 11.384666, 10.778865, 10.444078, 11.808597, 10.501770, 10.469997, 12.381872, 10.479113, 10.768999, 11.362247, 10.475946, 10.936269, 11.142055, 10.481503, 11.924024, 10.500906, 10.489371, 12.229894, 10.488646, 11.042172, 11.397999, 10.486958, 11.202820, 10.515202, 10.479958
Process 25: 2.817004, 12.339723, 12.072967, 11.502973, 10.648087, 11.387645, 10.776315, 10.444456, 11.807987, 10.501579, 10.469957, 12.381397, 10.479610, 10.769071, 11.362465, 10.476447, 10.935575, 11.141750, 10.481712, 11.923978, 10.501035, 10.489683, 12.228798, 10.490194, 11.042247, 11.397030, 10.487015, 11.203458, 10.514533, 10.479997
Process 26: 2.822737, 12.338152, 12.075056, 11.501943, 10.646488, 11.395450, 10.767558, 10.447450, 11.808766, 10.499293, 10.470994, 12.380757, 10.480243, 10.768001, 11.364987, 10.474082, 10.937731, 11.141944, 10.479244, 11.923995, 10.504057, 10.488155, 12.227576, 10.491029, 11.043207, 11.395005, 10.486950, 11.203393, 10.515625, 10.479770
Process 27: 2.821188, 12.338484, 12.073103, 11.502935, 10.647372, 11.396242, 10.767227, 10.446769, 11.808756, 10.499655, 10.469966, 12.381408, 10.479531, 10.768052, 11.364585, 10.475768, 10.935697, 11.143235, 10.478663, 11.925121, 10.502914, 10.488334, 12.227997, 10.491010, 11.042684, 11.394930, 10.488052, 11.203149, 10.514808, 10.481146
Process 28: 2.826993, 12.338600, 12.073004, 11.504002, 10.644736, 11.395018, 10.768886, 10.446956, 11.810485, 10.498997, 10.470922, 12.380617, 10.480377, 10.766040, 11.365466, 10.474669, 10.938760, 11.141896, 10.480171, 11.921991, 10.503003, 10.489007, 12.228473, 10.489962, 11.042601, 11.396953, 10.490005, 11.199421, 10.515677, 10.478664
Process 29: 2.824346, 12.337495, 12.073124, 11.503915, 10.645521, 11.394395, 10.769734, 10.446941, 11.810399, 10.498992, 10.469997, 12.381221, 10.479790, 10.768028, 11.363795, 10.475541, 10.937367, 11.142248, 10.480015, 11.923054, 10.502042, 10.489450, 12.228604, 10.489946, 11.043937, 11.396019, 10.487924, 11.201835, 10.515163, 10.478315
Process 30: 2.826906, 12.337790, 12.073005, 11.503998, 10.645462, 11.393705, 10.770245, 10.447250, 11.811248, 10.498998, 10.469100, 12.380752, 10.480241, 10.767916, 11.363786, 10.475248, 10.936750, 11.143861, 10.479441, 11.921945, 10.503045, 10.489766, 12.227910, 10.490597, 11.043652, 11.395041, 10.490044, 11.199752, 10.517161, 10.477571
Process 31: 2.814443, 12.336419, 12.072004, 11.503000, 10.646339, 11.389069, 10.775950, 10.444594, 11.811741, 10.498311, 10.471992, 12.378880, 10.478114, 10.771002, 11.362100, 10.479043, 10.932947, 11.143045, 10.481867, 11.923014, 10.503979, 10.487941, 12.227823, 10.491309, 11.041930, 11.398010, 10.487993, 11.198068, 10.517932, 10.479987
