Process 80:
Process 33:
Process 95:
Process 50:
Process 62:
Process 90:
Process 59:
Process 5:
Process 3:
Process 84:
Process 39:
Process 6:
Process 86:
Process 16:
Process 48:
Process 100:
Process 7:
Process 88:
Process 31:
Process 52:
Process 54:
Process 8:
Process 4:
Process 58:
Process 110:
Process 108:
Process 9:
Process 98:
Process 102:
Process 40:
Process 56:
Process 83:
Process 101:
Process 89:
Process 99:
Process 103:
Process 106:
Process 109:
Process 10:
Process 87:
Process 105:
Process 15:
Process 55:
Process 85:
Process 53:
Process 111:
Process 66:
Process 68:
Process 70:
Process 74:
Process 34:
Process 46:
Process 72:
Process 73:
Process 71:
Process 75:
Process 67:
Process 94:
Process 76:
Process 51:
Process 60:
Process 119:
Process 57:
Process 104:
Process 127:
Process 2:
Process 11:
Process 43:
Process 61:
Process 63:
Process 64:
Process 69:
Process 79:
Process 82:
Process 91:
Process 92:
Process 96:
Process 112:
Process 32:
Process 35:
Process 36:
Process 37:
Process 38:
Process 42:
Process 44:
Process 14:
Process 45:
Process 47:
Process 78:
Process 41:
Process 81:
Process 30:
Process 27:
Process 93:
Process 18:
Process 118:
Process 122:
Process 116:
Process 120:
Process 115:
Process 25:
Process 13:
Process 1:
Process 17:
Process 20:
Process 49:
Process 22:
Process 24:
Process 29:
Process 113:
Process 121:
Process 126:
Process 21:
Process 23:
Process 28:
Process 77:
Process 19:
Process 65:
Process 97:
Process 114:
Process 117:
Process 124:
Process 26:
Process 125:
Process 123:
Process 107:
Process 0:
Process 12:
Model:                 49
Model name:            AMD EPYC 7742 64-Core Processor
L1d cache:             32K
L2 cache:              512K
L3 cache:              16384K
Model:                 49
Model name:            AMD EPYC 7742 64-Core Processor
L1d cache:             32K
L2 cache:              512K
L3 cache:              16384K
Model:                 49
Model name:            AMD EPYC 7742 64-Core Processor
L1d cache:             32K
L2 cache:              512K
L3 cache:              16384K
Model:                 49
Model name:            AMD EPYC 7742 64-Core Processor
L1d cache:             32K
L2 cache:              512K
L3 cache:              16384K
Model:                 49
Model name:            AMD EPYC 7742 64-Core Processor
L1d cache:             32K
L2 cache:              512K
L3 cache:              16384K
Model:                 49
Model name:            AMD EPYC 7742 64-Core Processor
L1d cache:             32K
L2 cache:              512K
L3 cache:              16384K
Model:                 49
Model name:            AMD EPYC 7742 64-Core Processor
L1d cache:             32K
L2 cache:              512K
L3 cache:              16384K
Model:                 49
Model name:            AMD EPYC 7742 64-Core Processor
L1d cache:             32K
L2 cache:              512K
L3 cache:              16384K
Model:                 49
Model name:            AMD EPYC 7742 64-Core Processor
L1d cache:             32K
L2 cache:              512K
L3 cache:              16384K
Model:                 49
Model name:            AMD EPYC 7742 64-Core Processor
L1d cache:             32K
L2 cache:              512K
L3 cache:              16384K
Model:                 49
Model name:            AMD EPYC 7742 64-Core Processor
L1d cache:             32K
L2 cache:              512K
L3 cache:              16384K
Model:                 49
Model name:            AMD EPYC 7742 64-Core Processor
L1d cache:             32K
L2 cache:              512K
L3 cache:              16384K
Model:                 49
Model name:            AMD EPYC 7742 64-Core Processor
L1d cache:             32K
L2 cache:              512K
L3 cache:              16384K
Model:                 49
Model name:            AMD EPYC 7742 64-Core Processor
L1d cache:             32K
L2 cache:              512K
L3 cache:              16384K
Model:                 49
Model name:            AMD EPYC 7742 64-Core Processor
L1d cache:             32K
L2 cache:              512K
L3 cache:              16384K
Model:                 49
Model name:            AMD EPYC 7742 64-Core Processor
L1d cache:             32K
L2 cache:              512K
L3 cache:              16384K
Model:                 49
Model name:            AMD EPYC 7742 64-Core Processor
L1d cache:             32K
L2 cache:              512K
L3 cache:              16384K
Model:                 49
Model name:            AMD EPYC 7742 64-Core Processor
L1d cache:             32K
L2 cache:              512K
L3 cache:              16384K
Model:                 49
Model name:            AMD EPYC 7742 64-Core Processor
L1d cache:             32K
L2 cache:              512K
L3 cache:              16384K
Model:                 49
Model name:            AMD EPYC 7742 64-Core Processor
L1d cache:             32K
L2 cache:              512K
L3 cache:              16384K
Model:                 49
Model name:            AMD EPYC 7742 64-Core Processor
L1d cache:             32K
L2 cache:              512K
L3 cache:              16384K
Model:                 49
Model name:            AMD EPYC 7742 64-Core Processor
L1d cache:             32K
L2 cache:              512K
L3 cache:              16384K
Model:                 49
Model name:            AMD EPYC 7742 64-Core Processor
L1d cache:             32K
L2 cache:              512K
L3 cache:              16384K
Model:                 49
Model name:            AMD EPYC 7742 64-Core Processor
L1d cache:             32K
L2 cache:              512K
L3 cache:              16384K
Model:                 49
Model name:            AMD EPYC 7742 64-Core Processor
L1d cache:             32K
L2 cache:              512K
L3 cache:              16384K
Model:                 49
Model name:            AMD EPYC 7742 64-Core Processor
L1d cache:             32K
L2 cache:              512K
L3 cache:              16384K
Model:                 49
Model name:            AMD EPYC 7742 64-Core Processor
L1d cache:             32K
L2 cache:              512K
L3 cache:              16384K
Model:                 49
Model name:            AMD EPYC 7742 64-Core Processor
L1d cache:             32K
L2 cache:              512K
L3 cache:              16384K
Model:                 49
Model name:            AMD EPYC 7742 64-Core Processor
L1d cache:             32K
L2 cache:              512K
L3 cache:              16384K
Model:                 49
Model name:            AMD EPYC 7742 64-Core Processor
L1d cache:             32K
L2 cache:              512K
L3 cache:              16384K
Model:                 49
Model name:            AMD EPYC 7742 64-Core Processor
L1d cache:             32K
L2 cache:              512K
L3 cache:              16384K
Model:                 49
Model name:            AMD EPYC 7742 64-Core Processor
L1d cache:             32K
L2 cache:              512K
L3 cache:              16384K
Model:                 49
Model name:            AMD EPYC 7742 64-Core Processor
L1d cache:             32K
L2 cache:              512K
L3 cache:              16384K
Model:                 49
Model name:            AMD EPYC 7742 64-Core Processor
L1d cache:             32K
L2 cache:              512K
L3 cache:              16384K
Model:                 49
Model name:            AMD EPYC 7742 64-Core Processor
L1d cache:             32K
L2 cache:              512K
L3 cache:              16384K
Model:                 49
Model name:            AMD EPYC 7742 64-Core Processor
L1d cache:             32K
L2 cache:              512K
L3 cache:              16384K
Model:                 49
Model name:            AMD EPYC 7742 64-Core Processor
L1d cache:             32K
L2 cache:              512K
L3 cache:              16384K
Model:                 49
Model name:            AMD EPYC 7742 64-Core Processor
L1d cache:             32K
L2 cache:              512K
L3 cache:              16384K
Model:                 49
Model name:            AMD EPYC 7742 64-Core Processor
L1d cache:             32K
L2 cache:              512K
L3 cache:              16384K
Model:                 49
Model name:            AMD EPYC 7742 64-Core Processor
L1d cache:             32K
L2 cache:              512K
L3 cache:              16384K
Model:                 49
Model name:            AMD EPYC 7742 64-Core Processor
L1d cache:             32K
L2 cache:              512K
L3 cache:              16384K
Model:                 49
Model name:            AMD EPYC 7742 64-Core Processor
L1d cache:             32K
L2 cache:              512K
L3 cache:              16384K
Model:                 49
Model name:            AMD EPYC 7742 64-Core Processor
L1d cache:             32K
L2 cache:              512K
L3 cache:              16384K
Model:                 49
Model name:            AMD EPYC 7742 64-Core Processor
L1d cache:             32K
L2 cache:              512K
L3 cache:              16384K
Model:                 49
Model name:            AMD EPYC 7742 64-Core Processor
L1d cache:             32K
L2 cache:              512K
L3 cache:              16384K
Model:                 49
Model name:            AMD EPYC 7742 64-Core Processor
L1d cache:             32K
L2 cache:              512K
L3 cache:              16384K
Model:                 49
Model name:            AMD EPYC 7742 64-Core Processor
L1d cache:             32K
L2 cache:              512K
L3 cache:              16384K
Model:                 49
Model name:            AMD EPYC 7742 64-Core Processor
L1d cache:             32K
L2 cache:              512K
L3 cache:              16384K
Model:                 49
Model name:            AMD EPYC 7742 64-Core Processor
L1d cache:             32K
L2 cache:              512K
L3 cache:              16384K
Model:                 49
Model name:            AMD EPYC 7742 64-Core Processor
L1d cache:             32K
L2 cache:              512K
L3 cache:              16384K
Model:                 49
Model name:            AMD EPYC 7742 64-Core Processor
L1d cache:             32K
L2 cache:              512K
L3 cache:              16384K
Model:                 49
Model name:            AMD EPYC 7742 64-Core Processor
L1d cache:             32K
L2 cache:              512K
L3 cache:              16384K
Model:                 49
Model name:            AMD EPYC 7742 64-Core Processor
L1d cache:             32K
L2 cache:              512K
L3 cache:              16384K
Model:                 49
Model name:            AMD EPYC 7742 64-Core Processor
L1d cache:             32K
L2 cache:              512K
L3 cache:              16384K
Model:                 49
Model name:            AMD EPYC 7742 64-Core Processor
L1d cache:             32K
L2 cache:              512K
L3 cache:              16384K
Model:                 49
Model name:            AMD EPYC 7742 64-Core Processor
L1d cache:             32K
L2 cache:              512K
L3 cache:              16384K
Model:                 49
Model name:            AMD EPYC 7742 64-Core Processor
L1d cache:             32K
L2 cache:              512K
L3 cache:              16384K
Model:                 49
Model name:            AMD EPYC 7742 64-Core Processor
L1d cache:             32K
L2 cache:              512K
L3 cache:              16384K
Model:                 49
Model name:            AMD EPYC 7742 64-Core Processor
L1d cache:             32K
L2 cache:              512K
L3 cache:              16384K
Model:                 49
Model name:            AMD EPYC 7742 64-Core Processor
L1d cache:             32K
L2 cache:              512K
L3 cache:              16384K
Model:                 49
Model name:            AMD EPYC 7742 64-Core Processor
L1d cache:             32K
L2 cache:              512K
L3 cache:              16384K
Model:                 49
Model name:            AMD EPYC 7742 64-Core Processor
L1d cache:             32K
L2 cache:              512K
L3 cache:              16384K
Model:                 49
Model name:            AMD EPYC 7742 64-Core Processor
L1d cache:             32K
L2 cache:              512K
L3 cache:              16384K
Model:                 49
Model name:            AMD EPYC 7742 64-Core Processor
L1d cache:             32K
L2 cache:              512K
L3 cache:              16384K
Model:                 49
Model name:            AMD EPYC 7742 64-Core Processor
L1d cache:             32K
L2 cache:              512K
L3 cache:              16384K
Model:                 49
Model name:            AMD EPYC 7742 64-Core Processor
L1d cache:             32K
L2 cache:              512K
L3 cache:              16384K
Model:                 49
Model name:            AMD EPYC 7742 64-Core Processor
L1d cache:             32K
L2 cache:              512K
L3 cache:              16384K
Model:                 49
Model name:            AMD EPYC 7742 64-Core Processor
L1d cache:             32K
L2 cache:              512K
L3 cache:              16384K
Model:                 49
Model name:            AMD EPYC 7742 64-Core Processor
L1d cache:             32K
L2 cache:              512K
L3 cache:              16384K
Model:                 49
Model name:            AMD EPYC 7742 64-Core Processor
L1d cache:             32K
L2 cache:              512K
L3 cache:              16384K
Model:                 49
Model name:            AMD EPYC 7742 64-Core Processor
L1d cache:             32K
L2 cache:              512K
L3 cache:              16384K
Model:                 49
Model name:            AMD EPYC 7742 64-Core Processor
L1d cache:             32K
L2 cache:              512K
L3 cache:              16384K
Model:                 49
Model name:            AMD EPYC 7742 64-Core Processor
L1d cache:             32K
L2 cache:              512K
L3 cache:              16384K
Model:                 49
Model name:            AMD EPYC 7742 64-Core Processor
L1d cache:             32K
L2 cache:              512K
L3 cache:              16384K
Model:                 49
Model name:            AMD EPYC 7742 64-Core Processor
L1d cache:             32K
L2 cache:              512K
L3 cache:              16384K
Model:                 49
Model name:            AMD EPYC 7742 64-Core Processor
L1d cache:             32K
L2 cache:              512K
L3 cache:              16384K
Model:                 49
Model name:            AMD EPYC 7742 64-Core Processor
L1d cache:             32K
L2 cache:              512K
L3 cache:              16384K
Model:                 49
Model name:            AMD EPYC 7742 64-Core Processor
L1d cache:             32K
L2 cache:              512K
L3 cache:              16384K
Model:                 49
Model name:            AMD EPYC 7742 64-Core Processor
L1d cache:             32K
L2 cache:              512K
L3 cache:              16384K
Model:                 49
Model name:            AMD EPYC 7742 64-Core Processor
L1d cache:             32K
L2 cache:              512K
L3 cache:              16384K
Model:                 49
Model name:            AMD EPYC 7742 64-Core Processor
L1d cache:             32K
L2 cache:              512K
L3 cache:              16384K
Model:                 49
Model name:            AMD EPYC 7742 64-Core Processor
L1d cache:             32K
L2 cache:              512K
L3 cache:              16384K
Model:                 49
Model name:            AMD EPYC 7742 64-Core Processor
L1d cache:             32K
L2 cache:              512K
L3 cache:              16384K
Model:                 49
Model name:            AMD EPYC 7742 64-Core Processor
L1d cache:             32K
L2 cache:              512K
L3 cache:              16384K
Model:                 49
Model name:            AMD EPYC 7742 64-Core Processor
L1d cache:             32K
L2 cache:              512K
L3 cache:              16384K
Model:                 49
Model name:            AMD EPYC 7742 64-Core Processor
L1d cache:             32K
L2 cache:              512K
L3 cache:              16384K
Model:                 49
Model name:            AMD EPYC 7742 64-Core Processor
L1d cache:             32K
L2 cache:              512K
L3 cache:              16384K
Model:                 49
Model name:            AMD EPYC 7742 64-Core Processor
L1d cache:             32K
L2 cache:              512K
L3 cache:              16384K
Model:                 49
Model name:            AMD EPYC 7742 64-Core Processor
L1d cache:             32K
L2 cache:              512K
L3 cache:              16384K
Model:                 49
Model name:            AMD EPYC 7742 64-Core Processor
L1d cache:             32K
L2 cache:              512K
L3 cache:              16384K
Model:                 49
Model name:            AMD EPYC 7742 64-Core Processor
L1d cache:             32K
L2 cache:              512K
L3 cache:              16384K
Model:                 49
Model name:            AMD EPYC 7742 64-Core Processor
L1d cache:             32K
L2 cache:              512K
L3 cache:              16384K
Model:                 49
Model name:            AMD EPYC 7742 64-Core Processor
L1d cache:             32K
L2 cache:              512K
L3 cache:              16384K
Model:                 49
Model name:            AMD EPYC 7742 64-Core Processor
L1d cache:             32K
L2 cache:              512K
L3 cache:              16384K
Model:                 49
Model name:            AMD EPYC 7742 64-Core Processor
L1d cache:             32K
L2 cache:              512K
L3 cache:              16384K
Model:                 49
Model name:            AMD EPYC 7742 64-Core Processor
L1d cache:             32K
L2 cache:              512K
L3 cache:              16384K
Model:                 49
Model name:            AMD EPYC 7742 64-Core Processor
L1d cache:             32K
L2 cache:              512K
L3 cache:              16384K
Model:                 49
Model name:            AMD EPYC 7742 64-Core Processor
L1d cache:             32K
L2 cache:              512K
L3 cache:              16384K
Model:                 49
Model name:            AMD EPYC 7742 64-Core Processor
L1d cache:             32K
L2 cache:              512K
L3 cache:              16384K
Model:                 49
Model name:            AMD EPYC 7742 64-Core Processor
L1d cache:             32K
L2 cache:              512K
L3 cache:              16384K
Model:                 49
Model name:            AMD EPYC 7742 64-Core Processor
L1d cache:             32K
L2 cache:              512K
L3 cache:              16384K
Model:                 49
Model name:            AMD EPYC 7742 64-Core Processor
L1d cache:             32K
L2 cache:              512K
L3 cache:              16384K
Model:                 49
Model name:            AMD EPYC 7742 64-Core Processor
L1d cache:             32K
L2 cache:              512K
L3 cache:              16384K
Model:                 49
Model name:            AMD EPYC 7742 64-Core Processor
L1d cache:             32K
L2 cache:              512K
L3 cache:              16384K
Model:                 49
Model name:            AMD EPYC 7742 64-Core Processor
L1d cache:             32K
L2 cache:              512K
L3 cache:              16384K
Model:                 49
Model name:            AMD EPYC 7742 64-Core Processor
L1d cache:             32K
L2 cache:              512K
L3 cache:              16384K
Model:                 49
Model name:            AMD EPYC 7742 64-Core Processor
L1d cache:             32K
L2 cache:              512K
L3 cache:              16384K
Model:                 49
Model name:            AMD EPYC 7742 64-Core Processor
L1d cache:             32K
L2 cache:              512K
L3 cache:              16384K
Model:                 49
Model name:            AMD EPYC 7742 64-Core Processor
L1d cache:             32K
L2 cache:              512K
L3 cache:              16384K
Model:                 49
Model name:            AMD EPYC 7742 64-Core Processor
L1d cache:             32K
L2 cache:              512K
L3 cache:              16384K
Model:                 49
Model name:            AMD EPYC 7742 64-Core Processor
L1d cache:             32K
L2 cache:              512K
L3 cache:              16384K
Model:                 49
Model name:            AMD EPYC 7742 64-Core Processor
L1d cache:             32K
L2 cache:              512K
L3 cache:              16384K
Model:                 49
Model name:            AMD EPYC 7742 64-Core Processor
L1d cache:             32K
L2 cache:              512K
L3 cache:              16384K
Model:                 49
Model name:            AMD EPYC 7742 64-Core Processor
L1d cache:             32K
L2 cache:              512K
L3 cache:              16384K
Model:                 49
Model name:            AMD EPYC 7742 64-Core Processor
L1d cache:             32K
L2 cache:              512K
L3 cache:              16384K
Model:                 49
Model name:            AMD EPYC 7742 64-Core Processor
L1d cache:             32K
L2 cache:              512K
L3 cache:              16384K
Model:                 49
Model name:            AMD EPYC 7742 64-Core Processor
L1d cache:             32K
L2 cache:              512K
L3 cache:              16384K
Model:                 49
Model name:            AMD EPYC 7742 64-Core Processor
L1d cache:             32K
L2 cache:              512K
L3 cache:              16384K
Model:                 49
Model name:            AMD EPYC 7742 64-Core Processor
L1d cache:             32K
L2 cache:              512K
L3 cache:              16384K
Model:                 49
Model name:            AMD EPYC 7742 64-Core Processor
L1d cache:             32K
L2 cache:              512K
L3 cache:              16384K
Model:                 49
Model name:            AMD EPYC 7742 64-Core Processor
L1d cache:             32K
L2 cache:              512K
L3 cache:              16384K
Model:                 49
Model name:            AMD EPYC 7742 64-Core Processor
L1d cache:             32K
L2 cache:              512K
L3 cache:              16384K
Model:                 49
Model name:            AMD EPYC 7742 64-Core Processor
L1d cache:             32K
L2 cache:              512K
L3 cache:              16384K
Model:                 49
Model name:            AMD EPYC 7742 64-Core Processor
L1d cache:             32K
L2 cache:              512K
L3 cache:              16384K
Model:                 49
Model name:            AMD EPYC 7742 64-Core Processor
L1d cache:             32K
L2 cache:              512K
L3 cache:              16384K
Model:                 49
Model name:            AMD EPYC 7742 64-Core Processor
L1d cache:             32K
L2 cache:              512K
L3 cache:              16384K
Model:                 49
Model name:            AMD EPYC 7742 64-Core Processor
L1d cache:             32K
L2 cache:              512K
L3 cache:              16384K
Model:                 49
Model name:            AMD EPYC 7742 64-Core Processor
L1d cache:             32K
L2 cache:              512K
L3 cache:              16384K
