Process 0: 3.028732, 2.740509, 2.007284, 2.569304, 2.135320, 2.102551, 2.271386, 2.040638, 2.060792, 2.027496, 2.054171, 1.986930, 1.953740, 1.964943, 2.011378, 2.071156, 1.993101, 2.081519, 2.045749, 1.977496, 2.063596, 1.953505, 1.901230, 2.024719, 1.997156, 1.946786, 1.914782, 2.003563, 2.055930, 1.905622
Process 1: 2.840909, 2.793138, 2.237414, 2.050886, 2.587610, 2.096203, 2.174245, 2.176550, 2.055337, 2.056479, 1.964316, 2.038615, 1.930105, 2.000166, 2.013541, 2.034046, 1.983036, 2.015522, 2.104117, 2.041007, 1.969738, 2.052112, 1.902420, 1.930527, 2.081675, 1.968876, 1.924740, 1.896420, 2.080578, 1.988245
Process 2: 2.842820, 2.790087, 2.235645, 2.044915, 2.595887, 2.096177, 2.172524, 2.179898, 2.052703, 2.055028, 1.964289, 2.044128, 1.926230, 1.999291, 2.014428, 2.035944, 1.982799, 2.015615, 2.099963, 2.049562, 1.968752, 2.043940, 1.903195, 1.932728, 2.080272, 1.974298, 1.920366, 1.898905, 2.075271, 1.990407
Process 3: 2.845895, 2.789348, 2.232896, 2.044031, 2.597703, 2.095481, 2.173531, 2.178975, 2.052986, 2.054631, 1.965981, 2.041849, 1.927304, 1.999462, 2.014121, 2.034724, 1.983142, 2.016098, 2.100163, 2.047790, 1.970728, 2.043470, 1.902185, 1.935049, 2.079995, 1.972679, 1.922432, 1.896724, 2.075498, 1.992843
Process 4: 2.856670, 2.780405, 2.234541, 2.044483, 2.596302, 2.096965, 2.172320, 2.179247, 2.055494, 2.060050, 1.957295, 2.043205, 1.926216, 2.000445, 2.013720, 2.035505, 1.983582, 2.014811, 2.101020, 2.047854, 1.969851, 2.045890, 1.900942, 1.933044, 2.079483, 1.975376, 1.920405, 1.898898, 2.074581, 1.991043
Process 5: 2.856803, 2.781218, 2.235003, 2.042282, 2.597531, 2.095018, 2.174098, 2.178791, 2.055956, 2.061930, 1.956161, 2.042437, 1.925652, 2.000247, 2.014445, 2.034338, 1.983256, 2.016895, 2.101231, 2.049036, 1.968691, 2.046004, 1.903281, 1.930185, 2.080898, 1.972269, 1.920829, 1.897882, 2.079111, 1.988018
Process 6: 2.849930, 2.789953, 2.231646, 2.044447, 2.596568, 2.096662, 2.172780, 2.179268, 2.057783, 2.061936, 1.952785, 2.043854, 1.927023, 1.998689, 2.014417, 2.034780, 1.984007, 2.017583, 2.098086, 2.051252, 1.967329, 2.047193, 1.899569, 1.933333, 2.079918, 1.973765, 1.920284, 1.898708, 2.075064, 1.991594
Process 7: 2.863819, 2.785533, 2.223268, 2.049263, 2.599610, 2.092203, 2.168930, 2.189892, 2.056849, 2.054161, 1.950526, 2.043701, 1.933686, 1.993034, 2.013748, 2.042294, 1.982521, 2.010412, 2.099523, 2.053930, 1.968009, 2.050197, 1.894913, 1.934980, 2.076670, 1.977905, 1.918658, 1.900982, 2.072025, 1.995386
Process 8: 2.871505, 2.776796, 2.227324, 2.052469, 2.591926, 2.097215, 2.166369, 2.185607, 2.059063, 2.055682, 1.952748, 2.041606, 1.932354, 1.996165, 2.011479, 2.040550, 1.984766, 2.011164, 2.099459, 2.050873, 1.967894, 2.051218, 1.896693, 1.933648, 2.076860, 1.979769, 1.919134, 1.899364, 2.072765, 1.997236
Process 9: 2.848641, 2.805945, 2.220253, 2.048990, 2.601478, 2.093215, 2.165713, 2.190802, 2.057759, 2.053260, 1.948917, 2.045300, 1.936975, 1.991697, 2.014927, 2.036813, 1.983413, 2.010004, 2.100960, 2.061191, 1.961956, 2.050332, 1.891798, 1.938181, 2.074908, 1.980569, 1.918979, 1.899060, 2.068627, 1.997119
Process 10: 2.875077, 2.777187, 2.229147, 2.045002, 2.600137, 2.095700, 2.166759, 2.185681, 2.061053, 2.052076, 1.953040, 2.042710, 1.934397, 1.993997, 2.011200, 2.040506, 1.984378, 2.012897, 2.098043, 2.052192, 1.968154, 2.051368, 1.893397, 1.936781, 2.074861, 1.981591, 1.917673, 1.900862, 2.070292, 1.996784
Process 11: 2.852289, 2.803162, 2.223544, 2.046483, 2.600679, 2.095513, 2.167195, 2.186094, 2.059988, 2.053251, 1.952427, 2.044389, 1.934112, 1.991885, 2.013765, 2.038930, 1.984087, 2.012665, 2.098676, 2.051343, 1.970501, 2.049982, 1.891396, 1.938398, 2.076762, 1.979411, 1.917829, 1.900936, 2.070281, 1.995211
Process 12: 2.880825, 2.772365, 2.224902, 2.049340, 2.598715, 2.095308, 2.166526, 2.186582, 2.059947, 2.051854, 1.952990, 2.043828, 1.935179, 1.991710, 2.012331, 2.040696, 1.983362, 2.010864, 2.100622, 2.053180, 1.967712, 2.051344, 1.892855, 1.935944, 2.076699, 1.979756, 1.918502, 1.900240, 2.071014, 1.996618
Process 13: 2.881385, 2.774503, 2.223580, 2.046468, 2.600774, 2.094797, 2.167122, 2.186575, 2.060465, 2.052820, 1.951713, 2.044521, 1.935119, 1.991179, 2.013416, 2.039041, 1.984661, 2.012044, 2.098834, 2.051487, 1.970544, 2.050026, 1.891422, 1.938559, 2.076879, 1.978856, 1.918501, 1.900486, 2.070486, 1.995536
Process 14: 2.801257, 2.822215, 2.243297, 2.039397, 2.597604, 2.098523, 2.173061, 2.178744, 2.049470, 2.061062, 1.963499, 2.041329, 1.928030, 1.999820, 2.002416, 2.043989, 1.985640, 2.012332, 2.104644, 2.043006, 1.967264, 2.047019, 1.908523, 1.932178, 2.063189, 1.988787, 1.923564, 1.897600, 2.076851, 1.988576
Process 15: 2.808598, 2.826988, 2.231860, 2.042654, 2.595764, 2.102263, 2.170475, 2.173430, 2.061200, 2.056910, 1.960274, 2.043559, 1.924924, 1.999537, 2.004231, 2.043376, 1.982269, 2.015613, 2.105857, 2.040027, 1.970307, 2.051927, 1.907924, 1.926287, 2.067346, 1.988983, 1.916439, 1.899221, 2.074717, 1.990090
Process 16: 2.827394, 2.808429, 2.233119, 2.046300, 2.594274, 2.099145, 2.171976, 2.176874, 2.057242, 2.056611, 1.961729, 2.039706, 1.929397, 2.000715, 1.999890, 2.047562, 1.985306, 2.013468, 2.102314, 2.041744, 1.973108, 2.049459, 1.899788, 1.931138, 2.067216, 1.986574, 1.922856, 1.899477, 2.075026, 1.990097
Process 17: 2.839220, 2.794159, 2.235896, 2.053020, 2.586969, 2.096075, 2.174318, 2.176512, 2.055433, 2.056523, 1.964466, 2.038493, 1.930098, 2.000129, 2.013489, 2.033966, 1.983040, 2.015565, 2.104201, 2.040983, 1.969391, 2.052452, 1.903528, 1.929394, 2.081653, 1.968873, 1.924601, 1.896519, 2.080714, 1.988071
Process 18: 2.829384, 2.803881, 2.235323, 2.044915, 2.595999, 2.095971, 2.172467, 2.179972, 2.052273, 2.055457, 1.964304, 2.044079, 1.926322, 1.999230, 2.014253, 2.036265, 1.982658, 2.015677, 2.099965, 2.049428, 1.968580, 2.044078, 1.903439, 1.932701, 2.079984, 1.975323, 1.919373, 1.899059, 2.075316, 1.990334
Process 19: 2.845841, 2.790242, 2.232811, 2.043435, 2.598273, 2.095309, 2.173633, 2.178990, 2.052866, 2.055452, 1.964951, 2.042574, 1.927091, 1.999435, 2.013847, 2.034913, 1.983246, 2.016008, 2.100629, 2.047165, 1.971611, 2.041745, 1.903071, 1.935177, 2.079913, 1.972863, 1.922385, 1.896668, 2.075255, 1.992975
Process 20: 2.844144, 2.791423, 2.234291, 2.044709, 2.595996, 2.097466, 2.172260, 2.178706, 2.055905, 2.059556, 1.958584, 2.041867, 1.926795, 2.000578, 2.012801, 2.036016, 1.984004, 2.014251, 2.100909, 2.048307, 1.969416, 2.046227, 1.901795, 1.932011, 2.079410, 1.975391, 1.920658, 1.899011, 2.074734, 1.990948
Process 21: 2.856770, 2.780247, 2.234749, 2.042820, 2.597180, 2.095033, 2.173997, 2.178852, 2.055965, 2.061860, 1.956125, 2.042323, 1.926160, 2.000112, 2.014018, 2.034718, 1.983176, 2.016723, 2.101397, 2.048951, 1.968651, 2.046677, 1.902021, 1.930860, 2.080800, 1.972391, 1.921085, 1.897662, 2.078914, 1.988392
Process 22: 2.849948, 2.789560, 2.231733, 2.045231, 2.595749, 2.096882, 2.172132, 2.179767, 2.057607, 2.061895, 1.953707, 2.042842, 1.927046, 1.999180, 2.013859, 2.035231, 1.983932, 2.015126, 2.100406, 2.051052, 1.967536, 2.047193, 1.900355, 1.932368, 2.079829, 1.974072, 1.920360, 1.898885, 2.074942, 1.991369
Process 23: 2.864729, 2.784560, 2.223028, 2.051728, 2.597434, 2.092084, 2.168941, 2.189950, 2.056863, 2.052175, 1.952911, 2.043200, 1.933745, 1.992952, 2.013757, 2.042137, 1.982754, 2.010350, 2.099450, 2.054055, 1.967994, 2.050210, 1.894138, 1.935817, 2.076596, 1.977858, 1.918686, 1.900894, 2.071484, 1.996066
Process 24: 2.873295, 2.775649, 2.227022, 2.051911, 2.592755, 2.097210, 2.166390, 2.185531, 2.059123, 2.055616, 1.953199, 2.041259, 1.932261, 1.996221, 2.011554, 2.040475, 1.984743, 2.011251, 2.099352, 2.050864, 1.967940, 2.051264, 1.896680, 1.933658, 2.076917, 1.979724, 1.919032, 1.899467, 2.072679, 1.997244
Process 25: 2.848734, 2.806027, 2.220686, 2.049093, 2.601419, 2.093177, 2.166046, 2.190470, 2.057789, 2.053137, 1.948969, 2.045206, 1.937030, 1.991700, 2.014801, 2.036920, 1.984134, 2.009326, 2.100700, 2.061519, 1.962078, 2.050109, 1.891758, 1.938275, 2.074926, 1.980572, 1.918816, 1.899270, 2.068512, 1.997338
Process 26: 2.874251, 2.778367, 2.226906, 2.046887, 2.600199, 2.095605, 2.166849, 2.185978, 2.059980, 2.052765, 1.953068, 2.042763, 1.934279, 1.994027, 2.011221, 2.040632, 1.984320, 2.012827, 2.097844, 2.052274, 1.968256, 2.051537, 1.893192, 1.936867, 2.074862, 1.981501, 1.917750, 1.900882, 2.070211, 1.996831
Process 27: 2.852474, 2.803659, 2.223233, 2.047368, 2.600301, 2.095256, 2.167334, 2.186338, 2.059785, 2.053595, 1.951901, 2.044448, 1.933992, 1.991952, 2.013791, 2.038970, 1.984332, 2.012488, 2.098556, 2.051259, 1.970555, 2.049550, 1.891880, 1.938608, 2.076779, 1.979146, 1.918246, 1.900547, 2.070451, 1.995127
Process 28: 2.879182, 2.773751, 2.224827, 2.047631, 2.600774, 2.095486, 2.166118, 2.186332, 2.060143, 2.051740, 1.952985, 2.044195, 1.934950, 1.991568, 2.012566, 2.041218, 1.985259, 2.008236, 2.100804, 2.053262, 1.967661, 2.051834, 1.892162, 1.935576, 2.077015, 1.979847, 1.918440, 1.900334, 2.071087, 1.996265
Process 29: 2.881367, 2.775013, 2.223228, 2.047006, 2.600667, 2.094699, 2.167713, 2.186279, 2.060179, 2.052258, 1.952210, 2.044669, 1.935028, 1.991158, 2.013729, 2.039003, 1.984534, 2.012536, 2.098317, 2.050921, 1.971040, 2.050026, 1.890952, 1.939112, 2.076911, 1.978869, 1.918426, 1.900451, 2.070508, 1.995506
Process 30: 2.800144, 2.822809, 2.243368, 2.038944, 2.598041, 2.098557, 2.172990, 2.178842, 2.049402, 2.061202, 1.964275, 2.040547, 1.927970, 1.999826, 2.002429, 2.043942, 1.985608, 2.012365, 2.104643, 2.043111, 1.967187, 2.047027, 1.909636, 1.931006, 2.063194, 1.988846, 1.923585, 1.897559, 2.076910, 1.988543
Process 31: 2.816624, 2.819754, 2.231983, 2.043141, 2.595325, 2.102369, 2.170176, 2.173638, 2.060865, 2.057273, 1.960294, 2.043610, 1.925060, 1.999424, 2.004060, 2.043417, 1.982303, 2.015573, 2.105904, 2.040029, 1.970236, 2.052115, 1.909831, 1.924427, 2.067152, 1.989094, 1.916374, 1.899397, 2.074553, 1.990031
Process 32: 2.812744, 2.824590, 2.234201, 2.046542, 2.593395, 2.098913, 2.172445, 2.176219, 2.057544, 2.056270, 1.961779, 2.040827, 1.928384, 2.000877, 1.999702, 2.048355, 1.984672, 2.013567, 2.102277, 2.041517, 1.972906, 2.049583, 1.899635, 1.931397, 2.067328, 1.986814, 1.923209, 1.898966, 2.074993, 1.990364
Process 33: 2.839047, 2.794980, 2.236345, 2.052893, 2.586640, 2.096151, 2.174338, 2.176521, 2.055474, 2.058517, 1.962143, 2.038660, 1.929993, 2.000466, 2.013336, 2.033839, 1.983121, 2.015598, 2.104383, 2.040791, 1.969545, 2.052735, 1.902763, 1.929706, 2.082139, 1.968494, 1.924802, 1.896113, 2.080643, 1.988074
Process 34: 2.827751, 2.804612, 2.236570, 2.044301, 2.596963, 2.095378, 2.172425, 2.180066, 2.052246, 2.055331, 1.964487, 2.044538, 1.925706, 1.999471, 2.014041, 2.036939, 1.982282, 2.015553, 2.099710, 2.049476, 1.968688, 2.043880, 1.903512, 1.932991, 2.079691, 1.975184, 1.919789, 1.899031, 2.075349, 1.990149
Process 35: 2.844863, 2.792553, 2.233378, 2.043435, 2.598126, 2.094836, 2.173927, 2.179247, 2.052517, 2.054919, 1.966710, 2.041354, 1.926635, 2.000242, 2.013630, 2.034837, 1.983168, 2.016129, 2.102084, 2.045560, 1.970981, 2.043199, 1.902976, 1.934725, 2.080874, 1.972222, 1.921528, 1.897037, 2.076479, 1.990836
Process 36: 2.854059, 2.782966, 2.234864, 2.043984, 2.596327, 2.097424, 2.173201, 2.177635, 2.056195, 2.059049, 1.958138, 2.042734, 1.926857, 2.000811, 2.012154, 2.036867, 1.983563, 2.014415, 2.101202, 2.047500, 1.969606, 2.045927, 1.901281, 1.932586, 2.079474, 1.975454, 1.921477, 1.898689, 2.074701, 1.990803
Process 37: 2.855269, 2.781767, 2.235041, 2.042090, 2.597721, 2.094920, 2.173899, 2.179115, 2.055823, 2.061865, 1.956453, 2.042187, 1.925753, 2.000404, 2.014179, 2.034602, 1.983138, 2.016718, 2.101453, 2.048946, 1.968572, 2.046131, 1.904026, 1.929563, 2.081087, 1.972147, 1.920735, 1.897802, 2.078381, 1.988619
Process 38: 2.848269, 2.792155, 2.231822, 2.044711, 2.596281, 2.097061, 2.172443, 2.179015, 2.057734, 2.061951, 1.953280, 2.043079, 1.927279, 1.999559, 2.013494, 2.035364, 1.984130, 2.014899, 2.100670, 2.050577, 1.967449, 2.047229, 1.899702, 1.933422, 2.079595, 1.973791, 1.920810, 1.898864, 2.075058, 1.991123
Process 39: 2.858665, 2.790096, 2.223289, 2.050015, 2.598921, 2.092168, 2.168817, 2.189897, 2.056957, 2.052498, 1.952364, 2.043285, 1.933919, 1.992975, 2.013754, 2.041975, 1.982732, 2.010470, 2.099455, 2.054026, 1.967991, 2.050164, 1.894510, 1.935418, 2.076630, 1.977956, 1.918698, 1.901096, 2.071234, 1.996145
Process 40: 2.861441, 2.786760, 2.226953, 2.052032, 2.592839, 2.097088, 2.166377, 2.185639, 2.059054, 2.055766, 1.952588, 2.041537, 1.932407, 1.996142, 2.011422, 2.040769, 1.984780, 2.010835, 2.099875, 2.050698, 1.967850, 2.051658, 1.895587, 1.934379, 2.076729, 1.979897, 1.918953, 1.899397, 2.072629, 1.997531
Process 41: 2.839568, 2.817191, 2.220631, 2.048704, 2.601514, 2.093915, 2.165665, 2.189357, 2.059280, 2.053347, 1.948169, 2.045288, 1.937618, 1.991452, 2.014304, 2.036664, 1.984165, 2.009848, 2.100628, 2.060978, 1.963621, 2.049563, 1.891014, 1.938832, 2.074503, 1.981252, 1.919014, 1.899416, 2.066591, 1.998825
Process 42: 2.870632, 2.782724, 2.227497, 2.046900, 2.599429, 2.095971, 2.166818, 2.185410, 2.060713, 2.052698, 1.953078, 2.042353, 1.934944, 1.993773, 2.011084, 2.040377, 1.984466, 2.013062, 2.097462, 2.052346, 1.968458, 2.051063, 1.893821, 1.936783, 2.074895, 1.981583, 1.917639, 1.900836, 2.070271, 1.996861
Process 43: 2.851261, 2.804862, 2.222840, 2.047348, 2.600698, 2.095190, 2.167311, 2.186167, 2.060185, 2.053033, 1.952301, 2.044760, 1.933913, 1.991676, 2.013943, 2.038831, 1.984103, 2.012713, 2.098510, 2.051126, 1.970860, 2.049803, 1.891198, 1.938921, 2.076260, 1.979770, 1.918352, 1.900145, 2.070088, 1.995739
Process 44: 2.878842, 2.774920, 2.225117, 2.047784, 2.600184, 2.095600, 2.166367, 2.186458, 2.060054, 2.051807, 1.953023, 2.043776, 1.935258, 1.991684, 2.012321, 2.040844, 1.983464, 2.010563, 2.100883, 2.052932, 1.968889, 2.050322, 1.892259, 1.935955, 2.076717, 1.980168, 1.918453, 1.900286, 2.071154, 1.996305
Process 45: 2.880331, 2.776936, 2.222940, 2.047131, 2.600750, 2.094871, 2.167164, 2.186535, 2.060761, 2.052256, 1.951910, 2.044546, 1.935137, 1.991114, 2.013790, 2.038876, 1.984353, 2.012354, 2.098544, 2.051269, 1.970898, 2.050341, 1.890601, 1.939079, 2.076755, 1.979069, 1.918521, 1.900116, 2.070379, 1.995788
Process 46: 2.800480, 2.822692, 2.243736, 2.039162, 2.597530, 2.098543, 2.173059, 2.178792, 2.049363, 2.061420, 1.962982, 2.041943, 1.927671, 1.999843, 2.002378, 2.043981, 1.985576, 2.012401, 2.104711, 2.043006, 1.967239, 2.047028, 1.908974, 1.931762, 2.063547, 1.988308, 1.923628, 1.897497, 2.077411, 1.988177
Process 47: 2.819327, 2.816747, 2.232150, 2.042633, 2.596001, 2.102281, 2.169889, 2.173973, 2.060762, 2.057469, 1.959682, 2.044130, 1.924797, 1.999624, 2.004084, 2.043600, 1.982168, 2.015587, 2.105458, 2.040443, 1.970322, 2.052062, 1.908084, 1.926194, 2.066990, 1.989254, 1.916458, 1.898854, 2.075070, 1.989943
Process 48: 2.827132, 2.809048, 2.233397, 2.046410, 2.593907, 2.099139, 2.172339, 2.176236, 2.057365, 2.056630, 1.961615, 2.039634, 1.929851, 2.000799, 1.999494, 2.047606, 1.985601, 2.013233, 2.102358, 2.041625, 1.973087, 2.049911, 1.899014, 1.931578, 2.067195, 1.986687, 1.922728, 1.899593, 2.075099, 1.990001
Process 49: 2.839511, 2.794334, 2.236425, 2.052580, 2.587525, 2.095456, 2.174395, 2.176612, 2.055306, 2.056318, 1.964365, 2.039488, 1.929153, 2.000702, 2.013315, 2.033904, 1.983082, 2.015666, 2.104320, 2.040802, 1.969491, 2.052356, 1.906064, 1.926860, 2.081847, 1.968572, 1.924811, 1.896179, 2.081070, 1.987566
Process 50: 2.841947, 2.790998, 2.235869, 2.044593, 2.596532, 2.095654, 2.174288, 2.178201, 2.052374, 2.055333, 1.964104, 2.044417, 1.925737, 1.999633, 2.014342, 2.036491, 1.982321, 2.016175, 2.099392, 2.049648, 1.968641, 2.043928, 1.903347, 1.933126, 2.079695, 1.974632, 1.920089, 1.898982, 2.075546, 1.990066
Process 51: 2.845149, 2.790808, 2.232962, 2.043175, 2.598620, 2.094941, 2.174178, 2.178928, 2.052599, 2.054885, 1.965645, 2.042938, 1.926260, 1.999624, 2.014016, 2.034976, 1.983366, 2.016443, 2.099838, 2.047576, 1.970809, 2.042700, 1.902785, 1.935203, 2.079985, 1.972615, 1.922577, 1.896432, 2.075591, 1.992088
Process 52: 2.854181, 2.782411, 2.234537, 2.046566, 2.594070, 2.097393, 2.172548, 2.178186, 2.056063, 2.059272, 1.959217, 2.041438, 1.926951, 2.000766, 2.012305, 2.036616, 1.983822, 2.014259, 2.100782, 2.048055, 1.969464, 2.046016, 1.902143, 1.931780, 2.079471, 1.975345, 1.921126, 1.898874, 2.074855, 1.990689
Process 53: 2.854368, 2.782388, 2.234694, 2.042859, 2.597241, 2.095008, 2.173811, 2.179062, 2.055831, 2.061866, 1.955962, 2.042622, 1.925899, 2.000314, 2.014126, 2.034664, 1.983198, 2.016617, 2.101385, 2.048903, 1.968692, 2.046660, 1.902503, 1.930639, 2.080942, 1.972166, 1.920833, 1.897851, 2.078265, 1.988661
Process 54: 2.849787, 2.790337, 2.231944, 2.044593, 2.596718, 2.096628, 2.172659, 2.178822, 2.057723, 2.061918, 1.953464, 2.042789, 1.927417, 1.999543, 2.013438, 2.035458, 1.984129, 2.014883, 2.100505, 2.050776, 1.967434, 2.047252, 1.900147, 1.932585, 2.079879, 1.973885, 1.920855, 1.898918, 2.074954, 1.990993
Process 55: 2.859803, 2.789988, 2.223191, 2.048642, 2.600328, 2.092080, 2.168928, 2.189738, 2.057063, 2.052586, 1.952306, 2.043732, 1.933523, 1.992947, 2.013673, 2.042017, 1.982805, 2.010376, 2.099429, 2.054108, 1.967922, 2.049792, 1.896219, 1.934535, 2.076126, 1.978020, 1.918705, 1.901065, 2.071340, 1.996056
Process 56: 2.862183, 2.785858, 2.226886, 2.052026, 2.592935, 2.097044, 2.166412, 2.185565, 2.059192, 2.055709, 1.952533, 2.041557, 1.932456, 1.996128, 2.011396, 2.040772, 1.984712, 2.010902, 2.099824, 2.050760, 1.967863, 2.051128, 1.896870, 1.933631, 2.076732, 1.979881, 1.918988, 1.899393, 2.072671, 1.997514
Process 57: 2.846853, 2.807841, 2.220505, 2.048660, 2.602467, 2.092699, 2.165704, 2.190875, 2.057686, 2.053310, 1.948925, 2.045424, 1.937008, 1.991231, 2.015238, 2.036345, 1.983860, 2.009863, 2.100783, 2.061523, 1.962286, 2.050024, 1.891732, 1.938163, 2.074813, 1.980475, 1.919317, 1.899292, 2.067715, 1.997883
Process 58: 2.870467, 2.780801, 2.227650, 2.047365, 2.599295, 2.095923, 2.166596, 2.185629, 2.060599, 2.052615, 1.953565, 2.042139, 1.934375, 1.994049, 2.011289, 2.040341, 1.984336, 2.012914, 2.097720, 2.052468, 1.968180, 2.051290, 1.894021, 1.936320, 2.074682, 1.981824, 1.917724, 1.900726, 2.070460, 1.996643
Process 59: 2.851406, 2.804163, 2.222614, 2.048428, 2.599660, 2.095617, 2.167233, 2.185892, 2.060392, 2.053155, 1.952851, 2.043719, 1.933989, 1.992195, 2.013757, 2.038921, 1.983889, 2.013008, 2.098429, 2.051180, 1.970947, 2.049354, 1.891945, 1.938290, 2.076049, 1.979989, 1.918354, 1.900314, 2.069909, 1.995667
Process 60: 2.878275, 2.774165, 2.224812, 2.047612, 2.601260, 2.094579, 2.166366, 2.186592, 2.060002, 2.051888, 1.952920, 2.044259, 1.934750, 1.991776, 2.012168, 2.041187, 1.983564, 2.010314, 2.100817, 2.053063, 1.967432, 2.051503, 1.893623, 1.934844, 2.076707, 1.980121, 1.918562, 1.900256, 2.071138, 1.996410
Process 61: 2.879738, 2.775828, 2.223241, 2.047037, 2.600635, 2.095102, 2.167190, 2.186037, 2.060602, 2.052898, 1.952282, 2.044151, 1.935034, 1.991311, 2.013569, 2.039003, 1.984054, 2.012723, 2.098561, 2.051172, 1.970985, 2.050218, 1.890158, 1.939335, 2.077015, 1.978946, 1.918449, 1.900186, 2.070465, 1.995584
Process 62: 2.794138, 2.828883, 2.243515, 2.039833, 2.597059, 2.098575, 2.173066, 2.178785, 2.049365, 2.061359, 1.964008, 2.040635, 1.927983, 1.999829, 2.002427, 2.044009, 1.985604, 2.012359, 2.104653, 2.043092, 1.967174, 2.046980, 1.909441, 1.931127, 2.063017, 1.989099, 1.923561, 1.897489, 2.077124, 1.988469
Process 63: 2.817845, 2.817554, 2.232207, 2.043120, 2.595485, 2.102364, 2.169826, 2.174057, 2.060758, 2.057527, 1.960493, 2.043382, 1.924606, 1.999686, 2.004129, 2.043479, 1.982200, 2.015623, 2.105209, 2.040642, 1.970378, 2.052094, 1.908060, 1.926000, 2.067202, 1.989317, 1.916391, 1.898488, 2.075445, 1.989960
Process 64: 2.834893, 2.807546, 2.236165, 2.043865, 2.594510, 2.100971, 2.171621, 2.176431, 2.057050, 2.057302, 1.960420, 2.041581, 1.926110, 2.002583, 1.997755, 2.052944, 1.980384, 2.021072, 2.096672, 2.046592, 1.968254, 2.051199, 1.898355, 1.927670, 2.068482, 1.988533, 1.923388, 1.897193, 2.076587, 1.989845
Process 65: 2.837350, 2.799932, 2.236567, 2.053561, 2.585996, 2.097031, 2.173188, 2.177828, 2.055080, 2.055173, 1.963745, 2.040970, 1.926607, 2.002425, 2.013516, 2.033056, 1.983142, 2.016979, 2.101449, 2.046539, 1.966200, 2.053741, 1.900845, 1.928147, 2.084019, 1.968970, 1.922935, 1.897204, 2.079526, 1.988381
Process 66: 2.841201, 2.792334, 2.235397, 2.045612, 2.595841, 2.096230, 2.172137, 2.180300, 2.051617, 2.056117, 1.963734, 2.044856, 1.925918, 1.999291, 2.014428, 2.035831, 1.983135, 2.014935, 2.100333, 2.049704, 1.967924, 2.044555, 1.902978, 1.933236, 2.080613, 1.974261, 1.920489, 1.898782, 2.074536, 1.990615
Process 67: 2.844428, 2.792793, 2.232089, 2.043668, 2.598850, 2.094505, 2.172519, 2.182188, 2.051415, 2.055668, 1.963058, 2.043089, 1.927486, 1.998875, 2.014195, 2.035690, 1.982451, 2.016685, 2.099837, 2.048317, 1.971550, 2.042638, 1.901890, 1.934914, 2.080215, 1.973845, 1.920490, 1.896599, 2.076092, 1.991847
Process 68: 2.854342, 2.783900, 2.233140, 2.044548, 2.596801, 2.096577, 2.172255, 2.180054, 2.055199, 2.059535, 1.957000, 2.043554, 1.926404, 1.999760, 2.014099, 2.035800, 1.982755, 2.015395, 2.100221, 2.049664, 1.969121, 2.045579, 1.900452, 1.934226, 2.079976, 1.974242, 1.920534, 1.898713, 2.074035, 1.991852
Process 69: 2.855302, 2.784341, 2.233285, 2.041706, 2.598730, 2.094321, 2.173758, 2.180872, 2.054750, 2.061859, 1.953362, 2.045429, 1.924839, 1.999601, 2.014863, 2.034898, 1.983004, 2.017653, 2.098771, 2.051837, 1.967955, 2.045828, 1.900307, 1.934204, 2.079442, 1.972943, 1.919718, 1.899325, 2.076136, 1.989819
Process 70: 2.848548, 2.793314, 2.230839, 2.044098, 2.597533, 2.095908, 2.172031, 2.180003, 2.058494, 2.061211, 1.952204, 2.044425, 1.927265, 1.998077, 2.014728, 2.034730, 1.984194, 2.015176, 2.099926, 2.051846, 1.967254, 2.047341, 1.899127, 1.934297, 2.079732, 1.973068, 1.920270, 1.898642, 2.074826, 1.991997
Process 71: 2.857247, 2.793264, 2.223475, 2.048285, 2.600300, 2.091974, 2.169996, 2.189665, 2.056250, 2.052488, 1.951714, 2.044849, 1.933401, 1.993348, 2.013920, 2.042894, 1.981314, 2.010857, 2.097710, 2.055391, 1.967720, 2.050192, 1.893857, 1.935913, 2.077281, 1.977796, 1.918555, 1.900595, 2.070951, 1.996988
Process 72: 2.860812, 2.789899, 2.227068, 2.049135, 2.594878, 2.097692, 2.165386, 2.186197, 2.059624, 2.055248, 1.951768, 2.042369, 1.932290, 1.997245, 2.010732, 2.041439, 1.983472, 2.011078, 2.099537, 2.051622, 1.967814, 2.051301, 1.896069, 1.933882, 2.076487, 1.980218, 1.919904, 1.898394, 2.072844, 1.997129
Process 73: 2.847369, 2.808638, 2.220994, 2.048238, 2.602526, 2.093627, 2.165293, 2.189937, 2.057820, 2.053350, 1.949264, 2.045154, 1.937099, 1.991793, 2.014551, 2.037424, 1.982908, 2.010214, 2.100553, 2.061882, 1.961766, 2.050245, 1.889930, 1.939555, 2.074953, 1.980822, 1.918839, 1.899450, 2.067404, 1.998269
Process 74: 2.867977, 2.791261, 2.228799, 2.046255, 2.598980, 2.096081, 2.166977, 2.184056, 2.061891, 2.053091, 1.953513, 2.041491, 1.931162, 1.997792, 2.011000, 2.040070, 1.985092, 2.011924, 2.098009, 2.051956, 1.969019, 2.050979, 1.894104, 1.937432, 2.073492, 1.981947, 1.918003, 1.901015, 2.070102, 1.997176
Process 75: 2.851648, 2.804848, 2.223814, 2.047613, 2.600069, 2.095016, 2.167263, 2.186369, 2.059427, 2.053322, 1.952395, 2.044614, 1.933670, 1.992295, 2.013858, 2.038960, 1.984070, 2.012640, 2.098712, 2.051013, 1.970499, 2.049927, 1.891568, 1.938529, 2.076237, 1.979715, 1.918280, 1.900366, 2.070734, 1.995310
Process 76: 2.878145, 2.774800, 2.225912, 2.046947, 2.599940, 2.095651, 2.167477, 2.185616, 2.059814, 2.052386, 1.953386, 2.043005, 1.934998, 1.993011, 2.011147, 2.040684, 1.984140, 2.010672, 2.100216, 2.052662, 1.967965, 2.051295, 1.893943, 1.935137, 2.076021, 1.980707, 1.918522, 1.900213, 2.071724, 1.995863
Process 77: 2.879977, 2.776815, 2.223419, 2.047304, 2.600342, 2.094561, 2.167472, 2.186653, 2.059951, 2.052650, 1.951948, 2.044811, 1.934600, 1.991382, 2.014008, 2.038957, 1.984473, 2.011973, 2.098850, 2.051091, 1.970609, 2.049877, 1.891569, 1.938146, 2.077604, 1.978534, 1.918719, 1.899878, 2.070940, 1.995679
Process 78: 2.795486, 2.828469, 2.243327, 2.038478, 2.598823, 2.097988, 2.173152, 2.178533, 2.049639, 2.061372, 1.962854, 2.041631, 1.928122, 2.000108, 2.001992, 2.044021, 1.986199, 2.011634, 2.105024, 2.043170, 1.966456, 2.047614, 1.908528, 1.933475, 2.061805, 1.988558, 1.924427, 1.897961, 2.076009, 1.988875
Process 79: 2.814567, 2.826052, 2.236010, 2.042148, 2.594039, 2.105357, 2.168472, 2.173379, 2.061542, 2.055265, 1.961144, 2.044840, 1.922803, 2.001867, 2.002379, 2.050195, 1.977675, 2.017228, 2.102499, 2.042907, 1.969006, 2.053859, 1.901474, 1.926288, 2.068461, 1.991675, 1.917003, 1.895430, 2.079567, 1.989516
Process 80: 2.828145, 2.815050, 2.235734, 2.044468, 2.594248, 2.101129, 2.170887, 2.176916, 2.057497, 2.057200, 1.960225, 2.041762, 1.926254, 2.002191, 1.997135, 2.054054, 1.980336, 2.021069, 2.095593, 2.047381, 1.968306, 2.051371, 1.898071, 1.927599, 2.068789, 1.989502, 1.922381, 1.897123, 2.076546, 1.989751
Process 81: 2.838742, 2.800121, 2.236253, 2.052749, 2.587053, 2.096460, 2.173354, 2.177822, 2.055202, 2.055647, 1.963520, 2.040951, 1.926821, 2.001738, 2.013390, 2.033724, 1.983019, 2.017444, 2.100843, 2.046863, 1.966043, 2.053336, 1.902312, 1.926956, 2.083767, 1.969671, 1.922809, 1.897189, 2.079194, 1.988496
Process 82: 2.841688, 2.790682, 2.235241, 2.045640, 2.595070, 2.096971, 2.172603, 2.179841, 2.052123, 2.056112, 1.963163, 2.044091, 1.926364, 1.999422, 2.014259, 2.035676, 1.983827, 2.015277, 2.099703, 2.049603, 1.968017, 2.044712, 1.903073, 1.933826, 2.079186, 1.975019, 1.920370, 1.898772, 2.074837, 1.990499
Process 83: 2.844191, 2.791737, 2.232148, 2.043934, 2.598963, 2.093321, 2.173266, 2.181821, 2.051239, 2.055903, 1.963360, 2.043468, 1.927272, 1.998801, 2.014987, 2.034331, 1.983329, 2.016400, 2.099584, 2.048609, 1.971211, 2.042926, 1.902221, 1.934459, 2.080168, 1.973509, 1.921286, 1.896353, 2.076467, 1.992045
Process 84: 2.854152, 2.782856, 2.233119, 2.044889, 2.596588, 2.096290, 2.172261, 2.180349, 2.054675, 2.059956, 1.957092, 2.043292, 1.926804, 1.999507, 2.013914, 2.036273, 1.982841, 2.014891, 2.100718, 2.048826, 1.969497, 2.045631, 1.900850, 1.933482, 2.079300, 1.975570, 1.920442, 1.898847, 2.073969, 1.991462
Process 85: 2.855918, 2.782936, 2.233266, 2.042457, 2.597857, 2.094349, 2.173101, 2.181557, 2.054736, 2.061777, 1.953553, 2.045748, 1.924753, 1.999559, 2.014678, 2.034871, 1.983268, 2.017372, 2.098813, 2.051533, 1.968138, 2.045881, 1.900765, 1.933507, 2.079465, 1.973505, 1.919804, 1.899148, 2.075659, 1.990098
Process 86: 2.849004, 2.791401, 2.231915, 2.043350, 2.596668, 2.096495, 2.172231, 2.180148, 2.057409, 2.062512, 1.951947, 2.043744, 1.928022, 1.997948, 2.014692, 2.034884, 1.983642, 2.015527, 2.099891, 2.051710, 1.967858, 2.046644, 1.899473, 1.934114, 2.079105, 1.973975, 1.920272, 1.898772, 2.074643, 1.991772
Process 87: 2.860039, 2.789741, 2.223076, 2.048488, 2.600273, 2.092532, 2.169549, 2.188894, 2.056852, 2.052393, 1.951297, 2.044853, 1.933530, 1.993768, 2.013548, 2.042118, 1.982844, 2.010783, 2.097191, 2.055088, 1.968200, 2.049924, 1.892366, 1.937707, 2.076473, 1.978146, 1.918911, 1.900714, 2.069976, 1.997589
Process 88: 2.865281, 2.783010, 2.226913, 2.050084, 2.594443, 2.097445, 2.165866, 2.185704, 2.059069, 2.055913, 1.952542, 2.041397, 1.932513, 1.996087, 2.011686, 2.040812, 1.984453, 2.010960, 2.099758, 2.051422, 1.967666, 2.051956, 1.894992, 1.934093, 2.076853, 1.979919, 1.919832, 1.898773, 2.072521, 1.997115
Process 89: 2.846886, 2.808693, 2.220578, 2.048501, 2.601588, 2.093497, 2.166638, 2.189354, 2.057992, 2.053251, 1.949567, 2.044878, 1.936921, 1.992220, 2.014091, 2.037785, 1.982783, 2.011037, 2.099694, 2.061164, 1.962373, 2.050058, 1.888943, 1.940991, 2.075044, 1.980580, 1.918881, 1.899197, 2.067136, 1.998700
Process 90: 2.869005, 2.790771, 2.228044, 2.047423, 2.598977, 2.095711, 2.167044, 2.184090, 2.062917, 2.051935, 1.953098, 2.042013, 1.931016, 1.997864, 2.011098, 2.039984, 1.984893, 2.012046, 2.098061, 2.051949, 1.968977, 2.051355, 1.894110, 1.936535, 2.074380, 1.982053, 1.917967, 1.901001, 2.069994, 1.996560
Process 91: 2.851240, 2.804526, 2.223444, 2.048009, 2.599483, 2.095434, 2.167186, 2.186277, 2.059390, 2.053393, 1.952766, 2.044251, 1.933689, 1.992292, 2.013860, 2.038933, 1.984207, 2.012406, 2.098837, 2.050993, 1.970471, 2.050245, 1.891217, 1.938670, 2.076658, 1.979137, 1.918317, 1.900487, 2.070778, 1.995102
Process 92: 2.877693, 2.774789, 2.225418, 2.046371, 2.600214, 2.095710, 2.167087, 2.185630, 2.060142, 2.052544, 1.953285, 2.043101, 1.935206, 1.992772, 2.011048, 2.040930, 1.983886, 2.010611, 2.100226, 2.052763, 1.967847, 2.051325, 1.893888, 1.935723, 2.075515, 1.980714, 1.918529, 1.900197, 2.071359, 1.996211
Process 93: 2.879902, 2.776417, 2.223459, 2.047398, 2.600212, 2.095015, 2.166999, 2.186606, 2.060020, 2.052422, 1.952220, 2.044771, 1.934703, 1.991458, 2.013820, 2.038816, 1.984469, 2.012207, 2.098945, 2.050982, 1.970520, 2.050173, 1.890996, 1.939035, 2.077029, 1.978671, 1.918549, 1.900321, 2.070753, 1.995444
Process 94: 2.796869, 2.826417, 2.243425, 2.038925, 2.598276, 2.098001, 2.173085, 2.178745, 2.049390, 2.061709, 1.963248, 2.041096, 1.928099, 1.999990, 2.002005, 2.044010, 1.985789, 2.012388, 2.104830, 2.043177, 1.966450, 2.047598, 1.908994, 1.933855, 2.060865, 1.988652, 1.924456, 1.898531, 2.075450, 1.988785
Process 95: 2.814050, 2.828633, 2.235356, 2.043010, 2.592816, 2.107057, 2.167379, 2.173242, 2.061928, 2.055594, 1.960935, 2.051097, 1.915996, 2.002978, 2.001007, 2.052152, 1.975936, 2.017662, 2.102494, 2.043035, 1.968603, 2.054295, 1.901049, 1.925547, 2.069444, 1.993066, 1.915267, 1.894923, 2.081105, 1.989194
Process 96: 2.834102, 2.808255, 2.232590, 2.043903, 2.597545, 2.096767, 2.172589, 2.179614, 2.057049, 2.054631, 1.960843, 2.042475, 1.927443, 1.999229, 2.000998, 2.047745, 1.983902, 2.015741, 2.101694, 2.047280, 1.969382, 2.047698, 1.899736, 1.931417, 2.068252, 1.986329, 1.920580, 1.899689, 2.075618, 1.990192
Process 97: 2.839722, 2.803864, 2.234766, 2.048323, 2.591253, 2.093042, 2.175890, 2.178027, 2.055132, 2.054646, 1.963905, 2.042193, 1.926663, 2.000369, 2.013197, 2.034717, 1.982410, 2.019750, 2.099323, 2.044597, 1.968028, 2.050656, 1.902210, 1.933246, 2.080109, 1.968252, 1.924105, 1.896488, 2.080139, 1.987965
Process 98: 2.828970, 2.804720, 2.237838, 2.044301, 2.598106, 2.095978, 2.170912, 2.181466, 2.048131, 2.055609, 1.966670, 2.044564, 1.927576, 1.997618, 2.013147, 2.037221, 1.983376, 2.013540, 2.101262, 2.050608, 1.965452, 2.044655, 1.904451, 1.935477, 2.077129, 1.976910, 1.919150, 1.900762, 2.072636, 1.992062
Process 99: 2.845282, 2.794531, 2.230720, 2.045026, 2.601529, 2.090658, 2.171856, 2.184548, 2.046872, 2.055860, 1.966212, 2.044927, 1.923571, 1.999657, 2.014682, 2.037789, 1.983430, 2.015603, 2.098258, 2.047785, 1.972027, 2.040364, 1.904636, 1.939617, 2.074965, 1.974472, 1.919313, 1.899892, 2.075198, 1.991575
Process 100: 2.855569, 2.783489, 2.234065, 2.043781, 2.598589, 2.094994, 2.171918, 2.181653, 2.052115, 2.060564, 1.957600, 2.044903, 1.927653, 1.996568, 2.014225, 2.036478, 1.982836, 2.014561, 2.100417, 2.050268, 1.970172, 2.044361, 1.900223, 1.936371, 2.076397, 1.976568, 1.919613, 1.900199, 2.072818, 1.992144
Process 101: 2.857482, 2.786363, 2.233546, 2.039157, 2.601493, 2.090735, 2.175018, 2.180973, 2.055009, 2.060556, 1.956147, 2.045149, 1.925312, 1.997647, 2.015070, 2.036069, 1.982321, 2.020171, 2.096008, 2.049535, 1.969601, 2.045064, 1.900958, 1.938137, 2.076315, 1.971235, 1.920558, 1.900075, 2.078288, 1.988028
Process 102: 2.849760, 2.792424, 2.231730, 2.043551, 2.598523, 2.094907, 2.171885, 2.181759, 2.056915, 2.061146, 1.952210, 2.045404, 1.927295, 1.996384, 2.015229, 2.035424, 1.983007, 2.017130, 2.098230, 2.052922, 1.967901, 2.044731, 1.902071, 1.933321, 2.077849, 1.975008, 1.919514, 1.900401, 2.073218, 1.992105
Process 103: 2.866782, 2.783213, 2.227586, 2.044092, 2.600868, 2.092828, 2.171584, 2.186910, 2.056066, 2.052847, 1.955089, 2.045833, 1.928745, 1.995383, 2.013042, 2.040790, 1.982651, 2.014412, 2.096084, 2.053700, 1.967351, 2.049748, 1.893799, 1.939438, 2.075340, 1.976913, 1.918832, 1.900340, 2.073791, 1.993794
Process 104: 2.878254, 2.771419, 2.227675, 2.050747, 2.593597, 2.097438, 2.167349, 2.184197, 2.058894, 2.056109, 1.953769, 2.041326, 1.931252, 1.996927, 2.011537, 2.040171, 1.984858, 2.011575, 2.099542, 2.050625, 1.967904, 2.051094, 1.895895, 1.933967, 2.076761, 1.980296, 1.919134, 1.898994, 2.073373, 1.996618
Process 105: 2.848049, 2.809540, 2.222746, 2.046370, 2.600996, 2.093431, 2.167519, 2.188367, 2.058327, 2.052967, 1.951895, 2.044605, 1.935194, 1.991888, 2.014687, 2.036792, 1.983753, 2.012177, 2.099538, 2.058910, 1.963355, 2.050057, 1.891558, 1.938525, 2.076681, 1.978464, 1.919021, 1.899394, 2.069852, 1.996211
Process 106: 2.877847, 2.778810, 2.228018, 2.046936, 2.598911, 2.096543, 2.166631, 2.185360, 2.060559, 2.053087, 1.953001, 2.042128, 1.933322, 1.995742, 2.010889, 2.040788, 1.985332, 2.011023, 2.098228, 2.051646, 1.969426, 2.051047, 1.893750, 1.936987, 2.074043, 1.982132, 1.917779, 1.901061, 2.069861, 1.997052
Process 107: 2.852592, 2.804888, 2.223815, 2.046448, 2.599833, 2.095155, 2.167657, 2.186217, 2.060866, 2.052330, 1.952165, 2.044637, 1.934935, 1.990735, 2.014243, 2.038277, 1.983727, 2.012947, 2.099173, 2.050386, 1.970911, 2.049945, 1.893049, 1.936891, 2.077923, 1.977875, 1.918903, 1.899661, 2.071011, 1.995273
Process 108: 2.879419, 2.774528, 2.225052, 2.047655, 2.600012, 2.095208, 2.166704, 2.187117, 2.059585, 2.051714, 1.953334, 2.043171, 1.936516, 1.990930, 2.011852, 2.040666, 1.983887, 2.011004, 2.099996, 2.052758, 1.967975, 2.051400, 1.893001, 1.935695, 2.076333, 1.980781, 1.918237, 1.900343, 2.071053, 1.996422
Process 109: 2.881881, 2.776171, 2.223411, 2.046983, 2.600055, 2.094573, 2.167553, 2.186554, 2.061125, 2.052052, 1.952001, 2.044626, 1.935511, 1.990206, 2.014071, 2.038372, 1.984056, 2.012748, 2.099036, 2.050456, 1.970927, 2.050205, 1.892757, 1.937048, 2.078178, 1.977571, 1.918486, 1.900222, 2.071017, 1.995399
Process 110: 2.803967, 2.820982, 2.245400, 2.038612, 2.598589, 2.101065, 2.169905, 2.179078, 2.048255, 2.060811, 1.965053, 2.040233, 1.928290, 2.000455, 2.003984, 2.045006, 1.985337, 2.011012, 2.103868, 2.040717, 1.969313, 2.045802, 1.910019, 1.932753, 2.059715, 1.993737, 1.921976, 1.899732, 2.074142, 1.991871
Process 111: 2.821013, 2.822882, 2.233933, 2.039253, 2.598382, 2.101236, 2.170111, 2.174540, 2.062288, 2.053592, 1.962199, 2.043885, 1.925195, 1.997241, 2.005608, 2.042839, 1.983470, 2.017664, 2.101821, 2.040434, 1.970730, 2.051529, 1.905427, 1.928274, 2.067852, 1.988257, 1.917598, 1.897495, 2.079386, 1.988085
Process 112: 2.832460, 2.819254, 2.234905, 2.049610, 2.589539, 2.101576, 2.169697, 2.177882, 2.057605, 2.055895, 1.959993, 2.042686, 1.927136, 2.000541, 2.012147, 2.035985, 1.985939, 2.013671, 2.100858, 2.046515, 1.970679, 2.048221, 1.900667, 1.928726, 2.082192, 1.976422, 1.920154, 1.896146, 2.076958, 1.990038
Process 113: 2.843675, 2.810978, 2.232761, 2.050277, 2.592171, 2.099918, 2.167890, 2.181875, 2.058936, 2.052737, 1.958073, 2.044467, 1.929783, 1.996161, 2.013237, 2.037730, 1.983522, 2.013662, 2.102064, 2.046074, 1.971327, 2.050542, 1.898127, 1.930696, 2.080094, 1.977492, 1.918781, 1.898213, 2.073146, 1.994109
Process 114: 2.875256, 2.776752, 2.234734, 2.050043, 2.589751, 2.101257, 2.168688, 2.178515, 2.057904, 2.055784, 1.959668, 2.043556, 1.926956, 1.999917, 2.011636, 2.037190, 1.985207, 2.013899, 2.100694, 2.047461, 1.969646, 2.048212, 1.901664, 1.927490, 2.082695, 1.977835, 1.918893, 1.895740, 2.076866, 1.990413
Process 115: 2.882449, 2.774660, 2.230564, 2.050923, 2.592818, 2.098355, 2.169266, 2.181343, 2.058032, 2.053560, 1.958746, 2.044616, 1.928224, 1.996795, 2.013173, 2.036906, 1.984172, 2.013602, 2.102042, 2.046783, 1.970132, 2.050525, 1.898817, 1.930571, 2.080555, 1.976665, 1.918807, 1.898353, 2.074567, 1.992572
Process 116: 2.882442, 2.770814, 2.233834, 2.051122, 2.588957, 2.101555, 2.169021, 2.178114, 2.058191, 2.055786, 1.959251, 2.043472, 1.926943, 2.000752, 2.011955, 2.036764, 1.984501, 2.013573, 2.101882, 2.046789, 1.970217, 2.049576, 1.899413, 1.929168, 2.081885, 1.976941, 1.918589, 1.897192, 2.076051, 1.991038
Process 117: 2.883400, 2.775213, 2.230319, 2.051013, 2.591968, 2.098143, 2.169942, 2.181138, 2.057571, 2.055231, 1.958134, 2.043946, 1.927776, 1.998272, 2.012562, 2.036234, 1.984343, 2.014768, 2.100844, 2.048986, 1.967844, 2.050444, 1.898813, 1.931188, 2.079982, 1.976505, 1.918847, 1.898793, 2.075243, 1.991740
Process 118: 2.883477, 2.775751, 2.229321, 2.050415, 2.592853, 2.097993, 2.169567, 2.183388, 2.057413, 2.054436, 1.956098, 2.043565, 1.928356, 1.998832, 2.012822, 2.037004, 1.984196, 2.012975, 2.101358, 2.047677, 1.969115, 2.049851, 1.899346, 1.930929, 2.081309, 1.975781, 1.918953, 1.897947, 2.075629, 1.991898
Process 119: 2.856759, 2.805605, 2.227738, 2.049158, 2.596001, 2.096158, 2.169128, 2.184798, 2.056720, 2.054061, 1.956011, 2.044085, 1.929301, 1.997034, 2.012514, 2.038994, 1.982056, 2.014515, 2.100485, 2.049212, 1.968193, 2.049749, 1.898864, 1.932126, 2.080558, 1.975536, 1.918985, 1.898425, 2.075070, 1.994714
Process 120: 2.884712, 2.779983, 2.226890, 2.050649, 2.593981, 2.097387, 2.167865, 2.183958, 2.059405, 2.051956, 1.956663, 2.042963, 1.932929, 1.994805, 2.011946, 2.037707, 1.982553, 2.015065, 2.100653, 2.055209, 1.964074, 2.050391, 1.896736, 1.933151, 2.077843, 1.975782, 1.921046, 1.897092, 2.074978, 1.993659
Process 121: 2.885897, 2.780246, 2.227925, 2.046968, 2.599038, 2.096238, 2.166906, 2.184748, 2.059846, 2.053336, 1.955045, 2.042456, 1.932813, 1.995309, 2.009849, 2.039888, 1.985360, 2.012538, 2.098083, 2.055305, 1.965698, 2.050569, 1.895148, 1.935513, 2.075176, 1.981381, 1.918944, 1.899681, 2.070521, 1.996152
Process 122: 2.886432, 2.779513, 2.229068, 2.047704, 2.597221, 2.097371, 2.166336, 2.184640, 2.061197, 2.052484, 1.954475, 2.041415, 1.933609, 1.995898, 2.010279, 2.040393, 1.984693, 2.012408, 2.098180, 2.054578, 1.966961, 2.050106, 1.894776, 1.935673, 2.074729, 1.981518, 1.918987, 1.900077, 2.069923, 1.996617
Process 123: 2.887769, 2.779228, 2.227769, 2.047346, 2.598732, 2.095988, 2.167180, 2.184633, 2.059726, 2.053363, 1.955109, 2.042270, 1.932976, 1.995450, 2.009717, 2.039975, 1.985407, 2.012558, 2.098514, 2.055192, 1.965143, 2.050544, 1.896364, 1.934467, 2.075034, 1.981670, 1.918789, 1.899948, 2.070200, 1.996242
Process 124: 2.889478, 2.778772, 2.228007, 2.047054, 2.598492, 2.096535, 2.166490, 2.184930, 2.060707, 2.052683, 1.953677, 2.042325, 1.934761, 1.994354, 2.010589, 2.040567, 1.984459, 2.012331, 2.098248, 2.054976, 1.966386, 2.050511, 1.894122, 1.936316, 2.075064, 1.981200, 1.918551, 1.900442, 2.069810, 1.996624
Process 125: 2.890473, 2.777280, 2.227687, 2.046964, 2.599479, 2.095857, 2.166963, 2.184641, 2.059810, 2.053240, 1.954679, 2.042752, 1.933358, 1.994894, 2.009953, 2.040290, 1.985204, 2.012214, 2.098474, 2.055292, 1.965405, 2.050449, 1.895038, 1.935825, 2.075512, 1.981116, 1.918903, 1.899854, 2.070124, 1.996177
Process 126: 2.888626, 2.779456, 2.228344, 2.046968, 2.598322, 2.097140, 2.165952, 2.184874, 2.060881, 2.052667, 1.953700, 2.042069, 1.934824, 1.994567, 2.010500, 2.040212, 1.985301, 2.011964, 2.098186, 2.054885, 1.966514, 2.050463, 1.894095, 1.936350, 2.074921, 1.981286, 1.918662, 1.900198, 2.070042, 1.996586
Process 127: 2.835460, 2.817479, 2.232758, 2.044079, 2.597355, 2.101247, 2.168620, 2.181058, 2.058352, 2.053715, 1.958591, 2.046424, 1.926422, 1.998994, 2.004566, 2.041509, 1.984631, 2.015794, 2.101390, 2.045333, 1.971969, 2.050177, 1.898968, 1.929433, 2.073601, 1.984996, 1.919520, 1.895350, 2.074956, 1.991679
