Process 1:
Process 0:
Model:                 1
Model name:            AMD EPYC 7763 64-Core Processor
L1d cache:             32K
L2 cache:              512K
L3 cache:              32768K
Model:                 1
Model name:            AMD EPYC 7763 64-Core Processor
L1d cache:             32K
L2 cache:              512K
L3 cache:              32768K
