MPI_insiderank_optimisedserial
Process 0: 1.346411, 0.910883, 0.783922, 0.779081, 0.789860, 1.786164, 0.762895, 0.758487, 0.758395, 0.837256, 0.757119, 0.769287, 0.763057, 0.758741, 0.757886, 0.761484, 0.779024, 0.778649, 0.757868, 0.779589, 0.800026, 0.757697, 0.765782, 0.759008, 0.758436, 0.758283, 0.758481, 0.758474, 0.757620, 0.758786
Process 1: 1.054910, 0.612168, 0.492105, 0.461958, 0.492951, 1.488367, 0.463009, 0.461459, 0.460820, 0.532905, 0.465328, 0.467584, 0.464744, 0.461073, 0.461312, 0.464104, 0.476743, 0.479541, 0.460914, 0.462520, 0.502130, 0.460610, 0.473571, 0.461042, 0.460728, 0.460557, 0.460154, 0.461001, 0.460303, 0.461266
Process 2: 1.075298, 0.632514, 0.518447, 0.482576, 0.513862, 1.509351, 0.484148, 0.481765, 0.482736, 0.557642, 0.490612, 0.488000, 0.486338, 0.482816, 0.482838, 0.483880, 0.497387, 0.501315, 0.481085, 0.484430, 0.521902, 0.481850, 0.496472, 0.481479, 0.481563, 0.481868, 0.480762, 0.481984, 0.481275, 0.481460
Process 3: 1.092401, 0.648926, 0.537729, 0.501204, 0.532439, 1.527408, 0.502422, 0.499748, 0.500814, 0.576642, 0.510176, 0.506533, 0.504811, 0.501486, 0.501417, 0.502888, 0.515376, 0.518480, 0.499756, 0.501790, 0.539723, 0.500403, 0.515108, 0.499551, 0.499249, 0.500339, 0.498954, 0.500198, 0.499603, 0.500289
Process 4: 1.105923, 0.665482, 0.558106, 0.515814, 0.546948, 1.541869, 0.517350, 0.514289, 0.514982, 0.593395, 0.530789, 0.520925, 0.519297, 0.515718, 0.516263, 0.517525, 0.532611, 0.534236, 0.513868, 0.516400, 0.555269, 0.514452, 0.528528, 0.514181, 0.513957, 0.514845, 0.513352, 0.514199, 0.514099, 0.514849
Process 5: 1.122795, 0.681183, 0.574497, 0.532543, 0.563180, 1.558917, 0.532167, 0.531745, 0.531310, 0.611005, 0.547084, 0.536182, 0.535604, 0.532290, 0.531772, 0.534741, 0.551767, 0.552670, 0.531433, 0.531700, 0.572748, 0.531441, 0.543499, 0.532089, 0.531821, 0.531435, 0.531335, 0.532166, 0.530927, 0.532109
Process 6: 1.132452, 0.697245, 0.591309, 0.547616, 0.578680, 1.574131, 0.548361, 0.547221, 0.547269, 0.623780, 0.563883, 0.555945, 0.551465, 0.547400, 0.546915, 0.550768, 0.567646, 0.566182, 0.546860, 0.546569, 0.588287, 0.545988, 0.555024, 0.546710, 0.547499, 0.546136, 0.546419, 0.546511, 0.546514, 0.548118
Process 7: 1.150644, 0.714065, 0.606503, 0.563615, 0.595267, 1.590451, 0.564149, 0.563394, 0.563215, 0.640449, 0.578559, 0.575232, 0.567560, 0.563851, 0.563477, 0.566848, 0.583970, 0.583691, 0.562997, 0.562985, 0.604671, 0.562553, 0.570881, 0.563755, 0.563878, 0.563040, 0.563211, 0.563329, 0.562432, 0.563791
Process 8: 1.164750, 0.729259, 0.617532, 0.577153, 0.609477, 1.604563, 0.578667, 0.577214, 0.577212, 0.654939, 0.589004, 0.589666, 0.581769, 0.578029, 0.577679, 0.584777, 0.598563, 0.597763, 0.576970, 0.577123, 0.618925, 0.577003, 0.585923, 0.577930, 0.578116, 0.577261, 0.577734, 0.577354, 0.576916, 0.578131
Process 9: 1.179682, 0.742613, 0.627472, 0.596162, 0.622895, 1.618986, 0.591430, 0.590916, 0.590905, 0.668725, 0.599078, 0.602147, 0.595598, 0.591510, 0.591063, 0.599349, 0.611510, 0.610734, 0.590667, 0.590699, 0.632681, 0.590645, 0.598226, 0.591514, 0.591498, 0.590920, 0.591153, 0.591157, 0.590473, 0.591793
Process 10: 1.191978, 0.754969, 0.636334, 0.612275, 0.635149, 1.630841, 0.603733, 0.603640, 0.603347, 0.680835, 0.607962, 0.614101, 0.607925, 0.603990, 0.603509, 0.613559, 0.624042, 0.623042, 0.603030, 0.602937, 0.645034, 0.603002, 0.610573, 0.603859, 0.604007, 0.603357, 0.603616, 0.603627, 0.602941, 0.604046
Process 11: 1.206064, 0.769478, 0.646050, 0.630677, 0.648620, 1.645112, 0.617485, 0.617209, 0.616999, 0.694903, 0.617713, 0.627876, 0.621744, 0.617233, 0.616885, 0.627191, 0.637498, 0.636795, 0.616636, 0.616387, 0.658652, 0.616529, 0.623593, 0.617364, 0.617320, 0.617013, 0.617194, 0.617279, 0.616341, 0.617495
Process 12: 1.216956, 0.780236, 0.654082, 0.642506, 0.659485, 1.655336, 0.628444, 0.628160, 0.627843, 0.705872, 0.626739, 0.638477, 0.632647, 0.628124, 0.627695, 0.639047, 0.648186, 0.647674, 0.627495, 0.627195, 0.669413, 0.627330, 0.634760, 0.628234, 0.628107, 0.627847, 0.628116, 0.628048, 0.627204, 0.628402
Process 13: 1.230502, 0.793863, 0.666264, 0.660159, 0.673045, 1.669621, 0.641786, 0.641702, 0.641517, 0.719483, 0.639706, 0.652339, 0.646252, 0.641519, 0.641211, 0.651962, 0.661760, 0.661126, 0.641095, 0.640912, 0.683101, 0.640958, 0.647981, 0.641678, 0.641740, 0.641443, 0.641662, 0.641778, 0.640759, 0.641992
Process 14: 1.241787, 0.804337, 0.677343, 0.671847, 0.683953, 1.680042, 0.652513, 0.652639, 0.652420, 0.730559, 0.650650, 0.662877, 0.657232, 0.652537, 0.652065, 0.662934, 0.672627, 0.672129, 0.651986, 0.651924, 0.694074, 0.651779, 0.658763, 0.652640, 0.652563, 0.652346, 0.652573, 0.652585, 0.651702, 0.652881
Process 15: 1.255178, 0.818268, 0.690061, 0.686401, 0.697452, 1.694117, 0.666334, 0.666131, 0.665769, 0.744459, 0.663653, 0.676784, 0.670651, 0.666272, 0.665478, 0.675167, 0.686375, 0.686036, 0.665451, 0.665874, 0.707604, 0.665380, 0.673098, 0.666450, 0.665981, 0.665837, 0.666044, 0.666079, 0.665121, 0.666496
Process 16: 1.265327, 0.828179, 0.700659, 0.696163, 0.707320, 1.703622, 0.679847, 0.676013, 0.675870, 0.754486, 0.674101, 0.686278, 0.680585, 0.676012, 0.675451, 0.681292, 0.696310, 0.695807, 0.675379, 0.680415, 0.717442, 0.675230, 0.682944, 0.676291, 0.675884, 0.675732, 0.675952, 0.676005, 0.674989, 0.676258
Process 17: 1.278193, 0.841579, 0.714323, 0.709300, 0.720174, 1.716589, 0.693209, 0.688916, 0.688705, 0.767723, 0.687648, 0.699549, 0.693534, 0.689042, 0.688319, 0.691806, 0.709316, 0.708851, 0.688291, 0.696279, 0.730365, 0.688131, 0.695994, 0.689197, 0.688688, 0.688619, 0.688950, 0.688884, 0.688024, 0.689093
Process 18: 1.288372, 0.851049, 0.724550, 0.719471, 0.730435, 1.726716, 0.703253, 0.699034, 0.698949, 0.777675, 0.697528, 0.709925, 0.703658, 0.699167, 0.698456, 0.702079, 0.719528, 0.719120, 0.698457, 0.709109, 0.740533, 0.698268, 0.706359, 0.699415, 0.699049, 0.698810, 0.699050, 0.699041, 0.698176, 0.699311
Process 19: 1.301207, 0.864042, 0.737154, 0.732313, 0.743080, 1.739368, 0.716199, 0.711720, 0.711625, 0.790495, 0.710288, 0.722539, 0.716269, 0.711961, 0.711095, 0.714741, 0.732232, 0.731869, 0.711143, 0.726563, 0.753222, 0.710912, 0.719023, 0.711981, 0.711637, 0.711551, 0.711748, 0.711735, 0.710837, 0.711998
Process 20: 1.311428, 0.873960, 0.747599, 0.742658, 0.754411, 1.749785, 0.726054, 0.722124, 0.722029, 0.800836, 0.720714, 0.732957, 0.726673, 0.722389, 0.721508, 0.725128, 0.742623, 0.742270, 0.721506, 0.741954, 0.763612, 0.721340, 0.729433, 0.722416, 0.722040, 0.721939, 0.722123, 0.722190, 0.721206, 0.722425
Process 21: 1.324418, 0.886972, 0.760400, 0.755530, 0.766335, 1.762598, 0.739249, 0.734983, 0.734869, 0.813740, 0.733560, 0.745760, 0.739512, 0.735209, 0.734347, 0.737936, 0.755493, 0.755113, 0.734308, 0.755224, 0.776443, 0.734177, 0.742315, 0.735299, 0.734861, 0.734792, 0.734928, 0.734982, 0.734047, 0.735258
Process 22: 1.334553, 0.897556, 0.770788, 0.765963, 0.776712, 1.773016, 0.749474, 0.745384, 0.745276, 0.824094, 0.743974, 0.756165, 0.749960, 0.745613, 0.744737, 0.748355, 0.765904, 0.765542, 0.744689, 0.765792, 0.786867, 0.744552, 0.752605, 0.745689, 0.745290, 0.745152, 0.745396, 0.745389, 0.744492, 0.745616
Process 23: 1.347789, 0.910881, 0.783921, 0.779081, 0.789858, 1.786162, 0.762893, 0.758494, 0.758394, 0.837255, 0.757109, 0.769285, 0.763055, 0.758745, 0.757889, 0.761485, 0.779030, 0.778646, 0.757867, 0.779583, 0.800025, 0.757696, 0.765781, 0.759010, 0.758436, 0.758289, 0.758484, 0.758476, 0.757618, 0.758785
