MPI_insiderank_openmp_handopt_ssa
Process 0: 3.839194, 3.723860, 3.760849, 3.685095, 3.712967, 3.802614, 3.707183, 3.736279, 3.706476, 3.652794, 3.812460, 3.726138, 4.203404, 3.791999, 3.913181, 3.805389, 3.800177, 3.853167, 3.794885, 3.860849, 3.790092, 3.783351, 3.826489, 3.839412, 3.848420, 3.835614, 3.819963, 3.860818, 3.775230, 3.904287
Process 1: 3.530600, 3.503275, 3.444403, 3.391329, 3.477486, 3.512436, 3.406628, 3.452994, 3.459116, 3.363846, 3.528978, 3.449418, 3.941723, 3.527502, 3.652922, 3.532910, 3.530044, 3.572294, 3.520142, 3.582449, 3.550087, 3.517515, 3.556953, 3.585961, 3.574936, 3.562634, 3.504235, 3.576604, 3.504686, 3.630954
Process 2: 3.674024, 3.607615, 3.604965, 3.515847, 3.599202, 3.661949, 3.540291, 3.589895, 3.574269, 3.506875, 3.655892, 3.577707, 4.059726, 3.645620, 3.775663, 3.654143, 3.665900, 3.700476, 3.650507, 3.712490, 3.664359, 3.642115, 3.686678, 3.715343, 3.705105, 3.694016, 3.648824, 3.709164, 3.630482, 3.762010
Process 3: 3.844522, 3.729102, 3.766705, 3.689959, 3.718272, 3.807849, 3.711900, 3.741431, 3.712049, 3.657194, 3.816553, 3.731279, 4.209664, 3.798167, 3.919655, 3.812522, 3.805486, 3.859097, 3.801219, 3.867155, 3.796388, 3.788544, 3.833368, 3.845965, 3.855323, 3.842427, 3.827278, 3.867458, 3.781877, 3.909990
