MPI_insiderank_openmp_handopt_ssa
Process 0: 3.745383, 3.574314, 3.242316, 3.518263, 3.586785, 3.670966, 3.548898, 3.683351, 3.680729, 3.699175, 3.594362, 3.379144, 3.628621, 3.520482, 3.577894, 3.496058, 3.559587, 3.538004, 3.471883, 3.653210, 3.580933, 3.666406, 3.595294, 3.630576, 3.652198, 3.579770, 3.583661, 3.580613, 3.501542, 3.451749
Process 1: 3.599174, 3.434636, 3.106137, 3.385143, 3.435268, 3.537329, 3.432010, 3.559121, 3.536291, 3.575299, 3.473648, 3.253665, 3.485706, 3.357245, 3.453770, 3.371736, 3.435824, 3.429968, 3.342955, 3.527042, 3.447178, 3.514668, 3.461873, 3.498378, 3.521179, 3.454955, 3.450617, 3.446869, 3.368864, 3.324326
Process 2: 3.664295, 3.493289, 3.149481, 3.444568, 3.493508, 3.595253, 3.475058, 3.613622, 3.604080, 3.631876, 3.521289, 3.309019, 3.553497, 3.434974, 3.508741, 3.426114, 3.490392, 3.467953, 3.399572, 3.582853, 3.504678, 3.585039, 3.520363, 3.555133, 3.580592, 3.513643, 3.506481, 3.507811, 3.428231, 3.386448
Process 3: 3.748636, 3.578044, 3.245894, 3.521883, 3.589841, 3.674182, 3.552156, 3.686696, 3.683962, 3.702430, 3.597455, 3.382444, 3.631915, 3.523938, 3.581301, 3.499455, 3.562837, 3.541282, 3.475275, 3.656356, 3.584263, 3.669788, 3.598624, 3.633810, 3.655659, 3.583073, 3.586944, 3.584134, 3.505185, 3.454973
