MPI_insiderank_optimisedserial
Process 0: 1.664184, 1.882743, 1.872990, 1.870361, 1.794712, 1.813207, 1.843013, 1.888487, 1.799330, 1.574299, 1.489044, 1.449216, 1.500304, 1.511734, 1.465752, 1.497484, 1.469553, 1.520793, 1.483098, 1.530215, 1.415764, 1.530467, 1.522286, 1.467174, 1.482037, 1.582642, 1.516929, 1.614080, 1.547312, 1.592961
Process 1: 1.633866, 1.853400, 1.843724, 1.834439, 1.763788, 1.783631, 1.812056, 1.859842, 1.766214, 1.546018, 1.464822, 1.426500, 1.474599, 1.486315, 1.442840, 1.475267, 1.447336, 1.492774, 1.458122, 1.507706, 1.394235, 1.507866, 1.497778, 1.443525, 1.459096, 1.558477, 1.494348, 1.590526, 1.523772, 1.563972
Process 2: 1.649915, 1.868222, 1.859669, 1.852536, 1.780546, 1.799216, 1.829145, 1.875268, 1.783380, 1.560754, 1.479106, 1.439559, 1.489556, 1.501668, 1.456031, 1.487826, 1.459441, 1.507352, 1.471211, 1.520879, 1.405615, 1.521108, 1.513030, 1.456633, 1.472295, 1.572678, 1.506506, 1.604045, 1.537331, 1.579145
Process 3: 1.664894, 1.882742, 1.872990, 1.870361, 1.794711, 1.813206, 1.843013, 1.888487, 1.799330, 1.574298, 1.489044, 1.449217, 1.500302, 1.511733, 1.465753, 1.497484, 1.469552, 1.520792, 1.483098, 1.530217, 1.415764, 1.530467, 1.522285, 1.467174, 1.482036, 1.582641, 1.516930, 1.614079, 1.547312, 1.592958
