MPI_insiderank_optimisedserial
Process 0: 3.608594, 3.742741, 3.661499, 3.788566, 3.288804, 3.004842, 2.997714, 2.981007, 2.999956, 3.011673, 3.000476, 2.972043, 3.123338, 3.103475, 2.935250, 1.889064, 1.865112, 1.869936, 1.905760, 1.879447, 1.875196, 1.857977, 1.858924, 1.868054, 1.864849, 1.869307, 1.899240, 1.933458, 1.937493, 1.988583
Process 1: 3.610567, 3.745064, 3.663653, 3.791931, 3.291886, 3.008120, 2.999701, 2.984208, 3.003069, 3.014793, 3.003632, 2.975158, 3.126738, 3.106902, 2.937664, 1.891730, 1.868320, 1.872432, 1.908243, 1.881950, 1.877770, 1.860142, 1.861490, 1.870568, 1.867412, 1.871996, 1.902022, 1.936548, 1.940381, 1.991628
