[eu-a2p-452:110478:0:110478] Caught signal 7 (Bus error: nonexistent physical address)
==== backtrace (tid: 110478) ====
 0  /cluster/spack/apps/linux-centos7-x86_64/gcc-9.3.0/ucx-1.12.1-xfljgpcc4jht7wamy2hjr2mdvn7y3u5g/lib/libucs.so.0(ucs_handle_error+0x2a4) [0x2b50e72a9574]
 1  /cluster/spack/apps/linux-centos7-x86_64/gcc-9.3.0/ucx-1.12.1-xfljgpcc4jht7wamy2hjr2mdvn7y3u5g/lib/libucs.so.0(+0x2f777) [0x2b50e72a9777]
 2  /cluster/spack/apps/linux-centos7-x86_64/gcc-9.3.0/ucx-1.12.1-xfljgpcc4jht7wamy2hjr2mdvn7y3u5g/lib/libucs.so.0(+0x2fa36) [0x2b50e72a9a36]
 3  /lib64/libpthread.so.0(+0xf630) [0x2b50e53dc630]
 4  /cluster/scratch/galoisi/DPHPC/2022_hs_polybench_parallelization/src/seidel/OUT/./mpi_insiderank_openmp.out() [0x401e00]
 5  /cluster/spack/apps/linux-centos7-x86_64/gcc-4.8.5/gcc-9.3.0-mjmsvu3362usxjr7tas4ywkd2e4ko5x3/lib64/libgomp.so.1(GOMP_parallel+0x42) [0x2b50e51a8232]
 6  /cluster/scratch/galoisi/DPHPC/2022_hs_polybench_parallelization/src/seidel/OUT/./mpi_insiderank_openmp.out() [0x4016c1]
 7  /lib64/libc.so.6(__libc_start_main+0xf5) [0x2b50e560b555]
 8  /cluster/scratch/galoisi/DPHPC/2022_hs_polybench_parallelization/src/seidel/OUT/./mpi_insiderank_openmp.out() [0x401bdc]
=================================
srun: error: eu-a2p-452: task 3: Bus error
slurmstepd: error: *** STEP 4285062.0 ON eu-a2p-452 CANCELLED AT 2022-12-14T13:19:41 DUE TO TIME LIMIT ***
slurmstepd: error: *** JOB 4285062 ON eu-a2p-452 CANCELLED AT 2022-12-14T13:19:41 DUE TO TIME LIMIT ***
srun: Job step aborted: Waiting up to 32 seconds for job step to finish.
