MPI_insiderank_openmp
Process 0: 22.995093, 22.629824, 22.552447, 22.525661, 22.609370, 22.560980, 23.326487, 22.621721, 22.591646, 22.526374, 22.545363, 22.684065, 22.679895, 22.631765, 22.606941, 22.612296, 22.633823, 22.739163, 22.648502, 22.626015, 22.627685, 22.658269, 22.670045, 22.765929, 22.814581, 22.615665, 22.583023, 22.626626, 22.645433, 22.676771
Process 1: 22.297531, 21.927643, 21.857818, 21.823443, 21.911749, 21.862724, 21.989297, 21.920070, 21.890855, 21.827637, 21.847143, 21.981364, 21.991955, 21.929954, 21.905486, 21.906043, 21.930752, 22.039317, 21.948438, 21.919417, 21.928755, 21.961388, 21.975341, 22.051865, 22.112392, 21.899420, 21.881242, 21.926194, 21.947844, 21.972878
Process 2: 22.647671, 22.280545, 22.204809, 22.177853, 22.264239, 22.212886, 22.240268, 22.273970, 22.241357, 22.179104, 22.196266, 22.329878, 22.336943, 22.281605, 22.257104, 22.259342, 22.282737, 22.394572, 22.299076, 22.271588, 22.275263, 22.313368, 22.324808, 22.406993, 22.467950, 22.257754, 22.237442, 22.277453, 22.300172, 22.321145
Process 3: 22.996942, 22.631617, 22.554122, 22.527364, 22.611192, 22.562952, 23.329667, 22.623252, 22.593127, 22.527926, 22.547107, 22.685872, 22.681838, 22.633577, 22.608758, 22.614054, 22.635701, 22.740774, 22.650076, 22.627636, 22.629344, 22.659905, 22.671650, 22.767793, 22.816467, 22.617292, 22.584635, 22.628507, 22.647384, 22.678880
