MPI_insiderank_openmp
Process 0: 58.135614, 57.872243, 58.021546, 58.477381, 57.488454, 57.397386, 57.300576, 57.693560, 57.381941, 58.048962, 57.761128, 57.547876, 58.113151, 57.920806, 57.733254, 57.806012, 57.653501, 58.058386, 57.225122, 57.498441, 57.558463, 57.566738, 57.498163, 57.301998, 57.663426, 57.671005, 57.629226, 58.621608, 58.463117, 58.315858
Process 1: 58.140896, 57.877743, 58.026664, 58.482613, 57.493552, 57.403352, 57.305863, 57.698750, 57.387399, 58.054570, 57.766762, 57.554138, 58.118410, 57.925933, 57.738766, 57.811393, 57.658601, 58.063809, 57.230310, 57.504275, 57.563767, 57.572011, 57.503682, 57.309079, 57.668886, 57.676394, 57.634607, 58.626693, 58.468549, 58.321142
