MPI_insiderank_serial
Process 0: 4.639788, 4.583500, 4.571559, 4.577048, 4.606759, 4.562379, 4.550143, 4.579034, 4.559406, 4.553483, 4.541944, 4.567713, 4.617274, 4.588197, 4.534880, 4.598639, 4.542441, 4.548454, 4.552970, 4.601279, 4.544386, 4.545513, 4.546076, 4.564515, 4.553087, 4.550452, 4.584030, 4.588783, 4.536295, 4.545251
Process 1: 4.641685, 4.585361, 4.573425, 4.578902, 4.608621, 4.564242, 4.552004, 4.581110, 4.561455, 4.555558, 4.544007, 4.569777, 4.619368, 4.590267, 4.536752, 4.600728, 4.544503, 4.550534, 4.555076, 4.603347, 4.546469, 4.547574, 4.548154, 4.566606, 4.554942, 4.552317, 4.586104, 4.590854, 4.538364, 4.547321
