MPI_insiderank_serial
Process 0: 8.872255, 8.371732, 8.343637, 8.275036, 8.341849, 8.274854, 8.273046, 8.339741, 8.258602, 8.269159, 8.298812, 8.303385, 8.272598, 8.262509, 8.297440, 8.268720, 8.267160, 8.268462, 8.335597, 8.351025, 8.267011, 8.305707, 8.264596, 8.268136, 8.269537, 8.334844, 8.268079, 8.264685, 8.259998, 8.301436
Process 1: 8.881012, 8.380406, 8.352564, 8.284187, 8.351013, 8.284342, 8.282398, 8.348797, 8.267992, 8.278203, 8.307541, 8.312048, 8.281870, 8.270787, 8.306685, 8.278003, 8.276252, 8.277530, 8.344876, 8.359996, 8.276565, 8.314292, 8.273709, 8.277094, 8.278559, 8.343889, 8.276441, 8.273785, 8.269228, 8.310538
