MPI_insiderank_serial
Process 0: 3.262928, 3.189654, 3.139788, 3.109087, 3.214594, 3.196516, 3.274489, 3.233746, 3.169395, 3.171262, 3.061140, 3.073265, 3.068274, 3.050105, 3.035497, 3.086402, 3.063685, 3.081989, 2.998556, 2.987203, 3.033785, 3.026220, 3.018107, 2.982121, 2.980901, 2.983024, 2.991931, 2.982748, 3.010417, 2.982270
Process 1: 2.908799, 2.830155, 2.786031, 2.768107, 2.834754, 2.822073, 2.922754, 2.855068, 2.798763, 2.812431, 2.717210, 2.715519, 2.713804, 2.686405, 2.682074, 2.721190, 2.698646, 2.741338, 2.648967, 2.637923, 2.678403, 2.666720, 2.667895, 2.633228, 2.633958, 2.631879, 2.643623, 2.634605, 2.670972, 2.632797
Process 2: 2.960994, 2.898239, 2.839863, 2.818986, 2.895636, 2.877434, 2.975319, 2.915948, 2.854592, 2.869398, 2.770902, 2.774058, 2.773602, 2.743229, 2.739451, 2.783493, 2.755638, 2.795994, 2.705678, 2.692884, 2.734207, 2.721643, 2.722277, 2.686290, 2.686953, 2.685929, 2.698421, 2.687375, 2.724206, 2.686314
Process 3: 3.025812, 2.953587, 2.900430, 2.885337, 2.958680, 2.941401, 3.040153, 2.979411, 2.916240, 2.927975, 2.832845, 2.836343, 2.830388, 2.800975, 2.798194, 2.843550, 2.823705, 2.857897, 2.765896, 2.755436, 2.796254, 2.787747, 2.783458, 2.750495, 2.749122, 2.750420, 2.760540, 2.751921, 2.788971, 2.751233
Process 4: 3.083439, 3.003125, 2.958043, 2.927914, 3.026352, 3.002633, 3.088898, 3.044916, 2.978976, 2.987773, 2.882522, 2.893805, 2.888386, 2.864111, 2.856407, 2.903758, 2.882586, 2.905126, 2.819777, 2.808622, 2.850663, 2.843394, 2.844640, 2.803231, 2.802107, 2.802186, 2.813610, 2.803886, 2.832471, 2.803146
Process 5: 3.147052, 3.069710, 3.021717, 2.989328, 3.093432, 3.069002, 3.156717, 3.109242, 3.041935, 3.049307, 2.943069, 2.956619, 2.951428, 2.928771, 2.916379, 2.966660, 2.945835, 2.965134, 2.881331, 2.871969, 2.913668, 2.907786, 2.909854, 2.866333, 2.865408, 2.865592, 2.876726, 2.867661, 2.894277, 2.866426
Process 6: 3.200115, 3.122524, 3.076053, 3.049982, 3.149192, 3.131727, 3.212262, 3.172864, 3.104307, 3.108862, 3.000953, 3.015258, 3.009674, 2.984595, 2.977182, 3.027367, 3.004718, 3.022314, 2.938987, 2.927575, 2.972617, 2.966104, 2.963211, 2.921225, 2.921347, 2.921189, 2.932047, 2.922303, 2.950151, 2.921462
Process 7: 3.264916, 3.191651, 3.141294, 3.110655, 3.216173, 3.198191, 3.276171, 3.235186, 3.171224, 3.172638, 3.062672, 3.075179, 3.070144, 3.052200, 3.036990, 3.088309, 3.065185, 3.083937, 3.000482, 2.989262, 3.035829, 3.028263, 3.020214, 2.984190, 2.982943, 2.985055, 2.994009, 2.984501, 3.012132, 2.984372
