MPI_insiderank_optimisedserial
Process 0: 2.310354, 1.955805, 1.952235, 1.923707, 1.971019, 1.921182, 1.935181, 1.924650, 1.996287, 1.921259, 1.924857, 1.943867, 1.925507, 1.924703, 2.547596, 1.964846, 1.920752, 1.922168, 1.921210, 1.940702, 1.922791, 1.919506, 1.929177, 1.942343, 1.954793, 1.921685, 1.958901, 1.922610, 1.923388, 1.922172
Process 1: 2.109338, 1.733506, 1.764726, 1.723492, 1.761443, 1.720629, 1.748989, 1.723650, 1.755865, 1.719812, 1.725033, 1.754599, 1.726439, 1.724122, 1.724136, 1.765311, 1.722428, 1.721564, 1.723093, 1.752873, 1.724270, 1.718885, 1.731017, 1.740250, 1.743634, 1.720961, 1.760308, 1.721677, 1.724211, 1.721335
Process 2: 2.130149, 1.763931, 1.787525, 1.752322, 1.783890, 1.745948, 1.771488, 1.752938, 1.793348, 1.745365, 1.747855, 1.778663, 1.749374, 1.753348, 1.746771, 1.790248, 1.745079, 1.746764, 1.745802, 1.776738, 1.747291, 1.744577, 1.753873, 1.765923, 1.767723, 1.746741, 1.783193, 1.747274, 1.747150, 1.746764
Process 3: 2.163415, 1.813653, 1.817702, 1.801345, 1.825845, 1.787523, 1.801340, 1.802040, 1.851244, 1.787021, 1.789828, 1.809225, 1.791565, 1.801854, 1.788655, 1.831682, 1.787039, 1.788471, 1.787657, 1.806994, 1.789045, 1.785874, 1.795503, 1.807938, 1.809422, 1.788040, 1.824978, 1.788758, 1.789516, 1.788169
Process 4: 2.190723, 1.838609, 1.843526, 1.826274, 1.851237, 1.813175, 1.826766, 1.826977, 1.876553, 1.812729, 1.815492, 1.835374, 1.817351, 1.826916, 1.814107, 1.857029, 1.812672, 1.813990, 1.813213, 1.832529, 1.814576, 1.811404, 1.821125, 1.833726, 1.834815, 1.813524, 1.850588, 1.814049, 1.815343, 1.813478
Process 5: 2.240341, 1.880744, 1.887649, 1.863006, 1.902883, 1.856979, 1.871038, 1.863830, 1.926982, 1.856731, 1.859802, 1.879277, 1.861091, 1.863619, 1.857830, 1.901045, 1.856475, 1.857878, 1.857181, 1.876402, 1.858346, 1.855268, 1.864995, 1.877888, 1.886590, 1.857560, 1.894584, 1.858235, 1.859248, 1.857608
Process 6: 2.270886, 1.906522, 1.912361, 1.884040, 1.930986, 1.881711, 1.895421, 1.885063, 1.955485, 1.881469, 1.885132, 1.904081, 1.885826, 1.885106, 1.882543, 1.925501, 1.880953, 1.882415, 1.881348, 1.900985, 1.883216, 1.879859, 1.889323, 1.903245, 1.914719, 1.881916, 1.919036, 1.882782, 1.883671, 1.882190
Process 7: 2.315139, 1.958938, 1.955775, 1.926867, 1.974163, 1.924340, 1.938726, 1.928202, 1.999887, 1.924803, 1.928408, 1.947418, 1.929054, 1.928252, 2.550801, 1.968007, 1.924286, 1.925722, 1.924743, 1.943856, 1.925937, 1.923046, 1.932700, 1.945499, 1.957939, 1.925222, 1.962440, 1.926147, 1.926924, 1.925701
