slurmstepd: error: Detected 3 oom-kill event(s) in StepId=4309704.0. Some of your processes may have been killed by the cgroup out-of-memory handler.
[eu-a2p-484:122305:0:122305] Caught signal 7 (Bus error: nonexistent physical address)
==== backtrace (tid: 122305) ====
 0  /cluster/spack/apps/linux-centos7-x86_64/gcc-9.3.0/ucx-1.12.1-xfljgpcc4jht7wamy2hjr2mdvn7y3u5g/lib/libucs.so.0(ucs_handle_error+0x2a4) [0x2afc5a99a574]
 1  /cluster/spack/apps/linux-centos7-x86_64/gcc-9.3.0/ucx-1.12.1-xfljgpcc4jht7wamy2hjr2mdvn7y3u5g/lib/libucs.so.0(+0x2f777) [0x2afc5a99a777]
 2  /cluster/spack/apps/linux-centos7-x86_64/gcc-9.3.0/ucx-1.12.1-xfljgpcc4jht7wamy2hjr2mdvn7y3u5g/lib/libucs.so.0(+0x2fa36) [0x2afc5a99aa36]
 3  /lib64/libpthread.so.0(+0xf630) [0x2afc58acd630]
 4  /lib64/ld-linux-x86-64.so.2(+0x9e03) [0x2afc5812fe03]
 5  /lib64/ld-linux-x86-64.so.2(+0xa09f) [0x2afc5813009f]
 6  /lib64/ld-linux-x86-64.so.2(+0xedee) [0x2afc58134dee]
 7  /lib64/ld-linux-x86-64.so.2(+0x16aaa) [0x2afc5813caaa]
 8  /cluster/spack/apps/linux-centos7-x86_64/gcc-9.3.0/ucx-1.12.1-xfljgpcc4jht7wamy2hjr2mdvn7y3u5g/lib/ucx/libuct_ib.so.0(+0x1a6db) [0x2afc6588a6db]
 9  /cluster/spack/apps/linux-centos7-x86_64/gcc-9.3.0/ucx-1.12.1-xfljgpcc4jht7wamy2hjr2mdvn7y3u5g/lib/ucx/libuct_ib.so.0(uct_ib_device_query+0x178) [0x2afc6588aaa8]
10  /cluster/spack/apps/linux-centos7-x86_64/gcc-9.3.0/ucx-1.12.1-xfljgpcc4jht7wamy2hjr2mdvn7y3u5g/lib/ucx/libuct_ib.so.0(+0x2afc1) [0x2afc6589afc1]
11  /cluster/spack/apps/linux-centos7-x86_64/gcc-9.3.0/ucx-1.12.1-xfljgpcc4jht7wamy2hjr2mdvn7y3u5g/lib/ucx/libuct_ib.so.0(uct_ib_md_open+0xf8) [0x2afc65894838]
12  /cluster/spack/apps/linux-centos7-x86_64/gcc-9.3.0/ucx-1.12.1-xfljgpcc4jht7wamy2hjr2mdvn7y3u5g/lib/libuct.so.0(uct_md_open+0x1b) [0x2afc5a73425b]
13  /cluster/spack/apps/linux-centos7-x86_64/gcc-9.3.0/ucx-1.12.1-xfljgpcc4jht7wamy2hjr2mdvn7y3u5g/lib/libucp.so.0(+0x1b162) [0x2afc5a409162]
14  /cluster/spack/apps/linux-centos7-x86_64/gcc-9.3.0/ucx-1.12.1-xfljgpcc4jht7wamy2hjr2mdvn7y3u5g/lib/libucp.so.0(+0x1b654) [0x2afc5a409654]
15  /cluster/spack/apps/linux-centos7-x86_64/gcc-9.3.0/ucx-1.12.1-xfljgpcc4jht7wamy2hjr2mdvn7y3u5g/lib/libucp.so.0(ucp_init_version+0xeb) [0x2afc5a40a76b]
16  /cluster/spack/apps/linux-centos7-x86_64/gcc-9.3.0/openmpi-4.1.4-ce3rybsut3hyqo2i2sm5qwu2muxqny3x/lib/libmpi.so.40(mca_pml_ucx_open+0x123) [0x2afc5858a6d3]
17  /cluster/spack/apps/linux-centos7-x86_64/gcc-9.3.0/openmpi-4.1.4-ce3rybsut3hyqo2i2sm5qwu2muxqny3x/lib/libopen-pal.so.40(mca_base_framework_components_open+0x16b) [0x2afc59ffb1fb]
18  /cluster/spack/apps/linux-centos7-x86_64/gcc-9.3.0/openmpi-4.1.4-ce3rybsut3hyqo2i2sm5qwu2muxqny3x/lib/libmpi.so.40(+0x23c017) [0x2afc58586017]
19  /cluster/spack/apps/linux-centos7-x86_64/gcc-9.3.0/openmpi-4.1.4-ce3rybsut3hyqo2i2sm5qwu2muxqny3x/lib/libopen-pal.so.40(mca_base_framework_open+0x81) [0x2afc5a005171]
20  /cluster/spack/apps/linux-centos7-x86_64/gcc-9.3.0/openmpi-4.1.4-ce3rybsut3hyqo2i2sm5qwu2muxqny3x/lib/libmpi.so.40(ompi_mpi_init+0x69b) [0x2afc585d419b]
21  /cluster/spack/apps/linux-centos7-x86_64/gcc-9.3.0/openmpi-4.1.4-ce3rybsut3hyqo2i2sm5qwu2muxqny3x/lib/libmpi.so.40(PMPI_Init+0x5f) [0x2afc583fceef]
22  /cluster/scratch/galoisi/DPHPC/2022_hs_polybench_parallelization/src/seidel/OUT/./mpi_insiderank_optimisedserial.out() [0x400e83]
23  /lib64/libc.so.6(__libc_start_main+0xf5) [0x2afc58cfc555]
24  /cluster/scratch/galoisi/DPHPC/2022_hs_polybench_parallelization/src/seidel/OUT/./mpi_insiderank_optimisedserial.out() [0x401efc]
=================================
[1671040227.419338] [eu-a2p-484:122292:0]           ib_md.c:349  UCX  ERROR ibv_reg_mr(address=0x2af973347000, length=544768, access=0xf) failed: Cannot allocate memory
[1671040228.823384] [eu-a2p-484:122292:0]           mpool.c:226  UCX  ERROR Failed to allocate memory pool (name=ud_recv_skb) chunk: Input/output error
[1671040227.485538] [eu-a2p-484:122380:0]        mm_posix.c:192  UCX  ERROR   Failed to write 65536 bytes. Cannot allocate memory
[1671040228.824910] [eu-a2p-484:122380:0]         uct_mem.c:155  UCX  ERROR   failed to allocate 4292720 bytes using md posix for mm_recv_desc: Input/output error
[1671040227.505841] [eu-a2p-484:122386:0]        mm_posix.c:192  UCX  ERROR   Failed to write 65536 bytes. Cannot allocate memory
[1671040228.824920] [eu-a2p-484:122380:0]           mpool.c:226  UCX  ERROR Failed to allocate memory pool (name=mm_recv_desc) chunk: Input/output error
[1671040228.824925] [eu-a2p-484:122380:0]        mm_iface.c:793  UCX  ERROR failed to get the first receive descriptor
[eu-a2p-484:122380] pml_ucx.c:309  Error: Failed to create UCP worker
[1671040228.825199] [eu-a2p-484:122386:0]         uct_mem.c:155  UCX  ERROR   failed to allocate 4292720 bytes using md posix for mm_recv_desc: Input/output error
[1671040228.825206] [eu-a2p-484:122386:0]           mpool.c:226  UCX  ERROR Failed to allocate memory pool (name=mm_recv_desc) chunk: Input/output error
[1671040228.825209] [eu-a2p-484:122386:0]        mm_iface.c:793  UCX  ERROR failed to get the first receive descriptor
[eu-a2p-484:122386] pml_ucx.c:309  Error: Failed to create UCP worker
[1671040228.238559] [eu-a2p-484:122354:0]        mm_posix.c:192  UCX  ERROR   Failed to write 65536 bytes. Cannot allocate memory
[1671040228.829804] [eu-a2p-484:122354:0]         uct_mem.c:155  UCX  ERROR   failed to allocate 4292720 bytes using md posix for mm_recv_desc: Input/output error
[1671040228.829817] [eu-a2p-484:122354:0]           mpool.c:226  UCX  ERROR Failed to allocate memory pool (name=mm_recv_desc) chunk: Input/output error
[1671040228.829822] [eu-a2p-484:122354:0]        mm_iface.c:793  UCX  ERROR failed to get the first receive descriptor
[eu-a2p-484:122354] pml_ucx.c:309  Error: Failed to create UCP worker
[1671040227.537470] [eu-a2p-484:122329:0]        mm_posix.c:192  UCX  ERROR   Failed to write 65536 bytes. Cannot allocate memory
[1671040228.831850] [eu-a2p-484:122329:0]         uct_mem.c:155  UCX  ERROR   failed to allocate 4292720 bytes using md posix for mm_recv_desc: Input/output error
[1671040228.831862] [eu-a2p-484:122329:0]           mpool.c:226  UCX  ERROR Failed to allocate memory pool (name=mm_recv_desc) chunk: Input/output error
[1671040228.831865] [eu-a2p-484:122329:0]        mm_iface.c:793  UCX  ERROR failed to get the first receive descriptor
[eu-a2p-484:122329] pml_ucx.c:309  Error: Failed to create UCP worker
[1671040227.566160] [eu-a2p-484:122367:0]        mm_posix.c:192  UCX  ERROR   Failed to write 65536 bytes. Cannot allocate memory
[1671040228.832873] [eu-a2p-484:122367:0]         uct_mem.c:155  UCX  ERROR   failed to allocate 4292720 bytes using md posix for mm_recv_desc: Input/output error
[1671040228.832882] [eu-a2p-484:122367:0]           mpool.c:226  UCX  ERROR Failed to allocate memory pool (name=mm_recv_desc) chunk: Input/output error
[1671040228.832886] [eu-a2p-484:122367:0]        mm_iface.c:793  UCX  ERROR failed to get the first receive descriptor
[eu-a2p-484:122367] pml_ucx.c:309  Error: Failed to create UCP worker
[1671040227.505858] [eu-a2p-484:122383:0]         ib_mlx5.h:681  UCX  ERROR mlx5dv_devx_umem_reg() failed: Cannot allocate memory
[eu-a2p-484:122383] pml_ucx.c:309  Error: Failed to create UCP worker
[1671040231.496839] [eu-a2p-484:122357:0]           ib_md.c:349  UCX  ERROR ibv_reg_mr(address=0x2af91d579000, length=37773312, access=0xf) failed: Cannot allocate memory
[1671040231.560987] [eu-a2p-484:122357:0]           mpool.c:226  UCX  ERROR Failed to allocate memory pool (name=rc_recv_desc) chunk: Input/output error
slurmstepd: error: poll(): Bad address
slurmstepd: error: execve(/cluster/slurm/adm/scripts/task-epilog.sh): Argument list too long
slurmstepd: error: --task-epilog failed status=32512
[1671040308.927937] [eu-a2p-484:122304:0]        mm_posix.c:192  UCX  ERROR   Failed to write 65536 bytes. Cannot allocate memory
[1671040308.928009] [eu-a2p-484:122304:0]         uct_mem.c:155  UCX  ERROR   failed to allocate 4292720 bytes using md posix for mm_recv_desc: Input/output error
[1671040308.928018] [eu-a2p-484:122304:0]           mpool.c:226  UCX  ERROR Failed to allocate memory pool (name=mm_recv_desc) chunk: Input/output error
[1671040308.928022] [eu-a2p-484:122304:0]        mm_iface.c:793  UCX  ERROR failed to get the first receive descriptor
[eu-a2p-484:122304] pml_ucx.c:309  Error: Failed to create UCP worker
[1671040308.927944] [eu-a2p-484:122298:0]        mm_posix.c:192  UCX  ERROR   Failed to write 65536 bytes. Cannot allocate memory
[1671040308.927830] [eu-a2p-484:122310:0]        mm_posix.c:192  UCX  ERROR   Failed to write 65536 bytes. Cannot allocate memory
[1671040309.145873] [eu-a2p-484:122310:0]         uct_mem.c:155  UCX  ERROR   failed to allocate 4292720 bytes using md posix for mm_recv_desc: Input/output error
[1671040309.145873] [eu-a2p-484:122298:0]         uct_mem.c:155  UCX  ERROR   failed to allocate 4292720 bytes using md posix for mm_recv_desc: Input/output error
[1671040309.145881] [eu-a2p-484:122298:0]           mpool.c:226  UCX  ERROR Failed to allocate memory pool (name=mm_recv_desc) chunk: Input/output error
[1671040309.145884] [eu-a2p-484:122298:0]        mm_iface.c:793  UCX  ERROR failed to get the first receive descriptor
[1671040309.145881] [eu-a2p-484:122310:0]           mpool.c:226  UCX  ERROR Failed to allocate memory pool (name=mm_recv_desc) chunk: Input/output error
[1671040309.145885] [eu-a2p-484:122310:0]        mm_iface.c:793  UCX  ERROR failed to get the first receive descriptor
[eu-a2p-484:122298] pml_ucx.c:309  Error: Failed to create UCP worker
[eu-a2p-484:122310] pml_ucx.c:309  Error: Failed to create UCP worker
[1671040311.247268] [eu-a2p-484:122291:0]         ib_mlx5.h:681  UCX  ERROR mlx5dv_devx_umem_reg() failed: Cannot allocate memory
[1671040311.247281] [eu-a2p-484:122299:0]         ib_mlx5.h:681  UCX  ERROR mlx5dv_devx_umem_reg() failed: Cannot allocate memory
[1671040311.247223] [eu-a2p-484:122404:0]           ib_md.c:349  UCX  ERROR ibv_reg_mr(address=0x2b9fe5dbc000, length=37773312, access=0xf) failed: Cannot allocate memory
[1671040311.250170] [eu-a2p-484:122404:0]           mpool.c:226  UCX  ERROR Failed to allocate memory pool (name=rc_recv_desc) chunk: Input/output error
slurmstepd: error: execve(/cluster/slurm/adm/scripts/task-epilog.sh): Argument list too long
[1671040311.262275] [eu-a2p-484:122405:0]         ib_mlx5.h:681  UCX  ERROR mlx5dv_devx_umem_reg() failed: Cannot allocate memory
[1671040311.262286] [eu-a2p-484:122407:0]         ib_mlx5.h:681  UCX  ERROR mlx5dv_devx_umem_reg() failed: Cannot allocate memory
[1671040311.262341] [eu-a2p-484:122387:0]           ib_md.c:349  UCX  ERROR ibv_reg_mr(address=0x2af99c000000, length=37773312, access=0xf) failed: Cannot allocate memory
[1671040311.262341] [eu-a2p-484:122389:0]           ib_md.c:349  UCX  ERROR ibv_reg_mr(address=0x2b06caf16000, length=37773312, access=0xf) failed: Cannot allocate memory
[1671040311.262434] [eu-a2p-484:122389:0]           mpool.c:226  UCX  ERROR Failed to allocate memory pool (name=rc_recv_desc) chunk: Input/output error
slurmstepd: error: --task-epilog failed status=32512
[1671040311.264382] [eu-a2p-484:122387:0]           mpool.c:226  UCX  ERROR Failed to allocate memory pool (name=rc_recv_desc) chunk: Input/output error
[eu-a2p-484:122291] pml_ucx.c:309  Error: Failed to create UCP worker
[eu-a2p-484:122299] pml_ucx.c:309  Error: Failed to create UCP worker
[1671040311.265151] [eu-a2p-484:122312:0]        mm_posix.c:192  UCX  ERROR   Failed to write 65536 bytes. Cannot allocate memory
[1671040311.265451] [eu-a2p-484:122312:0]         uct_mem.c:155  UCX  ERROR   failed to allocate 4292720 bytes using md posix for mm_recv_desc: Input/output error
[1671040311.265463] [eu-a2p-484:122312:0]           mpool.c:226  UCX  ERROR Failed to allocate memory pool (name=mm_recv_desc) chunk: Input/output error
[1671040311.265467] [eu-a2p-484:122312:0]        mm_iface.c:793  UCX  ERROR failed to get the first receive descriptor
[eu-a2p-484:122312] pml_ucx.c:309  Error: Failed to create UCP worker
[eu-a2p-484:122405] pml_ucx.c:309  Error: Failed to create UCP worker
[eu-a2p-484:122407] pml_ucx.c:309  Error: Failed to create UCP worker
[1671040312.824394] [eu-a2p-484:122395:0]           ib_md.c:349  UCX  ERROR ibv_reg_mr(address=0x2b5908082000, length=37773312, access=0xf) failed: Cannot allocate memory
[1671040312.827813] [eu-a2p-484:122395:0]           mpool.c:226  UCX  ERROR Failed to allocate memory pool (name=rc_recv_desc) chunk: Input/output error
[1671040312.830973] [eu-a2p-484:122284:0]        mm_posix.c:192  UCX  ERROR   Failed to write 65536 bytes. Cannot allocate memory
[1671040312.831050] [eu-a2p-484:122284:0]         uct_mem.c:155  UCX  ERROR   failed to allocate 4292720 bytes using md posix for mm_recv_desc: Input/output error
[1671040312.831059] [eu-a2p-484:122284:0]           mpool.c:226  UCX  ERROR Failed to allocate memory pool (name=mm_recv_desc) chunk: Input/output error
[1671040312.831062] [eu-a2p-484:122284:0]        mm_iface.c:793  UCX  ERROR failed to get the first receive descriptor
[eu-a2p-484:122284] pml_ucx.c:309  Error: Failed to create UCP worker
[1671040312.832806] [eu-a2p-484:122318:0]        mm_posix.c:192  UCX  ERROR   Failed to write 65536 bytes. Cannot allocate memory
[1671040312.832930] [eu-a2p-484:122318:0]         uct_mem.c:155  UCX  ERROR   failed to allocate 4292720 bytes using md posix for mm_recv_desc: Input/output error
[1671040312.832942] [eu-a2p-484:122318:0]           mpool.c:226  UCX  ERROR Failed to allocate memory pool (name=mm_recv_desc) chunk: Input/output error
[1671040312.832948] [eu-a2p-484:122318:0]        mm_iface.c:793  UCX  ERROR failed to get the first receive descriptor
[eu-a2p-484:122318] pml_ucx.c:309  Error: Failed to create UCP worker
[1671040312.833107] [eu-a2p-484:122330:0]        mm_posix.c:192  UCX  ERROR   Failed to write 65536 bytes. Cannot allocate memory
[1671040312.833252] [eu-a2p-484:122330:0]         uct_mem.c:155  UCX  ERROR   failed to allocate 4292720 bytes using md posix for mm_recv_desc: Input/output error
[1671040312.833260] [eu-a2p-484:122330:0]           mpool.c:226  UCX  ERROR Failed to allocate memory pool (name=mm_recv_desc) chunk: Input/output error
[1671040312.833264] [eu-a2p-484:122330:0]        mm_iface.c:793  UCX  ERROR failed to get the first receive descriptor
[eu-a2p-484:122330] pml_ucx.c:309  Error: Failed to create UCP worker
srun: error: eu-a2p-484: tasks 0-3,5-10,12-17,20-23,26-29,31,33-37,39,41-49,51,53,55,57,59-124,126: Out Of Memory
slurmstepd: error: *** STEP 4309704.0 ON eu-a2p-484 CANCELLED AT 2022-12-14T19:50:16 DUE TO TIME LIMIT ***
slurmstepd: error: *** JOB 4309704 ON eu-a2p-484 CANCELLED AT 2022-12-14T19:50:16 DUE TO TIME LIMIT ***
slurmstepd: error: Detected 497 oom-kill event(s) in StepId=4309704.batch. Some of your processes may have been killed by the cgroup out-of-memory handler.
