Process 0: 5.148033, 5.060483, 5.131720, 4.933615, 4.844056, 5.369136, 4.982790, 4.971844, 4.950864, 4.891453, 4.954580, 4.858686, 4.918775, 4.910367, 4.927121, 4.904308, 5.055586, 4.889566, 4.899379, 4.903067, 4.896103, 4.854667, 5.006155, 4.884762, 4.892396, 4.902018, 4.955899, 4.854223, 5.104158, 4.915176
Process 1: 6.460690, 5.084159, 5.166442, 4.922532, 4.927543, 4.953260, 5.322112, 5.003556, 4.918262, 4.941652, 4.906850, 4.949077, 4.899081, 4.922043, 4.907948, 4.909901, 4.926700, 4.998124, 4.891799, 4.922457, 4.906668, 4.871731, 4.921325, 4.984812, 4.871416, 4.891275, 4.944096, 4.886595, 4.859934, 5.126195
Process 2: 6.447459, 5.087227, 5.166817, 4.919146, 4.931304, 4.952294, 5.309536, 5.014504, 4.919027, 4.942252, 4.905252, 4.945963, 4.901509, 4.923078, 4.908507, 4.909974, 4.922888, 5.003614, 4.889787, 4.923830, 4.904100, 4.873581, 4.913818, 4.992644, 4.866842, 4.895619, 4.944132, 4.883490, 4.859415, 5.121853
Process 3: 6.428263, 5.069506, 5.162346, 4.912885, 4.930210, 4.959236, 5.302224, 5.020405, 4.922264, 4.932256, 4.905636, 4.951940, 4.905612, 4.918814, 4.900020, 4.920259, 4.916146, 5.003794, 4.893404, 4.917414, 4.906189, 4.876855, 4.911802, 4.988256, 4.862035, 4.896908, 4.950908, 4.878992, 4.878040, 5.102199
Process 4: 6.404562, 5.086682, 5.162535, 4.916887, 4.929386, 4.953113, 5.308783, 5.014815, 4.917667, 4.943954, 4.904898, 4.943281, 4.905821, 4.922216, 4.904894, 4.913044, 4.923404, 5.003374, 4.892187, 4.917694, 4.902161, 4.878313, 4.914711, 4.991694, 4.866940, 4.896307, 4.943745, 4.880201, 4.863286, 5.119941
Process 5: 6.401353, 5.077688, 5.159424, 4.918790, 4.927917, 4.956364, 5.305317, 5.015252, 4.929137, 4.932073, 4.905652, 4.945667, 4.904236, 4.921050, 4.905452, 4.913522, 4.923505, 5.001024, 4.893650, 4.917023, 4.908827, 4.872090, 4.921641, 4.982293, 4.864809, 4.897649, 4.945661, 4.883416, 4.869415, 5.112013
Process 6: 6.405237, 5.086217, 5.163034, 4.917263, 4.928453, 4.955297, 5.306778, 5.014600, 4.917690, 4.944203, 4.904733, 4.943800, 4.904866, 4.922543, 4.907332, 4.910398, 4.924075, 5.002955, 4.892041, 4.916759, 4.908158, 4.873334, 4.915604, 4.991409, 4.866143, 4.896299, 4.944282, 4.883101, 4.861768, 5.118892
Process 7: 6.427962, 5.078210, 5.158396, 4.921003, 4.924498, 4.956266, 5.306828, 5.015491, 4.922387, 4.936321, 4.907984, 4.944992, 4.906018, 4.918969, 4.908232, 4.910957, 4.929101, 4.994595, 4.892356, 4.918775, 4.910003, 4.871066, 4.923953, 4.982662, 4.867288, 4.897565, 4.939649, 4.888345, 4.865332, 5.115857
Process 8: 6.459070, 5.089130, 5.161461, 4.923908, 4.927179, 4.951686, 5.313869, 5.011894, 4.919234, 4.941823, 4.907709, 4.941860, 4.901350, 4.924406, 4.912729, 4.903527, 4.928950, 4.997907, 4.896979, 4.918357, 4.908575, 4.868110, 4.920848, 4.988005, 4.871978, 4.892205, 4.941755, 4.884814, 4.856754, 5.128995
Process 9: 6.460939, 5.086874, 5.156180, 4.923394, 4.926980, 4.952248, 5.312353, 5.010929, 4.921338, 4.940843, 4.907632, 4.944069, 4.903528, 4.921113, 4.908662, 4.909008, 4.927648, 4.997268, 4.892994, 4.920979, 4.908937, 4.869131, 4.927913, 4.980523, 4.871994, 4.889968, 4.942107, 4.888540, 4.861927, 5.120855
Process 10: 6.448641, 5.085126, 5.168581, 4.914331, 4.928045, 4.956778, 5.309260, 5.012198, 4.917093, 4.945972, 4.904291, 4.943493, 4.904376, 4.921714, 4.909729, 4.907645, 4.924857, 5.003217, 4.890677, 4.917645, 4.910180, 4.872536, 4.910891, 4.996250, 4.867805, 4.894415, 4.943277, 4.884073, 4.859248, 5.123174
Process 11: 6.430817, 5.077938, 5.161238, 4.911605, 4.932604, 4.957612, 5.303283, 5.019928, 4.925520, 4.931076, 4.904914, 4.950237, 4.907039, 4.916742, 4.902701, 4.917319, 4.920066, 5.002446, 4.895916, 4.918503, 4.902962, 4.876348, 4.907196, 4.993315, 4.861773, 4.897458, 4.950827, 4.879429, 4.877970, 5.101515
Process 12: 6.395292, 5.091190, 5.166006, 4.914445, 4.931827, 4.952993, 5.308390, 5.014796, 4.917303, 4.944265, 4.904479, 4.944057, 4.906159, 4.921869, 4.904164, 4.913774, 4.922423, 5.004212, 4.892642, 4.916937, 4.901736, 4.879415, 4.914845, 4.990751, 4.867647, 4.895852, 4.944874, 4.878965, 4.861780, 5.121829
Process 13: 6.395341, 5.081288, 5.162292, 4.916089, 4.927561, 4.956058, 5.305590, 5.015592, 4.928031, 4.933684, 4.905610, 4.945092, 4.903401, 4.922334, 4.904758, 4.913596, 4.925078, 4.999690, 4.893897, 4.915996, 4.908764, 4.872972, 4.921973, 4.981641, 4.864805, 4.897380, 4.945309, 4.883694, 4.870722, 5.111014
Process 14: 6.401676, 5.087536, 5.163978, 4.916767, 4.928725, 4.955237, 5.307000, 5.014221, 4.917696, 4.944252, 4.904636, 4.943913, 4.905512, 4.922080, 4.907549, 4.909859, 4.924384, 5.002769, 4.893463, 4.915063, 4.907569, 4.874435, 4.915360, 4.991018, 4.866965, 4.895743, 4.945438, 4.880872, 4.862662, 5.118848
Process 15: 6.421253, 5.087001, 5.156615, 4.922222, 4.924380, 4.954094, 5.311014, 5.011498, 4.922165, 4.938870, 4.908114, 4.942576, 4.906276, 4.920211, 4.908707, 4.909165, 4.931941, 4.993687, 4.891891, 4.919558, 4.909788, 4.870408, 4.924811, 4.982674, 4.866705, 4.897486, 4.939536, 4.888906, 4.864318, 5.117317
Process 16: 6.467654, 5.087625, 5.172571, 4.916509, 4.927659, 4.955524, 5.310113, 5.012667, 4.917951, 4.942765, 4.904926, 4.948328, 4.898748, 4.924161, 4.909686, 4.909035, 4.924593, 5.002463, 4.888889, 4.923920, 4.894855, 4.877176, 4.919979, 4.988464, 4.868378, 4.894496, 4.940892, 4.887093, 4.855398, 5.129619
Process 17: 6.466123, 5.087596, 5.165552, 4.916636, 4.928609, 4.953578, 5.317892, 5.007881, 4.920268, 4.939648, 4.906875, 4.949529, 4.900808, 4.920607, 4.907226, 4.910810, 4.924649, 5.000233, 4.896499, 4.928325, 4.893635, 4.873658, 4.918547, 4.986860, 4.869144, 4.893403, 4.942868, 4.886873, 4.862299, 5.125326
Process 18: 6.460694, 5.078535, 5.189693, 4.901015, 4.934263, 4.959913, 5.299909, 5.022504, 4.909585, 4.947628, 4.899559, 4.957435, 4.895878, 4.922488, 4.905608, 4.912630, 4.916937, 5.014372, 4.888354, 4.926844, 4.894486, 4.876746, 4.908192, 4.993356, 4.869287, 4.894363, 4.947427, 4.879578, 4.863312, 5.118822
Process 19: 6.440009, 5.071652, 5.171366, 4.912097, 4.931567, 4.957900, 5.301611, 5.021592, 4.920928, 4.935467, 4.905101, 4.949940, 4.905712, 4.919199, 4.899065, 4.920480, 4.915256, 5.008958, 4.890367, 4.917986, 4.905114, 4.878404, 4.904834, 4.991306, 4.863833, 4.893674, 4.956181, 4.877036, 4.875737, 5.105169
Process 20: 6.412146, 5.081544, 5.169592, 4.916781, 4.931045, 4.953697, 5.304717, 5.017092, 4.915305, 4.945926, 4.901363, 4.948072, 4.907883, 4.921164, 4.902255, 4.913282, 4.923414, 5.007403, 4.888233, 4.921268, 4.900939, 4.879594, 4.911593, 4.988030, 4.866296, 4.896761, 4.948794, 4.880151, 4.862277, 5.119545
Process 21: 6.406161, 5.079125, 5.171894, 4.915384, 4.929272, 4.957230, 5.302660, 5.018791, 4.922030, 4.937535, 4.905315, 4.949789, 4.900662, 4.925095, 4.902175, 4.918709, 4.916401, 5.004480, 4.893376, 4.919146, 4.904497, 4.873717, 4.917381, 4.986254, 4.864813, 4.897857, 4.948532, 4.880208, 4.864843, 5.119186
Process 22: 6.412886, 5.080811, 5.177117, 4.909123, 4.930925, 4.960579, 5.297303, 5.018022, 4.917771, 4.943698, 4.901239, 4.948567, 4.902094, 4.925017, 4.905910, 4.910707, 4.923347, 5.007461, 4.888237, 4.919476, 4.908152, 4.871598, 4.914036, 4.988959, 4.865133, 4.896866, 4.952334, 4.878673, 4.862581, 5.117455
Process 23: 6.435802, 5.081366, 5.171916, 4.913950, 4.926869, 4.955749, 5.305556, 5.018352, 4.920297, 4.937850, 4.905709, 4.950799, 4.900834, 4.921210, 4.902031, 4.916255, 4.922235, 5.002901, 4.890142, 4.919297, 4.906043, 4.876761, 4.911287, 4.988790, 4.868191, 4.894107, 4.946991, 4.883279, 4.866798, 5.114866
Process 24: 6.477405, 5.082361, 5.169694, 4.914997, 4.932627, 4.948638, 5.317492, 5.004895, 4.923028, 4.938376, 4.910852, 4.940973, 4.906673, 4.918352, 4.913373, 4.903377, 4.933180, 4.995677, 4.895515, 4.912490, 4.915424, 4.864943, 4.927442, 4.980459, 4.872653, 4.890523, 4.947377, 4.880546, 4.866587, 5.115614
Process 25: 6.479909, 5.083093, 5.158134, 4.926246, 4.926926, 4.950009, 5.312076, 5.014977, 4.920365, 4.941646, 4.904210, 4.945401, 4.906741, 4.919972, 4.908068, 4.909514, 4.927836, 4.998234, 4.889286, 4.934693, 4.892610, 4.875333, 4.919271, 4.986549, 4.863924, 4.899794, 4.942062, 4.885654, 4.861754, 5.119563
Process 26: 6.482609, 5.085471, 5.175658, 4.910270, 4.928938, 4.953398, 5.316680, 5.007590, 4.916189, 4.944016, 4.906982, 4.944634, 4.902129, 4.922525, 4.910219, 4.907212, 4.926872, 5.001216, 4.893485, 4.928767, 4.895828, 4.872172, 4.921904, 4.985903, 4.867377, 4.895308, 4.942948, 4.884834, 4.858491, 5.123258
Process 27: 6.446466, 5.077859, 5.174759, 4.905779, 4.929700, 4.957430, 5.307313, 5.017420, 4.917104, 4.941492, 4.901605, 4.949126, 4.915345, 4.911178, 4.901822, 4.915936, 4.920476, 5.004446, 4.889147, 4.928892, 4.898321, 4.875764, 4.909706, 4.991576, 4.866546, 4.895332, 4.944727, 4.884979, 4.864940, 5.117168
Process 28: 6.432257, 5.067697, 5.172493, 4.912483, 4.931789, 4.955073, 5.302710, 5.020297, 4.914073, 4.944749, 4.903524, 4.948233, 4.906152, 4.921742, 4.900751, 4.915385, 4.920046, 5.006728, 4.891143, 4.920021, 4.902953, 4.876376, 4.910690, 4.991538, 4.865756, 4.896899, 4.947348, 4.880546, 4.867250, 5.114536
Process 29: 6.435860, 5.074827, 5.164739, 4.916613, 4.928285, 4.956649, 5.307111, 5.017031, 4.915240, 4.944660, 4.904111, 4.946542, 4.909487, 4.916295, 4.902586, 4.916228, 4.922140, 5.000610, 4.890544, 4.921079, 4.907306, 4.873892, 4.910910, 4.991363, 4.867565, 4.893828, 4.945353, 4.883864, 4.868125, 5.115801
Process 30: 6.437316, 5.082905, 5.170004, 4.918533, 4.923341, 4.954290, 5.310830, 5.011377, 4.914479, 4.950706, 4.906724, 4.941745, 4.902154, 4.922165, 4.911426, 4.905192, 4.929773, 4.999370, 4.890094, 4.918681, 4.909294, 4.871866, 4.920253, 4.989420, 4.869269, 4.896578, 4.935561, 4.892550, 4.853849, 5.128400
Process 31: 6.455013, 5.081265, 5.161821, 4.918460, 4.928025, 4.953163, 5.309286, 5.014667, 4.918286, 4.940893, 4.905856, 4.945834, 4.905489, 4.920583, 4.906455, 4.911411, 4.928515, 4.996830, 4.890850, 4.924534, 4.904305, 4.872085, 4.923756, 4.981696, 4.866630, 4.897310, 4.940991, 4.885886, 4.862329, 5.122728
