Process 1:
Process 0:
Model:                 49
Model name:            AMD EPYC 7H12 64-Core Processor
L1d cache:             32K
L2 cache:              512K
L3 cache:              16384K
Model:                 49
Model name:            AMD EPYC 7H12 64-Core Processor
L1d cache:             32K
L2 cache:              512K
L3 cache:              16384K
