Process 0: 4.787304, 4.469597, 4.503778, 4.423250, 4.490252, 4.932509, 4.436444, 4.433960, 4.460859, 4.429795, 4.449615, 4.432035, 4.419930, 4.434609, 4.446480, 4.443718, 4.429207, 4.412798, 4.425241, 4.421650, 4.411533, 4.439223, 4.408448, 4.439332, 4.406265, 4.410095, 4.432563, 4.413274, 4.415010, 4.424393
Process 1: 4.676202, 4.513005, 4.494864, 4.433947, 4.449858, 4.506920, 4.909695, 4.432441, 4.431851, 4.445923, 4.465663, 4.430563, 4.411665, 4.444070, 4.418216, 4.442242, 4.467300, 4.404474, 4.426231, 4.424393, 4.404403, 4.445572, 4.404825, 4.409636, 4.437528, 4.410251, 4.430368, 4.416440, 4.409410, 4.427180
Process 2: 5.203829, 4.526799, 4.495891, 4.436186, 4.445704, 4.518071, 4.900863, 4.426915, 4.433658, 4.464235, 4.447628, 4.433650, 4.411559, 4.443121, 4.418784, 4.450194, 4.448813, 4.414258, 4.425002, 4.421603, 4.411153, 4.440411, 4.407678, 4.410675, 4.437349, 4.410938, 4.426197, 4.417509, 4.411837, 4.427706
Process 3: 5.182216, 4.519848, 4.494800, 4.439383, 4.440546, 4.520461, 4.902873, 4.424675, 4.433250, 4.464730, 4.449359, 4.432716, 4.410445, 4.444121, 4.418821, 4.448798, 4.451751, 4.413126, 4.424633, 4.421940, 4.409451, 4.441154, 4.408651, 4.410327, 4.437159, 4.410345, 4.426183, 4.417067, 4.413083, 4.426782
