MPI_insiderank_openmp
Process 0: 40.137593, 39.762188, 39.708150, 39.783164, 39.836733, 39.372447, 39.793006, 39.912163, 39.931989, 39.856743, 39.682707, 39.603802, 38.093624, 38.617453, 38.455646, 38.223710, 37.415644, 37.323112, 37.309205, 37.424145, 37.247815, 37.242946, 37.392872, 37.341288, 37.530139, 37.249041, 37.073858, 37.471677, 37.343288, 37.173227
Process 1: 40.154735, 39.777266, 39.725136, 39.792387, 39.847891, 39.382195, 39.802062, 39.929634, 39.941760, 39.866240, 39.693185, 39.613212, 38.103331, 38.627196, 38.465993, 38.232968, 37.428673, 37.332121, 37.317635, 37.432767, 37.257551, 37.251784, 37.402527, 37.350671, 37.539015, 37.258429, 37.083329, 37.481458, 37.352890, 37.182225
