MPI_insiderank_openmp
Process 0: 21.738260, 21.772642, 21.418054, 21.637146, 21.473897, 21.483145, 21.529204, 21.539254, 21.644970, 21.308175, 21.502045, 21.504678, 21.559935, 21.655340, 21.620059, 21.547737, 21.605298, 21.551721, 21.626861, 21.595368, 21.398016, 21.605619, 21.013708, 20.732392, 20.905486, 20.921029, 20.915305, 20.732338, 20.668106, 20.744365
Process 1: 20.764783, 20.783661, 20.465004, 20.642230, 20.521961, 20.490884, 20.542992, 20.563978, 20.680444, 20.332297, 20.522592, 20.547755, 20.580111, 20.691873, 20.629585, 20.578974, 20.646242, 20.548625, 21.253215, 20.625193, 20.437790, 20.631517, 20.058748, 19.718021, 19.980074, 19.982328, 19.953270, 19.805302, 19.724433, 19.803279
Process 2: 21.235649, 21.272061, 20.931348, 21.132823, 20.988354, 20.994581, 21.053857, 21.051144, 21.169153, 20.832459, 21.027119, 21.034309, 21.087398, 21.186870, 21.140936, 21.058465, 21.122493, 21.059459, 21.275027, 21.128837, 20.924006, 21.130632, 20.530564, 20.207079, 20.444051, 20.469221, 20.446460, 20.274735, 20.206962, 20.289599
Process 3: 21.741695, 21.776247, 21.421593, 21.641081, 21.477422, 21.486735, 21.532417, 21.542327, 21.648362, 21.311515, 21.505226, 21.508060, 21.563602, 21.658719, 21.623702, 21.550822, 21.608570, 21.555271, 21.629845, 21.599122, 21.401301, 21.609023, 21.016769, 20.739179, 20.909036, 20.923824, 20.918876, 20.735695, 20.671564, 20.747741
