pblas_rm
Process 0: 6.447341, 6.117684, 6.249398, 5.753534, 9.526500, 5.878649, 5.851337, 6.097393, 5.873927, 5.816058, 5.749778, 5.735346, 10.479923, 6.025478, 5.781370, 5.721020, 5.941780, 6.143227, 6.168121, 5.718458, 5.756881, 5.966835, 6.234593, 5.897145, 5.675889, 5.804544, 5.904297, 5.853090, 5.682343, 5.944607
Process 1: 6.855437, 6.285294, 6.043042, 6.001416, 5.738504, 9.786343, 5.834955, 5.949862, 5.987725, 5.796481, 5.735296, 5.785695, 6.014085, 10.466319, 5.836003, 5.737451, 5.745632, 5.952919, 6.479649, 5.732203, 5.759573, 6.005861, 5.812181, 6.323039, 5.676217, 5.787683, 5.746690, 5.845718, 5.800694, 5.764877
Process 2: 6.843076, 6.294774, 6.045787, 5.989542, 5.721458, 9.822403, 5.843991, 5.926515, 5.994773, 5.784594, 5.731622, 5.800188, 6.027863, 10.468847, 5.828752, 5.725481, 5.769427, 5.931858, 6.479984, 5.753356, 5.749228, 6.012233, 5.802770, 6.331601, 5.670199, 5.777062, 5.735776, 5.858655, 5.822653, 5.756458
Process 3: 6.857600, 6.291731, 6.044299, 5.995726, 5.744662, 9.789274, 5.852614, 5.923968, 6.000943, 5.787264, 5.727816, 5.797675, 6.019900, 10.475961, 5.829766, 5.720630, 5.764885, 5.933560, 6.488162, 5.743497, 5.759466, 6.006744, 5.793605, 6.336582, 5.673933, 5.776899, 5.749743, 5.842708, 5.827262, 5.746110
Process 4: 6.854008, 6.286228, 6.044707, 5.989989, 5.754437, 9.789673, 5.848182, 5.921752, 5.997978, 5.783083, 5.729862, 5.805046, 6.026014, 10.467678, 5.829934, 5.723546, 5.767376, 5.933342, 6.479761, 5.752623, 5.753713, 6.009792, 5.800857, 6.337124, 5.667968, 5.775081, 5.744576, 5.853162, 5.820452, 5.757290
Process 5: 6.859345, 6.290751, 6.045552, 5.994020, 5.746397, 9.789565, 5.850915, 5.926343, 5.998888, 5.787557, 5.728908, 5.795349, 6.020675, 10.478983, 5.825683, 5.717954, 5.768168, 5.934848, 6.487093, 5.747872, 5.757014, 6.004747, 5.797674, 6.336837, 5.669723, 5.776529, 5.749366, 5.843803, 5.825845, 5.749240
Process 6: 6.842632, 6.287899, 6.040175, 5.987306, 5.767395, 9.787484, 5.836653, 5.934182, 5.990388, 5.776079, 5.726388, 5.805849, 6.035953, 10.463790, 5.829295, 5.716116, 5.766014, 5.952697, 6.466741, 5.748056, 5.758492, 6.004523, 5.814437, 6.323357, 5.666763, 5.779772, 5.742222, 5.867739, 5.806132, 5.768469
Process 7: 6.851132, 6.297267, 6.046649, 5.984767, 5.734041, 9.810052, 5.851996, 5.925989, 5.997338, 5.786887, 5.730016, 5.792985, 6.021779, 10.471037, 5.835451, 5.705619, 5.757001, 5.952654, 6.490918, 5.718188, 5.787031, 5.994166, 5.796058, 6.327712, 5.688524, 5.776922, 5.751960, 5.834190, 5.811536, 5.751285
Process 8: 6.837135, 6.276876, 6.049114, 5.983709, 5.745532, 9.790843, 5.850804, 5.952920, 5.965041, 5.792328, 5.729561, 5.797124, 6.044156, 10.442670, 5.843449, 5.722747, 5.756999, 5.948437, 6.475337, 5.742146, 5.758095, 6.017059, 5.806934, 6.319977, 5.670985, 5.784755, 5.738968, 5.868222, 5.799071, 5.770274
Process 9: 6.856162, 6.266295, 6.068357, 5.985969, 5.748410, 9.784951, 5.836663, 5.943587, 5.996974, 5.788769, 5.729204, 5.793222, 6.010110, 10.482567, 5.817878, 5.743072, 5.749067, 5.941934, 6.480566, 5.739496, 5.759663, 6.012967, 5.803990, 6.321194, 5.679420, 5.780881, 5.753567, 5.845364, 5.805943, 5.759180
Process 10: 6.850131, 6.286370, 6.050222, 5.987734, 5.725107, 9.819082, 5.845030, 5.930871, 5.989723, 5.784353, 5.735646, 5.797645, 6.026967, 10.469914, 5.827404, 5.726383, 5.770416, 5.928029, 6.481918, 5.754610, 5.753438, 6.005606, 5.805842, 6.333629, 5.665813, 5.776954, 5.741193, 5.854810, 5.829467, 5.747986
Process 11: 6.857800, 6.291168, 6.049975, 5.991099, 5.746816, 9.788919, 5.850259, 5.931113, 5.994627, 5.789155, 5.731162, 5.792633, 6.021971, 10.472697, 5.830706, 5.719903, 5.768510, 5.929725, 6.489462, 5.743312, 5.761384, 6.004407, 5.796964, 6.335671, 5.674302, 5.777171, 5.747507, 5.844336, 5.824997, 5.749015
Process 12: 6.854453, 6.284003, 6.050135, 5.986997, 5.754933, 9.793445, 5.843405, 5.928856, 5.991443, 5.782986, 5.733473, 5.802388, 6.025895, 10.466640, 5.831098, 5.727378, 5.762009, 5.932422, 6.482373, 5.754557, 5.753712, 6.008545, 5.802780, 6.334710, 5.665848, 5.778063, 5.746635, 5.848378, 5.826399, 5.752231
Process 13: 6.859126, 6.289773, 6.050489, 5.990783, 5.743614, 9.791830, 5.852249, 5.929725, 5.994638, 5.788810, 5.730988, 5.792769, 6.021645, 10.476606, 5.826397, 5.720298, 5.772821, 5.925055, 6.490289, 5.747337, 5.757314, 6.004489, 5.793545, 6.342964, 5.671019, 5.776091, 5.747495, 5.846426, 5.823002, 5.749562
Process 14: 6.847474, 6.276719, 6.054920, 5.985248, 5.765563, 9.788445, 5.839207, 5.930877, 5.990524, 5.775850, 5.736278, 5.805950, 6.027670, 10.469528, 5.823455, 5.724401, 5.758954, 5.942014, 6.478452, 5.747798, 5.758442, 6.010268, 5.802697, 6.326585, 5.677817, 5.773368, 5.737272, 5.865058, 5.814225, 5.765932
Process 15: 6.851227, 6.288474, 6.050474, 5.978992, 5.758012, 9.790569, 5.856731, 5.924303, 5.996648, 5.785519, 5.733850, 5.775024, 6.037013, 10.471425, 5.836198, 5.694352, 5.767953, 5.946049, 6.496837, 5.721083, 5.785030, 5.994512, 5.785604, 6.339231, 5.682928, 5.773886, 5.757539, 5.832900, 5.810141, 5.756436
Process 16: 6.851994, 6.263792, 6.049313, 5.987608, 5.747120, 9.795904, 5.844023, 5.950017, 5.967745, 5.789125, 5.727478, 5.802575, 6.053462, 10.428512, 5.844662, 5.728383, 5.752992, 5.943627, 6.479296, 5.743956, 5.756199, 6.014474, 5.800491, 6.330900, 5.671051, 5.789924, 5.731741, 5.871580, 5.798455, 5.769656
Process 17: 6.851113, 6.292987, 6.033197, 5.986625, 5.737028, 9.790777, 5.842898, 5.950005, 5.986215, 5.796872, 5.724078, 5.789388, 6.019992, 10.470129, 5.827754, 5.735519, 5.758800, 5.932710, 6.493009, 5.738959, 5.755786, 6.009290, 5.792052, 6.341975, 5.670013, 5.790039, 5.742745, 5.853191, 5.803762, 5.761367
Process 18: 6.853788, 6.284237, 6.050672, 5.987543, 5.722841, 9.824427, 5.842007, 5.931043, 5.989420, 5.784016, 5.734312, 5.798254, 6.033588, 10.461791, 5.828270, 5.732281, 5.766198, 5.926676, 6.482139, 5.755769, 5.750236, 6.008478, 5.794147, 6.344784, 5.667236, 5.776891, 5.738496, 5.857704, 5.826914, 5.751007
Process 19: 6.856851, 6.290347, 6.050937, 5.991074, 5.742375, 9.793576, 5.851110, 5.926585, 5.996898, 5.789062, 5.733589, 5.790694, 6.020459, 10.468941, 5.835352, 5.722054, 5.769910, 5.925965, 6.489323, 5.746128, 5.755625, 6.009846, 5.785622, 6.350393, 5.667232, 5.780767, 5.744855, 5.844106, 5.826761, 5.746717
Process 20: 6.854899, 6.285582, 6.048993, 5.987934, 5.754672, 9.792249, 5.845548, 5.926864, 5.992757, 5.782373, 5.732104, 5.802801, 6.030726, 10.464347, 5.828961, 5.727952, 5.764764, 5.930275, 6.481421, 5.754326, 5.758458, 6.004005, 5.794512, 6.343480, 5.668958, 5.773998, 5.744550, 5.851920, 5.824956, 5.752427
Process 21: 6.857093, 6.289609, 6.051315, 5.987665, 5.746831, 9.792403, 5.852093, 5.928850, 5.993565, 5.789482, 5.732916, 5.790011, 6.021720, 10.476318, 5.822691, 5.726731, 5.770767, 5.922994, 6.490585, 5.750187, 5.754755, 6.007625, 5.784654, 6.350340, 5.668634, 5.778078, 5.745748, 5.845555, 5.825407, 5.751073
Process 22: 6.850214, 6.285493, 6.043222, 5.988444, 5.763816, 9.786656, 5.844284, 5.931671, 5.991305, 5.776216, 5.729867, 5.806704, 6.032244, 10.464055, 5.825572, 5.727371, 5.761084, 5.940023, 6.476179, 5.745454, 5.761706, 6.007400, 5.800181, 6.331262, 5.676463, 5.776318, 5.735960, 5.865143, 5.811917, 5.764886
Process 23: 6.832204, 6.285305, 6.070956, 5.958675, 5.779185, 9.767702, 5.863478, 5.940130, 5.981908, 5.786863, 5.742383, 5.770875, 6.037564, 10.473385, 5.820036, 5.705160, 5.767354, 5.950089, 6.489214, 5.723908, 5.791288, 5.991353, 5.782665, 6.347065, 5.675305, 5.780138, 5.746400, 5.846894, 5.812582, 5.747656
Process 24: 6.851468, 6.268698, 6.045447, 5.986982, 5.749665, 9.793864, 5.844990, 5.952370, 5.963482, 5.791117, 5.727665, 5.804352, 6.051336, 10.426741, 5.847605, 5.727304, 5.753001, 5.942183, 6.480100, 5.744737, 5.756965, 6.012026, 5.799089, 6.332890, 5.671308, 5.789058, 5.732987, 5.856312, 5.812148, 5.769570
Process 25: 6.845879, 6.281548, 6.065508, 5.986343, 5.741378, 9.794013, 5.830983, 5.951984, 5.996823, 5.787805, 5.725841, 5.797169, 6.009190, 10.480114, 5.803784, 5.737304, 5.757884, 5.949611, 6.476177, 5.738474, 5.757544, 6.007600, 5.790680, 6.343361, 5.671281, 5.787817, 5.744140, 5.839353, 5.817707, 5.761184
Process 26: 6.853325, 6.289329, 6.042183, 5.987671, 5.734919, 9.803770, 5.846547, 5.918388, 6.005856, 5.783224, 5.728195, 5.798628, 6.037540, 10.459750, 5.828832, 5.726978, 5.770374, 5.928496, 6.485085, 5.752595, 5.745826, 6.013937, 5.792077, 6.344012, 5.669963, 5.777313, 5.733628, 5.855242, 5.826367, 5.758919
Process 27: 6.852773, 6.293952, 6.049008, 5.993266, 5.746808, 9.789794, 5.851546, 5.927615, 5.996452, 5.789470, 5.731300, 5.791126, 6.021028, 10.468606, 5.835103, 5.721713, 5.774169, 5.921150, 6.490315, 5.745437, 5.761814, 6.003913, 5.783953, 6.352165, 5.666611, 5.778503, 5.748635, 5.838537, 5.833949, 5.747874
Process 28: 6.854641, 6.285918, 6.045129, 5.991044, 5.753316, 9.794185, 5.845768, 5.926401, 5.992762, 5.782440, 5.732152, 5.803213, 6.030321, 10.461671, 5.831505, 5.727942, 5.765575, 5.929473, 6.481421, 5.754529, 5.758038, 6.004399, 5.794213, 6.343395, 5.668577, 5.775242, 5.744771, 5.848716, 5.828277, 5.751418
Process 29: 6.857662, 6.289185, 6.045528, 5.993464, 5.743416, 9.797475, 5.844442, 5.926360, 5.998750, 5.787808, 5.728490, 5.794571, 6.020826, 10.478204, 5.824876, 5.725022, 5.765429, 5.926294, 6.493536, 5.748983, 5.759289, 6.001897, 5.785661, 6.347924, 5.669257, 5.777563, 5.746303, 5.839166, 5.829723, 5.752733
Process 30: 6.850460, 6.285639, 6.042613, 5.988536, 5.763958, 9.786054, 5.844807, 5.933303, 5.989564, 5.776519, 5.731623, 5.804651, 6.034301, 10.462290, 5.825549, 5.726250, 5.762515, 5.939690, 6.476726, 5.748706, 5.757989, 6.007885, 5.796528, 6.334105, 5.676455, 5.777405, 5.734821, 5.859477, 5.818742, 5.762007
Process 31: 6.822298, 6.316471, 6.049519, 5.976233, 5.755288, 9.792914, 5.858939, 5.927886, 5.993380, 5.786971, 5.734286, 5.786602, 6.022514, 10.471836, 5.824104, 5.708464, 5.766205, 5.950972, 6.490507, 5.720182, 5.789093, 5.992399, 5.777098, 6.348600, 5.677459, 5.787608, 5.746826, 5.826614, 5.826361, 5.750157
Process 32: 6.852620, 6.270406, 6.026968, 5.993901, 5.747425, 9.816616, 5.846087, 5.941879, 5.965207, 5.794319, 5.734584, 5.793996, 6.044028, 10.434804, 5.848850, 5.739984, 5.743269, 5.942024, 6.482565, 5.736251, 5.762632, 6.007629, 5.808951, 6.322389, 5.670461, 5.799623, 5.728106, 5.864619, 5.800659, 5.775154
Process 33: 6.844425, 6.277383, 6.058307, 6.002693, 5.730500, 9.780984, 5.862117, 5.933019, 6.006320, 5.785197, 5.719428, 5.812695, 5.999251, 10.481662, 5.824966, 5.744266, 5.763116, 5.931513, 6.470454, 5.744863, 5.759556, 6.023754, 5.776788, 6.347008, 5.682060, 5.770880, 5.742456, 5.848792, 5.826665, 5.751266
Process 34: 6.852969, 6.283474, 6.044406, 5.993834, 5.725170, 9.819457, 5.848900, 5.925044, 5.994622, 5.785479, 5.734326, 5.802244, 6.023524, 10.468432, 5.829582, 5.728662, 5.770079, 5.926574, 6.482901, 5.755057, 5.748095, 6.007940, 5.804469, 6.333051, 5.666061, 5.783086, 5.742445, 5.849572, 5.826263, 5.752525
Process 35: 6.845136, 6.297529, 6.050182, 5.998771, 5.743479, 9.793122, 5.854292, 5.924304, 5.998403, 5.786418, 5.728568, 5.801666, 6.014154, 10.476819, 5.832954, 5.720418, 5.770995, 5.923418, 6.489300, 5.745282, 5.760592, 6.009903, 5.785533, 6.346336, 5.676244, 5.770399, 5.747005, 5.841294, 5.827685, 5.755022
Process 36: 6.854928, 6.284037, 6.048307, 5.990457, 5.754014, 9.792486, 5.849693, 5.925432, 5.992492, 5.783590, 5.735474, 5.802985, 6.024012, 10.466028, 5.830866, 5.728821, 5.765176, 5.929161, 6.484069, 5.755209, 5.751758, 6.006914, 5.802009, 6.336257, 5.666013, 5.780719, 5.742733, 5.849825, 5.826141, 5.753105
Process 37: 6.845963, 6.296860, 6.048236, 5.998421, 5.742685, 9.793119, 5.855141, 5.908472, 6.013736, 5.787316, 5.728639, 5.808170, 6.009407, 10.479612, 5.826682, 5.717318, 5.775984, 5.925024, 6.487751, 5.746644, 5.760834, 6.010137, 5.784644, 6.343393, 5.677889, 5.770004, 5.746116, 5.839616, 5.831762, 5.752198
Process 38: 6.852458, 6.276043, 6.047933, 5.982371, 5.764111, 9.794290, 5.834779, 5.942805, 5.993020, 5.777236, 5.732365, 5.801647, 6.028940, 10.467047, 5.831853, 5.725543, 5.767306, 5.928866, 6.483218, 5.751838, 5.754247, 6.004512, 5.800760, 6.330508, 5.678008, 5.777977, 5.733867, 5.865887, 5.812496, 5.764097
Process 39: 6.834775, 6.298035, 6.040876, 5.982736, 5.767892, 9.787319, 5.865068, 5.924166, 5.984353, 5.790072, 5.736350, 5.809130, 6.005770, 10.482296, 5.829369, 5.694165, 5.770484, 5.946172, 6.490698, 5.724941, 5.782163, 5.993550, 5.784370, 6.345452, 5.687671, 5.770276, 5.740489, 5.841698, 5.830548, 5.739631
Process 40: 6.844233, 6.273650, 6.040006, 5.995065, 5.741785, 9.810759, 5.843267, 5.936166, 5.973458, 5.793373, 5.730621, 5.800774, 6.042151, 10.434524, 5.846715, 5.744374, 5.742747, 5.937774, 6.483947, 5.741505, 5.755584, 6.012672, 5.805978, 6.321690, 5.676194, 5.793883, 5.730419, 5.857962, 5.804965, 5.770328
Process 41: 6.839208, 6.282261, 6.063970, 6.002351, 5.740939, 9.779578, 5.844266, 5.948065, 5.986643, 5.787928, 5.723760, 5.806617, 6.006845, 10.472168, 5.830844, 5.746144, 5.755116, 5.933079, 6.478844, 5.745073, 5.748305, 6.023559, 5.791769, 6.336559, 5.676980, 5.777084, 5.744709, 5.844193, 5.819266, 5.765759
Process 42: 6.850283, 6.286618, 6.043266, 5.994064, 5.725602, 9.824097, 5.846007, 5.916445, 6.002726, 5.785114, 5.735670, 5.800607, 6.025694, 10.466467, 5.829723, 5.729847, 5.768078, 5.926895, 6.483375, 5.755245, 5.748088, 6.007200, 5.805783, 6.334094, 5.666965, 5.779988, 5.742634, 5.846380, 5.832390, 5.750572
Process 43: 6.843435, 6.293412, 6.054489, 5.997838, 5.741992, 9.793023, 5.852144, 5.925511, 5.997548, 5.788359, 5.726351, 5.802002, 6.015908, 10.477509, 5.833349, 5.718669, 5.772974, 5.922629, 6.488441, 5.743736, 5.765196, 6.007191, 5.782858, 6.347754, 5.679214, 5.768693, 5.745593, 5.841078, 5.832125, 5.751497
Process 44: 6.855096, 6.282351, 6.047285, 5.992662, 5.750640, 9.796574, 5.843828, 5.927517, 5.996120, 5.782603, 5.733950, 5.801664, 6.027976, 10.464819, 5.831901, 5.726929, 5.762632, 5.931089, 6.485429, 5.754158, 5.753913, 6.005772, 5.798065, 6.337927, 5.669313, 5.778226, 5.742552, 5.849449, 5.828804, 5.753483
Process 45: 6.848481, 6.294692, 6.052966, 5.994283, 5.738908, 9.795842, 5.855310, 5.921505, 5.999808, 5.787793, 5.728668, 5.807276, 6.010477, 10.480526, 5.826169, 5.717527, 5.776299, 5.924387, 6.487285, 5.746928, 5.760407, 6.010001, 5.786351, 6.342295, 5.677871, 5.769873, 5.746110, 5.841891, 5.829198, 5.752909
Process 46: 6.854002, 6.275066, 6.048373, 5.988186, 5.757713, 9.795921, 5.838953, 5.925361, 6.000583, 5.779722, 5.732618, 5.797491, 6.028012, 10.469382, 5.828295, 5.724863, 5.773430, 5.930070, 6.480588, 5.746877, 5.757305, 6.010086, 5.800070, 6.333016, 5.669712, 5.780291, 5.737799, 5.856727, 5.815447, 5.766736
Process 47: 6.841000, 6.300221, 6.048956, 5.975986, 5.757647, 9.794379, 5.860253, 5.928117, 5.987894, 5.788495, 5.730604, 5.805723, 6.007320, 10.479706, 5.836083, 5.690931, 5.778154, 5.939014, 6.489388, 5.724380, 5.784068, 5.998564, 5.778474, 6.343981, 5.690258, 5.769198, 5.753170, 5.825874, 5.828496, 5.745950
Process 48: 6.838435, 6.279982, 6.041912, 5.992723, 5.746556, 9.794433, 5.848162, 5.934212, 5.982564, 5.791823, 5.726153, 5.801356, 6.047352, 10.436874, 5.843163, 5.737688, 5.744929, 5.947096, 6.483924, 5.737987, 5.756002, 6.012092, 5.815909, 6.318487, 5.668611, 5.791317, 5.739257, 5.844964, 5.812487, 5.764425
Process 49: 6.835524, 6.291817, 6.057827, 6.007200, 5.733747, 9.791152, 5.847062, 5.931737, 5.992315, 5.784748, 5.730182, 5.800043, 6.017694, 10.476355, 5.826120, 5.743728, 5.756559, 5.935584, 6.474824, 5.746637, 5.752519, 6.015206, 5.794743, 6.348583, 5.676352, 5.774982, 5.739206, 5.840927, 5.821975, 5.768896
Process 50: 6.845768, 6.289012, 6.047207, 5.993906, 5.727909, 9.803013, 5.852228, 5.918690, 6.007064, 5.782249, 5.732241, 5.803478, 6.031966, 10.461687, 5.827949, 5.731435, 5.766948, 5.925757, 6.487728, 5.753954, 5.751564, 6.007306, 5.803776, 6.333809, 5.663476, 5.781596, 5.744018, 5.842342, 5.831993, 5.747100
Process 51: 6.842067, 6.303712, 6.053673, 6.001003, 5.737638, 9.791335, 5.857271, 5.920700, 5.999365, 5.787799, 5.729214, 5.803277, 6.012072, 10.478039, 5.832563, 5.719326, 5.774730, 5.922053, 6.488053, 5.747066, 5.760823, 6.007473, 5.791562, 6.340980, 5.675153, 5.771458, 5.748815, 5.838198, 5.829058, 5.755745
Process 52: 6.853214, 6.285894, 6.046877, 5.993981, 5.752111, 9.788726, 5.853721, 5.911493, 6.007098, 5.782285, 5.732433, 5.804948, 6.026801, 10.469514, 5.826949, 5.726343, 5.766170, 5.929931, 6.483203, 5.755811, 5.754643, 6.004920, 5.801706, 6.335623, 5.667406, 5.779675, 5.740467, 5.848642, 5.829435, 5.753669
Process 53: 6.851014, 6.296175, 6.052789, 6.001066, 5.736618, 9.796305, 5.853530, 5.919523, 6.002218, 5.785615, 5.728013, 5.805428, 6.012012, 10.480485, 5.828852, 5.721860, 5.774455, 5.921627, 6.487028, 5.748708, 5.757647, 6.009504, 5.789515, 6.344498, 5.672226, 5.771769, 5.749102, 5.837917, 5.829082, 5.756600
Process 54: 6.834907, 6.290430, 6.048702, 5.987232, 5.765959, 9.780939, 5.847676, 5.918316, 6.005409, 5.778768, 5.729962, 5.809012, 6.036170, 10.456999, 5.825672, 5.734226, 5.762899, 5.928186, 6.483219, 5.755209, 5.753389, 6.005602, 5.803997, 6.333440, 5.666352, 5.776581, 5.741026, 5.857908, 5.818097, 5.760393
Process 55: 6.836178, 6.305681, 6.044264, 5.995896, 5.745179, 9.797730, 5.859550, 5.923361, 5.983135, 5.789993, 5.737856, 5.802989, 6.004160, 10.479373, 5.838150, 5.708449, 5.776621, 5.923672, 6.486419, 5.744246, 5.766822, 6.007399, 5.792137, 6.337619, 5.673029, 5.769605, 5.760615, 5.830789, 5.830418, 5.737198
Process 56: 6.990706, 6.298715, 6.047016, 5.997073, 5.737052, 9.795950, 5.845297, 5.930734, 5.991670, 5.791841, 5.732915, 5.799552, 6.027720, 10.455304, 5.847574, 5.711396, 5.776988, 5.921030, 6.481018, 5.755268, 5.757692, 6.004237, 5.795806, 6.336213, 5.674928, 5.778288, 5.738191, 5.850006, 5.824104, 5.754491
Process 57: 6.992293, 6.300234, 6.049014, 6.000370, 5.743999, 9.789005, 5.845946, 5.930364, 5.988847, 5.794287, 5.725254, 5.807676, 6.022617, 10.458118, 5.844489, 5.717404, 5.778991, 5.911833, 6.486569, 5.753556, 5.761684, 6.006820, 5.792911, 6.337760, 5.667220, 5.783164, 5.744871, 5.838785, 5.828094, 5.758737
Process 58: 6.992772, 6.300423, 6.045319, 5.999773, 5.746438, 9.783978, 5.856981, 5.919034, 6.000974, 5.787371, 5.726824, 5.805804, 6.026255, 10.462977, 5.836979, 5.719784, 5.773001, 5.918039, 6.482938, 5.751491, 5.767527, 6.001013, 5.795014, 6.339664, 5.666020, 5.781713, 5.739982, 5.847403, 5.826186, 5.758010
Process 59: 6.994811, 6.299618, 6.049115, 6.002622, 5.740777, 9.785971, 5.856993, 5.916962, 6.003361, 5.785469, 5.725605, 5.806953, 6.022655, 10.466061, 5.835390, 5.721047, 5.773496, 5.919884, 6.488145, 5.746528, 5.764467, 6.004100, 5.792358, 6.338963, 5.668330, 5.782548, 5.744061, 5.841537, 5.827067, 5.758482
Process 60: 6.996162, 6.301743, 6.048561, 5.997755, 5.743013, 9.787240, 5.855046, 5.920714, 5.999637, 5.785909, 5.727192, 5.806046, 6.027985, 10.462899, 5.835492, 5.717863, 5.773969, 5.921425, 6.485380, 5.747300, 5.764357, 6.005503, 5.793332, 6.337935, 5.667831, 5.782196, 5.744972, 5.844103, 5.823294, 5.761622
Process 61: 6.995905, 6.303107, 6.050338, 5.998497, 5.747098, 9.780829, 5.854384, 5.920984, 6.000920, 5.785976, 5.725069, 5.806953, 6.024956, 10.465921, 5.834442, 5.720004, 5.774391, 5.920584, 6.486342, 5.746558, 5.762865, 6.006023, 5.793108, 6.338171, 5.668306, 5.783595, 5.743187, 5.844746, 5.822461, 5.761053
Process 62: 6.994906, 6.300583, 6.051573, 5.995853, 5.753280, 9.782705, 5.845997, 5.928045, 5.995946, 5.783744, 5.726706, 5.809233, 6.023326, 10.465509, 5.832684, 5.718812, 5.777006, 5.923535, 6.482208, 5.759793, 5.754755, 6.004413, 5.794325, 6.334221, 5.667533, 5.783286, 5.747589, 5.842616, 5.820723, 5.761991
Process 63: 6.987331, 6.300071, 6.046148, 5.999440, 5.741028, 9.790972, 5.846541, 5.932488, 5.990812, 5.791840, 5.726285, 5.805047, 6.018063, 10.466089, 5.844810, 5.712794, 5.776225, 5.920836, 6.482482, 5.753018, 5.758641, 6.009022, 5.790015, 6.340172, 5.670692, 5.781920, 5.738370, 5.849310, 5.823545, 5.756414
