Process 17:
Process 25:
Process 29:
Process 62:
Process 26:
Process 44:
Process 7:
Process 1:
Process 3:
Process 23:
Process 42:
Process 5:
Process 51:
Process 21:
Process 31:
Process 8:
Process 14:
Process 63:
Process 28:
Process 10:
Process 49:
Process 4:
Process 6:
Process 2:
Process 59:
Process 12:
Process 19:
Process 56:
Process 60:
Process 9:
Process 55:
Process 13:
Process 11:
Process 15:
Process 24:
Process 27:
Process 37:
Process 47:
Process 53:
Process 57:
Process 18:
Process 36:
Process 50:
Process 16:
Process 20:
Process 48:
Process 22:
Process 58:
Process 39:
Process 35:
Process 30:
Process 40:
Process 52:
Process 41:
Process 43:
Process 61:
Process 33:
Process 38:
Process 34:
Process 54:
Process 45:
Process 32:
Process 46:
Process 0:
Model:                 1
Model name:            AMD EPYC 7763 64-Core Processor
L1d cache:             32K
L2 cache:              512K
L3 cache:              32768K
Model:                 1
Model name:            AMD EPYC 7763 64-Core Processor
L1d cache:             32K
L2 cache:              512K
L3 cache:              32768K
Model:                 1
Model name:            AMD EPYC 7763 64-Core Processor
L1d cache:             32K
L2 cache:              512K
L3 cache:              32768K
Model:                 1
Model name:            AMD EPYC 7763 64-Core Processor
L1d cache:             32K
L2 cache:              512K
L3 cache:              32768K
Model:                 1
Model name:            AMD EPYC 7763 64-Core Processor
L1d cache:             32K
L2 cache:              512K
L3 cache:              32768K
Model:                 1
Model name:            AMD EPYC 7763 64-Core Processor
L1d cache:             32K
L2 cache:              512K
L3 cache:              32768K
Model:                 1
Model name:            AMD EPYC 7763 64-Core Processor
L1d cache:             32K
L2 cache:              512K
L3 cache:              32768K
Model:                 1
Model name:            AMD EPYC 7763 64-Core Processor
L1d cache:             32K
L2 cache:              512K
L3 cache:              32768K
Model:                 1
Model name:            AMD EPYC 7763 64-Core Processor
L1d cache:             32K
L2 cache:              512K
L3 cache:              32768K
Model:                 1
Model name:            AMD EPYC 7763 64-Core Processor
L1d cache:             32K
L2 cache:              512K
L3 cache:              32768K
Model:                 1
Model name:            AMD EPYC 7763 64-Core Processor
L1d cache:             32K
L2 cache:              512K
L3 cache:              32768K
Model:                 1
Model name:            AMD EPYC 7763 64-Core Processor
L1d cache:             32K
L2 cache:              512K
L3 cache:              32768K
Model:                 1
Model name:            AMD EPYC 7763 64-Core Processor
L1d cache:             32K
L2 cache:              512K
L3 cache:              32768K
Model:                 1
Model name:            AMD EPYC 7763 64-Core Processor
L1d cache:             32K
L2 cache:              512K
L3 cache:              32768K
Model:                 1
Model name:            AMD EPYC 7763 64-Core Processor
L1d cache:             32K
L2 cache:              512K
L3 cache:              32768K
Model:                 1
Model name:            AMD EPYC 7763 64-Core Processor
L1d cache:             32K
L2 cache:              512K
L3 cache:              32768K
Model:                 1
Model name:            AMD EPYC 7763 64-Core Processor
L1d cache:             32K
L2 cache:              512K
L3 cache:              32768K
Model:                 1
Model name:            AMD EPYC 7763 64-Core Processor
L1d cache:             32K
L2 cache:              512K
L3 cache:              32768K
Model:                 1
Model name:            AMD EPYC 7763 64-Core Processor
L1d cache:             32K
L2 cache:              512K
L3 cache:              32768K
Model:                 1
Model name:            AMD EPYC 7763 64-Core Processor
L1d cache:             32K
L2 cache:              512K
L3 cache:              32768K
Model:                 1
Model name:            AMD EPYC 7763 64-Core Processor
L1d cache:             32K
L2 cache:              512K
L3 cache:              32768K
Model:                 1
Model name:            AMD EPYC 7763 64-Core Processor
L1d cache:             32K
L2 cache:              512K
L3 cache:              32768K
Model:                 1
Model name:            AMD EPYC 7763 64-Core Processor
L1d cache:             32K
L2 cache:              512K
L3 cache:              32768K
Model:                 1
Model name:            AMD EPYC 7763 64-Core Processor
L1d cache:             32K
L2 cache:              512K
L3 cache:              32768K
Model:                 1
Model name:            AMD EPYC 7763 64-Core Processor
L1d cache:             32K
L2 cache:              512K
L3 cache:              32768K
Model:                 1
Model name:            AMD EPYC 7763 64-Core Processor
L1d cache:             32K
L2 cache:              512K
L3 cache:              32768K
Model:                 1
Model name:            AMD EPYC 7763 64-Core Processor
L1d cache:             32K
L2 cache:              512K
L3 cache:              32768K
Model:                 1
Model name:            AMD EPYC 7763 64-Core Processor
L1d cache:             32K
L2 cache:              512K
L3 cache:              32768K
Model:                 1
Model name:            AMD EPYC 7763 64-Core Processor
L1d cache:             32K
L2 cache:              512K
L3 cache:              32768K
Model:                 1
Model name:            AMD EPYC 7763 64-Core Processor
L1d cache:             32K
L2 cache:              512K
L3 cache:              32768K
Model:                 1
Model name:            AMD EPYC 7763 64-Core Processor
L1d cache:             32K
L2 cache:              512K
L3 cache:              32768K
Model:                 1
Model name:            AMD EPYC 7763 64-Core Processor
L1d cache:             32K
L2 cache:              512K
L3 cache:              32768K
Model:                 1
Model name:            AMD EPYC 7763 64-Core Processor
L1d cache:             32K
L2 cache:              512K
L3 cache:              32768K
Model:                 1
Model name:            AMD EPYC 7763 64-Core Processor
L1d cache:             32K
L2 cache:              512K
L3 cache:              32768K
Model:                 1
Model name:            AMD EPYC 7763 64-Core Processor
L1d cache:             32K
L2 cache:              512K
L3 cache:              32768K
Model:                 1
Model name:            AMD EPYC 7763 64-Core Processor
L1d cache:             32K
L2 cache:              512K
L3 cache:              32768K
Model:                 1
Model name:            AMD EPYC 7763 64-Core Processor
L1d cache:             32K
L2 cache:              512K
L3 cache:              32768K
Model:                 1
Model name:            AMD EPYC 7763 64-Core Processor
L1d cache:             32K
L2 cache:              512K
L3 cache:              32768K
Model:                 1
Model name:            AMD EPYC 7763 64-Core Processor
L1d cache:             32K
L2 cache:              512K
L3 cache:              32768K
Model:                 1
Model name:            AMD EPYC 7763 64-Core Processor
L1d cache:             32K
L2 cache:              512K
L3 cache:              32768K
Model:                 1
Model name:            AMD EPYC 7763 64-Core Processor
L1d cache:             32K
L2 cache:              512K
L3 cache:              32768K
Model:                 1
Model name:            AMD EPYC 7763 64-Core Processor
L1d cache:             32K
L2 cache:              512K
L3 cache:              32768K
Model:                 1
Model name:            AMD EPYC 7763 64-Core Processor
L1d cache:             32K
L2 cache:              512K
L3 cache:              32768K
Model:                 1
Model name:            AMD EPYC 7763 64-Core Processor
L1d cache:             32K
L2 cache:              512K
L3 cache:              32768K
Model:                 1
Model name:            AMD EPYC 7763 64-Core Processor
L1d cache:             32K
L2 cache:              512K
L3 cache:              32768K
Model:                 1
Model name:            AMD EPYC 7763 64-Core Processor
L1d cache:             32K
L2 cache:              512K
L3 cache:              32768K
Model:                 1
Model name:            AMD EPYC 7763 64-Core Processor
L1d cache:             32K
L2 cache:              512K
L3 cache:              32768K
Model:                 1
Model name:            AMD EPYC 7763 64-Core Processor
L1d cache:             32K
L2 cache:              512K
L3 cache:              32768K
Model:                 1
Model name:            AMD EPYC 7763 64-Core Processor
L1d cache:             32K
L2 cache:              512K
L3 cache:              32768K
Model:                 1
Model name:            AMD EPYC 7763 64-Core Processor
L1d cache:             32K
L2 cache:              512K
L3 cache:              32768K
Model:                 1
Model name:            AMD EPYC 7763 64-Core Processor
L1d cache:             32K
L2 cache:              512K
L3 cache:              32768K
Model:                 1
Model name:            AMD EPYC 7763 64-Core Processor
L1d cache:             32K
L2 cache:              512K
L3 cache:              32768K
Model:                 1
Model name:            AMD EPYC 7763 64-Core Processor
L1d cache:             32K
L2 cache:              512K
L3 cache:              32768K
Model:                 1
Model name:            AMD EPYC 7763 64-Core Processor
L1d cache:             32K
L2 cache:              512K
L3 cache:              32768K
Model:                 1
Model name:            AMD EPYC 7763 64-Core Processor
L1d cache:             32K
L2 cache:              512K
L3 cache:              32768K
Model:                 1
Model name:            AMD EPYC 7763 64-Core Processor
L1d cache:             32K
L2 cache:              512K
L3 cache:              32768K
Model:                 1
Model name:            AMD EPYC 7763 64-Core Processor
L1d cache:             32K
L2 cache:              512K
L3 cache:              32768K
Model:                 1
Model name:            AMD EPYC 7763 64-Core Processor
L1d cache:             32K
L2 cache:              512K
L3 cache:              32768K
Model:                 1
Model name:            AMD EPYC 7763 64-Core Processor
L1d cache:             32K
L2 cache:              512K
L3 cache:              32768K
Model:                 1
Model name:            AMD EPYC 7763 64-Core Processor
L1d cache:             32K
L2 cache:              512K
L3 cache:              32768K
Model:                 1
Model name:            AMD EPYC 7763 64-Core Processor
L1d cache:             32K
L2 cache:              512K
L3 cache:              32768K
Model:                 1
Model name:            AMD EPYC 7763 64-Core Processor
L1d cache:             32K
L2 cache:              512K
L3 cache:              32768K
Model:                 1
Model name:            AMD EPYC 7763 64-Core Processor
L1d cache:             32K
L2 cache:              512K
L3 cache:              32768K
Model:                 1
Model name:            AMD EPYC 7763 64-Core Processor
L1d cache:             32K
L2 cache:              512K
L3 cache:              32768K
