pblas_rm
Process 0: 3.116475, 2.774221, 2.674159, 2.357643, 2.408809, 2.377201, 2.259205, 2.408408, 2.336310, 2.399627, 2.391838, 2.365776, 2.623738, 2.294107, 2.424598, 2.405617, 2.389467, 2.412342, 2.548635, 2.433782, 2.470988, 2.519674, 2.460544, 2.457214, 2.533433, 2.511507, 2.433825, 2.560679, 2.501671, 2.423640
Process 1: 2.999767, 2.542280, 2.913077, 2.516565, 2.400942, 2.318396, 2.355799, 2.255165, 2.461409, 2.423000, 2.308664, 2.393033, 2.369292, 2.616417, 2.367896, 2.428296, 2.353443, 2.427047, 2.498478, 2.450344, 2.526452, 2.519654, 2.430864, 2.488724, 2.479560, 2.536867, 2.452417, 2.527912, 2.469266, 2.457005
Process 2: 2.999445, 2.550876, 2.913509, 2.507997, 2.412687, 2.344488, 2.332656, 2.247165, 2.472868, 2.391053, 2.332664, 2.389963, 2.370248, 2.617553, 2.367007, 2.425401, 2.348128, 2.446333, 2.468308, 2.463785, 2.522928, 2.507860, 2.422147, 2.525262, 2.452161, 2.522201, 2.494593, 2.524517, 2.471036, 2.458814
Process 3: 2.999848, 2.543244, 2.915472, 2.501798, 2.416898, 2.316132, 2.356880, 2.254249, 2.461492, 2.422821, 2.308798, 2.402699, 2.359804, 2.616330, 2.368163, 2.427862, 2.351859, 2.428555, 2.499667, 2.449353, 2.527701, 2.510750, 2.437187, 2.491031, 2.478450, 2.537942, 2.451643, 2.526146, 2.472168, 2.456944
Process 4: 3.188586, 2.538694, 2.925225, 2.514491, 2.406859, 2.325071, 2.333816, 2.268121, 2.462028, 2.381476, 2.351412, 2.397618, 2.347011, 2.615165, 2.373413, 2.433393, 2.361656, 2.432744, 2.495559, 2.469007, 2.503485, 2.526305, 2.453199, 2.458709, 2.505390, 2.534915, 2.425407, 2.551387, 2.492685, 2.407921
Process 5: 3.190397, 2.539995, 2.914567, 2.518553, 2.409348, 2.331548, 2.328241, 2.272114, 2.459612, 2.384039, 2.343650, 2.394001, 2.357544, 2.614888, 2.367661, 2.437981, 2.363429, 2.429534, 2.496987, 2.474425, 2.498493, 2.529352, 2.463364, 2.439453, 2.513687, 2.545461, 2.406693, 2.556475, 2.502541, 2.394102
Process 6: 3.199159, 2.533532, 2.923910, 2.518590, 2.409862, 2.330378, 2.329623, 2.261052, 2.470540, 2.388048, 2.353853, 2.372963, 2.364081, 2.615275, 2.374803, 2.432694, 2.358767, 2.443787, 2.484452, 2.463889, 2.511942, 2.523679, 2.453518, 2.462215, 2.499023, 2.539200, 2.426029, 2.550097, 2.500657, 2.396043
Process 7: 3.188328, 2.542062, 2.913641, 2.519459, 2.400875, 2.338727, 2.337254, 2.263573, 2.446429, 2.396306, 2.343569, 2.396438, 2.356868, 2.614640, 2.367938, 2.435105, 2.366517, 2.427050, 2.499691, 2.471140, 2.501189, 2.524940, 2.468951, 2.435410, 2.503893, 2.556558, 2.406693, 2.558021, 2.503522, 2.392119
