slurmstepd: error: poll(): Bad address
[1671040326.692336] [eu-a2p-510:70100:0]        mm_posix.c:192  UCX  ERROR   Failed to write 65536 bytes. Cannot allocate memory
[1671040326.692438] [eu-a2p-510:70100:0]         uct_mem.c:155  UCX  ERROR   failed to allocate 4292720 bytes using md posix for mm_recv_desc: Input/output error
[1671040326.692447] [eu-a2p-510:70100:0]           mpool.c:226  UCX  ERROR Failed to allocate memory pool (name=mm_recv_desc) chunk: Input/output error
[1671040326.692450] [eu-a2p-510:70100:0]        mm_iface.c:793  UCX  ERROR failed to get the first receive descriptor
slurmstepd: error: poll(): Bad address
[eu-a2p-510:70100] pml_ucx.c:309  Error: Failed to create UCP worker
[1671040327.144231] [eu-a2p-510:70087:0]           ib_md.c:349  UCX  ERROR ibv_reg_mr(address=0x2b90370bf000, length=37773312, access=0xf) failed: Cannot allocate memory
[1671040327.149560] [eu-a2p-510:70087:0]           mpool.c:226  UCX  ERROR Failed to allocate memory pool (name=rc_recv_desc) chunk: Input/output error
[1671040326.951361] [eu-a2p-510:70114:0]        mm_posix.c:192  UCX  ERROR   Failed to write 65536 bytes. Cannot allocate memory
[1671040327.152373] [eu-a2p-510:70114:0]         uct_mem.c:155  UCX  ERROR   failed to allocate 4292720 bytes using md posix for mm_recv_desc: Input/output error
[1671040327.152403] [eu-a2p-510:70114:0]           mpool.c:226  UCX  ERROR Failed to allocate memory pool (name=mm_recv_desc) chunk: Input/output error
[1671040327.152409] [eu-a2p-510:70114:0]        mm_iface.c:793  UCX  ERROR failed to get the first receive descriptor
[eu-a2p-510:70114] pml_ucx.c:309  Error: Failed to create UCP worker
[1671040329.059092] [eu-a2p-510:70064:0]         ib_mlx5.h:681  UCX  ERROR mlx5dv_devx_umem_reg() failed: Cannot allocate memory
[1671040329.059092] [eu-a2p-510:70072:0]         ib_mlx5.h:681  UCX  ERROR mlx5dv_devx_umem_reg() failed: Cannot allocate memory
[1671040329.059097] [eu-a2p-510:70078:0]         ib_mlx5.h:681  UCX  ERROR mlx5dv_devx_umem_reg() failed: Cannot allocate memory
[1671040329.059098] [eu-a2p-510:70092:0]         ib_mlx5.h:681  UCX  ERROR mlx5dv_devx_umem_reg() failed: Cannot allocate memory
[eu-a2p-510:70072] pml_ucx.c:309  Error: Failed to create UCP worker
[eu-a2p-510:70064] pml_ucx.c:309  Error: Failed to create UCP worker
[eu-a2p-510:70078] pml_ucx.c:309  Error: Failed to create UCP worker
[eu-a2p-510:70092] pml_ucx.c:309  Error: Failed to create UCP worker
[1671040329.598811] [eu-a2p-510:70068:0]         ib_mlx5.h:681  UCX  ERROR mlx5dv_devx_umem_reg() failed: Cannot allocate memory
[1671040329.598797] [eu-a2p-510:70076:0]         ib_mlx5.h:681  UCX  ERROR mlx5dv_devx_umem_reg() failed: Cannot allocate memory
[1671040329.598803] [eu-a2p-510:70086:0]         ib_mlx5.h:681  UCX  ERROR mlx5dv_devx_umem_reg() failed: Cannot allocate memory
[1671040329.734460] [eu-a2p-510:70093:0]         ib_mlx5.h:681  UCX  ERROR mlx5dv_devx_umem_reg() failed: Cannot allocate memory
[1671040329.573799] [eu-a2p-510:70095:0]         ib_mlx5.h:681  UCX  ERROR mlx5dv_devx_umem_reg() failed: Cannot allocate memory
[1671040329.627000] [eu-a2p-510:70107:0]           ib_md.c:349  UCX  ERROR ibv_reg_mr(address=0x2b1c98cdf000, length=37773312, access=0xf) failed: Cannot allocate memory
[1671040329.573898] [eu-a2p-510:70113:0]         ib_mlx5.h:681  UCX  ERROR mlx5dv_devx_umem_reg() failed: Cannot allocate memory
[1671040329.737415] [eu-a2p-510:70107:0]           mpool.c:226  UCX  ERROR Failed to allocate memory pool (name=rc_recv_desc) chunk: Input/output error
[1671040329.566675] [eu-a2p-510:70066:0]           ib_md.c:349  UCX  ERROR ibv_reg_mr(address=0x2ac169915000, length=37773312, access=0xf) failed: Cannot allocate memory
[1671040329.566634] [eu-a2p-510:70080:0]         ib_mlx5.h:681  UCX  ERROR mlx5dv_devx_umem_reg() failed: Cannot allocate memory
[1671040329.737665] [eu-a2p-510:70066:0]           mpool.c:226  UCX  ERROR Failed to allocate memory pool (name=rc_recv_desc) chunk: Input/output error
slurmstepd: error: execve(/cluster/slurm/adm/scripts/task-epilog.sh): Argument list too long
slurmstepd: error: --task-epilog failed status=32512
[eu-a2p-510:70093] pml_ucx.c:309  Error: Failed to create UCP worker
[eu-a2p-510:70113] pml_ucx.c:309  Error: Failed to create UCP worker
[eu-a2p-510:70086] pml_ucx.c:309  Error: Failed to create UCP worker
[eu-a2p-510:70076] pml_ucx.c:309  Error: Failed to create UCP worker
[eu-a2p-510:70095] pml_ucx.c:309  Error: Failed to create UCP worker
[eu-a2p-510:70068] pml_ucx.c:309  Error: Failed to create UCP worker
[eu-a2p-510:70080] pml_ucx.c:309  Error: Failed to create UCP worker
[1671040330.270712] [eu-a2p-510:70079:0]         ib_mlx5.h:681  UCX  ERROR mlx5dv_devx_umem_reg() failed: Cannot allocate memory
[1671040330.237836] [eu-a2p-510:70082:0]           ib_md.c:349  UCX  ERROR ibv_reg_mr(address=0x2b9811dd4000, length=37773312, access=0xf) failed: Cannot allocate memory
[1671040330.272488] [eu-a2p-510:70082:0]           mpool.c:226  UCX  ERROR Failed to allocate memory pool (name=rc_recv_desc) chunk: Input/output error
[1671040330.177806] [eu-a2p-510:70096:0]           ib_md.c:349  UCX  ERROR ibv_reg_mr(address=0x2af1f6f16000, length=37773312, access=0xf) failed: Cannot allocate memory
[1671040330.283401] [eu-a2p-510:70096:0]           mpool.c:226  UCX  ERROR Failed to allocate memory pool (name=rc_recv_desc) chunk: Input/output error
[eu-a2p-510:70079] pml_ucx.c:309  Error: Failed to create UCP worker
[1671040330.581682] [eu-a2p-510:70096:0]           ib_md.c:349  UCX  ERROR ibv_reg_mr(address=0x2af1f6f98000, length=544768, access=0xf) failed: Cannot allocate memory
[1671040330.581697] [eu-a2p-510:70096:0]           mpool.c:226  UCX  ERROR Failed to allocate memory pool (name=ud_recv_skb) chunk: Input/output error
[1671040330.899202] [eu-a2p-510:70119:0]         ib_mlx5.h:681  UCX  ERROR mlx5dv_devx_umem_reg() failed: Cannot allocate memory
[eu-a2p-510:70119] pml_ucx.c:309  Error: Failed to create UCP worker
[1671040331.467362] [eu-a2p-510:70071:0]           ib_md.c:349  UCX  ERROR ibv_reg_mr(address=0x2b50d637a000, length=544768, access=0xf) failed: Cannot allocate memory
[1671040331.485383] [eu-a2p-510:70071:0]           mpool.c:226  UCX  ERROR Failed to allocate memory pool (name=ud_recv_skb) chunk: Input/output error
srun: error: eu-a2p-510: tasks 0,2,4-6,8-10,12-14,16,20-24,26-30,41,45-47,54,63: Killed
srun: error: eu-a2p-510: task 35: Killed
slurmstepd: error: *** STEP 4309720.0 ON eu-a2p-510 CANCELLED AT 2022-12-14T19:52:21 DUE TO TIME LIMIT ***
slurmstepd: error: *** JOB 4309720 ON eu-a2p-510 CANCELLED AT 2022-12-14T19:52:21 DUE TO TIME LIMIT ***
srun: Job step aborted: Waiting up to 32 seconds for job step to finish.
