MPI_insiderank_optimisedserial
Process 0: 1.999417, 1.795549, 1.741140, 1.730034, 2.515976, 2.520298, 1.766773, 1.753124, 1.770051, 1.795935, 2.659147, 1.748698, 1.741243, 1.747787, 1.771318, 1.754978, 1.751816, 1.725367, 1.768400, 1.748413, 1.752934, 1.726712, 1.980089, 1.727214, 1.728048, 1.752016, 1.726552, 1.771753, 1.778639, 1.750444
Process 1: 1.685302, 1.484984, 1.443730, 1.435708, 2.228177, 2.215454, 1.465083, 1.472014, 1.481111, 1.482003, 2.359506, 1.430538, 1.436951, 1.454237, 1.491740, 1.460356, 1.448345, 1.430887, 1.459850, 1.453758, 1.460266, 1.432424, 1.681042, 1.431442, 1.434093, 1.469110, 1.433325, 1.474410, 1.489384, 1.455596
Process 2: 1.728913, 1.536025, 1.485622, 1.477813, 2.279653, 2.258225, 1.506603, 1.501041, 1.534341, 1.542607, 2.401128, 1.472477, 1.478469, 1.496076, 1.520551, 1.502525, 1.514300, 1.472901, 1.516848, 1.495658, 1.501936, 1.474424, 1.722961, 1.473542, 1.476045, 1.498573, 1.474893, 1.517413, 1.542227, 1.497793
Process 3: 1.784744, 1.585090, 1.542341, 1.534476, 2.330407, 2.316767, 1.563521, 1.557170, 1.584562, 1.600199, 2.458965, 1.540031, 1.535456, 1.552648, 1.576786, 1.559355, 1.565911, 1.529901, 1.578195, 1.552838, 1.558715, 1.531256, 1.779666, 1.530466, 1.533028, 1.555184, 1.531746, 1.574807, 1.592882, 1.554627
Process 4: 1.828859, 1.621750, 1.585372, 1.577410, 2.364978, 2.359930, 1.606774, 1.600850, 1.619641, 1.643155, 2.501691, 1.595172, 1.578791, 1.595897, 1.620257, 1.602843, 1.600675, 1.573239, 1.634337, 1.596475, 1.602114, 1.574459, 1.822981, 1.573900, 1.576730, 1.598782, 1.575296, 1.618687, 1.627865, 1.597987
Process 5: 1.890574, 1.697311, 1.650650, 1.633940, 2.420600, 2.424893, 1.662259, 1.657018, 1.674531, 1.699842, 2.565174, 1.652271, 1.648028, 1.651651, 1.675641, 1.658538, 1.656149, 1.629047, 1.681715, 1.652089, 1.664301, 1.630381, 1.878561, 1.630463, 1.632276, 1.655525, 1.630686, 1.675665, 1.683114, 1.654063
Process 6: 1.942226, 1.741351, 1.698757, 1.675996, 2.463179, 2.474742, 1.704887, 1.698978, 1.717107, 1.741644, 2.614523, 1.694329, 1.688281, 1.693637, 1.718116, 1.700616, 1.698698, 1.671103, 1.715675, 1.694071, 1.704354, 1.672444, 1.920929, 1.672802, 1.674843, 1.697626, 1.673340, 1.717501, 1.725734, 1.696084
Process 7: 2.003431, 1.799915, 1.745005, 1.734590, 2.519829, 2.524897, 1.771089, 1.757673, 1.773901, 1.800456, 2.662993, 1.753252, 1.745096, 1.751723, 1.774622, 1.758943, 1.755136, 1.729323, 1.771921, 1.752452, 1.756257, 1.730676, 1.983429, 1.731248, 1.731375, 1.755929, 1.729880, 1.775825, 1.781958, 1.754432
