[1671040153.829709] [eu-g1-043-2:103153:0]           ib_md.c:349  UCX  ERROR ibv_reg_mr(address=0x2af0d616f000, length=37773312, access=0xf) failed: Cannot allocate memory
[1671040153.829464] [eu-g1-043-2:103163:0]           ib_md.c:349  UCX  ERROR ibv_reg_mr(address=0x2b777f1cf000, length=37773312, access=0xf) failed: Cannot allocate memory
[1671040153.832808] [eu-g1-043-2:103153:0]           mpool.c:226  UCX  ERROR Failed to allocate memory pool (name=rc_recv_desc) chunk: Input/output error
[1671040153.833374] [eu-g1-043-2:103163:0]           mpool.c:226  UCX  ERROR Failed to allocate memory pool (name=rc_recv_desc) chunk: Input/output error
slurmstepd: error: Detected 2 oom-kill event(s) in StepId=4309701.0. Some of your processes may have been killed by the cgroup out-of-memory handler.
[1671040154.092891] [eu-g1-043-2:103164:0]        mm_posix.c:218  UCX  ERROR   open(file_name=/proc/103165/fd/18 flags=0x0) failed: Permission denied
[1671040154.092934] [eu-g1-043-2:103164:0]           mm_ep.c:171  UCX  ERROR   mm ep failed to connect to remote FIFO id 0xc0000004800192fd: Shared memory error
[eu-g1-043-2:103164] pml_ucx.c:419  Error: ucp_ep_create(proc=14) failed: Shared memory error
[1671040154.182897] [eu-g1-043-2:103153:0]        mm_posix.c:218  UCX  ERROR   open(file_name=/proc/103156/fd/18 flags=0x0) failed: No such file or directory
[1671040154.182919] [eu-g1-043-2:103153:0]           mm_ep.c:171  UCX  ERROR   mm ep failed to connect to remote FIFO id 0xc0000004800192f4: Shared memory error
[eu-g1-043-2:103153] pml_ucx.c:419  Error: ucp_ep_create(proc=5) failed: Shared memory error
[1671040154.184425] [eu-g1-043-2:103151:0]        mm_posix.c:218  UCX  ERROR   open(file_name=/proc/103156/fd/18 flags=0x0) failed: No such file or directory
[1671040154.184456] [eu-g1-043-2:103151:0]           mm_ep.c:171  UCX  ERROR   mm ep failed to connect to remote FIFO id 0xc0000004800192f4: Shared memory error
[eu-g1-043-2:103151] pml_ucx.c:419  Error: ucp_ep_create(proc=5) failed: Shared memory error
[1671040154.184902] [eu-g1-043-2:103157:0]        mm_posix.c:218  UCX  ERROR   open(file_name=/proc/103158/fd/18 flags=0x0) failed: No such file or directory
[1671040154.184921] [eu-g1-043-2:103157:0]           mm_ep.c:171  UCX  ERROR   mm ep failed to connect to remote FIFO id 0xc0000004800192f6: Shared memory error
--------------------------------------------------------------------------
It looks like MPI_INIT failed for some reason; your parallel process is
likely to abort.  There are many reasons that a parallel process can
fail during MPI_INIT; some of which are due to configuration or environment
problems.  This failure appears to be an internal failure; here's some
additional information (which may only be relevant to an Open MPI
developer):

  PML add procs failed
  --> Returned "Error" (-1) instead of "Success" (0)
--------------------------------------------------------------------------
[1671040154.217892] [eu-g1-043-2:103166:0]        mm_posix.c:218  UCX  ERROR   open(file_name=/proc/103153/fd/19 flags=0x0) failed: Permission denied
[1671040154.217930] [eu-g1-043-2:103166:0]           mm_ep.c:171  UCX  ERROR   mm ep failed to connect to remote FIFO id 0xc0000004c00192f1: Shared memory error
[eu-g1-043-2:103166] pml_ucx.c:419  Error: ucp_ep_create(proc=2) failed: Shared memory error
[1671040154.198099] [eu-g1-043-2:103161:0]        mm_posix.c:218  UCX  ERROR   open(file_name=/proc/103163/fd/18 flags=0x0) failed: No such file or directory
[1671040154.222436] [eu-g1-043-2:103161:0]           mm_ep.c:171  UCX  ERROR   mm ep failed to connect to remote FIFO id 0xc0000004800192fb: Shared memory error
[eu-g1-043-2:103161] pml_ucx.c:419  Error: ucp_ep_create(proc=12) failed: Shared memory error
[eu-g1-043-2:103151] *** An error occurred in MPI_Init
[eu-g1-043-2:103151] *** reported by process [3267690496,0]
[eu-g1-043-2:103151] *** on a NULL communicator
[eu-g1-043-2:103151] *** Unknown error
[eu-g1-043-2:103151] *** MPI_ERRORS_ARE_FATAL (processes in this communicator will now abort,
[eu-g1-043-2:103151] ***    and potentially your MPI job)
[eu-g1-043-2:103157] pml_ucx.c:419  Error: ucp_ep_create(proc=7) failed: Shared memory error
--------------------------------------------------------------------------
It looks like MPI_INIT failed for some reason; your parallel process is
likely to abort.  There are many reasons that a parallel process can
fail during MPI_INIT; some of which are due to configuration or environment
problems.  This failure appears to be an internal failure; here's some
additional information (which may only be relevant to an Open MPI
developer):

  PML add procs failed
  --> Returned "Error" (-1) instead of "Success" (0)
--------------------------------------------------------------------------
[1671040154.224640] [eu-g1-043-2:103155:0]        mm_posix.c:218  UCX  ERROR   open(file_name=/proc/103156/fd/18 flags=0x0) failed: No such file or directory
[1671040154.224671] [eu-g1-043-2:103155:0]           mm_ep.c:171  UCX  ERROR   mm ep failed to connect to remote FIFO id 0xc0000004800192f4: Shared memory error
[eu-g1-043-2:103157] *** An error occurred in MPI_Init
[eu-g1-043-2:103157] *** reported by process [3267690496,6]
[eu-g1-043-2:103157] *** on a NULL communicator
[eu-g1-043-2:103157] *** Unknown error
[eu-g1-043-2:103157] *** MPI_ERRORS_ARE_FATAL (processes in this communicator will now abort,
[eu-g1-043-2:103157] ***    and potentially your MPI job)
[1671040154.224993] [eu-g1-043-2:103162:0]        mm_posix.c:218  UCX  ERROR   open(file_name=/proc/103163/fd/18 flags=0x0) failed: No such file or directory
[1671040154.225037] [eu-g1-043-2:103162:0]           mm_ep.c:171  UCX  ERROR   mm ep failed to connect to remote FIFO id 0xc0000004800192fb: Shared memory error
[eu-g1-043-2:103162] pml_ucx.c:419  Error: ucp_ep_create(proc=12) failed: Shared memory error
--------------------------------------------------------------------------
It looks like MPI_INIT failed for some reason; your parallel process is
likely to abort.  There are many reasons that a parallel process can
fail during MPI_INIT; some of which are due to configuration or environment
problems.  This failure appears to be an internal failure; here's some
additional information (which may only be relevant to an Open MPI
developer):

  PML add procs failed
  --> Returned "Error" (-1) instead of "Success" (0)
--------------------------------------------------------------------------
[eu-g1-043-2:103155] pml_ucx.c:419  Error: ucp_ep_create(proc=5) failed: Shared memory error
[eu-g1-043-2:103166] *** An error occurred in MPI_Init
[eu-g1-043-2:103166] *** reported by process [3267690496,15]
[eu-g1-043-2:103166] *** on a NULL communicator
[eu-g1-043-2:103166] *** Unknown error
[eu-g1-043-2:103166] *** MPI_ERRORS_ARE_FATAL (processes in this communicator will now abort,
[eu-g1-043-2:103166] ***    and potentially your MPI job)
[1671040154.225793] [eu-g1-043-2:103154:0]        mm_posix.c:218  UCX  ERROR   open(file_name=/proc/103156/fd/18 flags=0x0) failed: No such file or directory
[1671040154.225825] [eu-g1-043-2:103154:0]           mm_ep.c:171  UCX  ERROR   mm ep failed to connect to remote FIFO id 0xc0000004800192f4: Shared memory error
[eu-g1-043-2:103154] pml_ucx.c:419  Error: ucp_ep_create(proc=5) failed: Shared memory error
[1671040154.226127] [eu-g1-043-2:103152:0]        mm_posix.c:218  UCX  ERROR   open(file_name=/proc/103153/fd/19 flags=0x0) failed: Permission denied
[1671040154.226147] [eu-g1-043-2:103152:0]           mm_ep.c:171  UCX  ERROR   mm ep failed to connect to remote FIFO id 0xc0000004c00192f1: Shared memory error
[eu-g1-043-2:103152] pml_ucx.c:419  Error: ucp_ep_create(proc=2) failed: Shared memory error
--------------------------------------------------------------------------
It looks like MPI_INIT failed for some reason; your parallel process is
likely to abort.  There are many reasons that a parallel process can
fail during MPI_INIT; some of which are due to configuration or environment
problems.  This failure appears to be an internal failure; here's some
additional information (which may only be relevant to an Open MPI
developer):

  PML add procs failed
  --> Returned "Error" (-1) instead of "Success" (0)
--------------------------------------------------------------------------
--------------------------------------------------------------------------
It looks like MPI_INIT failed for some reason; your parallel process is
likely to abort.  There are many reasons that a parallel process can
fail during MPI_INIT; some of which are due to configuration or environment
problems.  This failure appears to be an internal failure; here's some
additional information (which may only be relevant to an Open MPI
developer):

  PML add procs failed
  --> Returned "Error" (-1) instead of "Success" (0)
--------------------------------------------------------------------------
[eu-g1-043-2:103161] *** An error occurred in MPI_Init
[eu-g1-043-2:103161] *** reported by process [3267690496,10]
[eu-g1-043-2:103161] *** on a NULL communicator
[eu-g1-043-2:103161] *** Unknown error
[eu-g1-043-2:103161] *** MPI_ERRORS_ARE_FATAL (processes in this communicator will now abort,
[eu-g1-043-2:103161] ***    and potentially your MPI job)
--------------------------------------------------------------------------
It looks like MPI_INIT failed for some reason; your parallel process is
likely to abort.  There are many reasons that a parallel process can
fail during MPI_INIT; some of which are due to configuration or environment
problems.  This failure appears to be an internal failure; here's some
additional information (which may only be relevant to an Open MPI
developer):

  PML add procs failed
  --> Returned "Error" (-1) instead of "Success" (0)
--------------------------------------------------------------------------
[eu-g1-043-2:103162] *** An error occurred in MPI_Init
[eu-g1-043-2:103162] *** reported by process [3267690496,11]
[eu-g1-043-2:103162] *** on a NULL communicator
[eu-g1-043-2:103162] *** Unknown error
[eu-g1-043-2:103162] *** MPI_ERRORS_ARE_FATAL (processes in this communicator will now abort,
[eu-g1-043-2:103162] ***    and potentially your MPI job)
[eu-g1-043-2:103154] *** An error occurred in MPI_Init
[eu-g1-043-2:103154] *** reported by process [3267690496,3]
[eu-g1-043-2:103154] *** on a NULL communicator
[eu-g1-043-2:103154] *** Unknown error
[eu-g1-043-2:103154] *** MPI_ERRORS_ARE_FATAL (processes in this communicator will now abort,
[eu-g1-043-2:103154] ***    and potentially your MPI job)
--------------------------------------------------------------------------
It looks like MPI_INIT failed for some reason; your parallel process is
likely to abort.  There are many reasons that a parallel process can
fail during MPI_INIT; some of which are due to configuration or environment
problems.  This failure appears to be an internal failure; here's some
additional information (which may only be relevant to an Open MPI
developer):

  PML add procs failed
  --> Returned "Error" (-1) instead of "Success" (0)
--------------------------------------------------------------------------
--------------------------------------------------------------------------
It looks like MPI_INIT failed for some reason; your parallel process is
likely to abort.  There are many reasons that a parallel process can
fail during MPI_INIT; some of which are due to configuration or environment
problems.  This failure appears to be an internal failure; here's some
additional information (which may only be relevant to an Open MPI
developer):

  PML add procs failed
  --> Returned "Error" (-1) instead of "Success" (0)
--------------------------------------------------------------------------
[eu-g1-043-2:103152] *** An error occurred in MPI_Init
[eu-g1-043-2:103152] *** reported by process [3267690496,1]
[eu-g1-043-2:103152] *** on a NULL communicator
[eu-g1-043-2:103152] *** Unknown error
[eu-g1-043-2:103152] *** MPI_ERRORS_ARE_FATAL (processes in this communicator will now abort,
[eu-g1-043-2:103152] ***    and potentially your MPI job)
[eu-g1-043-2:103155] *** An error occurred in MPI_Init
[eu-g1-043-2:103155] *** reported by process [3267690496,4]
[eu-g1-043-2:103155] *** on a NULL communicator
[eu-g1-043-2:103155] *** Unknown error
[eu-g1-043-2:103155] *** MPI_ERRORS_ARE_FATAL (processes in this communicator will now abort,
[eu-g1-043-2:103155] ***    and potentially your MPI job)
slurmstepd: error: *** STEP 4309701.0 ON eu-g1-043-2 CANCELLED AT 2022-12-14T18:49:14 ***
srun: Job step aborted: Waiting up to 32 seconds for job step to finish.
srun: error: eu-g1-043-2: tasks 0-1,3,6,10-11,15: Out Of Memory
slurmstepd: error: Detected 9 oom-kill event(s) in StepId=4309701.batch. Some of your processes may have been killed by the cgroup out-of-memory handler.
