slurmstepd: error: poll(): Bad address
slurmstepd: error: poll(): Bad address
[1671040154.097981] [eu-g1-050-2:125956:0]           ib_md.c:349  UCX  ERROR ibv_reg_mr(address=0x2adca0000010, length=72048000, access=0xf) failed: Cannot allocate memory
[1671040154.098034] [eu-g1-050-2:125956:0]          ucp_mm.c:158  UCX  ERROR failed to register address 0x2adca0000010 mem_type bit 0x1 length 72048000 on md[4]=mlx5_0: Input/output error (md reg_mem_types 0x1)
[1671040154.098047] [eu-g1-050-2:125956:0]     ucp_request.c:498  UCX  ERROR failed to register user buffer datatype 0x8 address 0x2adca0000010 len 72048000: Input/output error
[eu-g1-050-2:125956:0:125956]        rndv.c:490  Assertion `status == UCS_OK' failed
==== backtrace (tid: 125956) ====
 0  /cluster/spack/apps/linux-centos7-x86_64/gcc-9.3.0/ucx-1.12.1-xfljgpcc4jht7wamy2hjr2mdvn7y3u5g/lib/libucs.so.0(ucs_handle_error+0x2a4) [0x2adc87840574]
 1  /cluster/spack/apps/linux-centos7-x86_64/gcc-9.3.0/ucx-1.12.1-xfljgpcc4jht7wamy2hjr2mdvn7y3u5g/lib/libucs.so.0(ucs_fatal_error_message+0x50) [0x2adc8783d310]
 2  /cluster/spack/apps/linux-centos7-x86_64/gcc-9.3.0/ucx-1.12.1-xfljgpcc4jht7wamy2hjr2mdvn7y3u5g/lib/libucs.so.0(ucs_fatal_error_format+0xd9) [0x2adc8783d489]
 3  /cluster/spack/apps/linux-centos7-x86_64/gcc-9.3.0/ucx-1.12.1-xfljgpcc4jht7wamy2hjr2mdvn7y3u5g/lib/libucp.so.0(+0x84520) [0x2adc87318520]
 4  /cluster/spack/apps/linux-centos7-x86_64/gcc-9.3.0/ucx-1.12.1-xfljgpcc4jht7wamy2hjr2mdvn7y3u5g/lib/libucp.so.0(+0x8564a) [0x2adc8731964a]
 5  /cluster/spack/apps/linux-centos7-x86_64/gcc-9.3.0/ucx-1.12.1-xfljgpcc4jht7wamy2hjr2mdvn7y3u5g/lib/libucp.so.0(ucp_rndv_receive+0x190) [0x2adc8731d0c0]
 6  /cluster/spack/apps/linux-centos7-x86_64/gcc-9.3.0/ucx-1.12.1-xfljgpcc4jht7wamy2hjr2mdvn7y3u5g/lib/libucp.so.0(ucp_tag_rndv_process_rts+0x38a) [0x2adc8733961a]
 7  /cluster/spack/apps/linux-centos7-x86_64/gcc-9.3.0/ucx-1.12.1-xfljgpcc4jht7wamy2hjr2mdvn7y3u5g/lib/libuct.so.0(+0x186eb) [0x2adc875e06eb]
 8  /cluster/spack/apps/linux-centos7-x86_64/gcc-9.3.0/ucx-1.12.1-xfljgpcc4jht7wamy2hjr2mdvn7y3u5g/lib/libucp.so.0(ucp_worker_progress+0x7a) [0x2adc872dc2aa]
 9  /cluster/spack/apps/linux-centos7-x86_64/gcc-9.3.0/openmpi-4.1.4-ce3rybsut3hyqo2i2sm5qwu2muxqny3x/lib/libopen-pal.so.40(opal_progress+0x2b) [0x2adc86e7ea2b]
10  /cluster/spack/apps/linux-centos7-x86_64/gcc-9.3.0/openmpi-4.1.4-ce3rybsut3hyqo2i2sm5qwu2muxqny3x/lib/libmpi.so.40(mca_pml_ucx_recv+0x185) [0x2adc8542dff5]
11  /cluster/spack/apps/linux-centos7-x86_64/gcc-9.3.0/openmpi-4.1.4-ce3rybsut3hyqo2i2sm5qwu2muxqny3x/lib/libmpi.so.40(MPI_Recv+0xf5) [0x2adc852aae45]
12  /cluster/scratch/galoisi/DPHPC/2022_hs_polybench_parallelization/src/seidel/OUT/./mpi_insiderank_optimisedserial.out() [0x401dc3]
13  /lib64/libc.so.6(__libc_start_main+0xf5) [0x2adc85ba2555]
14  /cluster/scratch/galoisi/DPHPC/2022_hs_polybench_parallelization/src/seidel/OUT/./mpi_insiderank_optimisedserial.out() [0x401efc]
=================================
[eu-g1-050-2:125956] *** Process received signal ***
[eu-g1-050-2:125956] Signal: Aborted (6)
[eu-g1-050-2:125956] Signal code:  (-6)
[eu-g1-050-2:125956] [ 0] /lib64/libpthread.so.0(+0xf630)[0x2adc85973630]
[eu-g1-050-2:125956] [ 1] /lib64/libc.so.6(gsignal+0x37)[0x2adc85bb6387]
[eu-g1-050-2:125956] [ 2] /lib64/libc.so.6(abort+0x148)[0x2adc85bb7a78]
[eu-g1-050-2:125956] [ 3] /cluster/spack/apps/linux-centos7-x86_64/gcc-9.3.0/ucx-1.12.1-xfljgpcc4jht7wamy2hjr2mdvn7y3u5g/lib/libucs.so.0(ucs_fatal_error_message+0x55)[0x2adc8783d315]
[eu-g1-050-2:125956] [ 4] /cluster/spack/apps/linux-centos7-x86_64/gcc-9.3.0/ucx-1.12.1-xfljgpcc4jht7wamy2hjr2mdvn7y3u5g/lib/libucs.so.0(ucs_fatal_error_format+0xd9)[0x2adc8783d489]
[eu-g1-050-2:125956] [ 5] /cluster/spack/apps/linux-centos7-x86_64/gcc-9.3.0/ucx-1.12.1-xfljgpcc4jht7wamy2hjr2mdvn7y3u5g/lib/libucp.so.0(+0x84520)[0x2adc87318520]
[eu-g1-050-2:125956] [ 6] /cluster/spack/apps/linux-centos7-x86_64/gcc-9.3.0/ucx-1.12.1-xfljgpcc4jht7wamy2hjr2mdvn7y3u5g/lib/libucp.so.0(+0x8564a)[0x2adc8731964a]
[eu-g1-050-2:125956] [ 7] /cluster/spack/apps/linux-centos7-x86_64/gcc-9.3.0/ucx-1.12.1-xfljgpcc4jht7wamy2hjr2mdvn7y3u5g/lib/libucp.so.0(ucp_rndv_receive+0x190)[0x2adc8731d0c0]
[eu-g1-050-2:125956] [ 8] /cluster/spack/apps/linux-centos7-x86_64/gcc-9.3.0/ucx-1.12.1-xfljgpcc4jht7wamy2hjr2mdvn7y3u5g/lib/libucp.so.0(ucp_tag_rndv_process_rts+0x38a)[0x2adc8733961a]
[eu-g1-050-2:125956] [ 9] /cluster/spack/apps/linux-centos7-x86_64/gcc-9.3.0/ucx-1.12.1-xfljgpcc4jht7wamy2hjr2mdvn7y3u5g/lib/libuct.so.0(+0x186eb)[0x2adc875e06eb]
[eu-g1-050-2:125956] [10] /cluster/spack/apps/linux-centos7-x86_64/gcc-9.3.0/ucx-1.12.1-xfljgpcc4jht7wamy2hjr2mdvn7y3u5g/lib/libucp.so.0(ucp_worker_progress+0x7a)[0x2adc872dc2aa]
[eu-g1-050-2:125956] [11] /cluster/spack/apps/linux-centos7-x86_64/gcc-9.3.0/openmpi-4.1.4-ce3rybsut3hyqo2i2sm5qwu2muxqny3x/lib/libopen-pal.so.40(opal_progress+0x2b)[0x2adc86e7ea2b]
[eu-g1-050-2:125956] [12] /cluster/spack/apps/linux-centos7-x86_64/gcc-9.3.0/openmpi-4.1.4-ce3rybsut3hyqo2i2sm5qwu2muxqny3x/lib/libmpi.so.40(mca_pml_ucx_recv+0x185)[0x2adc8542dff5]
[eu-g1-050-2:125956] [13] /cluster/spack/apps/linux-centos7-x86_64/gcc-9.3.0/openmpi-4.1.4-ce3rybsut3hyqo2i2sm5qwu2muxqny3x/lib/libmpi.so.40(MPI_Recv+0xf5)[0x2adc852aae45]
[eu-g1-050-2:125956] [14] /cluster/scratch/galoisi/DPHPC/2022_hs_polybench_parallelization/src/seidel/OUT/./mpi_insiderank_optimisedserial.out[0x401dc3]
[eu-g1-050-2:125956] [15] /lib64/libc.so.6(__libc_start_main+0xf5)[0x2adc85ba2555]
[eu-g1-050-2:125956] [16] /cluster/scratch/galoisi/DPHPC/2022_hs_polybench_parallelization/src/seidel/OUT/./mpi_insiderank_optimisedserial.out[0x401efc]
[eu-g1-050-2:125956] *** End of error message ***
srun: error: eu-g1-050-2: task 0: Killed
srun: error: eu-g1-050-2: task 3: Aborted
slurmstepd: error: *** STEP 4309699.0 ON eu-g1-050-2 CANCELLED AT 2022-12-14T19:49:16 DUE TO TIME LIMIT ***
slurmstepd: error: *** JOB 4309699 ON eu-g1-050-2 CANCELLED AT 2022-12-14T19:49:16 DUE TO TIME LIMIT ***
