[eu-g1-036-1:174812:0:174812]      cma_ep.c:81   process_vm_readv(pid=174808 {0x2b92191a0010,524288}-->{0x2b9e2026d000,524288}) returned -1: Bad address
==== backtrace (tid: 174812) ====
 0  /cluster/spack/apps/linux-centos7-x86_64/gcc-9.3.0/ucx-1.12.1-xfljgpcc4jht7wamy2hjr2mdvn7y3u5g/lib/libucs.so.0(ucs_handle_error+0x2a4) [0x2b92046d6574]
 1  /cluster/spack/apps/linux-centos7-x86_64/gcc-9.3.0/ucx-1.12.1-xfljgpcc4jht7wamy2hjr2mdvn7y3u5g/lib/libucs.so.0(ucs_fatal_error_message+0x50) [0x2b92046d3310]
 2  /cluster/spack/apps/linux-centos7-x86_64/gcc-9.3.0/ucx-1.12.1-xfljgpcc4jht7wamy2hjr2mdvn7y3u5g/lib/libucs.so.0(ucs_log_default_handler+0xea0) [0x2b92046d8100]
 3  /cluster/spack/apps/linux-centos7-x86_64/gcc-9.3.0/ucx-1.12.1-xfljgpcc4jht7wamy2hjr2mdvn7y3u5g/lib/libucs.so.0(ucs_log_dispatch+0xd1) [0x2b92046d82b1]
 4  /cluster/spack/apps/linux-centos7-x86_64/gcc-9.3.0/ucx-1.12.1-xfljgpcc4jht7wamy2hjr2mdvn7y3u5g/lib/ucx/libuct_cma.so.0(+0x2c93) [0x2b9210002c93]
 5  /cluster/spack/apps/linux-centos7-x86_64/gcc-9.3.0/ucx-1.12.1-xfljgpcc4jht7wamy2hjr2mdvn7y3u5g/lib/ucx/libuct_cma.so.0(uct_cma_ep_tx+0x25c) [0x2b921000313c]
 6  /cluster/spack/apps/linux-centos7-x86_64/gcc-9.3.0/ucx-1.12.1-xfljgpcc4jht7wamy2hjr2mdvn7y3u5g/lib/libuct.so.0(uct_scopy_ep_progress_tx+0x63) [0x2b920447c203]
 7  /cluster/spack/apps/linux-centos7-x86_64/gcc-9.3.0/ucx-1.12.1-xfljgpcc4jht7wamy2hjr2mdvn7y3u5g/lib/libucs.so.0(ucs_arbiter_dispatch_nonempty+0xee) [0x2b92046c840e]
 8  /cluster/spack/apps/linux-centos7-x86_64/gcc-9.3.0/ucx-1.12.1-xfljgpcc4jht7wamy2hjr2mdvn7y3u5g/lib/libuct.so.0(uct_scopy_iface_progress+0x59) [0x2b920447bb99]
 9  /cluster/spack/apps/linux-centos7-x86_64/gcc-9.3.0/ucx-1.12.1-xfljgpcc4jht7wamy2hjr2mdvn7y3u5g/lib/libucp.so.0(ucp_worker_progress+0x7a) [0x2b92041722aa]
10  /cluster/spack/apps/linux-centos7-x86_64/gcc-9.3.0/openmpi-4.1.4-ce3rybsut3hyqo2i2sm5qwu2muxqny3x/lib/libmpi.so.40(mca_pml_ucx_recv+0x11f) [0x2b92022c3f8f]
11  /cluster/spack/apps/linux-centos7-x86_64/gcc-9.3.0/openmpi-4.1.4-ce3rybsut3hyqo2i2sm5qwu2muxqny3x/lib/libmpi.so.40(MPI_Recv+0xf5) [0x2b9202140e45]
12  /cluster/scratch/galoisi/DPHPC/2022_hs_polybench_parallelization/src/seidel/OUT/./mpi_insiderank_optimisedserial.out() [0x401dc3]
13  /lib64/libc.so.6(__libc_start_main+0xf5) [0x2b9202a38555]
14  /cluster/scratch/galoisi/DPHPC/2022_hs_polybench_parallelization/src/seidel/OUT/./mpi_insiderank_optimisedserial.out() [0x401efc]
=================================
[eu-g1-036-1:174812] *** Process received signal ***
[eu-g1-036-1:174812] Signal: Aborted (6)
[eu-g1-036-1:174812] Signal code:  (-6)
[eu-g1-036-1:174812] [ 0] /lib64/libpthread.so.0(+0xf630)[0x2b9202809630]
[eu-g1-036-1:174812] [ 1] /lib64/libc.so.6(gsignal+0x37)[0x2b9202a4c387]
[eu-g1-036-1:174812] [ 2] /lib64/libc.so.6(abort+0x148)[0x2b9202a4da78]
[eu-g1-036-1:174812] [ 3] /cluster/spack/apps/linux-centos7-x86_64/gcc-9.3.0/ucx-1.12.1-xfljgpcc4jht7wamy2hjr2mdvn7y3u5g/lib/libucs.so.0(ucs_fatal_error_message+0x55)[0x2b92046d3315]
[eu-g1-036-1:174812] [ 4] /cluster/spack/apps/linux-centos7-x86_64/gcc-9.3.0/ucx-1.12.1-xfljgpcc4jht7wamy2hjr2mdvn7y3u5g/lib/libucs.so.0(ucs_log_default_handler+0xea0)[0x2b92046d8100]
[eu-g1-036-1:174812] [ 5] /cluster/spack/apps/linux-centos7-x86_64/gcc-9.3.0/ucx-1.12.1-xfljgpcc4jht7wamy2hjr2mdvn7y3u5g/lib/libucs.so.0(ucs_log_dispatch+0xd1)[0x2b92046d82b1]
[eu-g1-036-1:174812] [ 6] /cluster/spack/apps/linux-centos7-x86_64/gcc-9.3.0/ucx-1.12.1-xfljgpcc4jht7wamy2hjr2mdvn7y3u5g/lib/ucx/libuct_cma.so.0(+0x2c93)[0x2b9210002c93]
[eu-g1-036-1:174812] [ 7] /cluster/spack/apps/linux-centos7-x86_64/gcc-9.3.0/ucx-1.12.1-xfljgpcc4jht7wamy2hjr2mdvn7y3u5g/lib/ucx/libuct_cma.so.0(uct_cma_ep_tx+0x25c)[0x2b921000313c]
[eu-g1-036-1:174812] [ 8] /cluster/spack/apps/linux-centos7-x86_64/gcc-9.3.0/ucx-1.12.1-xfljgpcc4jht7wamy2hjr2mdvn7y3u5g/lib/libuct.so.0(uct_scopy_ep_progress_tx+0x63)[0x2b920447c203]
[eu-g1-036-1:174812] [ 9] /cluster/spack/apps/linux-centos7-x86_64/gcc-9.3.0/ucx-1.12.1-xfljgpcc4jht7wamy2hjr2mdvn7y3u5g/lib/libucs.so.0(ucs_arbiter_dispatch_nonempty+0xee)[0x2b92046c840e]
[eu-g1-036-1:174812] [10] /cluster/spack/apps/linux-centos7-x86_64/gcc-9.3.0/ucx-1.12.1-xfljgpcc4jht7wamy2hjr2mdvn7y3u5g/lib/libuct.so.0(uct_scopy_iface_progress+0x59)[0x2b920447bb99]
[eu-g1-036-1:174812] [11] /cluster/spack/apps/linux-centos7-x86_64/gcc-9.3.0/ucx-1.12.1-xfljgpcc4jht7wamy2hjr2mdvn7y3u5g/lib/libucp.so.0(ucp_worker_progress+0x7a)[0x2b92041722aa]
[eu-g1-036-1:174812] [12] /cluster/spack/apps/linux-centos7-x86_64/gcc-9.3.0/openmpi-4.1.4-ce3rybsut3hyqo2i2sm5qwu2muxqny3x/lib/libmpi.so.40(mca_pml_ucx_recv+0x11f)[0x2b92022c3f8f]
[eu-g1-036-1:174812] [13] /cluster/spack/apps/linux-centos7-x86_64/gcc-9.3.0/openmpi-4.1.4-ce3rybsut3hyqo2i2sm5qwu2muxqny3x/lib/libmpi.so.40(MPI_Recv+0xf5)[0x2b9202140e45]
[eu-g1-036-1:174812] [14] /cluster/scratch/galoisi/DPHPC/2022_hs_polybench_parallelization/src/seidel/OUT/./mpi_insiderank_optimisedserial.out[0x401dc3]
[eu-g1-036-1:174812] [15] /lib64/libc.so.6(__libc_start_main+0xf5)[0x2b9202a38555]
[eu-g1-036-1:174812] [16] /cluster/scratch/galoisi/DPHPC/2022_hs_polybench_parallelization/src/seidel/OUT/./mpi_insiderank_optimisedserial.out[0x401efc]
[eu-g1-036-1:174812] *** End of error message ***
slurmstepd: error: Detected 1 oom-kill event(s) in StepId=4309708.0. Some of your processes may have been killed by the cgroup out-of-memory handler.
srun: error: eu-g1-036-1: task 0: Out Of Memory
slurmstepd: error: *** STEP 4309708.0 ON eu-g1-036-1 CANCELLED AT 2022-12-14T19:50:16 DUE TO TIME LIMIT ***
slurmstepd: error: *** JOB 4309708 ON eu-g1-036-1 CANCELLED AT 2022-12-14T19:50:16 DUE TO TIME LIMIT ***
srun: Job step aborted: Waiting up to 32 seconds for job step to finish.
slurmstepd: error: Detected 1 oom-kill event(s) in StepId=4309708.batch. Some of your processes may have been killed by the cgroup out-of-memory handler.
