slurmstepd: error: Detected 2 oom-kill event(s) in StepId=4309711.0. Some of your processes may have been killed by the cgroup out-of-memory handler.
srun: error: eu-a2p-503: tasks 17,33: Out Of Memory
[1671040270.027614] [eu-a2p-503:112314:0]           ib_md.c:349  UCX  ERROR ibv_reg_mr(address=0x2b74b38bc000, length=37773312, access=0xf) failed: Cannot allocate memory
[1671040270.028647] [eu-a2p-503:112314:0]           mpool.c:226  UCX  ERROR Failed to allocate memory pool (name=rc_recv_desc) chunk: Input/output error
libnuma: Warning: Cannot parse distance information in sysfs: Bad address
[1671040270.797045] [eu-a2p-503:112332:0]           ib_md.c:349  UCX  ERROR ibv_reg_mr(address=0x2b9c9906a000, length=37773312, access=0xf) failed: Cannot allocate memory
[1671040270.831896] [eu-a2p-503:112332:0]           mpool.c:226  UCX  ERROR Failed to allocate memory pool (name=rc_recv_desc) chunk: Input/output error
[1671040271.237580] [eu-a2p-503:112324:0]         ib_mlx5.h:681  UCX  ERROR mlx5dv_devx_umem_reg() failed: Cannot allocate memory
[1671040271.250806] [eu-a2p-503:112371:0]         ib_mlx5.h:681  UCX  ERROR mlx5dv_devx_umem_reg() failed: Cannot allocate memory
[1671040271.250829] [eu-a2p-503:112359:0]         ib_mlx5.h:681  UCX  ERROR mlx5dv_devx_umem_reg() failed: Cannot allocate memory
[1671040271.237576] [eu-a2p-503:112317:0]        mm_posix.c:192  UCX  ERROR   Failed to write 65536 bytes. Cannot allocate memory
[1671040271.253636] [eu-a2p-503:112317:0]         uct_mem.c:155  UCX  ERROR   failed to allocate 4292720 bytes using md posix for mm_recv_desc: Input/output error
[1671040271.253645] [eu-a2p-503:112317:0]           mpool.c:226  UCX  ERROR Failed to allocate memory pool (name=mm_recv_desc) chunk: Input/output error
[1671040271.253649] [eu-a2p-503:112317:0]        mm_iface.c:793  UCX  ERROR failed to get the first receive descriptor
[eu-a2p-503:112317] pml_ucx.c:309  Error: Failed to create UCP worker
[eu-a2p-503:112371] pml_ucx.c:309  Error: Failed to create UCP worker
[eu-a2p-503:112324] pml_ucx.c:309  Error: Failed to create UCP worker
slurmstepd: error: poll(): Bad address
[eu-a2p-503:112359] pml_ucx.c:309  Error: Failed to create UCP worker
[1671040273.874895] [eu-a2p-503:112351:0]        mm_posix.c:192  UCX  ERROR   Failed to write 65536 bytes. Cannot allocate memory
[1671040273.875179] [eu-a2p-503:112351:0]         uct_mem.c:155  UCX  ERROR   failed to allocate 4292720 bytes using md posix for mm_recv_desc: Input/output error
[1671040273.875185] [eu-a2p-503:112351:0]           mpool.c:226  UCX  ERROR Failed to allocate memory pool (name=mm_recv_desc) chunk: Input/output error
[1671040273.875189] [eu-a2p-503:112351:0]        mm_iface.c:793  UCX  ERROR failed to get the first receive descriptor
[eu-a2p-503:112351] pml_ucx.c:309  Error: Failed to create UCP worker
[1671040273.874566] [eu-a2p-503:112355:0]        mm_posix.c:192  UCX  ERROR   Failed to write 65536 bytes. Cannot allocate memory
[1671040273.875031] [eu-a2p-503:112355:0]         uct_mem.c:155  UCX  ERROR   failed to allocate 4292720 bytes using md posix for mm_recv_desc: Input/output error
[1671040273.875043] [eu-a2p-503:112355:0]           mpool.c:226  UCX  ERROR Failed to allocate memory pool (name=mm_recv_desc) chunk: Input/output error
[1671040273.875047] [eu-a2p-503:112355:0]        mm_iface.c:793  UCX  ERROR failed to get the first receive descriptor
[eu-a2p-503:112355] pml_ucx.c:309  Error: Failed to create UCP worker
[1671040273.868281] [eu-a2p-503:112356:0]           ib_md.c:349  UCX  ERROR ibv_reg_mr(address=0x2ad2dc184000, length=37773312, access=0xf) failed: Cannot allocate memory
[1671040273.868459] [eu-a2p-503:112356:0]           mpool.c:226  UCX  ERROR Failed to allocate memory pool (name=rc_recv_desc) chunk: Input/output error
[1671040273.876657] [eu-a2p-503:112318:0]           ib_md.c:349  UCX  ERROR ibv_reg_mr(address=0x2b181d268000, length=37773312, access=0xf) failed: Cannot allocate memory
[1671040273.880805] [eu-a2p-503:112318:0]           mpool.c:226  UCX  ERROR Failed to allocate memory pool (name=rc_recv_desc) chunk: Input/output error
[1671040274.069479] [eu-a2p-503:112360:0]         ib_mlx5.h:681  UCX  ERROR mlx5dv_devx_umem_reg() failed: Cannot allocate memory
[1671040274.070076] [eu-a2p-503:112343:0]         ib_mlx5.h:681  UCX  ERROR mlx5dv_devx_umem_reg() failed: Cannot allocate memory
[eu-a2p-503:112360] pml_ucx.c:309  Error: Failed to create UCP worker
[1671040274.083554] [eu-a2p-503:112331:0]         ib_mlx5.h:681  UCX  ERROR mlx5dv_devx_umem_reg() failed: Cannot allocate memory
[eu-a2p-503:112331] pml_ucx.c:309  Error: Failed to create UCP worker
[eu-a2p-503:112343] pml_ucx.c:309  Error: Failed to create UCP worker
[1671040275.398070] [eu-a2p-503:112363:0]         ib_mlx5.h:681  UCX  ERROR mlx5dv_devx_umem_reg() failed: Cannot allocate memory
[eu-a2p-503:112363] pml_ucx.c:309  Error: Failed to create UCP worker
[1671040275.526386] [eu-a2p-503:112318:0]           ib_md.c:349  UCX  ERROR ibv_reg_mr(address=0x2b181d800000, length=37773312, access=0xf) failed: Cannot allocate memory
[1671040275.526563] [eu-a2p-503:112318:0]           mpool.c:226  UCX  ERROR Failed to allocate memory pool (name=rc_recv_desc) chunk: Input/output error
[1671040275.494442] [eu-a2p-503:112330:0]           ib_md.c:349  UCX  ERROR ibv_reg_mr(address=0x2ae102e99000, length=37773312, access=0xf) failed: Cannot allocate memory
slurmstepd: error: execve(/cluster/slurm/adm/scripts/task-epilog.sh): Argument list too long
slurmstepd: error: --task-epilog failed status=32512
[1671040275.614893] [eu-a2p-503:112330:0]           mpool.c:226  UCX  ERROR Failed to allocate memory pool (name=rc_recv_desc) chunk: Input/output error
slurmstepd: error: execve(/cluster/slurm/adm/scripts/task-epilog.sh): Argument list too long
slurmstepd: error: --task-epilog failed status=32512
slurmstepd: error: execve(/cluster/slurm/adm/scripts/task-epilog.sh): Argument list too long
[1671040277.689678] [eu-a2p-503:112365:0]         ib_mlx5.h:681  UCX  ERROR mlx5dv_devx_umem_reg() failed: Cannot allocate memory
[1671040277.689717] [eu-a2p-503:112349:0]           ib_md.c:349  UCX  ERROR ibv_reg_mr(address=0x2b3e09254000, length=37773312, access=0xf) failed: Cannot allocate memory
[1671040277.689717] [eu-a2p-503:112353:0]           ib_md.c:349  UCX  ERROR ibv_reg_mr(address=0x2ae826fbd000, length=37773312, access=0xf) failed: Cannot allocate memory
slurmstepd: error: --task-epilog failed status=32512
[1671040277.691150] [eu-a2p-503:112336:0]           ib_md.c:349  UCX  ERROR ibv_reg_mr(address=0x2b1cafd08000, length=37773312, access=0xf) failed: Cannot allocate memory
[1671040277.691290] [eu-a2p-503:112336:0]           mpool.c:226  UCX  ERROR Failed to allocate memory pool (name=rc_recv_desc) chunk: Input/output error
[1671040277.691427] [eu-a2p-503:112349:0]           mpool.c:226  UCX  ERROR Failed to allocate memory pool (name=rc_recv_desc) chunk: Input/output error
[1671040277.691392] [eu-a2p-503:112353:0]           mpool.c:226  UCX  ERROR Failed to allocate memory pool (name=rc_recv_desc) chunk: Input/output error
[1671040277.691910] [eu-a2p-503:112309:0]         ib_mlx5.h:681  UCX  ERROR mlx5dv_devx_umem_reg() failed: Cannot allocate memory
[1671040277.691909] [eu-a2p-503:112325:0]         ib_mlx5.h:681  UCX  ERROR mlx5dv_devx_umem_reg() failed: Cannot allocate memory
[1671040277.691928] [eu-a2p-503:112327:0]         ib_mlx5.h:681  UCX  ERROR mlx5dv_devx_umem_reg() failed: Cannot allocate memory
[1671040277.691928] [eu-a2p-503:112339:0]         ib_mlx5.h:681  UCX  ERROR mlx5dv_devx_umem_reg() failed: Cannot allocate memory
[1671040277.691956] [eu-a2p-503:112313:0]         ib_mlx5.h:681  UCX  ERROR mlx5dv_devx_umem_reg() failed: Cannot allocate memory
[1671040277.691967] [eu-a2p-503:112319:0]         ib_mlx5.h:681  UCX  ERROR mlx5dv_devx_umem_reg() failed: Cannot allocate memory
[1671040277.691986] [eu-a2p-503:112329:0]         ib_mlx5.h:681  UCX  ERROR mlx5dv_devx_umem_reg() failed: Cannot allocate memory
[1671040277.691956] [eu-a2p-503:112337:0]         ib_mlx5.h:681  UCX  ERROR mlx5dv_devx_umem_reg() failed: Cannot allocate memory
[eu-a2p-503:112339] pml_ucx.c:309  Error: Failed to create UCP worker
[eu-a2p-503:112313] pml_ucx.c:309  Error: Failed to create UCP worker
[eu-a2p-503:112327] pml_ucx.c:309  Error: Failed to create UCP worker
[eu-a2p-503:112337] pml_ucx.c:309  Error: Failed to create UCP worker
[eu-a2p-503:112309] pml_ucx.c:309  Error: Failed to create UCP worker
[eu-a2p-503:112365] pml_ucx.c:309  Error: Failed to create UCP worker
[eu-a2p-503:112319] pml_ucx.c:309  Error: Failed to create UCP worker
[eu-a2p-503:112329] pml_ucx.c:309  Error: Failed to create UCP worker
[eu-a2p-503:112325] pml_ucx.c:309  Error: Failed to create UCP worker
slurmstepd: error: *** STEP 4309711.0 ON eu-a2p-503 CANCELLED AT 2022-12-14T19:51:19 DUE TO TIME LIMIT ***
slurmstepd: error: *** JOB 4309711 ON eu-a2p-503 CANCELLED AT 2022-12-14T19:51:19 DUE TO TIME LIMIT ***
srun: Job step aborted: Waiting up to 32 seconds for job step to finish.
slurmstepd: error: Detected 64 oom-kill event(s) in StepId=4309711.batch. Some of your processes may have been killed by the cgroup out-of-memory handler.
