MPI_insiderank_optimisedserial
Process 0: 5.524071, 5.099031, 4.999103, 4.978085, 4.949191, 4.918732, 4.962431, 4.883522, 4.909631, 4.851687, 4.896880, 4.974316, 4.868562, 4.947731, 4.849068, 4.869947, 4.897477, 4.952324, 4.850285, 4.865596, 4.931186, 4.853466, 4.865712, 4.960679, 4.876448, 4.886811, 4.853372, 4.863145, 4.852785, 4.995471
Process 1: 5.534062, 5.108306, 5.009028, 4.987782, 4.957236, 4.926752, 4.971126, 4.893216, 4.918877, 4.861363, 4.906041, 4.983418, 4.877740, 4.957380, 4.857337, 4.878081, 4.907090, 4.961365, 4.858144, 4.875149, 4.940407, 4.863409, 4.874079, 4.970773, 4.887203, 4.897379, 4.861858, 4.871960, 4.862762, 5.003768
