MPI_insiderank_optimisedserial
Process 0: 2.207022, 1.687197, 1.687474, 1.669253, 1.634153, 1.674983, 1.673059, 1.644576, 1.684012, 1.663514, 1.637195, 1.661588, 1.679161, 1.685290, 1.671389, 1.649766, 1.652169, 1.654499, 1.646471, 1.686966, 1.649962, 1.655013, 1.687672, 1.663141, 1.667076, 1.631841, 1.667136, 1.663143, 1.651876, 1.650270
Process 1: 2.210061, 1.690186, 1.690624, 1.672280, 1.637169, 1.678156, 1.676105, 1.647713, 1.687148, 1.666568, 1.640262, 1.664553, 1.682189, 1.688430, 1.674578, 1.652992, 1.655218, 1.657499, 1.649507, 1.690102, 1.653137, 1.658021, 1.690775, 1.666132, 1.670119, 1.634873, 1.670169, 1.666292, 1.654921, 1.653315
