MPI_insiderank_optimisedserial
Process 0: 0.253383, 0.205526, 0.185991, 0.189869, 0.186523, 0.186513, 0.190362, 0.185561, 0.185336, 0.190172, 0.186100, 0.185646, 0.190047, 0.186624, 0.192598, 0.201866, 0.193564, 0.184765, 0.189747, 0.186198, 0.185247, 0.189455, 0.186200, 0.186002, 0.207145, 0.186694, 0.186362, 0.189657, 0.186835, 0.186017
Process 1: 0.210051, 0.162885, 0.142358, 0.145617, 0.143007, 0.143424, 0.145956, 0.142653, 0.142337, 0.145768, 0.143205, 0.142650, 0.145665, 0.143611, 0.147611, 0.157139, 0.150758, 0.141986, 0.145338, 0.143283, 0.142218, 0.144946, 0.143410, 0.142830, 0.163161, 0.143542, 0.143197, 0.145508, 0.143659, 0.143033
Process 2: 0.211232, 0.164219, 0.143606, 0.147013, 0.144253, 0.144665, 0.147426, 0.143905, 0.143572, 0.147453, 0.144431, 0.143927, 0.147388, 0.144863, 0.148817, 0.158375, 0.152009, 0.143225, 0.146850, 0.144522, 0.143492, 0.146648, 0.144646, 0.144098, 0.164540, 0.144797, 0.144447, 0.146955, 0.144935, 0.144302
Process 3: 0.212791, 0.165613, 0.145188, 0.148654, 0.145851, 0.146241, 0.149084, 0.145485, 0.145163, 0.149034, 0.146026, 0.145504, 0.148976, 0.146454, 0.150415, 0.160499, 0.153619, 0.144827, 0.148682, 0.146119, 0.145078, 0.148270, 0.146227, 0.145737, 0.166060, 0.146354, 0.146027, 0.148596, 0.146520, 0.145874
Process 4: 0.213947, 0.166862, 0.146394, 0.150028, 0.147065, 0.147442, 0.150550, 0.146663, 0.146385, 0.150307, 0.147220, 0.146704, 0.150200, 0.147671, 0.151652, 0.161836, 0.154809, 0.146007, 0.149890, 0.147334, 0.146264, 0.149509, 0.147434, 0.146932, 0.167405, 0.147576, 0.147256, 0.149803, 0.147698, 0.147081
Process 5: 0.215623, 0.168437, 0.148095, 0.151721, 0.148749, 0.149135, 0.152229, 0.148299, 0.148041, 0.152014, 0.148902, 0.148364, 0.151896, 0.149343, 0.153297, 0.163596, 0.156448, 0.147671, 0.151550, 0.149033, 0.147921, 0.151217, 0.149090, 0.148583, 0.169085, 0.149248, 0.148924, 0.151485, 0.149359, 0.148730
Process 6: 0.216827, 0.169696, 0.149296, 0.152963, 0.149924, 0.150333, 0.153445, 0.149523, 0.149252, 0.153261, 0.150143, 0.149594, 0.153123, 0.150576, 0.154527, 0.164831, 0.157681, 0.148879, 0.152789, 0.150216, 0.149152, 0.152456, 0.150304, 0.149810, 0.170297, 0.150460, 0.150152, 0.152730, 0.150565, 0.149986
Process 7: 0.218619, 0.171332, 0.151044, 0.154704, 0.151639, 0.152032, 0.155164, 0.151245, 0.150960, 0.154988, 0.151808, 0.151268, 0.154843, 0.152273, 0.156228, 0.166549, 0.159396, 0.150560, 0.154520, 0.151919, 0.150871, 0.154190, 0.151970, 0.151513, 0.172038, 0.152132, 0.151914, 0.154461, 0.152328, 0.151662
Process 8: 0.220105, 0.172826, 0.152396, 0.156102, 0.152996, 0.153384, 0.156563, 0.152575, 0.152323, 0.156378, 0.153194, 0.152648, 0.156249, 0.153651, 0.159957, 0.167960, 0.160744, 0.151926, 0.155913, 0.153274, 0.152229, 0.155574, 0.153350, 0.152895, 0.173350, 0.153550, 0.153285, 0.155870, 0.153756, 0.153038
Process 9: 0.221693, 0.174262, 0.153897, 0.157617, 0.154469, 0.154842, 0.158071, 0.154032, 0.153825, 0.157900, 0.154657, 0.154140, 0.157755, 0.155117, 0.161447, 0.169510, 0.162234, 0.153370, 0.157430, 0.154740, 0.153714, 0.157081, 0.154816, 0.154375, 0.174782, 0.155004, 0.154734, 0.157392, 0.155273, 0.154514
Process 10: 0.223007, 0.175593, 0.155301, 0.159031, 0.155883, 0.156235, 0.159497, 0.155404, 0.155194, 0.159311, 0.156029, 0.155527, 0.159193, 0.156521, 0.162844, 0.170941, 0.163588, 0.154773, 0.158864, 0.156146, 0.155090, 0.158551, 0.156209, 0.155756, 0.176261, 0.156375, 0.156136, 0.158822, 0.156633, 0.155913
Process 11: 0.224596, 0.177039, 0.156789, 0.160547, 0.157370, 0.157714, 0.161004, 0.156865, 0.156671, 0.160872, 0.157481, 0.157012, 0.160703, 0.157995, 0.164296, 0.172463, 0.165065, 0.156232, 0.160392, 0.157605, 0.156564, 0.160075, 0.157672, 0.157243, 0.177818, 0.157855, 0.157588, 0.160359, 0.158079, 0.157385
Process 12: 0.225916, 0.178451, 0.158229, 0.161994, 0.158779, 0.159166, 0.162493, 0.158282, 0.158093, 0.162311, 0.158861, 0.158419, 0.162159, 0.159429, 0.165704, 0.173910, 0.166470, 0.157641, 0.161823, 0.159043, 0.157990, 0.161510, 0.159101, 0.158668, 0.179134, 0.159285, 0.158986, 0.161798, 0.159485, 0.158813
Process 13: 0.227461, 0.179927, 0.159745, 0.163548, 0.160287, 0.160660, 0.164042, 0.159771, 0.159590, 0.163866, 0.160363, 0.159919, 0.163707, 0.160916, 0.167146, 0.175460, 0.167948, 0.159132, 0.163378, 0.160533, 0.159491, 0.163067, 0.160592, 0.160175, 0.180826, 0.160790, 0.160475, 0.163348, 0.160976, 0.160332
Process 14: 0.228848, 0.181353, 0.161196, 0.165042, 0.161703, 0.162072, 0.165504, 0.161215, 0.161001, 0.165306, 0.161791, 0.161340, 0.165156, 0.162341, 0.168506, 0.176886, 0.169386, 0.160553, 0.164824, 0.161949, 0.160919, 0.164527, 0.162010, 0.161604, 0.182141, 0.162195, 0.161912, 0.164797, 0.162386, 0.161748
Process 15: 0.230429, 0.182804, 0.162717, 0.166564, 0.163186, 0.163559, 0.167017, 0.162674, 0.162462, 0.166828, 0.163263, 0.162814, 0.166686, 0.163822, 0.169990, 0.178394, 0.170868, 0.162013, 0.166348, 0.163423, 0.162408, 0.166062, 0.163468, 0.163093, 0.183629, 0.163668, 0.163389, 0.166370, 0.163851, 0.163229
Process 16: 0.231872, 0.184266, 0.164057, 0.167899, 0.164484, 0.164868, 0.168354, 0.163982, 0.163761, 0.168151, 0.164570, 0.164143, 0.168012, 0.165148, 0.171285, 0.179760, 0.172163, 0.163325, 0.167689, 0.164729, 0.163734, 0.167425, 0.164777, 0.164404, 0.184960, 0.164970, 0.164777, 0.167698, 0.165179, 0.164547
Process 17: 0.233454, 0.185739, 0.165607, 0.169478, 0.166027, 0.166409, 0.169924, 0.165521, 0.165312, 0.169725, 0.166125, 0.165679, 0.169610, 0.166669, 0.172845, 0.181338, 0.173713, 0.164853, 0.169273, 0.166265, 0.165270, 0.168988, 0.166325, 0.165973, 0.186484, 0.166516, 0.166381, 0.169270, 0.166742, 0.166090
Process 18: 0.234674, 0.186997, 0.166923, 0.170805, 0.167341, 0.167709, 0.171258, 0.166809, 0.166621, 0.171079, 0.167404, 0.166969, 0.170929, 0.167972, 0.174127, 0.182661, 0.174985, 0.166132, 0.170637, 0.167601, 0.166565, 0.170312, 0.167610, 0.167246, 0.187898, 0.167815, 0.167671, 0.170618, 0.168074, 0.167378
Process 19: 0.236283, 0.188504, 0.168475, 0.172364, 0.168876, 0.169263, 0.172839, 0.168340, 0.168168, 0.172650, 0.168957, 0.168493, 0.172495, 0.169538, 0.175661, 0.184249, 0.176506, 0.167656, 0.172234, 0.169163, 0.168111, 0.171892, 0.169162, 0.168789, 0.189475, 0.169352, 0.169198, 0.172173, 0.169608, 0.168922
Process 20: 0.237508, 0.189832, 0.169844, 0.173729, 0.170194, 0.170581, 0.174179, 0.169660, 0.169468, 0.173986, 0.170292, 0.169807, 0.173850, 0.170849, 0.176943, 0.185589, 0.177848, 0.168954, 0.173564, 0.170473, 0.169422, 0.173232, 0.170468, 0.170102, 0.190844, 0.170665, 0.170515, 0.173506, 0.170923, 0.170252
Process 21: 0.239068, 0.191335, 0.171456, 0.175335, 0.171746, 0.172135, 0.175775, 0.171212, 0.171042, 0.175569, 0.171823, 0.171342, 0.175419, 0.172391, 0.178479, 0.187183, 0.179395, 0.170471, 0.175149, 0.172014, 0.170980, 0.174813, 0.172006, 0.171708, 0.192418, 0.172202, 0.172060, 0.175082, 0.172464, 0.171783
Process 22: 0.240447, 0.192650, 0.172809, 0.176685, 0.173036, 0.173439, 0.177148, 0.172541, 0.172353, 0.176903, 0.173151, 0.172640, 0.176773, 0.173698, 0.179746, 0.188523, 0.180715, 0.171788, 0.176489, 0.173317, 0.172269, 0.176167, 0.173321, 0.172994, 0.193774, 0.173522, 0.173377, 0.176473, 0.173816, 0.173108
Process 23: 0.242010, 0.194161, 0.174384, 0.178271, 0.174617, 0.174998, 0.178737, 0.174142, 0.173942, 0.178499, 0.174695, 0.174214, 0.178392, 0.175251, 0.181278, 0.190167, 0.182248, 0.173331, 0.178075, 0.174861, 0.173896, 0.177805, 0.174867, 0.174578, 0.195367, 0.175061, 0.174919, 0.178070, 0.175407, 0.174706
Process 24: 0.243479, 0.195625, 0.175709, 0.179604, 0.175925, 0.176387, 0.180071, 0.175478, 0.175251, 0.179839, 0.176000, 0.175524, 0.179737, 0.176547, 0.182597, 0.191485, 0.183553, 0.174666, 0.179456, 0.176157, 0.175201, 0.179153, 0.176162, 0.175938, 0.196604, 0.176358, 0.176218, 0.179379, 0.176739, 0.176003
Process 25: 0.245034, 0.197142, 0.177275, 0.181181, 0.177455, 0.177937, 0.181676, 0.177015, 0.176827, 0.181449, 0.177548, 0.177073, 0.181299, 0.178110, 0.184110, 0.193089, 0.185093, 0.176201, 0.181032, 0.177694, 0.176744, 0.180731, 0.177707, 0.177522, 0.198264, 0.177882, 0.177744, 0.180950, 0.178281, 0.177535
Process 26: 0.246248, 0.198384, 0.178615, 0.182496, 0.178755, 0.179239, 0.183000, 0.178307, 0.178103, 0.182777, 0.178845, 0.178372, 0.182628, 0.179407, 0.185400, 0.194409, 0.186367, 0.177501, 0.182359, 0.178996, 0.178017, 0.182057, 0.179003, 0.178802, 0.199550, 0.179194, 0.179093, 0.182274, 0.179586, 0.178828
Process 27: 0.247811, 0.199917, 0.180217, 0.184097, 0.180310, 0.180853, 0.184600, 0.179876, 0.179681, 0.184384, 0.180449, 0.179969, 0.184239, 0.180981, 0.186969, 0.196057, 0.187951, 0.179067, 0.183954, 0.180569, 0.179583, 0.183655, 0.180581, 0.180364, 0.201334, 0.180779, 0.180682, 0.183886, 0.181169, 0.180410
Process 28: 0.249104, 0.201206, 0.181556, 0.185442, 0.181600, 0.182138, 0.185916, 0.181187, 0.180943, 0.185679, 0.181725, 0.181249, 0.185560, 0.182262, 0.188249, 0.197351, 0.189224, 0.180348, 0.185264, 0.181841, 0.180876, 0.184978, 0.181845, 0.181639, 0.202489, 0.182046, 0.182002, 0.185191, 0.182439, 0.181671
Process 29: 0.250758, 0.202752, 0.183156, 0.187049, 0.183191, 0.183737, 0.187523, 0.182781, 0.182568, 0.187300, 0.183318, 0.182858, 0.187164, 0.183862, 0.189818, 0.199009, 0.190796, 0.181939, 0.186879, 0.183429, 0.182457, 0.186583, 0.183436, 0.183240, 0.204112, 0.183637, 0.183573, 0.186816, 0.184040, 0.183256
Process 30: 0.251966, 0.204063, 0.184482, 0.188386, 0.184465, 0.185028, 0.188864, 0.184061, 0.183836, 0.188637, 0.184601, 0.184142, 0.188539, 0.185132, 0.191111, 0.200350, 0.192084, 0.183246, 0.188227, 0.184706, 0.183762, 0.187954, 0.184723, 0.184527, 0.205461, 0.184910, 0.184871, 0.188163, 0.185330, 0.184533
Process 31: 0.253464, 0.205525, 0.185991, 0.189872, 0.186521, 0.186512, 0.190363, 0.185558, 0.185346, 0.190183, 0.186100, 0.185647, 0.190046, 0.186619, 0.192599, 0.201869, 0.193557, 0.184763, 0.189748, 0.186198, 0.185248, 0.189455, 0.186197, 0.186002, 0.207146, 0.186694, 0.186353, 0.189669, 0.186827, 0.186018
