MPI_insiderank_serial
Process 0: 7.504248, 7.511757, 7.503938, 7.503813, 7.503575, 7.503687, 7.503724, 7.503885, 7.503589, 7.503729, 7.503788, 7.503867, 7.503670, 7.503753, 7.503390, 7.503511, 7.503574, 7.503456, 7.503484, 7.503562, 7.503696, 7.503774, 7.503649, 7.503556, 7.503418, 7.503015, 7.503495, 7.503346, 7.503866, 7.503646
Process 1: 7.509803, 7.517331, 7.509540, 7.509373, 7.509123, 7.509305, 7.509288, 7.509464, 7.509162, 7.509271, 7.509295, 7.509384, 7.509229, 7.509294, 7.508924, 7.509038, 7.509092, 7.508997, 7.509076, 7.509123, 7.509250, 7.509304, 7.509232, 7.509112, 7.508984, 7.508557, 7.509046, 7.508902, 7.509438, 7.509165
