MPI_insiderank_optimisedserial
Process 0: 0.911383, 0.924082, 0.855959, 0.855070, 0.853426, 0.855568, 0.858698, 0.854165, 0.859481, 0.854788, 0.845336, 0.842423, 0.845559, 0.847114, 0.847713, 0.842285, 0.842716, 0.863128, 0.858546, 0.860036, 0.859234, 0.863555, 0.862898, 0.865495, 0.862582, 0.857193, 0.855568, 0.863767, 0.860537, 0.864543
Process 1: 0.822136, 0.831151, 0.765854, 0.765655, 0.765864, 0.766749, 0.764525, 0.762474, 0.765028, 0.766111, 0.752089, 0.751024, 0.750434, 0.749674, 0.751117, 0.748681, 0.748958, 0.764720, 0.761985, 0.765349, 0.761734, 0.764155, 0.765349, 0.766956, 0.765186, 0.762640, 0.761422, 0.766566, 0.763942, 0.764510
Process 2: 0.831644, 0.840744, 0.774473, 0.775261, 0.774398, 0.775664, 0.773896, 0.772208, 0.773726, 0.776746, 0.760862, 0.761610, 0.759385, 0.760438, 0.761886, 0.757957, 0.758244, 0.775834, 0.773341, 0.776238, 0.772674, 0.775173, 0.776523, 0.777856, 0.776282, 0.773482, 0.772082, 0.777651, 0.774962, 0.775755
Process 3: 0.842690, 0.851798, 0.783351, 0.786304, 0.783405, 0.786726, 0.784897, 0.783098, 0.782989, 0.785880, 0.771010, 0.771481, 0.770332, 0.771462, 0.772917, 0.769038, 0.769283, 0.787232, 0.784923, 0.787651, 0.783890, 0.786488, 0.787838, 0.789200, 0.787684, 0.784926, 0.783099, 0.788936, 0.786108, 0.787084
Process 4: 0.853414, 0.862463, 0.794075, 0.797004, 0.794293, 0.797337, 0.795673, 0.793788, 0.793830, 0.796557, 0.781703, 0.782266, 0.781052, 0.782237, 0.783655, 0.779800, 0.779975, 0.798471, 0.795644, 0.798725, 0.795104, 0.797693, 0.799002, 0.800341, 0.798819, 0.796084, 0.793801, 0.800028, 0.797079, 0.797979
Process 5: 0.861777, 0.871082, 0.802692, 0.805481, 0.802355, 0.805870, 0.804207, 0.804568, 0.802109, 0.804675, 0.789935, 0.790364, 0.789405, 0.790583, 0.792030, 0.788134, 0.788248, 0.808545, 0.804597, 0.806677, 0.803460, 0.806051, 0.807348, 0.810293, 0.807131, 0.803990, 0.802018, 0.808300, 0.807841, 0.806514
Process 6: 0.869474, 0.879007, 0.810577, 0.813197, 0.810656, 0.813604, 0.814416, 0.812407, 0.810375, 0.812863, 0.798232, 0.798598, 0.797706, 0.800213, 0.801816, 0.797464, 0.797721, 0.818996, 0.814805, 0.816683, 0.812754, 0.815886, 0.816313, 0.820688, 0.816060, 0.813548, 0.810882, 0.817294, 0.816335, 0.816729
Process 7: 0.877576, 0.886922, 0.818480, 0.821073, 0.817980, 0.821504, 0.825055, 0.820270, 0.819471, 0.820778, 0.806032, 0.806487, 0.806892, 0.810698, 0.812406, 0.808086, 0.808374, 0.829482, 0.825428, 0.826490, 0.823285, 0.826406, 0.827015, 0.831237, 0.826549, 0.823308, 0.821533, 0.827770, 0.826935, 0.827229
Process 8: 0.885239, 0.894656, 0.826250, 0.828840, 0.825637, 0.829242, 0.832499, 0.828028, 0.829254, 0.828580, 0.814716, 0.814263, 0.817092, 0.821324, 0.819896, 0.815646, 0.815859, 0.837024, 0.832925, 0.834117, 0.833868, 0.834085, 0.834504, 0.838749, 0.837142, 0.830969, 0.829051, 0.838371, 0.834446, 0.834841
Process 9: 0.892881, 0.903362, 0.835400, 0.836201, 0.833451, 0.836604, 0.839797, 0.835437, 0.839130, 0.835983, 0.824633, 0.822064, 0.827485, 0.828225, 0.827376, 0.822988, 0.823232, 0.844400, 0.840254, 0.841744, 0.840838, 0.842859, 0.842566, 0.846522, 0.844528, 0.838986, 0.836773, 0.845738, 0.842091, 0.843832
Process 10: 0.901808, 0.914091, 0.846123, 0.844754, 0.843464, 0.845247, 0.848379, 0.843811, 0.849087, 0.844459, 0.835383, 0.832083, 0.835172, 0.836824, 0.837403, 0.831984, 0.832409, 0.852831, 0.848252, 0.850081, 0.848905, 0.853571, 0.852590, 0.855194, 0.852274, 0.847233, 0.845282, 0.853459, 0.850249, 0.854556
Process 11: 0.912080, 0.924083, 0.855961, 0.855070, 0.853427, 0.855565, 0.858698, 0.854162, 0.859472, 0.854787, 0.845334, 0.842422, 0.845557, 0.847112, 0.847711, 0.842283, 0.842714, 0.863126, 0.858544, 0.860033, 0.859231, 0.863553, 0.862897, 0.865494, 0.862579, 0.857191, 0.855566, 0.863764, 0.860535, 0.864541
