MPI_insiderank_optimisedserial
Process 0: 0.940391, 0.959765, 0.948115, 0.948866, 0.949718, 0.951000, 0.947527, 0.948614, 0.952544, 0.954632, 0.946678, 0.953920, 0.954807, 0.953732, 0.952702, 0.955361, 0.952761, 0.953811, 0.952017, 0.955808, 0.952609, 0.954022, 0.954294, 0.953250, 0.956443, 0.952331, 0.956701, 0.950836, 0.956325, 0.954409
Process 1: 0.872159, 0.891564, 0.880023, 0.880638, 0.881561, 0.882913, 0.879561, 0.880561, 0.884188, 0.886553, 0.878585, 0.885789, 0.886822, 0.885738, 0.884587, 0.887409, 0.884783, 0.885818, 0.883928, 0.887906, 0.884506, 0.885989, 0.886289, 0.885210, 0.888397, 0.884234, 0.888768, 0.882851, 0.888316, 0.886490
Process 2: 0.884296, 0.903532, 0.891887, 0.892592, 0.893414, 0.894779, 0.891393, 0.892411, 0.896025, 0.898431, 0.890379, 0.897736, 0.898609, 0.897589, 0.896421, 0.899253, 0.896621, 0.897649, 0.895783, 0.899663, 0.896362, 0.897813, 0.898108, 0.897110, 0.900202, 0.896181, 0.900542, 0.894683, 0.900102, 0.898335
Process 3: 0.896187, 0.915329, 0.903725, 0.904369, 0.905293, 0.906511, 0.903211, 0.904126, 0.907773, 0.910220, 0.902241, 0.909441, 0.910432, 0.909335, 0.908258, 0.910960, 0.908404, 0.909473, 0.907598, 0.911405, 0.908143, 0.909564, 0.909911, 0.908863, 0.912028, 0.907924, 0.912355, 0.906371, 0.911849, 0.910081
Process 4: 0.907501, 0.926693, 0.915088, 0.915767, 0.916683, 0.917968, 0.914506, 0.915580, 0.919498, 0.921643, 0.913634, 0.920868, 0.921761, 0.920741, 0.919683, 0.922317, 0.919753, 0.920803, 0.918935, 0.922776, 0.919547, 0.920964, 0.921287, 0.920253, 0.923424, 0.919309, 0.923678, 0.917805, 0.923260, 0.921431
Process 5: 0.918804, 0.938093, 0.926446, 0.927224, 0.928062, 0.929448, 0.925944, 0.926913, 0.930895, 0.932951, 0.924987, 0.932223, 0.933135, 0.932141, 0.931057, 0.933714, 0.931160, 0.932198, 0.930357, 0.934165, 0.930978, 0.932392, 0.932684, 0.931595, 0.934826, 0.930712, 0.935065, 0.929214, 0.934682, 0.932766
Process 6: 0.930088, 0.949387, 0.937770, 0.938492, 0.939397, 0.940689, 0.937219, 0.938189, 0.942173, 0.944256, 0.936315, 0.943572, 0.944486, 0.943397, 0.942346, 0.945011, 0.942396, 0.943454, 0.941678, 0.945492, 0.942223, 0.943696, 0.943922, 0.942894, 0.946090, 0.941996, 0.946370, 0.940490, 0.945971, 0.944081
Process 7: 0.941238, 0.960630, 0.948978, 0.949672, 0.950560, 0.951843, 0.948342, 0.949454, 0.953373, 0.955445, 0.947488, 0.954729, 0.955615, 0.954570, 0.953540, 0.956204, 0.953613, 0.954657, 0.952831, 0.956648, 0.953441, 0.954851, 0.955126, 0.954087, 0.957278, 0.953160, 0.957533, 0.951650, 0.957177, 0.955213
