MPI_insiderank_optimisedserial
Process 0: 1.200304, 1.228233, 1.205948, 1.203666, 1.202002, 1.201567, 1.200864, 1.204311, 1.211925, 1.203660, 1.206776, 1.215541, 1.253078, 1.223663, 1.207029, 1.217654, 1.221477, 1.207583, 1.213604, 1.219880, 1.213075, 1.209136, 1.208214, 1.220774, 1.240321, 1.217556, 1.264352, 1.203298, 1.207820, 1.206602
Process 1: 1.001218, 1.027339, 1.007182, 1.004586, 1.003238, 1.003082, 1.001566, 1.005415, 1.013046, 1.004116, 1.008092, 1.012416, 1.052805, 1.024581, 1.005174, 1.018945, 1.022458, 1.008843, 1.007830, 1.018445, 1.013662, 1.010308, 1.009340, 1.022076, 1.021044, 1.018945, 1.065885, 1.004615, 1.008073, 1.008017
Process 2: 1.036892, 1.065005, 1.042674, 1.040081, 1.038636, 1.037754, 1.037547, 1.040810, 1.048713, 1.039521, 1.043326, 1.050655, 1.089748, 1.059999, 1.040706, 1.054196, 1.057841, 1.044297, 1.044927, 1.054750, 1.049480, 1.045632, 1.044629, 1.057355, 1.062744, 1.054380, 1.101080, 1.040083, 1.043881, 1.043385
Process 3: 1.071560, 1.099767, 1.077524, 1.075037, 1.073412, 1.073329, 1.072355, 1.075631, 1.083466, 1.074338, 1.078099, 1.087068, 1.124662, 1.094867, 1.077737, 1.089059, 1.092717, 1.079209, 1.083276, 1.091310, 1.084353, 1.080504, 1.079407, 1.092164, 1.104785, 1.089068, 1.135670, 1.074787, 1.078678, 1.078131
Process 4: 1.106016, 1.133773, 1.111683, 1.109102, 1.107518, 1.107283, 1.106482, 1.109884, 1.117557, 1.108466, 1.112180, 1.121142, 1.158608, 1.128987, 1.112481, 1.123113, 1.126817, 1.113235, 1.119132, 1.125413, 1.118638, 1.114741, 1.113537, 1.126234, 1.145962, 1.123006, 1.169726, 1.108769, 1.113279, 1.112162
Process 5: 1.139746, 1.167409, 1.145252, 1.142731, 1.141222, 1.140970, 1.140148, 1.143517, 1.151171, 1.142216, 1.145873, 1.154768, 1.192248, 1.162773, 1.146122, 1.156808, 1.160583, 1.146742, 1.152864, 1.159152, 1.152245, 1.148337, 1.147336, 1.159983, 1.179635, 1.156691, 1.203448, 1.142544, 1.146985, 1.145841
Process 6: 1.171215, 1.199011, 1.176777, 1.174309, 1.172730, 1.172443, 1.171626, 1.175074, 1.182769, 1.173765, 1.177612, 1.186360, 1.223853, 1.194425, 1.177766, 1.188359, 1.192186, 1.178448, 1.184360, 1.190657, 1.183815, 1.180028, 1.178887, 1.191557, 1.211144, 1.188336, 1.235002, 1.174105, 1.178532, 1.177415
Process 7: 1.202437, 1.230316, 1.208038, 1.205787, 1.204130, 1.203674, 1.202966, 1.206418, 1.214042, 1.205733, 1.208875, 1.217628, 1.255190, 1.225779, 1.209152, 1.219748, 1.223567, 1.209667, 1.215722, 1.221974, 1.215170, 1.211237, 1.210336, 1.222880, 1.242434, 1.219660, 1.266445, 1.205381, 1.209918, 1.208681
