MPI_insiderank_optimisedserial
Process 0: 1.120929, 1.142908, 1.120188, 1.118268, 1.121084, 1.119336, 1.120754, 1.118657, 1.121387, 1.128068, 1.119013, 1.116679, 1.122636, 1.117486, 1.119008, 1.120558, 1.123524, 1.116942, 1.118979, 1.121066, 1.123596, 1.116366, 1.121702, 1.124344, 1.118497, 1.119100, 1.121047, 1.123510, 1.117919, 1.124712
Process 1: 0.812350, 0.835605, 0.813094, 0.811535, 0.813923, 0.812588, 0.817653, 0.811854, 0.813232, 0.814184, 0.811077, 0.814466, 0.812472, 0.812012, 0.812689, 0.813210, 0.812581, 0.810484, 0.810968, 0.812905, 0.812264, 0.811841, 0.816461, 0.815225, 0.813403, 0.811398, 0.816632, 0.819398, 0.811166, 0.811907
Process 2: 0.838463, 0.860581, 0.837961, 0.836093, 0.841465, 0.837249, 0.844670, 0.839017, 0.841012, 0.838903, 0.836768, 0.838335, 0.836978, 0.837270, 0.838809, 0.838389, 0.837208, 0.835253, 0.836715, 0.837819, 0.838237, 0.836261, 0.840870, 0.839959, 0.840741, 0.837707, 0.841304, 0.843932, 0.836009, 0.838759
Process 3: 0.864734, 0.886116, 0.862772, 0.861620, 0.865597, 0.862739, 0.871100, 0.862824, 0.864937, 0.865847, 0.864229, 0.862445, 0.861605, 0.861164, 0.863750, 0.863643, 0.862012, 0.860176, 0.863882, 0.864227, 0.865725, 0.860677, 0.865249, 0.866232, 0.864718, 0.864887, 0.865632, 0.868566, 0.861018, 0.862998
Process 4: 0.891491, 0.912156, 0.888775, 0.887089, 0.891009, 0.889450, 0.896781, 0.888922, 0.890631, 0.892314, 0.889045, 0.888305, 0.887782, 0.888035, 0.890300, 0.889709, 0.888216, 0.886150, 0.889126, 0.891110, 0.890424, 0.886799, 0.891122, 0.892817, 0.888726, 0.889408, 0.891565, 0.894182, 0.886936, 0.889057
Process 5: 0.917104, 0.938163, 0.914792, 0.913001, 0.916894, 0.915202, 0.921852, 0.914890, 0.916466, 0.918200, 0.914780, 0.913956, 0.913655, 0.913294, 0.915877, 0.915681, 0.914280, 0.912116, 0.914828, 0.916471, 0.916248, 0.912573, 0.917076, 0.918447, 0.914575, 0.915086, 0.917246, 0.919849, 0.913068, 0.915240
Process 6: 0.941263, 0.962111, 0.938692, 0.937026, 0.940717, 0.939369, 0.945351, 0.938827, 0.940904, 0.942331, 0.939078, 0.938000, 0.938141, 0.937218, 0.939935, 0.939701, 0.938547, 0.936141, 0.939205, 0.940728, 0.940551, 0.936616, 0.941477, 0.942419, 0.939043, 0.939452, 0.941371, 0.943766, 0.937354, 0.939510
Process 7: 0.960440, 0.985436, 0.957538, 0.955918, 0.964018, 0.958314, 0.968385, 0.957883, 0.959752, 0.961201, 0.958097, 0.956728, 0.956940, 0.956176, 0.958932, 0.958494, 0.957318, 0.959554, 0.958210, 0.959610, 0.959553, 0.955583, 0.960383, 0.961227, 0.958030, 0.958545, 0.960458, 0.962933, 0.956468, 0.958329
Process 8: 0.980064, 1.003678, 0.979258, 0.977303, 0.981139, 0.978795, 0.985219, 0.977404, 0.979357, 0.981061, 0.977789, 0.978767, 0.977803, 0.976885, 0.977790, 0.980605, 0.976957, 0.976239, 0.977554, 0.979865, 0.978946, 0.974620, 0.979871, 0.982627, 0.976964, 0.978202, 0.979549, 0.981966, 0.975380, 0.977905
Process 9: 1.002405, 1.026117, 1.001664, 0.999786, 1.003217, 1.001099, 1.007638, 0.999727, 1.001643, 1.003309, 1.000154, 1.000476, 1.000034, 0.999226, 1.000065, 1.002415, 0.999217, 0.998169, 0.999961, 1.002128, 1.001755, 0.996561, 1.001797, 1.004912, 0.998907, 1.000131, 1.001402, 1.003888, 0.997374, 0.999793
Process 10: 1.024226, 1.046395, 1.023795, 1.021628, 1.023928, 1.022794, 1.024768, 1.021419, 1.023345, 1.024953, 1.022006, 1.020168, 1.021698, 1.021050, 1.021822, 1.023057, 1.020933, 1.019640, 1.021814, 1.023824, 1.023230, 1.018912, 1.024171, 1.026986, 1.021282, 1.022459, 1.023903, 1.026240, 1.019776, 1.022282
Process 11: 1.046570, 1.068600, 1.045779, 1.043931, 1.046200, 1.045013, 1.047178, 1.043791, 1.045756, 1.047279, 1.044298, 1.042519, 1.043956, 1.043264, 1.044133, 1.045450, 1.043219, 1.041857, 1.044021, 1.046102, 1.045052, 1.040822, 1.046299, 1.049018, 1.043307, 1.044445, 1.045902, 1.048277, 1.042029, 1.044278
Process 12: 1.067798, 1.089959, 1.067148, 1.065342, 1.067608, 1.066364, 1.068588, 1.065118, 1.067255, 1.068755, 1.065712, 1.063921, 1.065403, 1.064659, 1.065384, 1.066874, 1.064561, 1.063245, 1.065522, 1.067536, 1.066338, 1.062154, 1.067706, 1.070404, 1.064755, 1.065787, 1.067234, 1.069598, 1.063359, 1.065712
Process 13: 1.085154, 1.107165, 1.084478, 1.082498, 1.085307, 1.083570, 1.084924, 1.082931, 1.085626, 1.086506, 1.083279, 1.080917, 1.087143, 1.081748, 1.083234, 1.084844, 1.081938, 1.080538, 1.083192, 1.085329, 1.088102, 1.080597, 1.085948, 1.088613, 1.082746, 1.083327, 1.085289, 1.087762, 1.082187, 1.083182
Process 14: 1.106750, 1.128775, 1.105977, 1.104102, 1.106874, 1.105178, 1.106528, 1.104450, 1.107171, 1.108047, 1.104799, 1.102453, 1.108383, 1.103245, 1.104739, 1.106368, 1.103479, 1.102085, 1.104702, 1.106884, 1.109323, 1.102132, 1.107446, 1.110145, 1.104272, 1.104859, 1.106762, 1.109282, 1.103680, 1.104691
Process 15: 1.122015, 1.143962, 1.121237, 1.119355, 1.122157, 1.120421, 1.121823, 1.119733, 1.122442, 1.129428, 1.120090, 1.117733, 1.123717, 1.118540, 1.120089, 1.121621, 1.124887, 1.118028, 1.120067, 1.122120, 1.124665, 1.117437, 1.122781, 1.125406, 1.119579, 1.120156, 1.122107, 1.124569, 1.118974, 1.126073
