MPI_insiderank_optimisedserial
Process 0: 1.188507, 1.208801, 1.187979, 1.199809, 1.183464, 1.208151, 1.180721, 1.185620, 1.187946, 1.189815, 1.186963, 1.188004, 1.186711, 1.190676, 1.187011, 1.187760, 1.187747, 1.192054, 1.187283, 1.188848, 1.193963, 1.187051, 1.185859, 1.187290, 1.186705, 1.186053, 1.192318, 1.192540, 1.190840, 1.193616
Process 1: 0.910276, 0.931715, 0.928838, 0.903836, 0.889036, 0.937899, 0.922841, 0.928698, 0.921174, 0.920255, 0.921566, 0.922803, 0.921767, 0.921362, 0.921120, 0.922249, 0.922397, 0.927679, 0.922465, 0.924082, 0.928542, 0.922092, 0.920083, 0.921000, 0.921436, 0.921080, 0.929206, 0.937482, 0.929017, 0.928869
Process 2: 0.942248, 0.962962, 0.953971, 0.935582, 0.920663, 0.970202, 0.954340, 0.960165, 0.952787, 0.951611, 0.953014, 0.954210, 0.953091, 0.952800, 0.952439, 0.953535, 0.953864, 0.958982, 0.953927, 0.955313, 0.959889, 0.953379, 0.951777, 0.952338, 0.952877, 0.952445, 0.961671, 0.969276, 0.961530, 0.961144
Process 3: 0.973274, 0.993857, 0.978688, 0.966855, 0.952080, 1.000373, 0.978116, 0.984074, 0.977205, 0.976388, 0.977344, 0.978580, 0.977445, 0.977523, 0.978121, 0.984370, 0.978215, 0.983389, 0.977799, 0.979181, 0.984061, 0.977671, 0.982556, 0.976791, 0.977320, 0.976623, 0.992598, 0.992900, 0.985606, 0.984777
Process 4: 1.004027, 1.024432, 1.006892, 0.997072, 0.982491, 1.030781, 1.002457, 1.008340, 1.001633, 1.000533, 1.001395, 1.002645, 1.001755, 1.001721, 1.008655, 1.007462, 1.002530, 1.007282, 1.001538, 1.003627, 1.008059, 1.004109, 1.005690, 1.000952, 1.001568, 1.000764, 1.015442, 1.017013, 1.009181, 1.015310
Process 5: 1.026791, 1.047383, 1.029630, 1.026747, 1.012594, 1.053579, 1.024581, 1.030406, 1.024651, 1.026585, 1.024472, 1.025878, 1.024809, 1.028649, 1.031081, 1.030502, 1.025482, 1.034393, 1.027504, 1.026210, 1.031218, 1.034109, 1.028735, 1.024200, 1.024648, 1.023723, 1.038258, 1.038730, 1.032307, 1.037855
Process 6: 1.050343, 1.070608, 1.051766, 1.056178, 1.041716, 1.075956, 1.047387, 1.053017, 1.051084, 1.055952, 1.048267, 1.048183, 1.047280, 1.058037, 1.053628, 1.052912, 1.048941, 1.064198, 1.057279, 1.048662, 1.053356, 1.056195, 1.051165, 1.046476, 1.047903, 1.047568, 1.060638, 1.061512, 1.058126, 1.060272
Process 7: 1.079698, 1.100089, 1.081084, 1.085199, 1.070943, 1.101087, 1.068795, 1.074245, 1.080429, 1.085725, 1.077559, 1.073512, 1.072631, 1.087651, 1.075501, 1.074799, 1.078212, 1.085748, 1.078897, 1.075521, 1.079495, 1.078187, 1.073075, 1.073521, 1.077258, 1.076956, 1.082615, 1.082768, 1.087913, 1.082131
Process 8: 1.109281, 1.129675, 1.110664, 1.114635, 1.100501, 1.130036, 1.096420, 1.100372, 1.109891, 1.106978, 1.107019, 1.102577, 1.101532, 1.108796, 1.101860, 1.102644, 1.107635, 1.107082, 1.102071, 1.104252, 1.108414, 1.102070, 1.100706, 1.102850, 1.106626, 1.106412, 1.107063, 1.107114, 1.108890, 1.108479
Process 9: 1.138382, 1.158663, 1.139643, 1.143687, 1.129381, 1.159194, 1.124921, 1.129240, 1.131635, 1.133380, 1.130681, 1.132107, 1.130394, 1.134297, 1.130702, 1.131421, 1.131413, 1.135909, 1.130975, 1.132811, 1.137936, 1.130822, 1.129598, 1.131037, 1.130367, 1.129860, 1.136021, 1.136145, 1.134408, 1.137416
Process 10: 1.160766, 1.181121, 1.160356, 1.172602, 1.155750, 1.180460, 1.154143, 1.158382, 1.160870, 1.162743, 1.159623, 1.160843, 1.159521, 1.163488, 1.159770, 1.160731, 1.160646, 1.164888, 1.160108, 1.162127, 1.166821, 1.159851, 1.158833, 1.159972, 1.159573, 1.158914, 1.165281, 1.165050, 1.163499, 1.166305
Process 11: 1.190308, 1.210557, 1.189745, 1.201565, 1.185235, 1.209897, 1.182543, 1.187374, 1.189696, 1.191565, 1.188729, 1.189757, 1.188470, 1.192431, 1.188764, 1.189521, 1.189501, 1.193831, 1.189063, 1.190693, 1.195733, 1.188818, 1.187637, 1.189054, 1.188487, 1.187818, 1.194094, 1.194310, 1.192613, 1.195393
