Process 0: 5.442543, 3.750822, 4.056846, 3.760613, 3.617200, 3.496240, 3.712794, 3.677995, 3.904774, 3.523149, 3.489751, 3.534767, 3.591278, 3.492145, 3.507632, 3.486500, 3.588261, 3.560889, 3.588672, 3.467170, 3.587174, 3.491755, 3.550790, 3.485558, 3.523575, 3.448533, 3.433088, 3.555390, 3.504357, 3.499232
Process 1: 3.433452, 5.310436, 3.717559, 4.098258, 3.615705, 3.567217, 3.692630, 3.582616, 3.615538, 3.912129, 3.525110, 3.498663, 3.550235, 3.510139, 3.550071, 3.468847, 3.603299, 3.553279, 3.592159, 3.455951, 3.589798, 3.515776, 3.474056, 3.551492, 3.525337, 3.458107, 3.410887, 3.579503, 3.492372, 3.503232
Process 2: 3.428182, 5.312674, 3.718716, 4.060317, 3.661110, 3.562140, 3.694011, 3.586129, 3.606531, 3.912217, 3.527737, 3.500849, 3.544028, 3.522270, 3.542393, 3.480568, 3.592093, 3.542628, 3.599141, 3.449023, 3.601544, 3.504402, 3.494531, 3.532841, 3.532173, 3.457442, 3.405846, 3.587274, 3.490248, 3.488063
Process 3: 3.432807, 5.310923, 3.716626, 4.077904, 3.635870, 3.567708, 3.693284, 3.582310, 3.613966, 3.910153, 3.528522, 3.499322, 3.548019, 3.510011, 3.547024, 3.472400, 3.603933, 3.553527, 3.592171, 3.456232, 3.589361, 3.514568, 3.475143, 3.551150, 3.529103, 3.454095, 3.411553, 3.579444, 3.492607, 3.503044
Process 4: 3.701893, 5.306963, 3.713223, 4.117480, 3.602996, 3.552031, 3.705937, 3.573059, 3.624307, 3.906087, 3.527031, 3.499976, 3.557352, 3.507226, 3.559876, 3.446174, 3.618374, 3.534478, 3.605879, 3.454256, 3.594282, 3.499666, 3.497585, 3.527902, 3.552468, 3.437475, 3.417463, 3.568066, 3.507726, 3.485346
Process 5: 3.700173, 5.318377, 3.708812, 4.139567, 3.576105, 3.562239, 3.696410, 3.582021, 3.612969, 3.919940, 3.516181, 3.510588, 3.540195, 3.533278, 3.544439, 3.451123, 3.606918, 3.546204, 3.595502, 3.461372, 3.594564, 3.501451, 3.483996, 3.544388, 3.531068, 3.460586, 3.403892, 3.578599, 3.497277, 3.496835
Process 6: 3.703024, 5.315666, 3.710624, 4.122202, 3.596830, 3.563803, 3.694826, 3.582553, 3.617735, 3.913971, 3.511248, 3.522753, 3.538529, 3.516433, 3.550001, 3.454719, 3.610484, 3.542820, 3.600538, 3.458593, 3.595493, 3.500156, 3.486337, 3.542957, 3.534856, 3.460375, 3.400949, 3.575543, 3.499172, 3.496508
Process 7: 3.697123, 5.318209, 3.712156, 4.111943, 3.608278, 3.558641, 3.694228, 3.587291, 3.609345, 3.918499, 3.512690, 3.509176, 3.548031, 3.518219, 3.543726, 3.464620, 3.605705, 3.548867, 3.590661, 3.460263, 3.582838, 3.517048, 3.483397, 3.545150, 3.527164, 3.454755, 3.410751, 3.578682, 3.497063, 3.498585
