Process 0: 7.459696, 7.034722, 6.904153, 6.886209, 7.048843, 7.182927, 7.019825, 7.093979, 7.116682, 7.089465, 6.999846, 7.113337, 7.077855, 7.084217, 7.061348, 7.028996, 6.952347, 6.983970, 6.972075, 6.908680, 6.953709, 6.948546, 7.019984, 6.973126, 6.975340, 6.903665, 6.922127, 6.875712, 6.919709, 6.862175
Process 1: 5.321199, 7.064941, 6.896461, 7.005173, 6.895315, 7.193836, 7.076324, 7.077375, 7.073278, 7.095761, 7.054427, 7.105998, 7.039869, 7.132466, 7.032776, 7.015749, 7.004617, 6.967773, 7.011501, 6.931912, 6.926618, 6.950974, 6.984422, 6.967909, 6.970507, 6.985434, 6.905712, 6.892561, 6.911735, 6.865028
Process 2: 7.276890, 7.064897, 6.920859, 6.948341, 6.965833, 7.219055, 7.064422, 7.067076, 7.094249, 7.097771, 7.039284, 7.111693, 7.067645, 7.085397, 7.037979, 7.030544, 6.989103, 6.977784, 6.984096, 6.911515, 6.946767, 6.939688, 6.992662, 6.982082, 6.975162, 6.935848, 6.928300, 6.867085, 6.927670, 6.850762
Process 3: 7.285004, 7.064546, 6.920770, 6.953607, 6.965831, 7.207207, 7.076067, 7.075517, 7.086466, 7.091998, 7.039362, 7.118470, 7.065599, 7.087395, 7.047934, 7.014903, 6.993305, 6.983047, 6.977776, 6.916333, 6.942249, 6.935255, 6.998880, 6.985033, 6.972628, 6.935803, 6.927035, 6.864837, 6.932664, 6.850157
