Process 0: 5.837986, 3.734692, 3.646667, 3.342727, 3.648441, 3.389851, 3.398673, 3.818638, 3.392415, 3.340825, 3.990914, 3.396843, 3.358057, 3.285165, 3.195010, 3.352199, 3.372757, 3.264867, 3.351240, 3.275810, 3.313012, 3.275871, 3.285200, 3.292204, 3.728836, 3.252974, 3.345172, 3.282097, 3.253295, 3.401943
Process 1: 3.197379, 5.836240, 3.635505, 3.412617, 3.585081, 3.432122, 3.438811, 3.441902, 3.751549, 3.353009, 3.353639, 3.990890, 3.345462, 3.268896, 3.266723, 3.338556, 3.380258, 3.263718, 3.343205, 3.277917, 3.311958, 3.295734, 3.227159, 3.365098, 3.218114, 3.732398, 3.282192, 3.374802, 3.236992, 3.309324
Process 2: 3.183399, 5.838877, 3.629195, 3.398264, 3.607954, 3.418598, 3.453655, 3.427118, 3.761918, 3.338975, 3.368920, 3.978841, 3.355477, 3.270998, 3.266061, 3.313551, 3.383089, 3.275783, 3.352589, 3.266981, 3.318919, 3.308098, 3.203678, 3.372678, 3.221579, 3.726026, 3.284116, 3.373944, 3.237460, 3.317781
Process 3: 3.198336, 5.833436, 3.634568, 3.418110, 3.583581, 3.427823, 3.444162, 3.434682, 3.754719, 3.351293, 3.354538, 3.995166, 3.340790, 3.279833, 3.256951, 3.340313, 3.375708, 3.267658, 3.339555, 3.281188, 3.307996, 3.302925, 3.219942, 3.369610, 3.212999, 3.732634, 3.281664, 3.376090, 3.235487, 3.308067
Process 4: 3.179931, 5.842469, 3.629912, 3.409887, 3.595194, 3.420274, 3.453811, 3.436451, 3.753034, 3.343659, 3.360934, 3.989013, 3.356170, 3.265230, 3.263854, 3.325817, 3.374359, 3.275190, 3.350405, 3.268519, 3.315382, 3.308419, 3.210311, 3.365455, 3.220784, 3.728164, 3.288323, 3.371805, 3.238688, 3.314247
Process 5: 3.190680, 5.843054, 3.635780, 3.412332, 3.578254, 3.441194, 3.436455, 3.442656, 3.750395, 3.354656, 3.354262, 3.986907, 3.348555, 3.267901, 3.263037, 3.343021, 3.380126, 3.263265, 3.343570, 3.275429, 3.315012, 3.294731, 3.227700, 3.359891, 3.222888, 3.731847, 3.282841, 3.374443, 3.237184, 3.310552
Process 6: 3.179178, 5.843462, 3.629255, 3.397735, 3.606208, 3.413931, 3.460511, 3.430148, 3.756084, 3.341373, 3.370247, 3.977419, 3.364815, 3.259367, 3.268112, 3.315480, 3.381175, 3.276130, 3.356803, 3.261929, 3.319751, 3.306605, 3.205622, 3.369802, 3.216745, 3.735572, 3.279760, 3.379388, 3.234403, 3.318288
Process 7: 3.195341, 5.836940, 3.638226, 3.414959, 3.579626, 3.431847, 3.445590, 3.439232, 3.749176, 3.352090, 3.356147, 3.993283, 3.345532, 3.274410, 3.248746, 3.347657, 3.377895, 3.266185, 3.339014, 3.282496, 3.307092, 3.303067, 3.220330, 3.361647, 3.221347, 3.734081, 3.279273, 3.376880, 3.237842, 3.312026
Process 8: 3.181653, 5.839321, 3.632568, 3.410292, 3.594751, 3.421782, 3.451968, 3.434321, 3.754700, 3.346024, 3.361991, 3.988716, 3.344937, 3.274630, 3.263575, 3.327198, 3.372284, 3.275921, 3.351373, 3.267549, 3.315003, 3.309307, 3.211282, 3.362832, 3.220989, 3.728768, 3.290435, 3.369974, 3.238346, 3.316418
Process 9: 3.193425, 5.840633, 3.636227, 3.411912, 3.580287, 3.437299, 3.438895, 3.441898, 3.750739, 3.353705, 3.354504, 3.990355, 3.345242, 3.268386, 3.262945, 3.344306, 3.378640, 3.263597, 3.342685, 3.278483, 3.311603, 3.296213, 3.226867, 3.361837, 3.220930, 3.732441, 3.281998, 3.374663, 3.237465, 3.310214
Process 10: 3.182133, 5.841427, 3.630304, 3.395921, 3.609364, 3.412757, 3.460710, 3.426459, 3.762369, 3.337981, 3.370122, 3.977667, 3.360946, 3.265861, 3.268238, 3.311787, 3.382875, 3.274935, 3.355141, 3.264239, 3.319471, 3.308980, 3.203228, 3.371738, 3.214783, 3.734570, 3.281926, 3.378639, 3.233060, 3.319738
Process 11: 3.195214, 5.834938, 3.640428, 3.415340, 3.579777, 3.433099, 3.443880, 3.435986, 3.752735, 3.353450, 3.354803, 3.992860, 3.342513, 3.277531, 3.251165, 3.348183, 3.377362, 3.263850, 3.341858, 3.279436, 3.310083, 3.300191, 3.223298, 3.362610, 3.220197, 3.733295, 3.282058, 3.373443, 3.237477, 3.311346
Process 12: 3.481763, 5.830530, 3.636014, 3.430610, 3.556340, 3.459192, 3.420563, 3.441970, 3.739898, 3.364377, 3.348523, 4.002735, 3.328777, 3.301439, 3.230671, 3.351419, 3.375966, 3.268048, 3.338588, 3.284280, 3.308548, 3.291888, 3.234979, 3.354284, 3.230916, 3.723683, 3.283711, 3.371122, 3.245009, 3.311904
Process 13: 3.484929, 5.828406, 3.636202, 3.430412, 3.564459, 3.437151, 3.441720, 3.439041, 3.740527, 3.359073, 3.356151, 3.995366, 3.335390, 3.294420, 3.234385, 3.349844, 3.382217, 3.259761, 3.342271, 3.282937, 3.307346, 3.297553, 3.230137, 3.359353, 3.225805, 3.729299, 3.277697, 3.376626, 3.239470, 3.315935
Process 14: 3.485389, 5.830207, 3.636370, 3.430614, 3.562603, 3.450966, 3.429252, 3.434909, 3.746131, 3.358263, 3.354540, 3.997546, 3.333585, 3.296138, 3.235742, 3.346832, 3.381213, 3.262075, 3.344843, 3.278387, 3.310162, 3.294481, 3.230750, 3.360221, 3.225019, 3.729114, 3.278330, 3.376573, 3.240984, 3.319449
Process 15: 3.485047, 5.826585, 3.638068, 3.432207, 3.561861, 3.433456, 3.446201, 3.438790, 3.740764, 3.359618, 3.355637, 3.995331, 3.334821, 3.296912, 3.233057, 3.345313, 3.386227, 3.259732, 3.343315, 3.281848, 3.308099, 3.293197, 3.233714, 3.359945, 3.226426, 3.728208, 3.277604, 3.377631, 3.238767, 3.315206
