MPI_insiderank_optimisedserial
Process 0: 1.462828, 1.460966, 1.176071, 1.242243, 1.204945, 1.168518, 1.200657, 1.758108, 1.186635, 1.205174, 1.179251, 1.198322, 1.220651, 1.176450, 1.209426, 1.179581, 1.180069, 1.199931, 1.178773, 1.181440, 1.185170, 1.176146, 1.178370, 1.184893, 1.219423, 1.256279, 1.215135, 1.205442, 1.187833, 1.181515
Process 1: 1.169421, 1.292281, 0.993792, 1.052070, 1.036336, 0.991587, 1.020731, 1.581398, 1.003956, 1.046725, 1.002478, 1.022096, 1.027114, 1.001082, 1.033949, 1.003761, 1.006030, 1.043767, 1.005126, 1.006112, 1.010836, 1.004591, 1.003387, 1.009986, 1.040791, 1.079732, 1.032189, 1.025229, 1.007424, 1.003262
Process 2: 1.213065, 1.306785, 1.040758, 1.076865, 1.069450, 1.014392, 1.047659, 1.605167, 1.033328, 1.078238, 1.028805, 1.057589, 1.054601, 1.027575, 1.059554, 1.031210, 1.032576, 1.075155, 1.029677, 1.031500, 1.043506, 1.029784, 1.028970, 1.034068, 1.069135, 1.103569, 1.059525, 1.051519, 1.033918, 1.028915
Process 3: 1.353788, 1.332578, 1.072597, 1.105181, 1.083389, 1.063534, 1.076532, 1.639465, 1.063070, 1.097729, 1.057593, 1.102293, 1.085669, 1.058930, 1.089561, 1.063459, 1.063375, 1.094602, 1.060160, 1.065281, 1.082770, 1.059912, 1.058040, 1.062981, 1.100390, 1.133420, 1.091829, 1.084891, 1.071180, 1.062434
Process 4: 1.383454, 1.360833, 1.096848, 1.136310, 1.112882, 1.088912, 1.107098, 1.662491, 1.090609, 1.112696, 1.088853, 1.130859, 1.112687, 1.085046, 1.120619, 1.088467, 1.091830, 1.110354, 1.089582, 1.091071, 1.114926, 1.089077, 1.089909, 1.092059, 1.129885, 1.163481, 1.120363, 1.111044, 1.095658, 1.090060
Process 5: 1.414727, 1.393257, 1.112085, 1.166659, 1.142936, 1.114327, 1.138744, 1.702540, 1.123350, 1.146754, 1.119410, 1.153702, 1.158757, 1.121095, 1.150335, 1.122989, 1.123756, 1.143748, 1.121271, 1.125753, 1.135901, 1.121170, 1.120128, 1.125570, 1.163604, 1.199400, 1.153920, 1.144755, 1.128613, 1.122360
Process 6: 1.440737, 1.424434, 1.151010, 1.196956, 1.171108, 1.135462, 1.166126, 1.724051, 1.152206, 1.173147, 1.151312, 1.169552, 1.191556, 1.146379, 1.181042, 1.150402, 1.151388, 1.169442, 1.147135, 1.150954, 1.155230, 1.147963, 1.149894, 1.151981, 1.189599, 1.222343, 1.179384, 1.170363, 1.157965, 1.149051
Process 7: 1.466648, 1.464523, 1.179890, 1.245415, 1.208816, 1.172223, 1.203714, 1.761691, 1.190824, 1.209123, 1.182878, 1.201931, 1.224789, 1.179812, 1.213571, 1.183050, 1.183634, 1.203582, 1.182865, 1.184992, 1.188993, 1.179506, 1.181977, 1.188338, 1.223676, 1.260011, 1.219616, 1.208955, 1.192113, 1.185052
