MPI_insiderank_optimisedserial
Process 0: 0.468335, 0.329745, 0.241883, 0.227264, 0.220030, 0.214800, 0.212716, 0.221626, 0.215182, 0.214485, 0.214539, 0.213746, 0.213620, 0.213621, 0.212949, 0.213941, 0.213038, 0.212486, 0.210516, 0.215626, 0.216283, 0.212465, 0.209966, 0.212209, 0.211928, 0.212527, 0.212578, 0.212760, 0.211712, 0.215904
Process 1: 0.398407, 0.272015, 0.193962, 0.183063, 0.175396, 0.169935, 0.168261, 0.174778, 0.170366, 0.169673, 0.169434, 0.169400, 0.168712, 0.168544, 0.168077, 0.169247, 0.167976, 0.167749, 0.165864, 0.170758, 0.171170, 0.168052, 0.165011, 0.167241, 0.166977, 0.167505, 0.167481, 0.167890, 0.166747, 0.166458
Process 2: 0.400414, 0.274898, 0.195833, 0.184176, 0.176995, 0.171705, 0.169843, 0.176518, 0.172259, 0.171314, 0.171175, 0.170496, 0.170494, 0.170423, 0.169854, 0.170885, 0.169805, 0.169388, 0.167532, 0.172244, 0.172671, 0.169765, 0.166617, 0.169048, 0.168649, 0.169122, 0.169229, 0.169495, 0.168414, 0.168233
Process 3: 0.403255, 0.276836, 0.197999, 0.186139, 0.178748, 0.173355, 0.171379, 0.178188, 0.173853, 0.173021, 0.172708, 0.172475, 0.172126, 0.172042, 0.171430, 0.172439, 0.171609, 0.171042, 0.169128, 0.174127, 0.175377, 0.171314, 0.168464, 0.170716, 0.170169, 0.170609, 0.170633, 0.171367, 0.170123, 0.169799
Process 4: 0.405024, 0.279040, 0.200211, 0.187664, 0.180355, 0.175067, 0.173134, 0.179975, 0.175501, 0.174545, 0.174300, 0.174000, 0.173610, 0.173645, 0.173028, 0.174079, 0.173097, 0.172426, 0.170993, 0.175662, 0.177020, 0.173060, 0.170092, 0.172301, 0.171864, 0.172171, 0.172162, 0.172762, 0.171837, 0.171506
Process 5: 0.408424, 0.281805, 0.202034, 0.189103, 0.181747, 0.176460, 0.174416, 0.181194, 0.177001, 0.176234, 0.175997, 0.175433, 0.175429, 0.175125, 0.174560, 0.175549, 0.174575, 0.173948, 0.172323, 0.177357, 0.178937, 0.174732, 0.171586, 0.173855, 0.173235, 0.173860, 0.173785, 0.174533, 0.173444, 0.173099
Process 6: 0.410546, 0.284448, 0.203975, 0.190661, 0.183426, 0.178017, 0.175931, 0.182735, 0.178453, 0.177680, 0.177510, 0.176934, 0.176912, 0.176601, 0.176132, 0.177108, 0.176118, 0.175319, 0.173696, 0.178718, 0.180362, 0.175848, 0.172995, 0.175372, 0.174909, 0.175643, 0.175521, 0.175905, 0.174904, 0.174580
Process 7: 0.412961, 0.286637, 0.205888, 0.192037, 0.184813, 0.179406, 0.177414, 0.184096, 0.179840, 0.179117, 0.178961, 0.178323, 0.178352, 0.177997, 0.177578, 0.178480, 0.177507, 0.176861, 0.175249, 0.180254, 0.181654, 0.177376, 0.174499, 0.176731, 0.176421, 0.177041, 0.177008, 0.177389, 0.176343, 0.175983
Process 8: 0.415439, 0.288986, 0.207706, 0.193676, 0.186324, 0.180956, 0.178885, 0.185739, 0.181357, 0.180631, 0.180422, 0.179883, 0.179838, 0.179509, 0.179092, 0.180040, 0.179035, 0.178233, 0.176639, 0.181623, 0.182970, 0.178745, 0.175903, 0.178296, 0.177945, 0.178562, 0.178491, 0.178901, 0.177945, 0.177558
Process 9: 0.417903, 0.291344, 0.209492, 0.195034, 0.187733, 0.182427, 0.180317, 0.187069, 0.182883, 0.182068, 0.181932, 0.181280, 0.181322, 0.180940, 0.180468, 0.181435, 0.180569, 0.180526, 0.178157, 0.183164, 0.184188, 0.180276, 0.177452, 0.179673, 0.179436, 0.179987, 0.179987, 0.180345, 0.179326, 0.180243
Process 10: 0.420089, 0.292701, 0.211023, 0.196533, 0.189289, 0.183929, 0.181834, 0.189811, 0.184335, 0.183542, 0.183448, 0.182805, 0.182746, 0.182499, 0.182030, 0.182978, 0.182004, 0.181589, 0.179557, 0.184659, 0.185486, 0.181664, 0.178843, 0.181220, 0.180863, 0.181505, 0.181432, 0.181934, 0.180835, 0.181793
Process 11: 0.422345, 0.294672, 0.212460, 0.197947, 0.190663, 0.185322, 0.183252, 0.191894, 0.185729, 0.184979, 0.184935, 0.184203, 0.184236, 0.183909, 0.183424, 0.184401, 0.183522, 0.183069, 0.181099, 0.186124, 0.186810, 0.183145, 0.180471, 0.182606, 0.182420, 0.182909, 0.182980, 0.183306, 0.182245, 0.183362
Process 12: 0.424318, 0.296644, 0.214014, 0.199514, 0.192317, 0.186877, 0.184791, 0.193534, 0.187270, 0.186499, 0.186346, 0.185751, 0.185681, 0.185481, 0.184940, 0.185939, 0.184968, 0.184616, 0.182472, 0.187601, 0.188239, 0.184594, 0.181817, 0.184133, 0.183816, 0.184451, 0.184704, 0.184834, 0.183791, 0.184863
Process 13: 0.426976, 0.298252, 0.215467, 0.200921, 0.193707, 0.188317, 0.186256, 0.195056, 0.188711, 0.188026, 0.187932, 0.187156, 0.187267, 0.186926, 0.186494, 0.187462, 0.186532, 0.185984, 0.184101, 0.189111, 0.189506, 0.186080, 0.183412, 0.185661, 0.185426, 0.185977, 0.186052, 0.186289, 0.185250, 0.186482
Process 14: 0.428877, 0.299835, 0.216877, 0.202215, 0.195106, 0.189667, 0.187702, 0.196487, 0.190102, 0.189367, 0.189179, 0.188605, 0.188514, 0.188331, 0.187837, 0.188754, 0.187810, 0.187586, 0.185341, 0.190487, 0.191145, 0.187628, 0.184737, 0.186966, 0.186680, 0.187365, 0.187322, 0.187685, 0.186637, 0.187814
Process 15: 0.431202, 0.301762, 0.218253, 0.203717, 0.196472, 0.191177, 0.189066, 0.197854, 0.191488, 0.190779, 0.190727, 0.189990, 0.190026, 0.189730, 0.189314, 0.190282, 0.189340, 0.188919, 0.186869, 0.191909, 0.192406, 0.188966, 0.186195, 0.188484, 0.188229, 0.188748, 0.188862, 0.189102, 0.188059, 0.189296
Process 16: 0.433552, 0.303527, 0.219728, 0.205173, 0.197940, 0.192651, 0.190517, 0.199343, 0.193056, 0.192267, 0.192093, 0.191474, 0.191400, 0.191279, 0.190720, 0.191683, 0.190781, 0.190393, 0.188249, 0.193423, 0.193909, 0.190488, 0.187657, 0.189884, 0.189691, 0.190232, 0.190244, 0.190653, 0.189572, 0.190863
Process 17: 0.435845, 0.305266, 0.221292, 0.206604, 0.199446, 0.194123, 0.192044, 0.200860, 0.194430, 0.193687, 0.193681, 0.192949, 0.192932, 0.192811, 0.192231, 0.193224, 0.192275, 0.191813, 0.189784, 0.194892, 0.195462, 0.191868, 0.189113, 0.191414, 0.191132, 0.191698, 0.191799, 0.192029, 0.190958, 0.192333
Process 18: 0.438232, 0.307130, 0.222736, 0.208137, 0.200907, 0.195582, 0.193507, 0.202310, 0.195947, 0.195229, 0.195178, 0.194416, 0.194351, 0.194273, 0.193645, 0.194720, 0.193733, 0.193278, 0.191324, 0.196420, 0.196832, 0.193342, 0.190709, 0.192861, 0.192685, 0.193176, 0.193309, 0.193593, 0.192474, 0.193874
Process 19: 0.439969, 0.308547, 0.224260, 0.209624, 0.202435, 0.197106, 0.195018, 0.203862, 0.197456, 0.196705, 0.196628, 0.195944, 0.195873, 0.195829, 0.195200, 0.196263, 0.195249, 0.194824, 0.192758, 0.197830, 0.198576, 0.194820, 0.192123, 0.194425, 0.194115, 0.194703, 0.194771, 0.194987, 0.194008, 0.195423
Process 20: 0.441775, 0.310375, 0.225696, 0.211133, 0.203892, 0.198532, 0.196468, 0.205350, 0.198900, 0.198265, 0.198168, 0.197381, 0.197392, 0.197260, 0.196607, 0.197644, 0.196769, 0.196193, 0.194295, 0.199365, 0.199766, 0.196262, 0.193688, 0.195828, 0.195677, 0.196202, 0.196304, 0.196508, 0.195443, 0.199072
Process 21: 0.444789, 0.312250, 0.227218, 0.212553, 0.205418, 0.200060, 0.198053, 0.206793, 0.200429, 0.199803, 0.199592, 0.199000, 0.198823, 0.198814, 0.198155, 0.199166, 0.198187, 0.197796, 0.195770, 0.200845, 0.201421, 0.197817, 0.195060, 0.197339, 0.197086, 0.197657, 0.197732, 0.198003, 0.196972, 0.201089
Process 22: 0.446841, 0.313644, 0.228433, 0.213900, 0.206662, 0.201288, 0.199275, 0.208052, 0.201633, 0.200986, 0.200953, 0.200198, 0.200154, 0.200039, 0.199383, 0.200456, 0.199548, 0.199104, 0.197085, 0.202086, 0.202541, 0.199149, 0.196366, 0.198675, 0.198461, 0.198919, 0.199060, 0.199237, 0.198208, 0.202441
Process 23: 0.449284, 0.315339, 0.229918, 0.215267, 0.208175, 0.202831, 0.200795, 0.209504, 0.203184, 0.202510, 0.202323, 0.201634, 0.201540, 0.201498, 0.200827, 0.201870, 0.200987, 0.200566, 0.198461, 0.203600, 0.204181, 0.200668, 0.197848, 0.200117, 0.199858, 0.200426, 0.200448, 0.200811, 0.199732, 0.203965
Process 24: 0.451777, 0.317313, 0.231406, 0.216780, 0.209555, 0.204227, 0.202189, 0.211010, 0.204605, 0.203913, 0.203949, 0.203095, 0.203087, 0.203017, 0.202386, 0.203436, 0.202552, 0.201998, 0.199959, 0.205071, 0.205636, 0.202041, 0.199304, 0.201659, 0.201345, 0.201860, 0.201991, 0.202195, 0.201142, 0.205417
Process 25: 0.454243, 0.319078, 0.232807, 0.218159, 0.211015, 0.205693, 0.203651, 0.212483, 0.206065, 0.205445, 0.205332, 0.204571, 0.204493, 0.204487, 0.203772, 0.204884, 0.203905, 0.203472, 0.201475, 0.206579, 0.207005, 0.203529, 0.200894, 0.203053, 0.202872, 0.203330, 0.203455, 0.203707, 0.202595, 0.206891
Process 26: 0.456680, 0.320571, 0.234371, 0.219764, 0.212658, 0.207278, 0.205217, 0.214043, 0.207549, 0.206891, 0.206875, 0.206147, 0.206047, 0.206052, 0.205358, 0.206413, 0.205453, 0.205047, 0.202940, 0.208030, 0.208779, 0.205097, 0.202304, 0.204624, 0.204313, 0.204924, 0.204953, 0.205159, 0.204167, 0.208500
Process 27: 0.458957, 0.322492, 0.235722, 0.221135, 0.213997, 0.208651, 0.206612, 0.215458, 0.208979, 0.208380, 0.208364, 0.207524, 0.207451, 0.207428, 0.206748, 0.207778, 0.206873, 0.206385, 0.204445, 0.209527, 0.209956, 0.206434, 0.203834, 0.205994, 0.205830, 0.206352, 0.206466, 0.206583, 0.205537, 0.209860
Process 28: 0.460918, 0.324286, 0.237280, 0.222737, 0.215523, 0.210215, 0.208191, 0.217032, 0.210536, 0.209932, 0.209805, 0.209135, 0.208987, 0.209014, 0.208327, 0.209265, 0.208377, 0.207989, 0.205900, 0.210946, 0.211565, 0.207999, 0.205254, 0.207490, 0.207267, 0.207889, 0.207882, 0.208157, 0.207111, 0.211408
Process 29: 0.464082, 0.326107, 0.238648, 0.224067, 0.216894, 0.211614, 0.209562, 0.218402, 0.211948, 0.211330, 0.211324, 0.210524, 0.210477, 0.210368, 0.209714, 0.210712, 0.209875, 0.209330, 0.207386, 0.212406, 0.212894, 0.209347, 0.206712, 0.209015, 0.208741, 0.209277, 0.209396, 0.209532, 0.208555, 0.212778
Process 30: 0.466796, 0.328293, 0.240561, 0.225959, 0.218739, 0.213512, 0.211464, 0.220281, 0.213916, 0.213213, 0.213204, 0.212366, 0.212279, 0.212295, 0.211598, 0.212580, 0.211736, 0.211002, 0.209248, 0.214386, 0.214644, 0.211069, 0.208619, 0.210883, 0.210664, 0.211197, 0.211216, 0.211490, 0.210453, 0.214651
Process 31: 0.468540, 0.329744, 0.241874, 0.227248, 0.220031, 0.214800, 0.212727, 0.221620, 0.215181, 0.214493, 0.214533, 0.213746, 0.213611, 0.213621, 0.212949, 0.213941, 0.213036, 0.212489, 0.210509, 0.215633, 0.216283, 0.212464, 0.209971, 0.212209, 0.211927, 0.212527, 0.212586, 0.212752, 0.211711, 0.215906
