MPI_insiderank_optimisedserial
Process 0: 3.533961, 3.093858, 3.059422, 2.981334, 3.061615, 2.988208, 2.967845, 3.031514, 2.984626, 2.972001, 2.958023, 2.956029, 3.060542, 2.971805, 2.981740, 2.973430, 2.975225, 2.979903, 2.969934, 2.959754, 3.060853, 2.972868, 2.976676, 2.976639, 2.977032, 2.984301, 2.980539, 2.971148, 2.955885, 2.969654
Process 1: 3.540665, 3.099733, 3.065362, 2.986986, 3.067684, 2.994281, 2.973582, 3.037630, 2.990406, 2.977665, 2.963921, 2.961942, 3.066284, 2.977555, 2.988037, 2.978943, 2.980993, 2.986409, 2.975696, 2.965638, 3.066548, 2.979289, 2.982350, 2.982665, 2.983020, 2.990844, 2.987102, 2.976901, 2.961826, 2.975577
