MPI_insiderank_optimisedserial
Process 0: 1.327114, 1.139579, 1.033950, 1.017393, 1.034184, 1.013070, 1.004599, 1.008397, 1.019325, 1.006247, 1.018982, 1.666260, 1.024739, 0.991925, 1.111285, 1.023049, 0.925685, 0.908224, 0.974462, 0.907985, 0.906634, 0.910215, 0.915556, 0.922111, 0.952026, 0.904367, 0.906914, 0.906543, 0.908000, 0.905056
Process 1: 1.137868, 0.944399, 0.863142, 0.825430, 0.816145, 0.826277, 0.815139, 0.817627, 0.832113, 0.818226, 0.825354, 1.480315, 0.805862, 0.806361, 0.900829, 0.842394, 0.747489, 0.740438, 0.800042, 0.730746, 0.733485, 0.730855, 0.738459, 0.729017, 0.776731, 0.730031, 0.728066, 0.731931, 0.729634, 0.727232
Process 2: 1.152034, 0.962325, 0.875160, 0.841361, 0.831865, 0.842628, 0.830813, 0.834868, 0.848917, 0.832454, 0.842198, 1.496914, 0.821826, 0.823460, 0.917991, 0.857196, 0.762080, 0.754066, 0.814348, 0.745460, 0.747919, 0.745230, 0.753529, 0.743691, 0.791298, 0.745519, 0.742961, 0.747397, 0.744267, 0.742108
Process 3: 1.170618, 0.980947, 0.893074, 0.860255, 0.849575, 0.861809, 0.848349, 0.852328, 0.866465, 0.854157, 0.859368, 1.517631, 0.839738, 0.840974, 0.945554, 0.874383, 0.778520, 0.771777, 0.831808, 0.762671, 0.763883, 0.761897, 0.770004, 0.762393, 0.807720, 0.761977, 0.759683, 0.763394, 0.761033, 0.759226
Process 4: 1.184472, 0.996001, 0.905314, 0.874846, 0.864562, 0.876801, 0.863654, 0.867659, 0.882505, 0.867203, 0.874924, 1.531701, 0.855323, 0.856395, 0.960770, 0.888001, 0.792885, 0.784298, 0.845385, 0.776218, 0.777783, 0.775528, 0.783623, 0.777038, 0.821689, 0.775694, 0.773441, 0.777513, 0.774673, 0.772886
Process 5: 1.200882, 1.012647, 0.922432, 0.890761, 0.881041, 0.893420, 0.880100, 0.884017, 0.898694, 0.887547, 0.891455, 1.547640, 0.871665, 0.874414, 0.984053, 0.903966, 0.807629, 0.800490, 0.860238, 0.792233, 0.792594, 0.791465, 0.798836, 0.792722, 0.836368, 0.790506, 0.789285, 0.792114, 0.793148, 0.788881
Process 6: 1.218920, 1.030307, 0.938640, 0.910979, 0.896141, 0.909088, 0.895294, 0.898977, 0.913722, 0.904867, 0.906547, 1.563329, 0.886715, 0.889400, 1.000244, 0.919448, 0.822849, 0.814003, 0.874218, 0.807551, 0.806297, 0.807706, 0.812741, 0.806907, 0.850259, 0.804514, 0.805923, 0.806023, 0.807899, 0.802426
Process 7: 1.239608, 1.046312, 0.949223, 0.928673, 0.914353, 0.923474, 0.909743, 0.913937, 0.928133, 0.920709, 0.921072, 1.578130, 0.900777, 0.903684, 1.020713, 0.933507, 0.837074, 0.827897, 0.888210, 0.821609, 0.820405, 0.821735, 0.826594, 0.820324, 0.864243, 0.818195, 0.819844, 0.820058, 0.822284, 0.816496
Process 8: 1.252215, 1.058167, 0.958615, 0.942278, 0.931562, 0.935890, 0.924749, 0.929097, 0.941933, 0.930460, 0.935917, 1.591518, 0.921076, 0.914528, 1.030599, 0.945714, 0.848856, 0.834864, 0.899621, 0.833874, 0.831856, 0.833742, 0.838314, 0.836810, 0.875823, 0.829831, 0.831638, 0.831607, 0.834487, 0.828105
Process 9: 1.264557, 1.069625, 0.970015, 0.953482, 0.946346, 0.947297, 0.938310, 0.942528, 0.953297, 0.939600, 0.949579, 1.601886, 0.935743, 0.932135, 1.045310, 0.957000, 0.859286, 0.844573, 0.910328, 0.845523, 0.844150, 0.844875, 0.849081, 0.848499, 0.886617, 0.840671, 0.842855, 0.843692, 0.845485, 0.838824
Process 10: 1.275618, 1.079939, 0.981162, 0.964518, 0.960871, 0.958356, 0.950117, 0.955600, 0.964266, 0.950701, 0.962414, 1.612855, 0.949967, 0.939917, 1.057833, 0.967866, 0.869981, 0.855049, 0.920950, 0.856469, 0.855088, 0.855531, 0.859747, 0.859598, 0.897092, 0.851131, 0.853400, 0.854986, 0.856451, 0.849314
Process 11: 1.286177, 1.090666, 0.992045, 0.975032, 0.975105, 0.971947, 0.960066, 0.965031, 0.976878, 0.961362, 0.974740, 1.623435, 0.964753, 0.949545, 1.067338, 0.978808, 0.880368, 0.865891, 0.931684, 0.865637, 0.864277, 0.866200, 0.870278, 0.870784, 0.907674, 0.862322, 0.864255, 0.865393, 0.867323, 0.859890
Process 12: 1.297495, 1.101257, 1.002876, 0.985339, 0.989896, 0.981109, 0.970887, 0.975825, 0.987340, 0.973482, 0.985523, 1.634655, 0.979224, 0.960136, 1.080526, 0.989345, 0.890849, 0.876281, 0.944147, 0.876438, 0.874853, 0.876792, 0.881095, 0.881762, 0.918741, 0.874316, 0.874846, 0.874807, 0.877885, 0.870751
Process 13: 1.310744, 1.111824, 1.012007, 0.996050, 1.004677, 0.991727, 0.981467, 0.987263, 0.998221, 0.984682, 0.994049, 1.645490, 0.993572, 0.971119, 1.093297, 1.000192, 0.901374, 0.887163, 0.954952, 0.886629, 0.885604, 0.887543, 0.891425, 0.893523, 0.928946, 0.883066, 0.885492, 0.885201, 0.888415, 0.880931
Process 14: 1.318168, 1.123013, 1.022921, 1.006708, 1.019861, 1.002889, 0.992694, 0.997975, 1.008865, 0.995224, 1.006231, 1.655894, 1.009204, 0.981336, 1.099750, 1.011444, 0.913722, 0.897487, 0.963714, 0.897539, 0.895905, 0.898273, 0.903687, 0.907981, 0.939510, 0.893797, 0.896258, 0.895860, 0.897154, 0.891757
Process 15: 1.328230, 1.139591, 1.033954, 1.017397, 1.034183, 1.013058, 1.004603, 1.008399, 1.019330, 1.006247, 1.018990, 1.666263, 1.024742, 0.991931, 1.111287, 1.023046, 0.925688, 0.908222, 0.974465, 0.907990, 0.906647, 0.910226, 0.915559, 0.922116, 0.952028, 0.904370, 0.906912, 0.906545, 0.908002, 0.905059
