MPI_insiderank_optimisedserial
Process 0: 4.123933, 3.749828, 3.718957, 3.644818, 3.648297, 3.692915, 3.587801, 3.670611, 3.722450, 3.605770, 3.596870, 3.646154, 3.591811, 3.600716, 3.745208, 3.601414, 3.598031, 3.610928, 3.667417, 3.603698, 3.609831, 3.604805, 3.688725, 3.604363, 3.590130, 3.591325, 3.600098, 3.610246, 3.666587, 3.588268
Process 1: 4.137247, 3.763102, 3.736631, 3.661357, 3.664397, 3.709942, 3.603885, 3.687702, 3.739620, 3.622273, 3.613497, 3.662921, 3.609146, 3.617576, 3.761968, 3.618347, 3.614748, 3.627189, 3.684192, 3.620317, 3.626075, 3.621319, 3.706126, 3.620567, 3.606712, 3.607341, 3.616039, 3.626298, 3.683192, 3.604384
