MPI_insiderank_optimisedserial
Process 0: 1.216229, 0.896485, 0.759074, 0.775233, 0.755516, 0.766817, 0.754448, 0.769331, 0.764956, 0.757607, 0.760782, 0.751846, 0.755193, 0.771762, 0.752281, 0.758656, 0.758655, 0.756423, 0.767986, 0.764349, 0.745948, 0.746355, 0.739741, 0.741244, 0.734388, 0.766086, 0.755432, 0.732888, 0.739172, 0.732010
Process 1: 0.853766, 0.528948, 0.387292, 0.408507, 0.396787, 0.395232, 0.384450, 0.393468, 0.403417, 0.392476, 0.390712, 0.382630, 0.392443, 0.394529, 0.382408, 0.387579, 0.392380, 0.393086, 0.405270, 0.397728, 0.385177, 0.390426, 0.378094, 0.384744, 0.382159, 0.425237, 0.402031, 0.379338, 0.385948, 0.379464
Process 2: 0.871836, 0.549062, 0.404286, 0.428291, 0.416856, 0.413836, 0.403497, 0.414148, 0.422240, 0.415233, 0.408181, 0.402195, 0.413051, 0.412698, 0.401975, 0.406777, 0.412409, 0.412289, 0.420515, 0.416940, 0.404505, 0.408841, 0.398529, 0.403672, 0.402129, 0.449818, 0.421499, 0.399254, 0.406259, 0.398526
Process 3: 0.888929, 0.568479, 0.423685, 0.446809, 0.433662, 0.431969, 0.422292, 0.431234, 0.440328, 0.433220, 0.427391, 0.420108, 0.431817, 0.430736, 0.418826, 0.425213, 0.427938, 0.429768, 0.438796, 0.436705, 0.424299, 0.427716, 0.416801, 0.421800, 0.420642, 0.466644, 0.443314, 0.419059, 0.424872, 0.418238
Process 4: 0.904047, 0.585639, 0.437639, 0.461906, 0.446762, 0.445258, 0.437239, 0.447667, 0.452591, 0.446436, 0.444370, 0.434030, 0.445579, 0.444895, 0.432373, 0.439161, 0.441112, 0.442287, 0.452410, 0.451771, 0.438743, 0.443188, 0.430990, 0.434904, 0.434560, 0.483452, 0.457898, 0.436603, 0.439179, 0.433701
Process 5: 0.920155, 0.600333, 0.455404, 0.478100, 0.462135, 0.460916, 0.453081, 0.460031, 0.467616, 0.460919, 0.459890, 0.450504, 0.460403, 0.461006, 0.449856, 0.455450, 0.457621, 0.458103, 0.469506, 0.467926, 0.454580, 0.459647, 0.446953, 0.453532, 0.450671, 0.496744, 0.472066, 0.451108, 0.455174, 0.448626
Process 6: 0.930790, 0.616749, 0.467769, 0.491024, 0.475140, 0.473694, 0.465295, 0.483053, 0.480773, 0.473918, 0.472821, 0.462796, 0.473497, 0.474068, 0.463002, 0.468372, 0.472078, 0.472371, 0.481730, 0.480888, 0.467146, 0.472486, 0.460063, 0.466593, 0.464042, 0.510759, 0.484488, 0.464241, 0.468871, 0.461429
Process 7: 0.946346, 0.627619, 0.483351, 0.502073, 0.487698, 0.490071, 0.479597, 0.499448, 0.493811, 0.485858, 0.485997, 0.476643, 0.486051, 0.487599, 0.476974, 0.482540, 0.485251, 0.486241, 0.495485, 0.492437, 0.480736, 0.485279, 0.472669, 0.479454, 0.476216, 0.521283, 0.497314, 0.474776, 0.480079, 0.473702
Process 8: 0.960920, 0.635367, 0.495291, 0.514707, 0.501669, 0.502441, 0.492469, 0.511503, 0.507221, 0.499053, 0.498635, 0.489792, 0.499768, 0.500203, 0.489910, 0.495007, 0.499331, 0.499320, 0.507174, 0.505806, 0.494291, 0.498240, 0.485062, 0.493860, 0.489554, 0.530345, 0.510571, 0.485871, 0.494014, 0.487041
Process 9: 0.976110, 0.647479, 0.510059, 0.530935, 0.517804, 0.518390, 0.507956, 0.523913, 0.524891, 0.515687, 0.513472, 0.504995, 0.516783, 0.515667, 0.505281, 0.510145, 0.516782, 0.515889, 0.521609, 0.520350, 0.509101, 0.514473, 0.500943, 0.510420, 0.503809, 0.539466, 0.525157, 0.502378, 0.509507, 0.502844
Process 10: 0.990921, 0.661485, 0.523375, 0.544365, 0.531128, 0.532945, 0.521163, 0.535347, 0.537696, 0.529177, 0.527101, 0.518106, 0.530740, 0.530151, 0.518803, 0.523253, 0.530242, 0.529584, 0.530872, 0.533334, 0.527063, 0.526843, 0.514171, 0.522410, 0.515951, 0.549539, 0.538294, 0.514857, 0.521593, 0.515171
Process 11: 1.004959, 0.675175, 0.537802, 0.558524, 0.544783, 0.547160, 0.535062, 0.548605, 0.551351, 0.543173, 0.541054, 0.532129, 0.544510, 0.543720, 0.532920, 0.537067, 0.544142, 0.543610, 0.543515, 0.547593, 0.535461, 0.540597, 0.528284, 0.536170, 0.529646, 0.562849, 0.551547, 0.528682, 0.534701, 0.528605
Process 12: 1.017845, 0.689503, 0.550163, 0.571388, 0.558641, 0.558963, 0.547880, 0.561512, 0.565134, 0.556152, 0.554344, 0.545409, 0.557696, 0.556470, 0.546027, 0.549640, 0.557773, 0.557057, 0.557628, 0.560841, 0.549465, 0.554332, 0.540440, 0.549355, 0.542498, 0.575810, 0.564952, 0.541156, 0.548072, 0.541463
Process 13: 1.031669, 0.702974, 0.564850, 0.585289, 0.572771, 0.574304, 0.561960, 0.575792, 0.579229, 0.570554, 0.568487, 0.559118, 0.571843, 0.571016, 0.560071, 0.563934, 0.571962, 0.571302, 0.572822, 0.574628, 0.563545, 0.567839, 0.554033, 0.562776, 0.555722, 0.589555, 0.577859, 0.554725, 0.560836, 0.554531
Process 14: 1.044385, 0.716143, 0.576125, 0.597796, 0.585598, 0.586085, 0.573862, 0.588407, 0.591393, 0.582719, 0.580402, 0.571283, 0.583615, 0.582974, 0.572033, 0.575647, 0.584138, 0.583720, 0.585757, 0.586939, 0.575390, 0.580338, 0.565981, 0.575290, 0.567426, 0.601082, 0.589894, 0.566742, 0.573108, 0.566914
Process 15: 1.057790, 0.729378, 0.590931, 0.611034, 0.598753, 0.598874, 0.587436, 0.601820, 0.605103, 0.596597, 0.594130, 0.584608, 0.597119, 0.596372, 0.585599, 0.589386, 0.597815, 0.597530, 0.600176, 0.600094, 0.588782, 0.593295, 0.579278, 0.588152, 0.580334, 0.614226, 0.603459, 0.580069, 0.586467, 0.580213
Process 16: 1.069731, 0.741695, 0.601184, 0.622513, 0.610367, 0.609319, 0.598712, 0.613311, 0.616004, 0.607598, 0.605020, 0.596019, 0.608139, 0.607936, 0.596911, 0.600603, 0.608534, 0.609052, 0.612384, 0.611472, 0.600164, 0.604571, 0.590144, 0.599440, 0.591442, 0.624495, 0.613809, 0.590729, 0.597352, 0.590770
Process 17: 1.082018, 0.753028, 0.613205, 0.633292, 0.621476, 0.621189, 0.610334, 0.624738, 0.627600, 0.619788, 0.616756, 0.607929, 0.620151, 0.619798, 0.608559, 0.612476, 0.619726, 0.620338, 0.625100, 0.623889, 0.610915, 0.614728, 0.600831, 0.609748, 0.602291, 0.635047, 0.624757, 0.601510, 0.607842, 0.601387
Process 18: 1.093139, 0.764456, 0.623642, 0.644288, 0.632180, 0.629700, 0.621682, 0.635831, 0.638540, 0.633881, 0.627785, 0.618881, 0.630595, 0.630883, 0.619619, 0.623365, 0.630674, 0.631668, 0.636688, 0.634741, 0.621803, 0.625098, 0.611833, 0.620308, 0.612883, 0.645306, 0.635398, 0.616471, 0.618453, 0.611993
Process 19: 1.103476, 0.774964, 0.635384, 0.655031, 0.642440, 0.640801, 0.632792, 0.646971, 0.649095, 0.644834, 0.638702, 0.629860, 0.641576, 0.642115, 0.630368, 0.634901, 0.641064, 0.643562, 0.648593, 0.645004, 0.631810, 0.635250, 0.623298, 0.630478, 0.623351, 0.656130, 0.645298, 0.626085, 0.628568, 0.621934
Process 20: 1.113253, 0.785265, 0.644689, 0.664808, 0.652181, 0.651152, 0.642536, 0.657397, 0.658613, 0.654615, 0.648607, 0.639772, 0.651321, 0.652198, 0.640239, 0.645490, 0.650407, 0.654453, 0.659526, 0.654230, 0.641771, 0.644633, 0.632935, 0.639818, 0.632809, 0.665588, 0.654681, 0.635069, 0.637774, 0.631192
Process 21: 1.123418, 0.795487, 0.656103, 0.675296, 0.662284, 0.662154, 0.653188, 0.668446, 0.668397, 0.665215, 0.659076, 0.650245, 0.661502, 0.662978, 0.650863, 0.656700, 0.660553, 0.664196, 0.670981, 0.664198, 0.651436, 0.654407, 0.642857, 0.649573, 0.642989, 0.675187, 0.664260, 0.642079, 0.647523, 0.640970
Process 22: 1.132839, 0.805840, 0.665536, 0.685333, 0.672107, 0.672425, 0.663286, 0.678624, 0.677870, 0.676002, 0.669187, 0.660364, 0.670743, 0.673431, 0.660927, 0.667170, 0.669715, 0.673607, 0.682061, 0.673769, 0.661253, 0.663805, 0.652456, 0.659158, 0.652343, 0.684663, 0.673781, 0.650918, 0.656996, 0.650439
Process 23: 1.143003, 0.816262, 0.678557, 0.695372, 0.681760, 0.683290, 0.673931, 0.689509, 0.687679, 0.687857, 0.680016, 0.671201, 0.680204, 0.684432, 0.671970, 0.678129, 0.680011, 0.683009, 0.692402, 0.683073, 0.672174, 0.674086, 0.662312, 0.668438, 0.662157, 0.694928, 0.683077, 0.660445, 0.666766, 0.659643
Process 24: 1.151288, 0.825756, 0.686082, 0.704571, 0.690198, 0.692518, 0.683143, 0.698591, 0.695864, 0.695699, 0.689289, 0.680368, 0.688602, 0.693659, 0.681126, 0.687358, 0.688982, 0.691472, 0.700916, 0.691469, 0.680529, 0.682319, 0.671049, 0.676861, 0.670586, 0.702580, 0.691361, 0.668829, 0.675183, 0.668062
Process 25: 1.161585, 0.837330, 0.697047, 0.714946, 0.699601, 0.702953, 0.693714, 0.708905, 0.705638, 0.705209, 0.699722, 0.690924, 0.697717, 0.704125, 0.691444, 0.697765, 0.699129, 0.700778, 0.710309, 0.700761, 0.690181, 0.691798, 0.680550, 0.686159, 0.679902, 0.711786, 0.701095, 0.678592, 0.684778, 0.677475
Process 26: 1.170833, 0.847699, 0.706101, 0.724429, 0.708808, 0.712710, 0.703420, 0.718464, 0.715567, 0.714164, 0.709545, 0.700557, 0.706391, 0.713661, 0.701156, 0.707520, 0.708549, 0.709474, 0.719006, 0.709487, 0.699239, 0.700538, 0.689546, 0.694899, 0.688561, 0.720444, 0.709653, 0.687178, 0.693538, 0.686234
Process 27: 1.179822, 0.859041, 0.717820, 0.735030, 0.719112, 0.723427, 0.714084, 0.729031, 0.725693, 0.723882, 0.720209, 0.711191, 0.716246, 0.724440, 0.711826, 0.718276, 0.718944, 0.718929, 0.728528, 0.719122, 0.708912, 0.710099, 0.699296, 0.705371, 0.698066, 0.729907, 0.719195, 0.696661, 0.702959, 0.695699
Process 28: 1.188349, 0.868826, 0.726401, 0.744470, 0.727619, 0.732987, 0.723510, 0.738409, 0.734814, 0.730714, 0.729718, 0.720600, 0.725881, 0.734830, 0.721341, 0.727680, 0.728292, 0.727918, 0.737033, 0.728979, 0.717844, 0.718631, 0.708120, 0.713484, 0.706576, 0.738402, 0.727712, 0.705171, 0.711467, 0.704157
Process 29: 1.198192, 0.878092, 0.738034, 0.754960, 0.737049, 0.743539, 0.734066, 0.748957, 0.745141, 0.738775, 0.740339, 0.731146, 0.735714, 0.746690, 0.731819, 0.738279, 0.738669, 0.738653, 0.746446, 0.741761, 0.727250, 0.728041, 0.717818, 0.722898, 0.716012, 0.747798, 0.737162, 0.714614, 0.720840, 0.713575
Process 30: 1.206563, 0.886952, 0.746524, 0.764435, 0.745810, 0.753112, 0.743606, 0.758472, 0.754506, 0.747430, 0.749923, 0.740704, 0.745252, 0.758409, 0.741424, 0.747853, 0.748044, 0.746621, 0.755126, 0.751044, 0.736110, 0.736660, 0.728997, 0.731536, 0.724650, 0.756392, 0.745722, 0.723220, 0.729453, 0.722171
Process 31: 1.217162, 0.896479, 0.759071, 0.775236, 0.755515, 0.766817, 0.754447, 0.769334, 0.764953, 0.757606, 0.760782, 0.751840, 0.755191, 0.771764, 0.752279, 0.758657, 0.758663, 0.756422, 0.767990, 0.764342, 0.745939, 0.746353, 0.739739, 0.741238, 0.734388, 0.766088, 0.755431, 0.732893, 0.739160, 0.732011
