MPI_insiderank_optimisedserial
Process 0: 3.383864, 3.178855, 3.085377, 3.103397, 2.940327, 3.141816, 2.992057, 2.978131, 3.056418, 5.439172, 2.977479, 3.002206, 2.958053, 3.038475, 2.987958, 3.025289, 3.070233, 2.968708, 2.999128, 2.972234, 3.006592, 3.057879, 2.965303, 2.979141, 3.043888, 2.962222, 2.988987, 3.074998, 2.968683, 2.990263
Process 1: 3.401604, 3.198651, 3.102444, 3.122585, 2.958218, 3.162560, 3.012318, 2.995278, 3.073466, 5.457420, 2.995830, 3.019982, 2.975617, 3.056036, 3.005045, 3.043433, 3.090330, 2.986086, 3.016454, 2.989926, 3.024146, 3.074556, 2.982839, 2.995832, 3.062598, 2.979079, 3.005666, 3.096007, 2.985837, 3.007148
