MPI_insiderank_optimisedserial
Process 0: 1.744463, 1.738856, 1.720771, 1.736257, 1.710682, 1.728322, 1.718560, 1.710436, 1.728571, 1.710556, 1.717830, 1.710240, 1.710384, 1.728508, 1.710745, 1.710690, 1.718965, 1.710966, 1.710518, 1.710711, 1.627469, 1.602295, 1.615858, 1.601155, 1.611816, 1.621475, 1.610116, 1.604281, 1.617492, 1.613824
Process 1: 1.746660, 1.740994, 1.722624, 1.738182, 1.712740, 1.730466, 1.720643, 1.712522, 1.730734, 1.712645, 1.719930, 1.712410, 1.712275, 1.730456, 1.712644, 1.712771, 1.721039, 1.713059, 1.712572, 1.712773, 1.629425, 1.604337, 1.617896, 1.603201, 1.613862, 1.623524, 1.612165, 1.606315, 1.619534, 1.615861
