MPI_insiderank_optimisedserial
Process 0: 1.258943, 1.110331, 1.009356, 1.011491, 0.995987, 1.023834, 0.996143, 0.991334, 0.998881, 0.998869, 0.990911, 1.022225, 1.011309, 1.003856, 0.990588, 0.984828, 1.004141, 0.999276, 0.991936, 0.984423, 0.989189, 0.991745, 1.007613, 0.968623, 0.984899, 0.999438, 0.996152, 0.978419, 0.992920, 0.993360
Process 1: 1.232392, 1.089477, 0.988016, 0.989332, 0.974395, 1.001973, 0.973868, 0.969512, 0.976668, 0.977241, 0.968981, 1.000289, 0.989355, 0.981891, 0.968653, 0.963084, 0.982550, 0.975920, 0.970606, 0.962702, 0.967526, 0.969705, 0.985931, 0.947061, 0.963437, 0.977761, 0.974883, 0.956341, 0.971147, 0.971852
Process 2: 1.244399, 1.100079, 0.999092, 1.000304, 0.984953, 1.012937, 0.984462, 0.980338, 0.988031, 0.987401, 0.979934, 1.011439, 0.999779, 0.993126, 0.979726, 0.974303, 0.993041, 0.986950, 0.981290, 0.973367, 0.978560, 0.980769, 0.996728, 0.957791, 0.974043, 0.988591, 0.985564, 0.967409, 0.981768, 0.982192
Process 3: 1.259366, 1.110330, 1.009355, 1.011489, 0.995986, 1.023833, 0.996141, 0.991333, 0.998881, 0.998867, 0.990911, 1.022225, 1.011308, 1.003855, 0.990588, 0.984827, 1.004139, 0.999275, 0.991935, 0.984422, 0.989188, 0.991746, 1.007612, 0.968622, 0.984899, 0.999437, 0.996152, 0.978418, 0.992921, 0.993358
