MPI_insiderank_optimisedserial
Process 0: 0.435286, 0.425565, 0.291915, 0.282478, 0.278166, 0.280127, 0.282702, 0.276472, 0.277971, 0.277408, 0.278965, 0.294215, 0.279754, 0.288679, 0.279922, 0.283507, 0.280873, 0.279776, 0.300209, 0.285362, 0.282102, 0.283202, 0.298373, 0.282537, 0.281663, 0.284922, 0.285606, 0.283631, 0.281418, 0.282019
Process 1: 0.386700, 0.380634, 0.252163, 0.243660, 0.239669, 0.241610, 0.244325, 0.237988, 0.239554, 0.239227, 0.240515, 0.255777, 0.241238, 0.250010, 0.241500, 0.245044, 0.242630, 0.241196, 0.249936, 0.246002, 0.244845, 0.244633, 0.257768, 0.243712, 0.242822, 0.246020, 0.247256, 0.244438, 0.243165, 0.243408
Process 2: 0.391103, 0.384432, 0.254921, 0.246301, 0.242539, 0.244192, 0.247101, 0.240630, 0.242030, 0.241488, 0.243268, 0.259742, 0.243870, 0.252515, 0.243913, 0.247975, 0.244825, 0.243977, 0.253186, 0.248932, 0.247109, 0.247606, 0.260418, 0.246406, 0.245951, 0.248683, 0.249727, 0.247640, 0.248838, 0.246069
Process 3: 0.393347, 0.387092, 0.257540, 0.248972, 0.245045, 0.246873, 0.249762, 0.243271, 0.244759, 0.244221, 0.245720, 0.261886, 0.246487, 0.255340, 0.246655, 0.250103, 0.247631, 0.246483, 0.256256, 0.251392, 0.249212, 0.250007, 0.263473, 0.249322, 0.248381, 0.251616, 0.252296, 0.249718, 0.250805, 0.248943
Process 4: 0.396922, 0.391229, 0.260084, 0.251618, 0.248491, 0.249485, 0.252396, 0.245891, 0.247398, 0.246810, 0.248499, 0.263661, 0.249196, 0.258010, 0.250422, 0.253389, 0.251070, 0.249152, 0.258893, 0.254210, 0.251663, 0.252587, 0.267848, 0.251765, 0.251182, 0.254083, 0.255147, 0.253016, 0.254049, 0.251983
Process 5: 0.400185, 0.393480, 0.262773, 0.254317, 0.250781, 0.252153, 0.255021, 0.248515, 0.250047, 0.249549, 0.251089, 0.266293, 0.251832, 0.260771, 0.252063, 0.256213, 0.253576, 0.251852, 0.261753, 0.256913, 0.254688, 0.255273, 0.270304, 0.254472, 0.253488, 0.257574, 0.257739, 0.255472, 0.255746, 0.254375
Process 6: 0.403752, 0.395141, 0.265671, 0.256935, 0.253165, 0.254749, 0.257550, 0.251105, 0.252757, 0.252337, 0.253698, 0.269358, 0.254413, 0.263449, 0.255124, 0.258133, 0.256051, 0.254747, 0.264954, 0.260158, 0.257969, 0.259247, 0.272979, 0.257086, 0.256161, 0.260459, 0.260193, 0.259179, 0.257155, 0.257195
Process 7: 0.408358, 0.399026, 0.268866, 0.260617, 0.256381, 0.258262, 0.261087, 0.254785, 0.256274, 0.255696, 0.257211, 0.272837, 0.257922, 0.266977, 0.258148, 0.261538, 0.259211, 0.258623, 0.268925, 0.263671, 0.260524, 0.261616, 0.276141, 0.260621, 0.259579, 0.263188, 0.263786, 0.261418, 0.260087, 0.260407
Process 8: 0.413854, 0.403012, 0.272321, 0.263677, 0.259382, 0.261434, 0.264582, 0.257902, 0.259553, 0.258732, 0.260370, 0.275310, 0.261037, 0.270070, 0.261281, 0.264954, 0.262536, 0.262968, 0.273504, 0.266768, 0.263362, 0.265475, 0.279212, 0.264095, 0.262754, 0.266083, 0.266902, 0.264043, 0.263003, 0.263299
Process 9: 0.418148, 0.405300, 0.274866, 0.265363, 0.261061, 0.263034, 0.266303, 0.259434, 0.260908, 0.260404, 0.262002, 0.277312, 0.262791, 0.271738, 0.263891, 0.266455, 0.264088, 0.265712, 0.277837, 0.268668, 0.264925, 0.267341, 0.281277, 0.265468, 0.264316, 0.269469, 0.268469, 0.265785, 0.264558, 0.265076
Process 10: 0.419851, 0.408665, 0.276342, 0.267985, 0.263745, 0.265690, 0.268190, 0.262084, 0.263565, 0.263306, 0.264664, 0.279867, 0.265418, 0.274336, 0.265616, 0.268900, 0.266948, 0.267616, 0.282696, 0.270557, 0.267574, 0.268890, 0.284670, 0.268099, 0.266854, 0.272156, 0.271108, 0.269291, 0.266999, 0.267910
Process 11: 0.421271, 0.412303, 0.279231, 0.270587, 0.266635, 0.268338, 0.271423, 0.265057, 0.267307, 0.265831, 0.267283, 0.282972, 0.268059, 0.278892, 0.268684, 0.272262, 0.269603, 0.269492, 0.286778, 0.273169, 0.271141, 0.271607, 0.287584, 0.270775, 0.269559, 0.274271, 0.273760, 0.271421, 0.269569, 0.270395
Process 12: 0.424302, 0.415016, 0.283098, 0.273653, 0.268992, 0.270966, 0.274081, 0.267893, 0.269200, 0.268799, 0.269922, 0.285166, 0.270710, 0.280406, 0.270706, 0.275068, 0.272143, 0.272339, 0.290166, 0.275524, 0.272830, 0.274166, 0.289486, 0.273337, 0.272466, 0.275747, 0.276418, 0.273827, 0.272359, 0.272964
Process 13: 0.428402, 0.418125, 0.284873, 0.276042, 0.271600, 0.273528, 0.276184, 0.269916, 0.271595, 0.270860, 0.272485, 0.287806, 0.273288, 0.282287, 0.273293, 0.277194, 0.274409, 0.274450, 0.292978, 0.278298, 0.277218, 0.276739, 0.291802, 0.275938, 0.274863, 0.278147, 0.278972, 0.277136, 0.275416, 0.275550
Process 14: 0.430811, 0.421366, 0.286803, 0.278443, 0.274334, 0.276128, 0.278712, 0.272588, 0.274026, 0.273407, 0.275083, 0.290277, 0.275842, 0.284837, 0.275846, 0.279499, 0.276982, 0.275947, 0.295832, 0.281978, 0.278630, 0.279277, 0.294374, 0.278538, 0.277791, 0.280792, 0.281613, 0.278880, 0.277693, 0.277927
Process 15: 0.435659, 0.425569, 0.291913, 0.282473, 0.278165, 0.280133, 0.282702, 0.276471, 0.277971, 0.277409, 0.278967, 0.294214, 0.279754, 0.288679, 0.279922, 0.283501, 0.280872, 0.279776, 0.300208, 0.285360, 0.282103, 0.283203, 0.298374, 0.282539, 0.281663, 0.284921, 0.285607, 0.283630, 0.281424, 0.282017
