MPI_insiderank_optimisedserial
Process 0: 2.618444, 3.610381, 2.273216, 2.420438, 2.378564, 2.380392, 2.399083, 2.407854, 2.395582, 2.432026, 2.364074, 2.352977, 2.396977, 2.423512, 2.381705, 2.372315, 2.210142, 2.249799, 2.267889, 2.282582, 2.315141, 2.414163, 2.331050, 2.342837, 2.333571, 2.348623, 2.371564, 2.368077, 2.362169, 2.416430
Process 1: 2.485886, 2.898839, 2.196993, 2.307031, 2.307333, 2.252813, 2.309304, 2.337398, 2.306484, 2.316380, 2.273761, 2.263667, 2.323657, 2.333160, 2.288369, 2.259402, 2.125645, 2.159344, 2.178834, 2.194353, 2.223770, 2.341038, 2.238695, 2.251406, 2.242221, 2.255545, 2.279950, 2.275401, 2.269953, 2.324894
Process 2: 2.551555, 3.576909, 2.244329, 2.388150, 2.358827, 2.335611, 2.376232, 2.385764, 2.368349, 2.400674, 2.339902, 2.329667, 2.370457, 2.398171, 2.353217, 2.341699, 2.188342, 2.222741, 2.239750, 2.258140, 2.287472, 2.392650, 2.308834, 2.316781, 2.306962, 2.324602, 2.352620, 2.340709, 2.339315, 2.393273
Process 3: 2.621291, 3.612690, 2.275514, 2.422865, 2.381181, 2.383194, 2.401977, 2.411257, 2.398003, 2.434607, 2.366350, 2.355403, 2.399393, 2.425850, 2.384293, 2.374929, 2.213287, 2.252354, 2.270543, 2.285755, 2.317582, 2.416627, 2.333593, 2.345261, 2.336034, 2.351156, 2.374261, 2.370510, 2.364560, 2.418841
