pblas_cm
Process 0: 4.242513, 4.043574, 3.912799, 3.854246, 3.839921, 3.635739, 3.688716, 3.581885, 3.878358, 3.742934, 3.723035, 3.619563, 3.590019, 3.625525, 3.653730, 3.646758, 3.630332, 3.609177, 3.666385, 3.631174, 3.675062, 3.747457, 3.719881, 3.760333, 3.590537, 3.697481, 3.775863, 3.715455, 3.670302, 3.686903
Process 1: 4.822937, 3.998375, 3.989294, 3.820727, 3.895484, 3.794416, 3.690439, 3.598752, 3.762659, 3.708610, 3.827043, 3.647593, 3.592397, 3.594449, 3.623320, 3.703688, 3.669680, 3.621951, 3.598437, 3.641439, 3.663465, 3.696375, 3.703397, 3.787255, 3.665717, 3.631840, 3.720866, 3.825624, 3.602884, 3.772249
Process 2: 4.830637, 3.992912, 3.983680, 3.828802, 3.894905, 3.798229, 3.696081, 3.588019, 3.760407, 3.717171, 3.827335, 3.645978, 3.589686, 3.591165, 3.623742, 3.702824, 3.681278, 3.621978, 3.592543, 3.637121, 3.669732, 3.695038, 3.692526, 3.783346, 3.672530, 3.631003, 3.716528, 3.835654, 3.592578, 3.775992
Process 3: 4.841944, 3.995917, 3.994756, 3.816535, 3.888844, 3.799434, 3.691738, 3.601160, 3.761386, 3.701427, 3.838161, 3.645148, 3.587993, 3.594720, 3.623664, 3.698839, 3.681179, 3.619191, 3.603451, 3.631589, 3.666190, 3.692884, 3.699665, 3.780190, 3.671142, 3.628834, 3.724585, 3.835821, 3.587166, 3.771115
Process 4: 4.829836, 3.998203, 3.993638, 3.814746, 3.896141, 3.798820, 3.687600, 3.596435, 3.763579, 3.712210, 3.828073, 3.645699, 3.589671, 3.595252, 3.621947, 3.701724, 3.681687, 3.620315, 3.593695, 3.636281, 3.669580, 3.694168, 3.697350, 3.779521, 3.672094, 3.631802, 3.716528, 3.834784, 3.593796, 3.775205
Process 5: 4.859506, 3.996980, 3.980651, 3.835170, 3.883570, 3.808517, 3.681531, 3.598522, 3.762816, 3.704583, 3.832462, 3.640618, 3.600777, 3.589008, 3.615590, 3.701180, 3.680225, 3.631796, 3.588068, 3.649440, 3.654048, 3.698436, 3.694914, 3.780965, 3.669161, 3.630105, 3.726211, 3.835109, 3.588083, 3.770512
Process 6: 4.838839, 3.996489, 3.981022, 3.824712, 3.892502, 3.798331, 3.697191, 3.587844, 3.760238, 3.715151, 3.836902, 3.637488, 3.589111, 3.596600, 3.619278, 3.703618, 3.681808, 3.619159, 3.597581, 3.633241, 3.670536, 3.692319, 3.694533, 3.783339, 3.672058, 3.631976, 3.719333, 3.830673, 3.594223, 3.777295
Process 7: 4.819538, 4.014032, 3.967405, 3.857590, 3.860415, 3.837873, 3.656811, 3.611758, 3.763732, 3.690982, 3.841369, 3.633340, 3.595266, 3.582064, 3.627724, 3.699077, 3.673820, 3.647838, 3.579000, 3.667378, 3.637262, 3.708600, 3.680447, 3.792309, 3.661162, 3.624239, 3.727441, 3.847128, 3.586291, 3.769224
Process 8: 4.810641, 4.004210, 3.979646, 3.820055, 3.896292, 3.797069, 3.693146, 3.594492, 3.767550, 3.706916, 3.825056, 3.646420, 3.591018, 3.602522, 3.610855, 3.702039, 3.684087, 3.618111, 3.597488, 3.633580, 3.671187, 3.697838, 3.697239, 3.779726, 3.667734, 3.631793, 3.717093, 3.835702, 3.608531, 3.763613
Process 9: 4.851173, 3.998133, 3.959509, 3.838586, 3.884017, 3.829068, 3.658944, 3.614448, 3.763532, 3.693486, 3.833661, 3.649075, 3.586295, 3.583244, 3.622877, 3.702000, 3.675613, 3.639838, 3.586471, 3.660967, 3.643896, 3.711903, 3.679807, 3.796550, 3.655386, 3.630535, 3.722893, 3.836624, 3.599094, 3.762522
Process 10: 4.829768, 3.994131, 3.983631, 3.829324, 3.894008, 3.798277, 3.686203, 3.599605, 3.757006, 3.718920, 3.827252, 3.646015, 3.588581, 3.595310, 3.620217, 3.703062, 3.681519, 3.622020, 3.597399, 3.632232, 3.669614, 3.693236, 3.694287, 3.783466, 3.672484, 3.631390, 3.716051, 3.835883, 3.592482, 3.775984
Process 11: 4.860512, 3.994001, 3.984278, 3.830125, 3.878896, 3.814855, 3.685544, 3.594272, 3.763878, 3.697743, 3.838222, 3.643356, 3.596684, 3.575926, 3.630386, 3.700789, 3.680335, 3.627254, 3.597266, 3.645123, 3.656510, 3.694037, 3.696032, 3.782484, 3.666504, 3.629489, 3.728031, 3.836551, 3.586980, 3.772358
Process 12: 4.841648, 3.994293, 3.984770, 3.824199, 3.899855, 3.792400, 3.697798, 3.588049, 3.761375, 3.712906, 3.828577, 3.647240, 3.590505, 3.593696, 3.623128, 3.695897, 3.687321, 3.617640, 3.596065, 3.633894, 3.671530, 3.692968, 3.694766, 3.782419, 3.671391, 3.634875, 3.716573, 3.829462, 3.597570, 3.775911
Process 13: 4.861462, 3.992330, 3.983477, 3.834975, 3.881252, 3.810840, 3.681709, 3.602210, 3.758278, 3.703656, 3.835617, 3.639537, 3.599930, 3.583063, 3.620747, 3.702582, 3.680248, 3.631722, 3.588860, 3.648783, 3.654356, 3.698222, 3.693397, 3.782171, 3.668877, 3.630479, 3.723982, 3.836654, 3.588502, 3.774914
Process 14: 4.844732, 3.991701, 3.985919, 3.823916, 3.900173, 3.792298, 3.694020, 3.592372, 3.759950, 3.713906, 3.827811, 3.647811, 3.588618, 3.597332, 3.620233, 3.696500, 3.687343, 3.617478, 3.596255, 3.633697, 3.671534, 3.691960, 3.698265, 3.780091, 3.671749, 3.635471, 3.716180, 3.829539, 3.596530, 3.777070
Process 15: 4.828902, 4.007839, 3.959082, 3.850693, 3.884556, 3.802101, 3.683532, 3.612206, 3.766945, 3.684327, 3.844400, 3.628304, 3.600998, 3.592395, 3.617008, 3.699571, 3.672306, 3.649260, 3.578118, 3.664760, 3.639096, 3.702113, 3.691949, 3.789635, 3.659266, 3.624283, 3.727558, 3.846065, 3.588560, 3.765863
Process 16: 4.823550, 3.998465, 3.975633, 3.822995, 3.891749, 3.797220, 3.692680, 3.594894, 3.776328, 3.694958, 3.826284, 3.646689, 3.591141, 3.597173, 3.616174, 3.700601, 3.683840, 3.619587, 3.596989, 3.634059, 3.674133, 3.693114, 3.695120, 3.782719, 3.667857, 3.634077, 3.715525, 3.845011, 3.600972, 3.760830
Process 17: 4.866146, 3.992568, 3.956776, 3.850301, 3.887025, 3.811408, 3.669149, 3.615193, 3.760361, 3.703273, 3.834289, 3.631687, 3.603245, 3.569350, 3.631875, 3.707700, 3.656934, 3.656375, 3.581161, 3.656966, 3.644722, 3.708698, 3.690934, 3.790362, 3.653433, 3.636877, 3.719099, 3.834068, 3.601170, 3.766681
Process 18: 4.843357, 3.986907, 3.990206, 3.815955, 3.910235, 3.790210, 3.691735, 3.591839, 3.763891, 3.713694, 3.826571, 3.648538, 3.587385, 3.596404, 3.623109, 3.695645, 3.685821, 3.619322, 3.596370, 3.633575, 3.671417, 3.691597, 3.695728, 3.782608, 3.672522, 3.635873, 3.714163, 3.831610, 3.593507, 3.778597
Process 19: 4.872574, 3.986394, 3.979869, 3.836669, 3.880218, 3.809918, 3.682273, 3.602673, 3.759412, 3.702798, 3.839259, 3.635803, 3.598831, 3.580463, 3.625498, 3.701087, 3.680855, 3.630914, 3.590097, 3.647576, 3.656616, 3.696500, 3.693787, 3.783703, 3.666648, 3.630148, 3.725304, 3.835910, 3.590257, 3.771306
Process 20: 4.845421, 3.988793, 3.987495, 3.824247, 3.900210, 3.791666, 3.693808, 3.593163, 3.760040, 3.713625, 3.828114, 3.647107, 3.588963, 3.597750, 3.620247, 3.696118, 3.687486, 3.617573, 3.596134, 3.633775, 3.671591, 3.691381, 3.697816, 3.781157, 3.671557, 3.635819, 3.715445, 3.830030, 3.596713, 3.776346
Process 21: 4.872330, 3.988091, 3.978811, 3.836253, 3.881020, 3.809283, 3.684388, 3.599229, 3.760700, 3.707240, 3.831374, 3.639400, 3.599872, 3.581576, 3.623468, 3.702688, 3.679156, 3.631206, 3.589864, 3.647524, 3.654940, 3.698146, 3.693844, 3.787589, 3.663212, 3.629925, 3.725002, 3.835848, 3.590454, 3.771245
Process 22: 4.845254, 3.990545, 3.992145, 3.814826, 3.903811, 3.793057, 3.693386, 3.591420, 3.762129, 3.712678, 3.827721, 3.647715, 3.588861, 3.596794, 3.621904, 3.695205, 3.687335, 3.617579, 3.596449, 3.633526, 3.671509, 3.691960, 3.698058, 3.780257, 3.671675, 3.635471, 3.716160, 3.829605, 3.596435, 3.777242
Process 23: 4.854141, 3.999250, 3.950528, 3.857858, 3.886560, 3.810916, 3.663865, 3.622276, 3.763444, 3.681988, 3.851906, 3.614907, 3.606414, 3.578427, 3.634363, 3.696280, 3.664655, 3.665683, 3.569377, 3.668182, 3.636032, 3.712214, 3.681844, 3.794302, 3.654607, 3.617278, 3.735108, 3.846384, 3.593506, 3.756929
Process 24: 4.912675, 3.998701, 3.970999, 3.835568, 3.886391, 3.807672, 3.675601, 3.611594, 3.759760, 3.695255, 3.845477, 3.631936, 3.596091, 3.581528, 3.625176, 3.702294, 3.677016, 3.635480, 3.592391, 3.646620, 3.652700, 3.704439, 3.688955, 3.790667, 3.656826, 3.635137, 3.724357, 3.830208, 3.603048, 3.763559
Process 25: 4.913653, 3.996580, 3.973688, 3.837703, 3.888603, 3.800829, 3.677649, 3.610002, 3.762383, 3.694055, 3.841937, 3.635552, 3.595555, 3.583630, 3.628928, 3.697389, 3.681988, 3.631659, 3.589365, 3.651717, 3.652891, 3.698893, 3.690860, 3.786638, 3.660811, 3.634005, 3.725362, 3.832575, 3.596065, 3.767743
Process 26: 4.921721, 3.993883, 3.976029, 3.836802, 3.882053, 3.808999, 3.679390, 3.606806, 3.762083, 3.697970, 3.837625, 3.641676, 3.597591, 3.576769, 3.632391, 3.698506, 3.681341, 3.628278, 3.592904, 3.643544, 3.658951, 3.698048, 3.690647, 3.788036, 3.675302, 3.621989, 3.725563, 3.831446, 3.594884, 3.768429
Process 27: 4.923408, 3.990458, 3.979459, 3.838971, 3.875042, 3.814209, 3.678038, 3.605623, 3.761027, 3.700861, 3.836118, 3.640387, 3.598260, 3.584315, 3.621012, 3.701534, 3.679929, 3.631294, 3.590550, 3.646161, 3.656155, 3.697922, 3.694092, 3.784683, 3.667523, 3.630822, 3.726130, 3.830961, 3.592954, 3.769239
Process 28: 4.924557, 3.990636, 3.979459, 3.836569, 3.884317, 3.804634, 3.683535, 3.602269, 3.762385, 3.700260, 3.836122, 3.641713, 3.596609, 3.582626, 3.625841, 3.699740, 3.681533, 3.629183, 3.589781, 3.647396, 3.656756, 3.697637, 3.694260, 3.783945, 3.664486, 3.633976, 3.726803, 3.830336, 3.592639, 3.770770
Process 29: 4.923561, 3.990798, 3.978039, 3.840771, 3.878798, 3.808428, 3.681752, 3.603085, 3.759221, 3.703382, 3.838046, 3.638485, 3.597141, 3.581926, 3.624484, 3.701647, 3.680368, 3.631108, 3.589859, 3.646800, 3.656078, 3.697806, 3.693547, 3.784317, 3.667485, 3.631007, 3.726759, 3.831077, 3.593768, 3.768735
Process 30: 4.925631, 3.990721, 3.981358, 3.834461, 3.880228, 3.812960, 3.679518, 3.602243, 3.760946, 3.701813, 3.839766, 3.637843, 3.596334, 3.583196, 3.624427, 3.701016, 3.681705, 3.628780, 3.594097, 3.643581, 3.656657, 3.697494, 3.692831, 3.785031, 3.664943, 3.633402, 3.726539, 3.831425, 3.592259, 3.770707
Process 31: 4.903547, 4.005899, 3.963935, 3.846876, 3.880335, 3.809860, 3.675613, 3.610481, 3.766328, 3.688436, 3.845022, 3.630726, 3.599389, 3.576826, 3.631670, 3.698826, 3.669491, 3.647384, 3.584437, 3.658332, 3.644650, 3.702409, 3.691297, 3.784567, 3.663196, 3.628404, 3.731745, 3.833704, 3.590928, 3.767158
