pblas_cm
Process 0: 5.954478, 5.788743, 5.994119, 5.386501, 5.508008, 5.628150, 5.348966, 5.388350, 6.375345, 5.476294, 5.305049, 5.296810, 5.241605, 5.378588, 5.486310, 5.316280, 5.345700, 5.316241, 5.311311, 5.517017, 5.650120, 5.296750, 5.271026, 5.272919, 5.259667, 5.820779, 5.322255, 5.351933, 5.305608, 5.293397
Process 1: 6.902235, 5.808275, 5.566185, 5.904688, 5.403609, 5.587945, 5.602711, 5.390798, 5.377803, 6.308107, 5.408204, 5.297417, 5.252860, 5.320134, 5.428272, 5.441821, 5.311637, 5.393793, 5.268131, 5.366347, 5.586037, 5.511837, 5.247972, 5.294016, 5.269643, 5.267254, 5.901676, 5.295981, 5.325558, 5.334154
Process 2: 6.890515, 5.811038, 5.604948, 5.864047, 5.399602, 5.602460, 5.594879, 5.386974, 5.389550, 6.300257, 5.405539, 5.302987, 5.253054, 5.318599, 5.432972, 5.440543, 5.315528, 5.394319, 5.277643, 5.348478, 5.588035, 5.507098, 5.255983, 5.287784, 5.281292, 5.293880, 5.878434, 5.276756, 5.341755, 5.328621
Process 3: 6.903313, 5.807325, 5.598228, 5.872851, 5.402418, 5.591016, 5.602373, 5.392746, 5.375560, 6.310990, 5.406042, 5.299234, 5.253479, 5.319922, 5.426476, 5.443183, 5.312020, 5.402723, 5.257675, 5.366288, 5.584894, 5.511761, 5.247654, 5.293691, 5.270736, 5.289967, 5.880834, 5.294561, 5.324645, 5.336638
Process 4: 6.898427, 5.803358, 5.604561, 5.868145, 5.398914, 5.601841, 5.592778, 5.389985, 5.392335, 6.295007, 5.406717, 5.301394, 5.254635, 5.316976, 5.435135, 5.439681, 5.314595, 5.394550, 5.279266, 5.348901, 5.584806, 5.509006, 5.254667, 5.288906, 5.280856, 5.295233, 5.875627, 5.278144, 5.347674, 5.323125
Process 5: 6.902661, 5.808694, 5.598882, 5.868793, 5.405964, 5.591939, 5.599250, 5.391142, 5.375571, 6.314440, 5.404225, 5.297729, 5.258389, 5.314317, 5.428425, 5.442971, 5.310811, 5.405411, 5.259168, 5.362204, 5.587736, 5.508411, 5.248546, 5.294748, 5.272945, 5.295144, 5.872666, 5.294190, 5.327739, 5.335368
Process 6: 6.889051, 5.811819, 5.604014, 5.865364, 5.399781, 5.604785, 5.590161, 5.393415, 5.385269, 6.299112, 5.406552, 5.299449, 5.260098, 5.315244, 5.431672, 5.440196, 5.315952, 5.397669, 5.273360, 5.350226, 5.589518, 5.505257, 5.253799, 5.291241, 5.276989, 5.299442, 5.872431, 5.281422, 5.345459, 5.325948
Process 7: 6.887891, 5.811177, 5.575501, 5.888260, 5.413559, 5.586326, 5.597100, 5.406752, 5.375193, 6.307220, 5.393643, 5.308484, 5.259917, 5.291553, 5.439370, 5.435546, 5.311964, 5.429635, 5.219127, 5.384390, 5.600478, 5.507018, 5.248396, 5.283463, 5.257811, 5.293111, 5.874800, 5.314757, 5.301754, 5.374043
Process 8: 6.881225, 5.791890, 5.602231, 5.857062, 5.411448, 5.632115, 5.548589, 5.411884, 5.408371, 6.276933, 5.385369, 5.334980, 5.255496, 5.307536, 5.447784, 5.410866, 5.327028, 5.384964, 5.309626, 5.314348, 5.603623, 5.524420, 5.259350, 5.260655, 5.289432, 5.283167, 5.894651, 5.253226, 5.380458, 5.311975
Process 9: 6.902085, 5.798388, 5.579942, 5.898400, 5.404246, 5.588302, 5.602256, 5.391345, 5.386333, 6.300807, 5.406313, 5.298430, 5.253202, 5.319238, 5.427845, 5.444656, 5.308353, 5.393875, 5.268153, 5.367629, 5.584987, 5.510837, 5.250084, 5.292451, 5.269186, 5.269906, 5.902304, 5.294209, 5.323162, 5.340373
Process 10: 6.899082, 5.797658, 5.626050, 5.855945, 5.392875, 5.603194, 5.594289, 5.387268, 5.393655, 6.296593, 5.405414, 5.302202, 5.253319, 5.320241, 5.432914, 5.439762, 5.314841, 5.393944, 5.277106, 5.349673, 5.587386, 5.506874, 5.261628, 5.282529, 5.281822, 5.293690, 5.877418, 5.277389, 5.348002, 5.324250
Process 11: 6.903884, 5.806024, 5.609394, 5.863622, 5.406752, 5.586773, 5.606886, 5.387853, 5.387181, 6.299216, 5.406896, 5.297903, 5.256137, 5.317114, 5.429043, 5.441790, 5.312419, 5.406037, 5.254239, 5.369183, 5.582945, 5.509684, 5.248406, 5.295020, 5.269111, 5.290568, 5.880903, 5.293810, 5.324204, 5.343887
Process 12: 6.899038, 5.800531, 5.618961, 5.862124, 5.395825, 5.599800, 5.592852, 5.389824, 5.391494, 6.297594, 5.405749, 5.304859, 5.250126, 5.322122, 5.431666, 5.438955, 5.314056, 5.394138, 5.280004, 5.347950, 5.584900, 5.513596, 5.256435, 5.283227, 5.282828, 5.292573, 5.875895, 5.278827, 5.347689, 5.324757
Process 13: 6.904168, 5.807270, 5.608829, 5.867248, 5.403902, 5.587695, 5.605386, 5.387611, 5.387021, 6.303744, 5.405124, 5.296341, 5.254187, 5.319989, 5.427914, 5.445096, 5.311440, 5.403806, 5.254372, 5.368357, 5.583313, 5.509620, 5.250027, 5.294009, 5.269413, 5.294656, 5.875619, 5.295040, 5.326069, 5.340523
Process 14: 6.898999, 5.800946, 5.622230, 5.858722, 5.395037, 5.600829, 5.592640, 5.389838, 5.391158, 6.299507, 5.403455, 5.304126, 5.251694, 5.320973, 5.431442, 5.441283, 5.312198, 5.394334, 5.278017, 5.349599, 5.585498, 5.513247, 5.256349, 5.283700, 5.282371, 5.295176, 5.873415, 5.279362, 5.344814, 5.326513
Process 15: 6.898239, 5.781116, 5.597603, 5.886312, 5.412394, 5.585576, 5.596959, 5.407322, 5.376195, 6.302582, 5.394851, 5.309103, 5.262496, 5.298442, 5.436722, 5.434259, 5.304254, 5.433098, 5.216736, 5.378931, 5.610887, 5.505812, 5.245359, 5.283621, 5.254405, 5.298516, 5.872100, 5.312388, 5.304467, 5.373932
Process 16: 6.873522, 5.790528, 5.608774, 5.861736, 5.404551, 5.628017, 5.551401, 5.412102, 5.408861, 6.273365, 5.391016, 5.335228, 5.253742, 5.305320, 5.451343, 5.405165, 5.332969, 5.379701, 5.310115, 5.315805, 5.612432, 5.511809, 5.266776, 5.254801, 5.298064, 5.277719, 5.894895, 5.249230, 5.380731, 5.321028
Process 17: 6.888035, 5.812209, 5.580358, 5.897109, 5.403005, 5.586959, 5.605254, 5.385067, 5.397109, 6.297597, 5.406058, 5.296711, 5.256431, 5.317890, 5.430153, 5.439919, 5.313356, 5.395302, 5.264005, 5.367639, 5.582762, 5.511308, 5.251052, 5.292152, 5.271468, 5.268809, 5.907435, 5.282532, 5.327664, 5.328281
Process 18: 6.897526, 5.795864, 5.626370, 5.846746, 5.400294, 5.599202, 5.593101, 5.391896, 5.389049, 6.302870, 5.397791, 5.307171, 5.252338, 5.320212, 5.435737, 5.433046, 5.318981, 5.392101, 5.282042, 5.343279, 5.587933, 5.513981, 5.256756, 5.282840, 5.281396, 5.294971, 5.874791, 5.275384, 5.350107, 5.327710
Process 19: 6.903436, 5.802612, 5.609615, 5.865948, 5.407505, 5.583430, 5.608655, 5.388756, 5.381940, 6.304045, 5.406409, 5.297344, 5.254367, 5.322076, 5.420618, 5.447867, 5.311662, 5.409882, 5.248070, 5.371404, 5.582836, 5.508754, 5.253792, 5.289767, 5.272934, 5.279622, 5.889977, 5.292442, 5.327151, 5.336345
Process 20: 6.899254, 5.795241, 5.625775, 5.857326, 5.390251, 5.606296, 5.585821, 5.391861, 5.393628, 6.299735, 5.399149, 5.307170, 5.256133, 5.320088, 5.432555, 5.432412, 5.317008, 5.393830, 5.282280, 5.343761, 5.587465, 5.516855, 5.256834, 5.276981, 5.287215, 5.293608, 5.874234, 5.276296, 5.352107, 5.323451
Process 21: 6.903398, 5.803905, 5.611430, 5.866201, 5.404260, 5.588443, 5.605250, 5.387148, 5.386272, 6.304296, 5.405400, 5.297473, 5.251596, 5.324513, 5.425059, 5.444987, 5.313194, 5.403096, 5.253021, 5.368910, 5.581905, 5.511007, 5.250529, 5.293692, 5.269818, 5.294048, 5.876296, 5.294555, 5.326890, 5.336466
Process 22: 6.899959, 5.797538, 5.624773, 5.852350, 5.399315, 5.596796, 5.595289, 5.391863, 5.392646, 6.297872, 5.399506, 5.308579, 5.251661, 5.320175, 5.432987, 5.433114, 5.316768, 5.393236, 5.278775, 5.347704, 5.589695, 5.514145, 5.256004, 5.279129, 5.284654, 5.295256, 5.874388, 5.275027, 5.352484, 5.323616
Process 23: 6.890285, 5.790248, 5.597239, 5.887297, 5.411772, 5.583033, 5.594865, 5.413216, 5.371041, 6.310126, 5.391208, 5.302980, 5.269479, 5.291630, 5.446864, 5.424692, 5.309481, 5.433321, 5.217546, 5.378902, 5.608750, 5.507068, 5.248212, 5.281201, 5.253878, 5.297469, 5.878124, 5.309904, 5.307143, 5.371056
Process 24: 6.871607, 5.797046, 5.609345, 5.868233, 5.400517, 5.626267, 5.554489, 5.414300, 5.401774, 6.299830, 5.357640, 5.330556, 5.260414, 5.287007, 5.452902, 5.415494, 5.336883, 5.375440, 5.317583, 5.306888, 5.618266, 5.508583, 5.266682, 5.249972, 5.305422, 5.274229, 5.902381, 5.243500, 5.385521, 5.313413
Process 25: 6.883287, 5.817822, 5.579520, 5.897563, 5.402057, 5.591316, 5.603635, 5.393393, 5.383686, 6.302338, 5.405361, 5.298331, 5.253769, 5.318001, 5.424776, 5.446901, 5.312216, 5.395902, 5.263235, 5.367802, 5.583078, 5.511588, 5.251661, 5.291975, 5.270309, 5.268721, 5.902308, 5.293193, 5.327206, 5.335691
Process 26: 6.887638, 5.805814, 5.626550, 5.849951, 5.390734, 5.597992, 5.596597, 5.391435, 5.384261, 6.309713, 5.396604, 5.308954, 5.252741, 5.315494, 5.428558, 5.438914, 5.323008, 5.392346, 5.280490, 5.343976, 5.590475, 5.512674, 5.252639, 5.283974, 5.284636, 5.292748, 5.878436, 5.270846, 5.352381, 5.324092
Process 27: 6.899969, 5.808900, 5.610498, 5.867468, 5.401194, 5.591196, 5.601962, 5.390148, 5.387408, 6.298369, 5.408022, 5.297111, 5.255879, 5.317683, 5.425479, 5.448557, 5.310998, 5.402994, 5.255374, 5.368986, 5.583454, 5.508975, 5.250951, 5.292579, 5.269646, 5.294473, 5.877444, 5.294915, 5.325592, 5.336012
Process 28: 6.886571, 5.812741, 5.623409, 5.854811, 5.394318, 5.603250, 5.589746, 5.394007, 5.391120, 6.301106, 5.398779, 5.303438, 5.255919, 5.320826, 5.426781, 5.441265, 5.314804, 5.392958, 5.282034, 5.345425, 5.589904, 5.512836, 5.256119, 5.279625, 5.283997, 5.293415, 5.877005, 5.274767, 5.350478, 5.326833
Process 29: 6.902462, 5.808402, 5.609629, 5.868045, 5.403314, 5.587765, 5.605230, 5.389705, 5.384800, 6.303558, 5.405423, 5.296946, 5.253788, 5.322477, 5.419633, 5.451364, 5.310346, 5.405084, 5.253057, 5.368517, 5.583154, 5.509634, 5.250836, 5.293799, 5.270017, 5.285568, 5.884903, 5.294481, 5.326623, 5.339459
Process 30: 6.889559, 5.808715, 5.623368, 5.856204, 5.395432, 5.601704, 5.591108, 5.391866, 5.392031, 6.298365, 5.399378, 5.307783, 5.251615, 5.320931, 5.422159, 5.448918, 5.309254, 5.392898, 5.278977, 5.346531, 5.586988, 5.511795, 5.253650, 5.288207, 5.280200, 5.296519, 5.874282, 5.276959, 5.348057, 5.323023
Process 31: 6.866617, 5.819776, 5.593843, 5.891334, 5.412591, 5.583709, 5.596672, 5.405693, 5.390272, 6.292180, 5.398246, 5.304839, 5.262048, 5.297714, 5.413565, 5.457578, 5.308421, 5.427495, 5.220428, 5.382444, 5.599606, 5.511791, 5.248921, 5.283022, 5.258492, 5.286211, 5.884768, 5.311425, 5.308829, 5.364260
Process 32: 6.886352, 5.784641, 5.588603, 5.900686, 5.397512, 5.618787, 5.583884, 5.385418, 5.397698, 6.290987, 5.381796, 5.336992, 5.252360, 5.312932, 5.441245, 5.419708, 5.324564, 5.391569, 5.292134, 5.328922, 5.593060, 5.524582, 5.256088, 5.269827, 5.286773, 5.262450, 5.915089, 5.255740, 5.371281, 5.318861
Process 33: 6.885554, 5.820622, 5.568298, 5.907726, 5.397821, 5.591782, 5.601276, 5.388466, 5.392871, 6.297635, 5.405966, 5.301833, 5.250768, 5.324640, 5.421430, 5.447910, 5.306930, 5.393513, 5.266331, 5.369263, 5.588557, 5.512015, 5.245610, 5.292240, 5.270159, 5.265924, 5.903448, 5.294749, 5.327610, 5.336517
Process 34: 6.884661, 5.813133, 5.613041, 5.860596, 5.402924, 5.598425, 5.596340, 5.389419, 5.385135, 6.299579, 5.407698, 5.306636, 5.249291, 5.320284, 5.435474, 5.436728, 5.318056, 5.390470, 5.279157, 5.349667, 5.585554, 5.511328, 5.254011, 5.286724, 5.281158, 5.287150, 5.883271, 5.278017, 5.347295, 5.322707
Process 35: 6.892452, 5.820191, 5.602624, 5.867346, 5.404419, 5.589454, 5.602804, 5.390881, 5.384892, 6.304526, 5.405201, 5.298426, 5.253002, 5.320224, 5.426423, 5.444550, 5.311002, 5.406755, 5.251622, 5.371775, 5.583605, 5.505583, 5.253458, 5.291259, 5.270376, 5.296974, 5.873578, 5.296214, 5.324522, 5.343802
Process 36: 6.891074, 5.808416, 5.613059, 5.861143, 5.402118, 5.600124, 5.593379, 5.389822, 5.388961, 6.295959, 5.407623, 5.307094, 5.250090, 5.320329, 5.434991, 5.439183, 5.315532, 5.391541, 5.278240, 5.348124, 5.586676, 5.511685, 5.256180, 5.285107, 5.279714, 5.301748, 5.869306, 5.278375, 5.348304, 5.324400
Process 37: 6.897375, 5.817535, 5.600728, 5.867257, 5.405236, 5.589346, 5.603577, 5.389686, 5.384367, 6.305764, 5.405755, 5.298116, 5.252599, 5.323539, 5.422166, 5.446858, 5.311965, 5.404993, 5.252144, 5.369219, 5.583340, 5.508053, 5.251754, 5.293115, 5.269827, 5.288182, 5.882560, 5.295375, 5.325919, 5.341086
Process 38: 6.892554, 5.808146, 5.610849, 5.862495, 5.401451, 5.600149, 5.594466, 5.388809, 5.386497, 6.299707, 5.408118, 5.306618, 5.249489, 5.321175, 5.433289, 5.440331, 5.314272, 5.393027, 5.277232, 5.349276, 5.586018, 5.511876, 5.255690, 5.286220, 5.279091, 5.296935, 5.874419, 5.278404, 5.349135, 5.323264
Process 39: 6.890975, 5.800873, 5.582270, 5.882702, 5.405544, 5.597999, 5.591882, 5.415472, 5.379973, 6.313961, 5.375142, 5.309652, 5.267203, 5.295049, 5.425202, 5.443815, 5.307779, 5.436947, 5.215820, 5.377745, 5.609246, 5.497658, 5.257064, 5.278372, 5.256443, 5.298236, 5.878772, 5.309207, 5.307608, 5.371615
Process 40: 6.878909, 5.782785, 5.625336, 5.844035, 5.404790, 5.637605, 5.549748, 5.414247, 5.404178, 6.275840, 5.390797, 5.340357, 5.252124, 5.292297, 5.454888, 5.412113, 5.333180, 5.381735, 5.308357, 5.314273, 5.599528, 5.533188, 5.255498, 5.251619, 5.305891, 5.282521, 5.891216, 5.247641, 5.380360, 5.312831
Process 41: 6.892527, 5.821144, 5.566774, 5.902491, 5.403588, 5.590979, 5.601821, 5.392641, 5.386911, 6.299344, 5.406034, 5.299405, 5.255006, 5.318932, 5.423933, 5.445361, 5.311403, 5.399303, 5.258603, 5.372377, 5.583299, 5.506221, 5.251382, 5.294192, 5.269055, 5.265416, 5.905181, 5.296561, 5.323659, 5.342011
Process 42: 6.889208, 5.808292, 5.618718, 5.854041, 5.401448, 5.598508, 5.598725, 5.387674, 5.386681, 6.297704, 5.408420, 5.307750, 5.249207, 5.320135, 5.434999, 5.437013, 5.317154, 5.391994, 5.276564, 5.351612, 5.585571, 5.510860, 5.252624, 5.286144, 5.283868, 5.284601, 5.885282, 5.278606, 5.346833, 5.322126
Process 43: 6.899521, 5.816347, 5.603528, 5.866299, 5.405527, 5.588680, 5.603244, 5.392417, 5.383008, 6.303997, 5.406983, 5.296255, 5.253198, 5.321567, 5.424507, 5.448495, 5.309620, 5.405193, 5.252544, 5.369638, 5.584296, 5.508033, 5.250789, 5.293072, 5.269987, 5.294413, 5.876098, 5.295696, 5.327619, 5.337723
Process 44: 6.889905, 5.809006, 5.602518, 5.870342, 5.403514, 5.600388, 5.597407, 5.385183, 5.385995, 6.297784, 5.410052, 5.306870, 5.249855, 5.319046, 5.434339, 5.437891, 5.317936, 5.391813, 5.278221, 5.349418, 5.584329, 5.513064, 5.254675, 5.286150, 5.280512, 5.289955, 5.879769, 5.278772, 5.347071, 5.323016
Process 45: 6.900800, 5.815361, 5.603731, 5.866616, 5.405511, 5.588778, 5.602713, 5.393071, 5.384016, 6.303294, 5.406673, 5.297000, 5.253581, 5.321444, 5.422967, 5.450016, 5.307823, 5.405730, 5.252896, 5.370553, 5.582679, 5.508215, 5.251336, 5.293990, 5.269398, 5.295400, 5.875289, 5.295079, 5.327156, 5.337283
Process 46: 6.889706, 5.809963, 5.606192, 5.865657, 5.403915, 5.600686, 5.593382, 5.389188, 5.385693, 6.298255, 5.409216, 5.306935, 5.249033, 5.319770, 5.435005, 5.437786, 5.319400, 5.389884, 5.277594, 5.349760, 5.585801, 5.511899, 5.252902, 5.288485, 5.279560, 5.288792, 5.881903, 5.278803, 5.347618, 5.321990
Process 47: 6.895644, 5.801916, 5.581424, 5.879731, 5.432132, 5.575243, 5.590474, 5.414790, 5.380887, 6.287488, 5.401803, 5.311340, 5.265629, 5.283183, 5.434030, 5.440437, 5.308788, 5.442050, 5.213280, 5.378630, 5.611489, 5.498362, 5.256410, 5.277510, 5.256407, 5.297011, 5.873617, 5.316060, 5.300893, 5.379932
Process 48: 6.872206, 5.796953, 5.603220, 5.869151, 5.407397, 5.623345, 5.573022, 5.397829, 5.392333, 6.291210, 5.393501, 5.324811, 5.251489, 5.302778, 5.453962, 5.424428, 5.325274, 5.383628, 5.298527, 5.319918, 5.604382, 5.516742, 5.258736, 5.263734, 5.297974, 5.264767, 5.904807, 5.257518, 5.373313, 5.314897
Process 49: 6.900062, 5.811933, 5.570989, 5.900853, 5.395112, 5.594357, 5.605186, 5.380085, 5.395608, 6.300699, 5.408343, 5.295434, 5.244383, 5.339761, 5.421903, 5.449094, 5.308781, 5.379595, 5.280198, 5.370423, 5.571284, 5.509594, 5.252458, 5.301828, 5.271236, 5.265098, 5.904792, 5.289527, 5.332981, 5.318350
Process 50: 6.877854, 5.809383, 5.622168, 5.851079, 5.402547, 5.599512, 5.601022, 5.386280, 5.376459, 6.307301, 5.412566, 5.297264, 5.252000, 5.325741, 5.433503, 5.444420, 5.310561, 5.391577, 5.268513, 5.356825, 5.589081, 5.503743, 5.248908, 5.300443, 5.278283, 5.290543, 5.877948, 5.279871, 5.337820, 5.332933
Process 51: 6.900469, 5.816713, 5.599967, 5.872131, 5.402905, 5.589017, 5.605513, 5.378998, 5.388509, 6.308958, 5.410257, 5.292625, 5.245852, 5.332260, 5.423807, 5.448199, 5.310993, 5.396626, 5.261133, 5.371242, 5.574570, 5.512501, 5.251588, 5.294882, 5.271492, 5.289315, 5.880408, 5.294759, 5.327514, 5.325951
Process 52: 6.883443, 5.808679, 5.614144, 5.862281, 5.401744, 5.599136, 5.597112, 5.390530, 5.376908, 6.302506, 5.410617, 5.304517, 5.250262, 5.324365, 5.433516, 5.439356, 5.313814, 5.389990, 5.278483, 5.350404, 5.587722, 5.508773, 5.251398, 5.295481, 5.274352, 5.295385, 5.876706, 5.276511, 5.352770, 5.318615
Process 53: 6.900089, 5.819497, 5.599905, 5.870309, 5.403496, 5.589147, 5.604733, 5.389723, 5.382408, 6.304682, 5.409580, 5.294910, 5.251030, 5.326051, 5.423055, 5.448951, 5.310238, 5.399918, 5.258155, 5.369682, 5.579454, 5.509713, 5.250622, 5.295188, 5.270509, 5.292873, 5.877154, 5.294665, 5.329818, 5.327710
Process 54: 6.882290, 5.810782, 5.615852, 5.859890, 5.401292, 5.600257, 5.598327, 5.388651, 5.377191, 6.302869, 5.410312, 5.304956, 5.249199, 5.324740, 5.434349, 5.439429, 5.314094, 5.389065, 5.278423, 5.354389, 5.584962, 5.507596, 5.253954, 5.292849, 5.274345, 5.293947, 5.878364, 5.276901, 5.351409, 5.319165
Process 55: 6.900327, 5.800018, 5.581701, 5.889613, 5.405833, 5.588348, 5.601277, 5.395172, 5.382690, 6.302669, 5.402358, 5.302104, 5.256187, 5.314038, 5.423603, 5.446658, 5.308619, 5.417412, 5.232460, 5.380305, 5.591342, 5.506520, 5.254453, 5.284736, 5.269510, 5.287755, 5.881896, 5.303225, 5.313811, 5.351068
Process 56: 7.034850, 5.809450, 5.596141, 5.875228, 5.404314, 5.588718, 5.602870, 5.392366, 5.386023, 6.298989, 5.410234, 5.297641, 5.254771, 5.317704, 5.424836, 5.444569, 5.310794, 5.414870, 5.250023, 5.369541, 5.577678, 5.509347, 5.253283, 5.293359, 5.271263, 5.284133, 5.886243, 5.292056, 5.329639, 5.336014
Process 57: 7.038643, 5.809897, 5.599438, 5.875313, 5.402501, 5.587422, 5.608583, 5.388291, 5.383004, 6.300992, 5.409327, 5.295673, 5.255403, 5.320573, 5.422157, 5.446765, 5.310546, 5.415135, 5.249662, 5.372766, 5.573679, 5.508012, 5.254330, 5.293200, 5.273241, 5.289234, 5.878838, 5.294113, 5.326353, 5.336112
Process 58: 7.048476, 5.800383, 5.603585, 5.876061, 5.399070, 5.588028, 5.610642, 5.387262, 5.379714, 6.305277, 5.411999, 5.290721, 5.256485, 5.320531, 5.420074, 5.451188, 5.308626, 5.411036, 5.252762, 5.371411, 5.576494, 5.507416, 5.256286, 5.288392, 5.275910, 5.289797, 5.877682, 5.293649, 5.324755, 5.336920
Process 59: 7.047024, 5.808891, 5.598305, 5.875321, 5.401001, 5.588451, 5.608235, 5.387197, 5.384799, 6.302299, 5.412980, 5.291090, 5.254734, 5.318965, 5.425909, 5.449305, 5.309321, 5.409689, 5.250091, 5.369908, 5.580080, 5.507682, 5.252762, 5.294131, 5.271272, 5.289436, 5.879656, 5.294165, 5.327815, 5.335696
Process 60: 7.052612, 5.804752, 5.600660, 5.872651, 5.400026, 5.589868, 5.608620, 5.388034, 5.384787, 6.298977, 5.415001, 5.289850, 5.255155, 5.320933, 5.439455, 5.434601, 5.308100, 5.408154, 5.251942, 5.371048, 5.579222, 5.507512, 5.253046, 5.293738, 5.274383, 5.286874, 5.881473, 5.291222, 5.331016, 5.332754
Process 61: 7.048298, 5.808163, 5.597838, 5.874674, 5.400477, 5.590057, 5.607604, 5.386421, 5.385201, 6.304109, 5.409290, 5.292447, 5.254695, 5.320731, 5.425643, 5.448434, 5.308557, 5.410387, 5.249752, 5.371060, 5.579949, 5.506641, 5.252786, 5.293876, 5.273237, 5.288850, 5.880350, 5.292942, 5.329032, 5.333705
Process 62: 7.055611, 5.801815, 5.600798, 5.872659, 5.399894, 5.590257, 5.607392, 5.388539, 5.383992, 6.303264, 5.411973, 5.289230, 5.255131, 5.321243, 5.425634, 5.448527, 5.308055, 5.407638, 5.251924, 5.371731, 5.580221, 5.505803, 5.253452, 5.293719, 5.274257, 5.288352, 5.880146, 5.292105, 5.330313, 5.332531
Process 63: 7.034253, 5.811825, 5.595602, 5.875536, 5.407852, 5.587866, 5.600656, 5.397254, 5.381723, 6.299981, 5.406996, 5.300370, 5.254879, 5.317397, 5.421921, 5.448183, 5.309777, 5.419345, 5.245318, 5.368830, 5.578062, 5.510969, 5.253539, 5.293644, 5.269738, 5.280770, 5.887411, 5.294267, 5.329258, 5.335741
