pblas_cm
Process 0: 25.526486, 7.955157, 7.307570, 8.587988, 7.461271, 7.003400, 7.249870, 10.458740, 7.185772, 7.059457, 7.459174, 9.125755, 7.140887, 7.060990, 7.742136, 7.774117, 7.208761, 7.243555, 7.300036, 8.574159, 7.195318, 7.218090, 7.442743, 10.063413, 7.382186, 7.259725, 7.960112, 7.771380, 7.198416, 7.249934
Process 1: 9.929918, 24.691374, 7.471587, 7.292645, 8.612893, 7.267265, 7.052121, 7.335079, 10.415705, 7.151839, 7.227213, 7.248092, 9.195186, 7.161058, 7.215790, 7.835442, 7.638872, 7.180626, 7.120035, 7.325031, 8.590952, 7.286724, 7.180810, 7.650448, 9.984827, 7.251197, 7.095020, 8.109975, 7.848525, 7.264293
Process 2: 9.923771, 24.696307, 7.473800, 7.287008, 8.622026, 7.271275, 7.048759, 7.324836, 10.422090, 7.154767, 7.230460, 7.248048, 9.201393, 7.147336, 7.219128, 7.833650, 7.631279, 7.188034, 7.124380, 7.307684, 8.599505, 7.295267, 7.180182, 7.642933, 9.993043, 7.246342, 7.093958, 8.105141, 7.857529, 7.253896
Process 3: 9.929469, 24.713222, 7.490716, 7.262288, 8.634449, 7.265948, 7.056572, 7.314928, 10.422862, 7.181220, 7.200839, 7.260570, 9.179729, 7.165874, 7.222524, 7.825520, 7.637827, 7.177136, 7.123026, 7.327017, 8.597955, 7.281526, 7.182562, 7.648867, 9.973788, 7.257524, 7.102702, 8.108707, 7.859949, 7.243259
Process 4: 9.925377, 24.707582, 7.463984, 7.301069, 8.606161, 7.277980, 7.046716, 7.333316, 10.418014, 7.145947, 7.231929, 7.272148, 9.175004, 7.154919, 7.226023, 7.824684, 7.640229, 7.180264, 7.121534, 7.315363, 8.592501, 7.301639, 7.176703, 7.652052, 9.987956, 7.244991, 7.091009, 8.106017, 7.860082, 7.275982
Process 5: 9.934051, 24.700645, 7.462989, 7.299606, 8.609790, 7.268799, 7.054132, 7.324159, 10.422671, 7.158152, 7.222624, 7.279916, 9.167658, 7.157940, 7.219976, 7.831434, 7.637271, 7.181252, 7.118837, 7.320652, 8.593480, 7.295547, 7.173418, 7.661055, 9.978722, 7.251263, 7.093016, 8.109336, 7.855450, 7.272787
Process 6: 9.915034, 24.724081, 7.468801, 7.290765, 8.624502, 7.267418, 7.050693, 7.322886, 10.420421, 7.161723, 7.220822, 7.265850, 9.181115, 7.155987, 7.224026, 7.821540, 7.639206, 7.183262, 7.115644, 7.322445, 8.601027, 7.287583, 7.189944, 7.641339, 10.002730, 7.236221, 7.093113, 8.103443, 7.855553, 7.286892
Process 7: 9.930450, 24.712494, 7.459431, 7.319716, 8.594282, 7.270209, 7.059346, 7.323271, 10.412845, 7.155621, 7.221542, 7.277633, 9.173469, 7.158207, 7.219975, 7.830467, 7.637823, 7.189207, 7.114495, 7.315870, 8.597642, 7.286179, 7.187511, 7.659473, 9.976556, 7.261668, 7.076266, 8.117197, 7.840664, 7.289165
Process 8: 9.953371, 24.691238, 7.467747, 7.306847, 8.601748, 7.275995, 7.047377, 7.323425, 10.425891, 7.155891, 7.227619, 7.264675, 9.182605, 7.157833, 7.220848, 7.822711, 7.641957, 7.191547, 7.111397, 7.310421, 8.601673, 7.288283, 7.186060, 7.665963, 9.972899, 7.249660, 7.091890, 8.112587, 7.843077, 7.283401
Process 9: 9.953135, 24.699879, 7.463275, 7.315245, 8.596376, 7.273863, 7.052217, 7.319876, 10.423045, 7.161211, 7.216437, 7.267014, 9.184998, 7.162722, 7.213679, 7.825665, 7.642511, 7.190158, 7.108675, 7.316700, 8.605020, 7.282249, 7.183624, 7.672853, 9.960458, 7.265216, 7.081871, 8.123376, 7.834347, 7.283084
Process 10: 9.964613, 24.701671, 7.468032, 7.296778, 8.596849, 7.283814, 7.036571, 7.329795, 10.427712, 7.158430, 7.217633, 7.263639, 9.199407, 7.161803, 7.220935, 7.807983, 7.645445, 7.185462, 7.111421, 7.325236, 8.594807, 7.284970, 7.202034, 7.664392, 9.963644, 7.249102, 7.094219, 8.108905, 7.842906, 7.270101
Process 11: 9.970705, 24.692136, 7.470887, 7.302300, 8.595076, 7.282140, 7.043535, 7.325988, 10.425522, 7.155581, 7.219991, 7.272145, 9.181514, 7.162173, 7.218365, 7.818796, 7.647465, 7.188511, 7.110012, 7.320668, 8.598230, 7.284350, 7.186235, 7.671141, 9.958553, 7.271207, 7.074043, 8.117989, 7.842358, 7.275562
Process 12: 9.969537, 24.698392, 7.469507, 7.301220, 8.594715, 7.287659, 7.035991, 7.331973, 10.426355, 7.153424, 7.231227, 7.247702, 9.197547, 7.161217, 7.217210, 7.818455, 7.647248, 7.191322, 7.111556, 7.317158, 8.591850, 7.292106, 7.184941, 7.671727, 9.971959, 7.249161, 7.084592, 8.112293, 7.844595, 7.281289
Process 13: 9.967055, 24.696310, 7.470717, 7.305314, 8.595095, 7.279779, 7.042823, 7.327916, 10.423183, 7.158788, 7.225331, 7.262168, 9.185854, 7.161919, 7.226396, 7.815276, 7.639855, 7.195831, 7.112612, 7.313239, 8.597194, 7.286387, 7.194366, 7.665659, 9.955278, 7.269732, 7.078241, 8.113724, 7.843523, 7.282102
Process 14: 9.967647, 24.696237, 7.464250, 7.307055, 8.592374, 7.283629, 7.044236, 7.325134, 10.429781, 7.144123, 7.240343, 7.259705, 9.188752, 7.157090, 7.222756, 7.821155, 7.641095, 7.191686, 7.110966, 7.317527, 8.592103, 7.291762, 7.188040, 7.669161, 9.966523, 7.256052, 7.083789, 8.110956, 7.842929, 7.283027
Process 15: 9.839029, 24.776158, 7.460140, 7.296493, 8.624108, 7.258820, 7.067260, 7.315859, 10.423257, 7.154702, 7.217048, 7.247474, 9.199394, 7.160089, 7.222986, 7.809381, 7.655587, 7.181497, 7.122585, 7.300865, 8.609600, 7.292602, 7.182905, 7.642524, 9.989450, 7.253005, 7.088969, 8.112096, 7.852903, 7.260474
Process 16: 9.871443, 24.740508, 7.473095, 7.291714, 8.614403, 7.279162, 7.042540, 7.331552, 10.430508, 7.141068, 7.222798, 7.250480, 9.200143, 7.155076, 7.219485, 7.812866, 7.665563, 7.174259, 7.119049, 7.313172, 8.600978, 7.290936, 7.187014, 7.640041, 10.001856, 7.243857, 7.098399, 8.096935, 7.856317, 7.253244
Process 17: 9.874872, 24.740306, 7.464433, 7.298963, 8.614496, 7.267077, 7.051227, 7.336737, 10.415403, 7.149346, 7.228275, 7.251112, 9.194339, 7.156349, 7.219900, 7.835248, 7.635100, 7.182611, 7.120382, 7.322296, 8.592855, 7.290100, 7.176835, 7.654153, 9.984024, 7.252329, 7.094399, 8.106625, 7.851028, 7.263964
Process 18: 9.925492, 24.700394, 7.492485, 7.266271, 8.614947, 7.272871, 7.049533, 7.327781, 10.418493, 7.155547, 7.229020, 7.260015, 9.188199, 7.150000, 7.219006, 7.835967, 7.629148, 7.184808, 7.126136, 7.311975, 8.596261, 7.294599, 7.180539, 7.646010, 9.991135, 7.246003, 7.094366, 8.106415, 7.853427, 7.256769
Process 19: 9.929152, 24.713815, 7.497224, 7.247365, 8.638197, 7.257856, 7.061052, 7.319777, 10.423345, 7.172982, 7.202988, 7.253918, 9.188912, 7.159173, 7.231801, 7.822213, 7.639231, 7.178732, 7.120075, 7.325375, 8.598110, 7.283867, 7.186696, 7.642087, 9.978809, 7.259094, 7.102990, 8.100991, 7.861746, 7.247140
Process 20: 9.916941, 24.720800, 7.484506, 7.274782, 8.605641, 7.276284, 7.047995, 7.331068, 10.420120, 7.148771, 7.227172, 7.273996, 9.174886, 7.154011, 7.226987, 7.826200, 7.635803, 7.184005, 7.118721, 7.317713, 8.593253, 7.297300, 7.175868, 7.656813, 9.987558, 7.240911, 7.094632, 8.114284, 7.849918, 7.279064
Process 21: 9.926018, 24.710864, 7.461010, 7.291822, 8.613230, 7.272984, 7.050424, 7.325696, 10.420716, 7.152724, 7.225930, 7.279095, 9.171789, 7.156995, 7.216470, 7.834395, 7.633471, 7.186960, 7.116488, 7.320882, 8.591706, 7.295203, 7.174298, 7.662223, 9.979824, 7.250991, 7.091148, 8.107521, 7.853136, 7.280375
Process 22: 9.918996, 24.725790, 7.486938, 7.265820, 8.621928, 7.267479, 7.051119, 7.322446, 10.423175, 7.152269, 7.229452, 7.265357, 9.180991, 7.151970, 7.224901, 7.826180, 7.639013, 7.194088, 7.106362, 7.321076, 8.595537, 7.293309, 7.179489, 7.650276, 10.008503, 7.231401, 7.087985, 8.118056, 7.865976, 7.275076
Process 23: 9.938091, 24.709669, 7.481734, 7.290469, 8.603084, 7.270743, 7.057496, 7.316915, 10.419436, 7.165466, 7.209989, 7.277849, 9.170759, 7.166616, 7.213153, 7.829887, 7.638181, 7.188207, 7.114993, 7.316128, 8.602215, 7.283696, 7.187570, 7.657458, 9.975933, 7.261568, 7.083573, 8.108726, 7.849444, 7.283093
Process 24: 9.943963, 24.704769, 7.487637, 7.287291, 8.594173, 7.276594, 7.058273, 7.322230, 10.415853, 7.157926, 7.225794, 7.259741, 9.188702, 7.157953, 7.220787, 7.822694, 7.642535, 7.188042, 7.114017, 7.313392, 8.598641, 7.288269, 7.183477, 7.673707, 9.975114, 7.249866, 7.102311, 8.109807, 7.842034, 7.286589
Process 25: 9.943222, 24.707833, 7.463060, 7.314622, 8.592597, 7.277376, 7.051023, 7.320350, 10.423003, 7.162132, 7.217074, 7.268749, 9.181956, 7.163584, 7.214332, 7.824700, 7.642950, 7.190990, 7.107399, 7.320162, 8.600277, 7.283871, 7.182885, 7.677921, 9.954969, 7.266096, 7.082561, 8.120536, 7.835527, 7.283928
Process 26: 9.968087, 24.698945, 7.477745, 7.282174, 8.593976, 7.304740, 7.029694, 7.332517, 10.426190, 7.164469, 7.206728, 7.274014, 9.191303, 7.166321, 7.211046, 7.818530, 7.641034, 7.188758, 7.107198, 7.327714, 8.590923, 7.290152, 7.194231, 7.663995, 9.976218, 7.242133, 7.087755, 8.114330, 7.843059, 7.276295
Process 27: 9.969546, 24.698975, 7.480544, 7.294013, 8.586153, 7.282493, 7.041859, 7.327688, 10.424796, 7.157304, 7.219467, 7.279296, 9.183949, 7.169006, 7.216009, 7.813130, 7.649779, 7.186060, 7.112047, 7.322988, 8.591775, 7.293217, 7.182971, 7.679042, 9.951003, 7.265985, 7.076699, 8.118364, 7.844919, 7.275671
Process 28: 9.974128, 24.700739, 7.477005, 7.282087, 8.595545, 7.283827, 7.041734, 7.327357, 10.428034, 7.154716, 7.229762, 7.250340, 9.198405, 7.160939, 7.219432, 7.813255, 7.648020, 7.192037, 7.112453, 7.316865, 8.588464, 7.294290, 7.186973, 7.669397, 9.970161, 7.253586, 7.082996, 8.112966, 7.843997, 7.279095
Process 29: 9.971581, 24.695832, 7.476024, 7.296335, 8.591521, 7.281328, 7.044982, 7.323985, 10.424824, 7.158742, 7.219832, 7.270071, 9.181271, 7.160797, 7.220867, 7.823949, 7.639483, 7.196348, 7.105143, 7.323038, 8.593826, 7.285948, 7.186718, 7.677217, 9.952240, 7.269511, 7.076749, 8.115739, 7.843598, 7.283019
Process 30: 9.966126, 24.715195, 7.470076, 7.289114, 8.590425, 7.289583, 7.039400, 7.322912, 10.431335, 7.151680, 7.231504, 7.259441, 9.188659, 7.159144, 7.221744, 7.817383, 7.644269, 7.190840, 7.112120, 7.324485, 8.595886, 7.281129, 7.188436, 7.679493, 9.972948, 7.245051, 7.082439, 8.114715, 7.848725, 7.277129
Process 31: 9.832366, 24.772149, 7.458399, 7.308351, 8.622624, 7.254041, 7.062463, 7.327255, 10.417621, 7.155872, 7.213237, 7.253288, 9.195289, 7.160769, 7.222952, 7.809437, 7.656811, 7.184075, 7.116691, 7.302317, 8.612206, 7.290253, 7.183661, 7.645054, 9.986453, 7.252615, 7.089071, 8.115414, 7.849802, 7.262898
Process 32: 9.868075, 24.739429, 7.467730, 7.293336, 8.615324, 7.275361, 7.045952, 7.329337, 10.429822, 7.146245, 7.223061, 7.246474, 9.201956, 7.158490, 7.216501, 7.814370, 7.659118, 7.179298, 7.123205, 7.306534, 8.601969, 7.293486, 7.181219, 7.645103, 10.001297, 7.241802, 7.097262, 8.099278, 7.857645, 7.254310
Process 33: 9.911046, 24.710816, 7.489904, 7.270197, 8.621343, 7.271593, 7.051817, 7.324251, 10.424816, 7.152635, 7.230446, 7.239386, 9.194003, 7.160124, 7.217038, 7.838047, 7.639082, 7.185949, 7.118839, 7.319130, 8.594000, 7.285544, 7.182200, 7.649196, 9.988985, 7.248503, 7.099081, 8.099460, 7.854076, 7.266256
Process 34: 9.898148, 24.722829, 7.475613, 7.284203, 8.618904, 7.274321, 7.051133, 7.324054, 10.421968, 7.155528, 7.232062, 7.247420, 9.197030, 7.151090, 7.218414, 7.833109, 7.630862, 7.187289, 7.124234, 7.311284, 8.596028, 7.294664, 7.181061, 7.644903, 9.992436, 7.244457, 7.094891, 8.105294, 7.855587, 7.255937
Process 35: 9.900340, 24.732800, 7.468117, 7.284173, 8.620656, 7.271736, 7.054906, 7.324083, 10.423829, 7.162203, 7.213414, 7.258209, 9.191124, 7.155401, 7.230498, 7.824588, 7.630642, 7.188118, 7.116146, 7.327839, 8.587388, 7.295621, 7.172778, 7.655396, 9.974228, 7.258336, 7.097444, 8.106572, 7.856416, 7.259420
Process 36: 9.912219, 24.720252, 7.462311, 7.291029, 8.613931, 7.279710, 7.047472, 7.323319, 10.428026, 7.149656, 7.224975, 7.271080, 9.177969, 7.155949, 7.223010, 7.825848, 7.640255, 7.183287, 7.117425, 7.313309, 8.598952, 7.297898, 7.175286, 7.652703, 9.991266, 7.241789, 7.093885, 8.106392, 7.856724, 7.280986
Process 37: 9.903158, 24.733710, 7.453111, 7.298442, 8.614373, 7.271643, 7.051729, 7.322689, 10.424520, 7.151878, 7.226253, 7.276590, 9.174965, 7.157414, 7.215152, 7.843169, 7.624984, 7.188226, 7.115670, 7.319579, 8.592887, 7.295498, 7.173682, 7.660678, 9.979845, 7.252974, 7.090998, 8.108543, 7.851188, 7.280356
Process 38: 9.881108, 24.756734, 7.460899, 7.293599, 8.623016, 7.266358, 7.053995, 7.320656, 10.423424, 7.153995, 7.228513, 7.265197, 9.183034, 7.151188, 7.221600, 7.828132, 7.635492, 7.185863, 7.118502, 7.320789, 8.591299, 7.295977, 7.182113, 7.649540, 10.002852, 7.237504, 7.088223, 8.104603, 7.852781, 7.290335
Process 39: 9.914794, 24.726698, 7.454671, 7.320600, 8.596972, 7.271613, 7.056672, 7.320791, 10.419681, 7.157533, 7.219515, 7.275019, 9.175752, 7.158108, 7.221739, 7.826298, 7.640244, 7.189450, 7.112658, 7.316974, 8.598358, 7.286937, 7.184516, 7.659945, 9.978088, 7.261705, 7.076785, 8.114890, 7.843650, 7.288137
Process 40: 9.928011, 24.716059, 7.458828, 7.316535, 8.595380, 7.273045, 7.050688, 7.334666, 10.416829, 7.146632, 7.235923, 7.258585, 9.190717, 7.154809, 7.222403, 7.822396, 7.642834, 7.190483, 7.112633, 7.309540, 8.598096, 7.289425, 7.187717, 7.669171, 9.971118, 7.250680, 7.086585, 8.115601, 7.841908, 7.284129
Process 41: 9.935260, 24.714872, 7.463004, 7.315100, 8.592010, 7.278808, 7.044246, 7.325752, 10.425656, 7.147913, 7.225246, 7.266217, 9.187363, 7.162067, 7.213457, 7.825825, 7.642414, 7.191136, 7.108152, 7.317377, 8.602852, 7.282001, 7.184395, 7.675389, 9.959066, 7.269008, 7.075168, 8.122250, 7.836345, 7.282604
Process 42: 9.958817, 24.702218, 7.466988, 7.303464, 8.589747, 7.288158, 7.036525, 7.327755, 10.427824, 7.144911, 7.232985, 7.258581, 9.200201, 7.158031, 7.214663, 7.820422, 7.644990, 7.186084, 7.112697, 7.321561, 8.598039, 7.283787, 7.194620, 7.670521, 9.961684, 7.250911, 7.088704, 8.112409, 7.839508, 7.275560
Process 43: 9.948481, 24.713532, 7.459476, 7.312137, 8.589134, 7.283567, 7.043464, 7.328204, 10.426707, 7.144835, 7.232426, 7.271024, 9.179061, 7.161933, 7.222823, 7.823425, 7.640759, 7.189181, 7.109851, 7.317683, 8.599582, 7.286063, 7.186840, 7.669419, 9.957736, 7.271065, 7.073785, 8.117972, 7.842218, 7.272837
Process 44: 9.953972, 24.710116, 7.465902, 7.299922, 8.595593, 7.281414, 7.048343, 7.323187, 10.428227, 7.143782, 7.242055, 7.247467, 9.199860, 7.156825, 7.223299, 7.814559, 7.647191, 7.190136, 7.116791, 7.312642, 8.592507, 7.291876, 7.194631, 7.663294, 9.966011, 7.254972, 7.085758, 8.110087, 7.841993, 7.281029
Process 45: 9.960752, 24.698795, 7.470903, 7.306014, 8.591973, 7.282900, 7.048677, 7.322354, 10.423148, 7.158677, 7.220502, 7.265344, 9.186485, 7.162795, 7.221265, 7.820932, 7.640288, 7.194576, 7.106627, 7.318862, 8.598534, 7.285038, 7.188180, 7.670573, 9.956921, 7.267288, 7.080126, 8.114476, 7.844409, 7.282764
Process 46: 9.951569, 24.714284, 7.459975, 7.308462, 8.592998, 7.281795, 7.044733, 7.326427, 10.428516, 7.149842, 7.235203, 7.257384, 9.191283, 7.157847, 7.220684, 7.820291, 7.641987, 7.197444, 7.105341, 7.315812, 8.594711, 7.290751, 7.188736, 7.668880, 9.965828, 7.257178, 7.082521, 8.111575, 7.842100, 7.285367
Process 47: 9.832235, 24.776772, 7.455425, 7.307377, 8.622427, 7.254632, 7.063135, 7.325284, 10.419124, 7.154552, 7.214845, 7.252290, 9.195536, 7.161214, 7.223558, 7.808395, 7.657229, 7.184038, 7.116619, 7.301854, 8.612833, 7.290191, 7.183525, 7.644099, 9.987137, 7.253045, 7.089169, 8.115046, 7.849681, 7.263184
Process 48: 9.883843, 24.732171, 7.479083, 7.282319, 8.611835, 7.279599, 7.051319, 7.323642, 10.430314, 7.143764, 7.227009, 7.246019, 9.198272, 7.157396, 7.217242, 7.811922, 7.665153, 7.173553, 7.123445, 7.309974, 8.602935, 7.288980, 7.186525, 7.642565, 10.002310, 7.243947, 7.087819, 8.103962, 7.857070, 7.256196
Process 49: 9.908536, 24.712520, 7.483596, 7.277870, 8.620770, 7.270341, 7.053745, 7.324728, 10.423308, 7.152187, 7.231224, 7.244091, 9.190616, 7.160142, 7.216708, 7.837675, 7.633138, 7.188031, 7.119386, 7.326579, 8.588553, 7.285791, 7.182390, 7.651849, 9.982974, 7.257179, 7.092152, 8.113833, 7.841966, 7.263560
Process 50: 9.928852, 24.700064, 7.488503, 7.279994, 8.608254, 7.270800, 7.049581, 7.328090, 10.422654, 7.154221, 7.229616, 7.247280, 9.198880, 7.150445, 7.219817, 7.831773, 7.638940, 7.181974, 7.123282, 7.315045, 8.594203, 7.292107, 7.188492, 7.638123, 9.990980, 7.247934, 7.094351, 8.103346, 7.863534, 7.247794
Process 51: 9.920073, 24.718114, 7.500060, 7.254776, 8.634714, 7.266667, 7.052035, 7.324577, 10.421414, 7.180867, 7.193622, 7.273948, 9.170256, 7.169489, 7.221842, 7.832250, 7.623256, 7.183934, 7.113046, 7.335475, 8.589657, 7.283141, 7.187299, 7.653341, 9.967881, 7.258997, 7.108248, 8.099028, 7.852683, 7.252244
Process 52: 9.914115, 24.725194, 7.480276, 7.286107, 8.598857, 7.275160, 7.047837, 7.326356, 10.424706, 7.149065, 7.231372, 7.263590, 9.182530, 7.152825, 7.223657, 7.822776, 7.643715, 7.181663, 7.117348, 7.313665, 8.598748, 7.300169, 7.172418, 7.654410, 9.990421, 7.245535, 7.091052, 8.106052, 7.857992, 7.276957
Process 53: 9.926196, 24.716078, 7.480420, 7.280360, 8.613431, 7.269555, 7.049130, 7.330700, 10.420009, 7.156216, 7.219478, 7.294341, 9.149250, 7.160746, 7.215050, 7.832620, 7.629608, 7.187963, 7.116042, 7.322837, 8.589744, 7.294496, 7.174772, 7.662652, 9.977963, 7.252148, 7.091729, 8.106216, 7.853408, 7.280389
Process 54: 9.906747, 24.737980, 7.474525, 7.287289, 8.625087, 7.274154, 7.047677, 7.322625, 10.408063, 7.176305, 7.210130, 7.259802, 9.185615, 7.147685, 7.224844, 7.825667, 7.639619, 7.181040, 7.119534, 7.320157, 8.597051, 7.292063, 7.180883, 7.648218, 10.003828, 7.235952, 7.092177, 8.105676, 7.856203, 7.283197
Process 55: 9.922074, 24.725325, 7.456111, 7.318041, 8.604284, 7.281271, 7.040132, 7.325526, 10.416005, 7.180925, 7.197656, 7.276583, 9.172568, 7.167183, 7.215647, 7.824142, 7.641042, 7.186741, 7.113188, 7.317358, 8.604875, 7.285018, 7.187613, 7.655318, 9.969233, 7.261648, 7.077037, 8.114305, 7.843673, 7.287838
Process 56: 9.941245, 24.707619, 7.486170, 7.292063, 8.602867, 7.291382, 7.029221, 7.328923, 10.417711, 7.168725, 7.213366, 7.262190, 9.185656, 7.160881, 7.219071, 7.820312, 7.643674, 7.190191, 7.115156, 7.305508, 8.604506, 7.291996, 7.182701, 7.664072, 9.975965, 7.248444, 7.097040, 8.105644, 7.848294, 7.288273
Process 57: 9.932412, 24.720008, 7.472869, 7.304405, 8.597501, 7.283740, 7.037233, 7.326151, 10.421735, 7.176737, 7.204413, 7.265137, 9.183666, 7.163131, 7.215302, 7.824936, 7.641402, 7.192108, 7.108050, 7.319930, 8.601394, 7.284232, 7.183576, 7.678198, 9.954250, 7.267170, 7.086584, 8.111349, 7.842148, 7.287536
Process 58: 9.940023, 24.718348, 7.459460, 7.311300, 8.587596, 7.283319, 7.042101, 7.335098, 10.422579, 7.146342, 7.232825, 7.258539, 9.199552, 7.159059, 7.214118, 7.820303, 7.644480, 7.186636, 7.113037, 7.319957, 8.596594, 7.286599, 7.195027, 7.669057, 9.962429, 7.251274, 7.089316, 8.111842, 7.840366, 7.274524
Process 59: 9.955627, 24.712860, 7.476032, 7.301715, 8.586270, 7.291809, 7.035719, 7.326532, 10.429394, 7.158206, 7.213339, 7.273336, 9.182002, 7.163757, 7.217544, 7.816781, 7.648039, 7.186583, 7.110453, 7.322941, 8.596639, 7.285628, 7.188459, 7.665885, 9.960205, 7.269789, 7.076710, 8.116771, 7.844372, 7.275398
Process 60: 9.965634, 24.705528, 7.462510, 7.301915, 8.602233, 7.286702, 7.034895, 7.330283, 10.425494, 7.159788, 7.227524, 7.247325, 9.201460, 7.160216, 7.212306, 7.816811, 7.649941, 7.190502, 7.110323, 7.318913, 8.587954, 7.295739, 7.188384, 7.669593, 9.976276, 7.242892, 7.082807, 8.115930, 7.844270, 7.281686
Process 61: 9.956463, 24.711076, 7.470809, 7.304274, 8.594095, 7.287533, 7.040016, 7.325531, 10.423006, 7.161997, 7.213026, 7.271059, 9.185100, 7.163094, 7.220241, 7.817330, 7.643249, 7.193705, 7.106020, 7.319820, 8.598071, 7.287114, 7.184428, 7.674348, 9.955259, 7.266204, 7.081024, 8.115448, 7.844678, 7.278412
Process 62: 9.959035, 24.719415, 7.462619, 7.300475, 8.598180, 7.285952, 7.042443, 7.313438, 10.426661, 7.143538, 7.241484, 7.257301, 9.191475, 7.156151, 7.222138, 7.820395, 7.642368, 7.190665, 7.111910, 7.315682, 8.594747, 7.290788, 7.188952, 7.668787, 9.965929, 7.255787, 7.084033, 8.111011, 7.842217, 7.283110
Process 63: 9.820517, 24.785025, 7.458453, 7.304535, 8.625122, 7.254682, 7.063582, 7.323291, 10.420760, 7.154602, 7.214785, 7.258951, 9.189126, 7.160855, 7.223005, 7.811460, 7.654721, 7.183802, 7.116893, 7.308760, 8.605863, 7.290277, 7.183899, 7.650861, 9.980238, 7.253070, 7.088968, 8.115442, 7.849025, 7.263595
Process 64: 9.919224, 24.699294, 7.480502, 7.283155, 8.612140, 7.277396, 7.046902, 7.327129, 10.432968, 7.144261, 7.220297, 7.248961, 9.200942, 7.158161, 7.216001, 7.811857, 7.666084, 7.176064, 7.120050, 7.311838, 8.601942, 7.288434, 7.185652, 7.642362, 10.003663, 7.242555, 7.087842, 8.106004, 7.860616, 7.250378
Process 65: 9.914089, 24.707488, 7.488935, 7.274108, 8.618772, 7.268988, 7.052154, 7.330274, 10.421154, 7.149847, 7.232955, 7.239686, 9.194281, 7.161367, 7.220295, 7.833092, 7.644583, 7.176497, 7.121940, 7.322636, 8.590144, 7.284232, 7.185432, 7.650501, 9.987088, 7.247857, 7.095000, 8.104816, 7.854136, 7.266032
Process 66: 9.931966, 24.697226, 7.490228, 7.264091, 8.629919, 7.266421, 7.053787, 7.317776, 10.427882, 7.155052, 7.228439, 7.244224, 9.203178, 7.146176, 7.219847, 7.830450, 7.651541, 7.175082, 7.121438, 7.309602, 8.598006, 7.293784, 7.179102, 7.646080, 9.994709, 7.245266, 7.097187, 8.101192, 7.864673, 7.251881
Process 67: 9.945003, 24.700097, 7.498231, 7.255979, 8.630242, 7.278349, 7.048549, 7.312363, 10.426173, 7.182385, 7.197264, 7.263826, 9.173540, 7.170467, 7.221877, 7.823196, 7.640816, 7.178539, 7.122150, 7.333342, 8.597745, 7.267605, 7.192698, 7.647076, 9.972644, 7.256153, 7.109186, 8.102354, 7.858196, 7.246368
Process 68: 9.930945, 24.706750, 7.483482, 7.267905, 8.622576, 7.276273, 7.043978, 7.323915, 10.429493, 7.148807, 7.226639, 7.271075, 9.174209, 7.157740, 7.224032, 7.820946, 7.647346, 7.177723, 7.118782, 7.319254, 8.594899, 7.302366, 7.177677, 7.642012, 9.993921, 7.245000, 7.091785, 8.113210, 7.850844, 7.276181
Process 69: 9.943578, 24.696440, 7.482228, 7.278717, 8.613737, 7.272441, 7.045169, 7.330541, 10.419974, 7.171350, 7.209672, 7.275302, 9.170296, 7.168553, 7.212247, 7.825030, 7.644683, 7.180955, 7.119015, 7.317424, 8.602272, 7.285034, 7.176423, 7.662260, 9.976266, 7.251800, 7.095555, 8.107126, 7.857717, 7.270094
Process 70: 9.915488, 24.728586, 7.488445, 7.273756, 8.627053, 7.262919, 7.051650, 7.318019, 10.423500, 7.176190, 7.208458, 7.270932, 9.173322, 7.167404, 7.214684, 7.823644, 7.636612, 7.184782, 7.115406, 7.323414, 8.602072, 7.286742, 7.179723, 7.652997, 10.002190, 7.235182, 7.094757, 8.102560, 7.854036, 7.286570
Process 71: 9.946816, 24.700671, 7.478324, 7.301825, 8.605257, 7.280330, 7.045065, 7.316023, 10.415773, 7.181375, 7.201913, 7.268964, 9.174835, 7.168069, 7.216677, 7.820325, 7.642966, 7.186797, 7.118543, 7.312381, 8.605236, 7.283711, 7.187729, 7.654639, 9.981073, 7.256859, 7.092085, 8.099766, 7.853510, 7.288768
Process 72: 9.959062, 24.689541, 7.487982, 7.291833, 8.599546, 7.282928, 7.042199, 7.322331, 10.421525, 7.169789, 7.211370, 7.266446, 9.182988, 7.161837, 7.216701, 7.820993, 7.644438, 7.190153, 7.111480, 7.308568, 8.605550, 7.287419, 7.186343, 7.666874, 9.973993, 7.246664, 7.098801, 8.103272, 7.856507, 7.281371
Process 73: 9.961506, 24.692136, 7.486634, 7.296511, 8.598314, 7.274961, 7.049097, 7.325184, 10.416642, 7.172317, 7.205868, 7.270784, 9.183486, 7.162738, 7.212028, 7.822889, 7.643588, 7.191567, 7.107102, 7.319083, 8.610332, 7.276225, 7.183349, 7.675119, 9.960091, 7.264055, 7.093878, 8.107373, 7.844734, 7.278862
Process 74: 9.975650, 24.694575, 7.475641, 7.292764, 8.597007, 7.287086, 7.032788, 7.326869, 10.433397, 7.158738, 7.210316, 7.265530, 9.199132, 7.163297, 7.211699, 7.812102, 7.652637, 7.186975, 7.106416, 7.324119, 8.595141, 7.286483, 7.193443, 7.669847, 9.968862, 7.247127, 7.089100, 8.111655, 7.841275, 7.280671
Process 75: 9.975811, 24.693820, 7.475605, 7.303400, 8.587482, 7.289654, 7.037770, 7.326092, 10.424587, 7.159753, 7.214485, 7.271064, 9.183141, 7.167931, 7.215765, 7.815179, 7.650604, 7.185612, 7.112771, 7.321081, 8.596547, 7.283809, 7.188321, 7.677149, 9.949333, 7.267342, 7.078648, 8.117316, 7.846374, 7.273772
Process 76: 9.978068, 24.695000, 7.475996, 7.287556, 8.598321, 7.292828, 7.036328, 7.326031, 10.425963, 7.155104, 7.231926, 7.250043, 9.196003, 7.162676, 7.220874, 7.808880, 7.647693, 7.194065, 7.112760, 7.314437, 8.591260, 7.295342, 7.191965, 7.661445, 9.976815, 7.245691, 7.086104, 8.112208, 7.843745, 7.281013
Process 77: 9.977546, 24.691637, 7.477480, 7.303759, 8.588063, 7.287961, 7.038939, 7.327048, 10.421199, 7.163845, 7.211968, 7.275004, 9.183978, 7.163895, 7.217390, 7.816598, 7.645079, 7.192850, 7.109342, 7.318479, 8.595686, 7.286480, 7.188605, 7.676582, 9.949181, 7.268008, 7.077562, 8.116110, 7.848114, 7.275852
Process 78: 9.978416, 24.705797, 7.464945, 7.303007, 8.588879, 7.282108, 7.042896, 7.326015, 10.429460, 7.152761, 7.229871, 7.257621, 9.190351, 7.162037, 7.219277, 7.815212, 7.646321, 7.189913, 7.108861, 7.318817, 8.593071, 7.295591, 7.183212, 7.670777, 9.975465, 7.246339, 7.081259, 8.114098, 7.841775, 7.283554
Process 79: 9.835227, 24.776378, 7.464283, 7.302932, 8.622955, 7.254562, 7.062170, 7.329330, 10.419436, 7.148416, 7.216963, 7.253879, 9.194882, 7.159811, 7.223880, 7.807714, 7.659863, 7.182200, 7.117083, 7.302406, 8.617084, 7.285301, 7.183759, 7.644871, 9.986956, 7.253065, 7.087931, 8.115235, 7.848825, 7.262996
Process 80: 9.922649, 24.693985, 7.480241, 7.283150, 8.616359, 7.276357, 7.046196, 7.327011, 10.431026, 7.145173, 7.221769, 7.245578, 9.202400, 7.159339, 7.218974, 7.809669, 7.670202, 7.168574, 7.123350, 7.309963, 8.602856, 7.288620, 7.188344, 7.639454, 10.002637, 7.243948, 7.086088, 8.107863, 7.855834, 7.255548
Process 81: 9.906103, 24.716287, 7.488983, 7.273668, 8.617948, 7.268995, 7.051788, 7.331676, 10.420799, 7.148999, 7.230471, 7.244087, 9.192628, 7.163354, 7.220001, 7.832381, 7.643758, 7.178034, 7.120816, 7.324374, 8.590672, 7.283691, 7.185249, 7.648788, 9.982271, 7.252941, 7.099041, 8.102980, 7.853003, 7.262933
Process 82: 9.921143, 24.703397, 7.488739, 7.268861, 8.627582, 7.268926, 7.049882, 7.321053, 10.433690, 7.150951, 7.226473, 7.248831, 9.197227, 7.148190, 7.222922, 7.832523, 7.639251, 7.180476, 7.123384, 7.316309, 8.590669, 7.295076, 7.186082, 7.642219, 9.991214, 7.246435, 7.092139, 8.105894, 7.860028, 7.250697
Process 83: 9.952538, 24.694756, 7.497092, 7.253528, 8.638102, 7.273563, 7.046840, 7.317060, 10.422008, 7.187960, 7.194508, 7.246917, 9.190473, 7.168865, 7.221721, 7.818480, 7.644139, 7.178424, 7.124588, 7.319072, 8.610516, 7.274104, 7.190362, 7.638015, 9.976495, 7.258402, 7.107669, 8.101501, 7.868833, 7.232402
Process 84: 9.947806, 24.692201, 7.482807, 7.268599, 8.623694, 7.275759, 7.043323, 7.319574, 10.431201, 7.160202, 7.217464, 7.270886, 9.175466, 7.156089, 7.225907, 7.821904, 7.645569, 7.177456, 7.119487, 7.318297, 8.601278, 7.294907, 7.180092, 7.641033, 9.992886, 7.248063, 7.091090, 8.108501, 7.860686, 7.270688
Process 85: 9.953924, 24.688935, 7.469333, 7.293611, 8.606058, 7.269038, 7.050815, 7.322391, 10.427295, 7.166560, 7.213034, 7.278064, 9.165450, 7.164466, 7.216938, 7.828052, 7.629545, 7.186375, 7.117349, 7.322792, 8.589538, 7.293871, 7.175433, 7.663192, 9.978030, 7.251197, 7.091637, 8.107844, 7.852356, 7.280472
Process 86: 9.911537, 24.734727, 7.481787, 7.276878, 8.625717, 7.274367, 7.046041, 7.332607, 10.405355, 7.174795, 7.209701, 7.270980, 9.173793, 7.163292, 7.212366, 7.827158, 7.639108, 7.184651, 7.114999, 7.323703, 8.598065, 7.290299, 7.179996, 7.653872, 10.003064, 7.232057, 7.096222, 8.098938, 7.859057, 7.285395
Process 87: 9.949649, 24.699647, 7.476554, 7.301496, 8.605710, 7.278235, 7.049347, 7.322127, 10.409776, 7.180442, 7.199591, 7.278056, 9.168785, 7.167052, 7.215894, 7.820619, 7.641407, 7.189967, 7.117203, 7.312784, 8.604199, 7.285290, 7.186955, 7.655181, 9.981530, 7.255025, 7.092448, 8.103325, 7.855715, 7.277584
Process 88: 9.966894, 24.683418, 7.487966, 7.283058, 8.612407, 7.288330, 7.032163, 7.322738, 10.421420, 7.177397, 7.203232, 7.267054, 9.182874, 7.161145, 7.217673, 7.821222, 7.642962, 7.192645, 7.111327, 7.307280, 8.605021, 7.285255, 7.188995, 7.667558, 9.970783, 7.249464, 7.098073, 8.106214, 7.849680, 7.285070
Process 89: 9.965435, 24.690776, 7.482466, 7.300661, 8.594210, 7.281402, 7.046922, 7.317867, 10.420201, 7.172461, 7.206057, 7.266489, 9.190477, 7.160067, 7.210949, 7.825270, 7.642490, 7.192152, 7.106876, 7.319004, 8.610780, 7.274987, 7.184191, 7.675460, 9.962073, 7.260783, 7.090171, 8.111394, 7.839478, 7.286794
Process 90: 9.976756, 24.694021, 7.475675, 7.292300, 8.597691, 7.290538, 7.028313, 7.340663, 10.410565, 7.171423, 7.206408, 7.265647, 9.194702, 7.163192, 7.208168, 7.820329, 7.645287, 7.188294, 7.112371, 7.322481, 8.593426, 7.286221, 7.197065, 7.667388, 9.969112, 7.244592, 7.093776, 8.109310, 7.843016, 7.275208
Process 91: 9.991625, 24.679124, 7.474402, 7.301437, 8.587429, 7.290736, 7.037809, 7.327705, 10.421263, 7.163064, 7.212976, 7.269472, 9.183610, 7.166049, 7.217347, 7.813615, 7.647423, 7.192026, 7.108792, 7.320415, 8.601133, 7.282360, 7.186865, 7.674091, 9.955721, 7.268590, 7.079522, 8.110551, 7.851378, 7.278023
Process 92: 9.993692, 24.682762, 7.471034, 7.291712, 8.600718, 7.286239, 7.038400, 7.326319, 10.426415, 7.158985, 7.225269, 7.260432, 9.183717, 7.165935, 7.213358, 7.814784, 7.647836, 7.191088, 7.112221, 7.318394, 8.590035, 7.293396, 7.186829, 7.666244, 9.979295, 7.244979, 7.086956, 8.106949, 7.849751, 7.281972
Process 93: 9.980631, 24.685435, 7.479036, 7.303117, 8.590619, 7.286186, 7.040154, 7.327077, 10.421825, 7.156631, 7.217329, 7.272368, 9.184806, 7.165586, 7.215920, 7.819630, 7.641297, 7.196524, 7.105743, 7.321115, 8.595604, 7.293583, 7.181276, 7.676776, 9.949994, 7.267328, 7.079987, 8.114162, 7.847503, 7.277769
Process 94: 9.981092, 24.701758, 7.468165, 7.294524, 8.595360, 7.286433, 7.038040, 7.324376, 10.430176, 7.160918, 7.222572, 7.259116, 9.189578, 7.161365, 7.215637, 7.819822, 7.645825, 7.189696, 7.109389, 7.317065, 8.595395, 7.293616, 7.186963, 7.675444, 9.968541, 7.245774, 7.081830, 8.117079, 7.840573, 7.281769
Process 95: 9.864072, 24.750531, 7.458944, 7.302481, 8.622828, 7.254699, 7.062085, 7.326932, 10.418028, 7.161556, 7.208482, 7.258194, 9.189711, 7.162699, 7.223402, 7.808785, 7.650666, 7.184211, 7.116726, 7.310487, 8.604105, 7.290329, 7.183531, 7.647318, 9.984032, 7.253273, 7.088551, 8.115212, 7.849915, 7.263401
Process 96: 9.917422, 24.699196, 7.478524, 7.287836, 8.612796, 7.275852, 7.046717, 7.335466, 10.428360, 7.147724, 7.215773, 7.247383, 9.200086, 7.158659, 7.218383, 7.810296, 7.671842, 7.172191, 7.118676, 7.313156, 8.597470, 7.289465, 7.188563, 7.640846, 10.002334, 7.244775, 7.087326, 8.105365, 7.861118, 7.253050
Process 97: 9.902406, 24.719577, 7.483142, 7.277836, 8.622192, 7.269507, 7.053893, 7.324492, 10.427581, 7.152292, 7.225594, 7.240933, 9.194591, 7.159925, 7.223064, 7.831695, 7.643079, 7.180920, 7.118668, 7.324288, 8.598650, 7.278827, 7.182945, 7.651774, 9.979956, 7.257544, 7.092011, 8.111608, 7.854154, 7.254421
Process 98: 9.925650, 24.701650, 7.479512, 7.283518, 8.622086, 7.272282, 7.045739, 7.326529, 10.426665, 7.158792, 7.221792, 7.247084, 9.200084, 7.145206, 7.222281, 7.835798, 7.638615, 7.181564, 7.122403, 7.314018, 8.594007, 7.297350, 7.180333, 7.643378, 9.990190, 7.250788, 7.091098, 8.111923, 7.855327, 7.251297
Process 99: 9.935639, 24.708481, 7.489796, 7.263787, 8.630713, 7.276893, 7.048661, 7.314959, 10.427637, 7.181947, 7.196662, 7.250070, 9.190885, 7.162072, 7.226901, 7.826110, 7.638089, 7.174877, 7.123350, 7.321666, 8.608541, 7.278537, 7.179730, 7.645175, 9.978447, 7.260460, 7.102904, 8.106157, 7.863703, 7.235687
Process 100: 9.934229, 24.705627, 7.474011, 7.279372, 8.622125, 7.278215, 7.041438, 7.328273, 10.425056, 7.161181, 7.217501, 7.273001, 9.172004, 7.160065, 7.220743, 7.823603, 7.642332, 7.177765, 7.123797, 7.316558, 8.601213, 7.294527, 7.178509, 7.647976, 9.986937, 7.247255, 7.090796, 8.111634, 7.857391, 7.271154
Process 101: 9.944922, 24.692717, 7.468399, 7.296057, 8.619895, 7.270316, 7.044870, 7.323329, 10.423916, 7.172017, 7.209986, 7.278400, 9.166241, 7.168543, 7.213142, 7.831677, 7.633641, 7.186363, 7.114909, 7.318956, 8.602895, 7.290637, 7.169961, 7.666610, 9.972987, 7.251459, 7.096808, 8.106783, 7.860661, 7.265689
Process 102: 9.904491, 24.741722, 7.478123, 7.279486, 8.631934, 7.272784, 7.045563, 7.320896, 10.416826, 7.174281, 7.208875, 7.276095, 9.172371, 7.159656, 7.211644, 7.828976, 7.635524, 7.188022, 7.113420, 7.322589, 8.603147, 7.289939, 7.179136, 7.650438, 10.004533, 7.228795, 7.105871, 8.094621, 7.859363, 7.291806
Process 103: 9.948242, 24.699993, 7.467032, 7.313863, 8.606538, 7.275189, 7.049981, 7.318827, 10.412514, 7.178719, 7.200425, 7.278675, 9.172391, 7.163532, 7.216068, 7.827258, 7.639887, 7.189794, 7.116231, 7.308691, 8.605542, 7.281332, 7.189974, 7.657127, 9.980131, 7.261399, 7.081778, 8.111083, 7.845038, 7.291896
Process 104: 9.962984, 24.687133, 7.480524, 7.299703, 8.599181, 7.283517, 7.042119, 7.321404, 10.424952, 7.170357, 7.214411, 7.261813, 9.182168, 7.160412, 7.218421, 7.823114, 7.643487, 7.191341, 7.111571, 7.305534, 8.605346, 7.290343, 7.186490, 7.664530, 9.977830, 7.242205, 7.098110, 8.111517, 7.846274, 7.284731
Process 105: 9.962325, 24.695314, 7.471862, 7.307933, 8.599721, 7.284290, 7.040433, 7.318440, 10.429797, 7.162684, 7.207280, 7.274205, 9.181879, 7.172935, 7.200042, 7.833112, 7.640841, 7.186680, 7.107005, 7.318421, 8.607236, 7.280473, 7.184203, 7.673488, 9.958903, 7.263613, 7.087890, 8.122102, 7.832226, 7.287088
Process 106: 9.971933, 24.700542, 7.470148, 7.297317, 8.597089, 7.287967, 7.035854, 7.330674, 10.425207, 7.149794, 7.223231, 7.265648, 9.196250, 7.162948, 7.213255, 7.815608, 7.650586, 7.184546, 7.108784, 7.326051, 8.590981, 7.291199, 7.192692, 7.670229, 9.971239, 7.238351, 7.091359, 8.113078, 7.838723, 7.284001
Process 107: 9.977830, 24.698341, 7.465957, 7.306283, 8.590955, 7.286921, 7.041832, 7.323035, 10.426078, 7.157322, 7.215659, 7.269824, 9.189154, 7.162416, 7.216954, 7.814920, 7.649862, 7.190843, 7.104443, 7.321529, 8.600175, 7.286805, 7.184601, 7.672455, 9.963005, 7.260929, 7.076939, 8.117044, 7.849008, 7.273063
Process 108: 9.980089, 24.700426, 7.464606, 7.301400, 8.594325, 7.286623, 7.040059, 7.324129, 10.429324, 7.155077, 7.229404, 7.254756, 9.191925, 7.163409, 7.217367, 7.815755, 7.646186, 7.191675, 7.108999, 7.321324, 8.587913, 7.297162, 7.187564, 7.672648, 9.969066, 7.245999, 7.083644, 8.114041, 7.841612, 7.281989
Process 109: 9.978112, 24.696101, 7.467337, 7.307038, 8.593566, 7.284371, 7.045662, 7.321014, 10.426019, 7.159023, 7.214083, 7.270005, 9.187389, 7.163537, 7.215942, 7.823383, 7.640762, 7.192827, 7.105314, 7.320326, 8.597377, 7.290293, 7.182885, 7.678856, 9.954093, 7.262948, 7.077884, 8.117289, 7.846772, 7.275377
Process 110: 9.988562, 24.699813, 7.463939, 7.296212, 8.592363, 7.287177, 7.040262, 7.323510, 10.429517, 7.155245, 7.229801, 7.262973, 9.186979, 7.161138, 7.215467, 7.820438, 7.644538, 7.185838, 7.113623, 7.317005, 8.592238, 7.295614, 7.190157, 7.669266, 9.969662, 7.250054, 7.084547, 8.109376, 7.838209, 7.287165
Process 111: 9.853037, 24.762154, 7.465429, 7.300222, 8.631092, 7.248493, 7.068285, 7.321692, 10.417489, 7.160968, 7.207598, 7.255225, 9.193688, 7.159749, 7.223710, 7.807677, 7.658608, 7.188940, 7.113513, 7.303920, 8.609064, 7.290827, 7.186116, 7.642984, 9.985926, 7.255564, 7.084394, 8.114657, 7.851440, 7.266228
Process 112: 9.958576, 24.727456, 7.461104, 7.287261, 8.618592, 7.277033, 7.043494, 7.327512, 10.424961, 7.153643, 7.227399, 7.252728, 9.199348, 7.159051, 7.210935, 7.829986, 7.638276, 7.185748, 7.118898, 7.316014, 8.589704, 7.298364, 7.186925, 7.645546, 9.995486, 7.235335, 7.096037, 8.109230, 7.848407, 7.270815
Process 113: 9.950568, 24.739475, 7.486184, 7.274821, 8.624697, 7.269506, 7.048004, 7.328738, 10.423335, 7.180710, 7.202032, 7.248984, 9.193997, 7.153111, 7.235512, 7.812478, 7.650953, 7.173935, 7.122040, 7.326169, 8.602883, 7.270423, 7.194037, 7.633417, 9.989318, 7.253730, 7.106298, 8.102651, 7.858687, 7.250603
Process 114: 9.967631, 24.729847, 7.481213, 7.274150, 8.620818, 7.273736, 7.046119, 7.328162, 10.422031, 7.184808, 7.200135, 7.256970, 9.183866, 7.157127, 7.231895, 7.817206, 7.646839, 7.171861, 7.125087, 7.329870, 8.593863, 7.276729, 7.195645, 7.645931, 9.973928, 7.256988, 7.103125, 8.107197, 7.860742, 7.245906
Process 115: 9.978264, 24.724539, 7.476032, 7.273162, 8.623948, 7.274771, 7.046023, 7.325967, 10.420213, 7.182366, 7.206448, 7.250223, 9.184927, 7.160861, 7.232920, 7.816087, 7.646357, 7.173680, 7.123972, 7.328445, 8.596340, 7.276010, 7.192212, 7.635861, 9.987051, 7.254023, 7.105606, 8.104404, 7.859149, 7.255954
Process 116: 9.987037, 24.718951, 7.476672, 7.270916, 8.623319, 7.271048, 7.054001, 7.321108, 10.420922, 7.186108, 7.205566, 7.255009, 9.177948, 7.161923, 7.229124, 7.819058, 7.645688, 7.172242, 7.125945, 7.326708, 8.597483, 7.276957, 7.192914, 7.641048, 9.988943, 7.246895, 7.103219, 8.106937, 7.862208, 7.253738
Process 117: 9.983453, 24.721268, 7.475363, 7.290015, 8.606996, 7.274983, 7.049968, 7.322503, 10.420808, 7.181433, 7.207729, 7.251561, 9.182927, 7.161975, 7.229078, 7.822077, 7.641896, 7.177947, 7.121058, 7.325899, 8.597818, 7.278433, 7.192960, 7.646836, 9.982053, 7.286469, 7.063559, 8.103995, 7.862916, 7.267366
Process 118: 9.995006, 24.715764, 7.472022, 7.287100, 8.609825, 7.269914, 7.055543, 7.317100, 10.421991, 7.185255, 7.205831, 7.260425, 9.178979, 7.157943, 7.229056, 7.818028, 7.648348, 7.181670, 7.114961, 7.329646, 8.595632, 7.275212, 7.197804, 7.644640, 9.983106, 7.283269, 7.062500, 8.107174, 7.861335, 7.264668
Process 119: 9.997438, 24.714669, 7.471593, 7.292760, 8.599572, 7.272279, 7.054328, 7.321664, 10.422805, 7.179162, 7.208787, 7.256154, 9.187004, 7.161927, 7.222062, 7.823088, 7.640000, 7.184831, 7.116075, 7.322745, 8.598222, 7.277622, 7.196431, 7.658013, 9.969966, 7.284643, 7.063446, 8.113086, 7.850942, 7.268915
Process 120: 10.001343, 24.713658, 7.470030, 7.291567, 8.603508, 7.266356, 7.055948, 7.324113, 10.418975, 7.182587, 7.208126, 7.259962, 9.187030, 7.158183, 7.220163, 7.821648, 7.642927, 7.184954, 7.116031, 7.323044, 8.598040, 7.277894, 7.196101, 7.663931, 9.965045, 7.283919, 7.060898, 8.113161, 7.853920, 7.265127
Process 121: 9.999309, 24.713945, 7.473604, 7.292827, 8.603955, 7.272641, 7.048353, 7.327251, 10.423368, 7.173295, 7.211677, 7.258025, 9.187035, 7.161484, 7.219444, 7.820016, 7.646366, 7.190607, 7.108971, 7.321443, 8.596679, 7.283116, 7.192841, 7.663232, 9.966823, 7.279922, 7.065957, 8.114428, 7.848722, 7.266633
Process 122: 10.003176, 24.713971, 7.470989, 7.294173, 8.606070, 7.272148, 7.048108, 7.325500, 10.422257, 7.173768, 7.210989, 7.259490, 9.184759, 7.161410, 7.221323, 7.820095, 7.646911, 7.188254, 7.113747, 7.320450, 8.596472, 7.280244, 7.194816, 7.661030, 9.970352, 7.276722, 7.065606, 8.113370, 7.851251, 7.267959
Process 123: 10.011952, 24.708753, 7.466821, 7.295436, 8.601691, 7.275937, 7.048449, 7.326593, 10.423969, 7.169639, 7.213769, 7.256641, 9.188854, 7.161136, 7.221324, 7.822683, 7.639607, 7.190742, 7.114574, 7.316000, 8.597073, 7.283325, 7.193428, 7.663429, 9.971827, 7.274000, 7.067822, 8.111868, 7.850750, 7.267920
Process 124: 10.011582, 24.709163, 7.468021, 7.295989, 8.603004, 7.273017, 7.050949, 7.319632, 10.425066, 7.173537, 7.212281, 7.260721, 9.188701, 7.157475, 7.221589, 7.821039, 7.643965, 7.187690, 7.115260, 7.317132, 8.595864, 7.282577, 7.193359, 7.664146, 9.972102, 7.273838, 7.067253, 8.113774, 7.849999, 7.266931
Process 125: 10.014516, 24.707350, 7.466094, 7.294412, 8.602483, 7.275304, 7.049651, 7.326085, 10.420516, 7.172424, 7.216065, 7.257964, 9.185930, 7.160362, 7.223666, 7.822053, 7.637706, 7.190854, 7.117369, 7.316114, 8.594630, 7.282958, 7.192315, 7.667998, 9.967033, 7.273112, 7.070272, 8.111280, 7.851373, 7.270940
Process 126: 10.015588, 24.711612, 7.464347, 7.293420, 8.604354, 7.274909, 7.049094, 7.325914, 10.419423, 7.174603, 7.214971, 7.258014, 9.187084, 7.158547, 7.222397, 7.822078, 7.642911, 7.188046, 7.112400, 7.319838, 8.595726, 7.282044, 7.194945, 7.670033, 9.961002, 7.272928, 7.071191, 8.114883, 7.849961, 7.268070
Process 127: 9.949365, 24.719430, 7.471598, 7.282871, 8.627920, 7.275495, 7.045675, 7.325645, 10.421736, 7.155835, 7.223191, 7.254772, 9.188925, 7.164272, 7.210652, 7.834883, 7.636210, 7.182357, 7.122211, 7.318766, 8.594453, 7.294635, 7.179281, 7.646197, 10.002803, 7.234444, 7.095522, 8.107573, 7.851400, 7.269143
