pblas_cm
Process 0: 2.951033, 2.588612, 2.557052, 2.222382, 2.262676, 2.243091, 2.219792, 2.214726, 2.245118, 2.187566, 2.179935, 2.193834, 2.219644, 2.266167, 2.508061, 2.484274, 2.471291, 2.393305, 2.195231, 2.212255, 2.207671, 2.207820, 2.217753, 2.179310, 2.202576, 2.187775, 2.181294, 2.202307, 2.312465, 2.480832
Process 1: 2.556639, 2.608508, 2.559399, 2.305788, 2.236419, 2.256562, 2.226884, 2.214481, 2.231895, 2.207133, 2.186152, 2.184897, 2.214476, 2.211948, 2.471424, 2.494828, 2.486865, 2.444277, 2.209396, 2.218528, 2.200090, 2.189027, 2.243840, 2.179746, 2.194802, 2.193117, 2.189701, 2.177106, 2.252357, 2.471219
Process 2: 3.248050, 2.613354, 2.552594, 2.251924, 2.233845, 2.268605, 2.223208, 2.205096, 2.238639, 2.202231, 2.180456, 2.193642, 2.219163, 2.248159, 2.502758, 2.495063, 2.472109, 2.404362, 2.189997, 2.218548, 2.205614, 2.200729, 2.226829, 2.179507, 2.189497, 2.200732, 2.181485, 2.196490, 2.304940, 2.475780
Process 3: 3.248578, 2.619181, 2.543255, 2.251986, 2.239701, 2.264172, 2.221807, 2.209490, 2.241080, 2.195468, 2.180903, 2.193604, 2.219480, 2.252164, 2.499884, 2.504714, 2.463411, 2.403031, 2.192291, 2.215386, 2.207031, 2.202530, 2.223651, 2.179254, 2.193166, 2.197309, 2.181212, 2.200742, 2.298847, 2.479543
