pblas_cm
Process 0: 3.886679, 3.431237, 3.340628, 3.398734, 3.461269, 3.290076, 3.232318, 3.170291, 3.283639, 3.312591, 3.297799, 3.209256, 3.165118, 3.278857, 3.218956, 3.233541, 3.147806, 3.214783, 3.166846, 3.238618, 3.254170, 3.217781, 3.103857, 3.109304, 3.071967, 3.265551, 3.075376, 3.131749, 3.140275, 3.146267
Process 1: 4.119720, 3.504761, 3.304917, 3.440681, 3.503552, 3.269837, 3.253390, 3.158737, 3.286766, 3.299220, 3.313399, 3.214782, 3.185841, 3.279450, 3.215192, 3.160179, 3.219337, 3.215968, 3.146910, 3.239760, 3.265956, 3.222992, 3.109531, 3.085373, 3.087145, 3.165731, 3.164092, 3.128180, 3.133875, 3.158409
Process 2: 4.116020, 3.526467, 3.289582, 3.440203, 3.521466, 3.246115, 3.264468, 3.153484, 3.295160, 3.282801, 3.316609, 3.233412, 3.162450, 3.281546, 3.217890, 3.176837, 3.205220, 3.226927, 3.151299, 3.218785, 3.295332, 3.203263, 3.095322, 3.086727, 3.090777, 3.166138, 3.160215, 3.133005, 3.138177, 3.132629
Process 3: 4.113550, 3.493568, 3.316241, 3.443754, 3.488973, 3.280564, 3.252769, 3.165485, 3.284320, 3.295088, 3.303715, 3.237909, 3.162684, 3.296612, 3.194246, 3.177850, 3.216101, 3.214883, 3.148783, 3.237867, 3.266149, 3.216071, 3.121988, 3.086252, 3.086095, 3.161416, 3.165143, 3.127943, 3.132132, 3.149659
Process 4: 4.108974, 3.523128, 3.300593, 3.447899, 3.509939, 3.267188, 3.241883, 3.188663, 3.274385, 3.298676, 3.288130, 3.205924, 3.190254, 3.282450, 3.212701, 3.180643, 3.200962, 3.201143, 3.184436, 3.203295, 3.286444, 3.225424, 3.095063, 3.085403, 3.091763, 3.161743, 3.167040, 3.129757, 3.138311, 3.137123
Process 5: 4.119797, 3.508467, 3.298378, 3.454117, 3.493038, 3.270462, 3.252071, 3.172353, 3.287282, 3.285001, 3.313888, 3.224751, 3.174825, 3.283130, 3.208765, 3.164103, 3.223755, 3.211515, 3.155200, 3.230810, 3.275767, 3.213864, 3.118145, 3.089982, 3.087547, 3.164201, 3.162406, 3.128801, 3.131475, 3.152775
Process 6: 4.116569, 3.531325, 3.281335, 3.454983, 3.507821, 3.269009, 3.241989, 3.185830, 3.277052, 3.296705, 3.297868, 3.225883, 3.182276, 3.281625, 3.212731, 3.164239, 3.215762, 3.212617, 3.164519, 3.218994, 3.283374, 3.217824, 3.095968, 3.090940, 3.089278, 3.165118, 3.163415, 3.130350, 3.138367, 3.137404
Process 7: 4.112526, 3.509959, 3.298296, 3.460023, 3.490079, 3.272287, 3.251484, 3.174679, 3.284841, 3.283812, 3.311057, 3.230155, 3.170447, 3.285876, 3.209667, 3.173283, 3.213986, 3.210627, 3.155730, 3.236098, 3.268025, 3.214148, 3.117466, 3.094171, 3.084224, 3.165794, 3.163888, 3.126390, 3.133282, 3.151853
Process 8: 4.113391, 3.535118, 3.282595, 3.452772, 3.509642, 3.267378, 3.244266, 3.180113, 3.281769, 3.291037, 3.304576, 3.220510, 3.187105, 3.277918, 3.215755, 3.163794, 3.217460, 3.205863, 3.164470, 3.225539, 3.283903, 3.209072, 3.108078, 3.086033, 3.091243, 3.161664, 3.166454, 3.128831, 3.140456, 3.136142
Process 9: 4.122699, 3.514293, 3.296736, 3.453864, 3.495404, 3.272408, 3.248951, 3.173935, 3.285929, 3.288895, 3.308946, 3.223530, 3.184288, 3.274112, 3.209112, 3.162395, 3.227269, 3.210339, 3.154113, 3.233103, 3.274036, 3.214820, 3.116196, 3.091447, 3.087794, 3.159449, 3.169786, 3.126468, 3.131496, 3.152464
Process 10: 4.118252, 3.527371, 3.292946, 3.450044, 3.504960, 3.267765, 3.245167, 3.179772, 3.282059, 3.296044, 3.298036, 3.226791, 3.181379, 3.279851, 3.211047, 3.166914, 3.217624, 3.209209, 3.160884, 3.227563, 3.278520, 3.214916, 3.105299, 3.089411, 3.089346, 3.161754, 3.166812, 3.130061, 3.141459, 3.133897
Process 11: 4.119607, 3.505034, 3.312920, 3.451200, 3.494228, 3.271445, 3.249874, 3.174194, 3.286123, 3.288554, 3.304541, 3.230966, 3.181798, 3.275599, 3.210502, 3.174682, 3.209854, 3.212716, 3.153422, 3.234305, 3.272485, 3.216259, 3.114180, 3.095536, 3.084624, 3.154541, 3.174003, 3.126908, 3.133624, 3.152290
Process 12: 4.470937, 3.491411, 3.289283, 3.456678, 3.495924, 3.265952, 3.249982, 3.188354, 3.275192, 3.293704, 3.306595, 3.220082, 3.171129, 3.282505, 3.214406, 3.196800, 3.187837, 3.212914, 3.161004, 3.228482, 3.272330, 3.217570, 3.106711, 3.109619, 3.072162, 3.177514, 3.163247, 3.130322, 3.135249, 3.152038
Process 13: 4.465621, 3.496546, 3.292353, 3.452057, 3.493484, 3.269884, 3.244377, 3.192695, 3.274115, 3.297330, 3.300319, 3.221210, 3.172379, 3.284403, 3.210980, 3.202953, 3.180725, 3.215734, 3.159055, 3.231649, 3.271774, 3.215240, 3.110503, 3.107903, 3.072509, 3.183331, 3.156327, 3.131272, 3.136084, 3.149993
Process 14: 4.473418, 3.491191, 3.288127, 3.457521, 3.494869, 3.266036, 3.249155, 3.189965, 3.276344, 3.291892, 3.303572, 3.220357, 3.172758, 3.286282, 3.210734, 3.198230, 3.185890, 3.215034, 3.159098, 3.230923, 3.273477, 3.214851, 3.106643, 3.108557, 3.073296, 3.178882, 3.162163, 3.130107, 3.134336, 3.152596
Process 15: 4.463773, 3.498731, 3.295288, 3.447048, 3.495036, 3.270634, 3.244206, 3.191354, 3.273080, 3.299814, 3.300043, 3.221705, 3.170695, 3.284081, 3.212200, 3.201531, 3.182918, 3.214918, 3.159803, 3.230421, 3.271767, 3.216008, 3.110489, 3.107734, 3.072713, 3.179386, 3.161169, 3.130453, 3.135402, 3.150839
