[eu-a2p-253:47679:0:47679]      cma_ep.c:81   process_vm_readv(pid=47649 {0x2b6d8540b010,524288}-->{0x2b8718180cb0,524288}) returned -1: No such process
==== backtrace (tid:  47679) ====
 0  /cluster/spack/apps/linux-centos7-x86_64/gcc-9.3.0/ucx-1.12.1-xfljgpcc4jht7wamy2hjr2mdvn7y3u5g/lib/libucs.so.0(ucs_handle_error+0x2a4) [0x2b6d676e2574]
 1  /cluster/spack/apps/linux-centos7-x86_64/gcc-9.3.0/ucx-1.12.1-xfljgpcc4jht7wamy2hjr2mdvn7y3u5g/lib/libucs.so.0(ucs_fatal_error_message+0x50) [0x2b6d676df310]
 2  /cluster/spack/apps/linux-centos7-x86_64/gcc-9.3.0/ucx-1.12.1-xfljgpcc4jht7wamy2hjr2mdvn7y3u5g/lib/libucs.so.0(ucs_log_default_handler+0xea0) [0x2b6d676e4100]
 3  /cluster/spack/apps/linux-centos7-x86_64/gcc-9.3.0/ucx-1.12.1-xfljgpcc4jht7wamy2hjr2mdvn7y3u5g/lib/libucs.so.0(ucs_log_dispatch+0xd1) [0x2b6d676e42b1]
 4  /cluster/spack/apps/linux-centos7-x86_64/gcc-9.3.0/ucx-1.12.1-xfljgpcc4jht7wamy2hjr2mdvn7y3u5g/lib/ucx/libuct_cma.so.0(+0x2c93) [0x2b6d6f009c93]
 5  /cluster/spack/apps/linux-centos7-x86_64/gcc-9.3.0/ucx-1.12.1-xfljgpcc4jht7wamy2hjr2mdvn7y3u5g/lib/ucx/libuct_cma.so.0(uct_cma_ep_tx+0x25c) [0x2b6d6f00a13c]
 6  /cluster/spack/apps/linux-centos7-x86_64/gcc-9.3.0/ucx-1.12.1-xfljgpcc4jht7wamy2hjr2mdvn7y3u5g/lib/libuct.so.0(uct_scopy_ep_progress_tx+0x63) [0x2b6d67488203]
 7  /cluster/spack/apps/linux-centos7-x86_64/gcc-9.3.0/ucx-1.12.1-xfljgpcc4jht7wamy2hjr2mdvn7y3u5g/lib/libucs.so.0(ucs_arbiter_dispatch_nonempty+0xee) [0x2b6d676d440e]
 8  /cluster/spack/apps/linux-centos7-x86_64/gcc-9.3.0/ucx-1.12.1-xfljgpcc4jht7wamy2hjr2mdvn7y3u5g/lib/libuct.so.0(uct_scopy_iface_progress+0x59) [0x2b6d67487b99]
 9  /cluster/spack/apps/linux-centos7-x86_64/gcc-9.3.0/ucx-1.12.1-xfljgpcc4jht7wamy2hjr2mdvn7y3u5g/lib/libucp.so.0(ucp_worker_progress+0x7a) [0x2b6d6717e2aa]
10  /cluster/spack/apps/linux-centos7-x86_64/gcc-9.3.0/openmpi-4.1.4-ce3rybsut3hyqo2i2sm5qwu2muxqny3x/lib/libmpi.so.40(mca_pml_ucx_recv+0x11f) [0x2b6d652cff8f]
11  /cluster/spack/apps/linux-centos7-x86_64/gcc-9.3.0/openmpi-4.1.4-ce3rybsut3hyqo2i2sm5qwu2muxqny3x/lib/libmpi.so.40(MPI_Recv+0xf5) [0x2b6d6514ce45]
12  /cluster/scratch/galoisi/DPHPC/2022_hs_polybench_parallelization/src/seidel/OUT/./mpi_insiderank_serial.out() [0x401e48]
13  /lib64/libc.so.6(__libc_start_main+0xf5) [0x2b6d65a44555]
14  /cluster/scratch/galoisi/DPHPC/2022_hs_polybench_parallelization/src/seidel/OUT/./mpi_insiderank_serial.out() [0x401f8c]
=================================
[eu-a2p-253:47679] *** Process received signal ***
[eu-a2p-253:47679] Signal: Aborted (6)
[eu-a2p-253:47679] Signal code:  (-6)
[eu-a2p-253:47679] [ 0] /lib64/libpthread.so.0(+0xf630)[0x2b6d65815630]
[eu-a2p-253:47679] [ 1] /lib64/libc.so.6(gsignal+0x37)[0x2b6d65a58387]
[eu-a2p-253:47679] [ 2] /lib64/libc.so.6(abort+0x148)[0x2b6d65a59a78]
[eu-a2p-253:47679] [ 3] /cluster/spack/apps/linux-centos7-x86_64/gcc-9.3.0/ucx-1.12.1-xfljgpcc4jht7wamy2hjr2mdvn7y3u5g/lib/libucs.so.0(ucs_fatal_error_message+0x55)[0x2b6d676df315]
[eu-a2p-253:47679] [ 4] /cluster/spack/apps/linux-centos7-x86_64/gcc-9.3.0/ucx-1.12.1-xfljgpcc4jht7wamy2hjr2mdvn7y3u5g/lib/libucs.so.0(ucs_log_default_handler+0xea0)[0x2b6d676e4100]
[eu-a2p-253:47679] [ 5] /cluster/spack/apps/linux-centos7-x86_64/gcc-9.3.0/ucx-1.12.1-xfljgpcc4jht7wamy2hjr2mdvn7y3u5g/lib/libucs.so.0(ucs_log_dispatch+0xd1)[0x2b6d676e42b1]
[eu-a2p-253:47679] [ 6] /cluster/spack/apps/linux-centos7-x86_64/gcc-9.3.0/ucx-1.12.1-xfljgpcc4jht7wamy2hjr2mdvn7y3u5g/lib/ucx/libuct_cma.so.0(+0x2c93)[0x2b6d6f009c93]
[eu-a2p-253:47679] [ 7] /cluster/spack/apps/linux-centos7-x86_64/gcc-9.3.0/ucx-1.12.1-xfljgpcc4jht7wamy2hjr2mdvn7y3u5g/lib/ucx/libuct_cma.so.0(uct_cma_ep_tx+0x25c)[0x2b6d6f00a13c]
[eu-a2p-253:47679] [ 8] /cluster/spack/apps/linux-centos7-x86_64/gcc-9.3.0/ucx-1.12.1-xfljgpcc4jht7wamy2hjr2mdvn7y3u5g/lib/libuct.so.0(uct_scopy_ep_progress_tx+0x63)[0x2b6d67488203]
[eu-a2p-253:47679] [ 9] /cluster/spack/apps/linux-centos7-x86_64/gcc-9.3.0/ucx-1.12.1-xfljgpcc4jht7wamy2hjr2mdvn7y3u5g/lib/libucs.so.0(ucs_arbiter_dispatch_nonempty+0xee)[0x2b6d676d440e]
[eu-a2p-253:47679] [10] /cluster/spack/apps/linux-centos7-x86_64/gcc-9.3.0/ucx-1.12.1-xfljgpcc4jht7wamy2hjr2mdvn7y3u5g/lib/libuct.so.0(uct_scopy_iface_progress+0x59)[0x2b6d67487b99]
[eu-a2p-253:47679] [11] /cluster/spack/apps/linux-centos7-x86_64/gcc-9.3.0/ucx-1.12.1-xfljgpcc4jht7wamy2hjr2mdvn7y3u5g/lib/libucp.so.0(ucp_worker_progress+0x7a)[0x2b6d6717e2aa]
[eu-a2p-253:47679] [12] /cluster/spack/apps/linux-centos7-x86_64/gcc-9.3.0/openmpi-4.1.4-ce3rybsut3hyqo2i2sm5qwu2muxqny3x/lib/libmpi.so.40(mca_pml_ucx_recv+0x11f)[0x2b6d652cff8f]
[eu-a2p-253:47679] [13] /cluster/spack/apps/linux-centos7-x86_64/gcc-9.3.0/openmpi-4.1.4-ce3rybsut3hyqo2i2sm5qwu2muxqny3x/lib/libmpi.so.40(MPI_Recv+0xf5)[0x2b6d6514ce45]
[eu-a2p-253:47679] [14] /cluster/scratch/galoisi/DPHPC/2022_hs_polybench_parallelization/src/seidel/OUT/./mpi_insiderank_serial.out[0x401e48]
[eu-a2p-253:47679] [15] /lib64/libc.so.6(__libc_start_main+0xf5)[0x2b6d65a44555]
[eu-a2p-253:47679] [16] /cluster/scratch/galoisi/DPHPC/2022_hs_polybench_parallelization/src/seidel/OUT/./mpi_insiderank_serial.out[0x401f8c]
[eu-a2p-253:47679] *** End of error message ***
slurmstepd: error: Detected 3 oom-kill event(s) in StepId=4333080.0. Some of your processes may have been killed by the cgroup out-of-memory handler.
srun: error: eu-a2p-253: task 0: Out Of Memory
slurmstepd: error: *** STEP 4333080.0 ON eu-a2p-253 CANCELLED AT 2022-12-15T17:29:42 DUE TO TIME LIMIT ***
srun: Job step aborted: Waiting up to 32 seconds for job step to finish.
slurmstepd: error: *** JOB 4333080 ON eu-a2p-253 CANCELLED AT 2022-12-15T17:29:42 DUE TO TIME LIMIT ***
slurmstepd: error: Detected 3 oom-kill event(s) in StepId=4333080.batch. Some of your processes may have been killed by the cgroup out-of-memory handler.
