MPI_insiderank_serial
Process 0: 10.012731, 9.707605, 9.633053, 9.781309, 9.614460, 9.655096, 9.591944, 9.615817, 9.635700, 9.613824, 9.599776, 9.658645, 9.603518, 9.610062, 9.634718, 9.620376, 9.590585, 9.653018, 9.589808, 9.596002, 9.633859, 9.607936, 9.605292, 9.598688, 9.661868, 9.601767, 9.604273, 9.654667, 9.618945, 9.594635
Process 1: 9.790339, 9.482807, 9.410551, 9.545685, 9.401628, 9.419096, 9.365689, 9.402519, 9.409296, 9.376872, 9.373233, 9.445893, 9.377426, 9.370858, 9.408408, 9.407883, 9.364410, 9.396747, 9.363917, 9.369363, 9.420647, 9.380886, 9.368319, 9.372158, 9.449197, 9.375564, 9.365273, 9.428389, 9.406828, 9.368742
Process 2: 9.894486, 9.590818, 9.519186, 9.667010, 9.500708, 9.540510, 9.477457, 9.501684, 9.521255, 9.498647, 9.485010, 9.544062, 9.489299, 9.493097, 9.520420, 9.506303, 9.476462, 9.520987, 9.475552, 9.481616, 9.519749, 9.493143, 9.489935, 9.484166, 9.547326, 9.487154, 9.486954, 9.540428, 9.505054, 9.480266
Process 3: 10.015789, 9.709712, 9.635180, 9.783454, 9.616562, 9.657185, 9.594051, 9.617888, 9.637827, 9.615853, 9.601862, 9.660753, 9.605687, 9.612172, 9.636932, 9.622556, 9.592764, 9.655156, 9.591989, 9.598147, 9.636018, 9.610104, 9.607482, 9.600910, 9.664089, 9.603985, 9.606368, 9.656777, 9.621031, 9.596731
